%!PS-Adobe-2.0 EPSF-2.0
%% This is a Stata generated postscript file
%%BoundingBox: 0 0 396 288
%%HiResBoundingBox: 0.000 0.000 396.000 288.000
%%DocumentNeededResources: font Helvetica
/xratio 0.012375 def
/yratio 0.012375 def
/Sbgfill {
	/y1 exch def
	/x1 exch def
	/y0 exch def
	/x0 exch def
	x0 y0 moveto
	x0 y1 lineto x1 y1 lineto x1 y0 lineto x0 y0 lineto
	fill
} def
/Spt {
	yratio mul
	/yp exch def
	xratio mul
	/xp exch def
	Slrgb setrgbcolor
	newpath
	xp yp moveto
	xp Slw add yp
	lineto
	currentlinecap
	1 setlinecap
	stroke
	setlinecap
} def
/Sln {
	yratio mul
	/y1p exch def
	xratio mul
	/x1p exch def
	yratio mul
	/y0p exch def
	xratio mul
	/x0p exch def
	Slw setlinewidth
	Slrgb setrgbcolor
	x0p y0p M x1p y1p lineto S
} def
/Scrv {
	yratio mul
	/y3p exch def
	xratio mul
	/x3p exch def
	yratio mul
	/y2p exch def
	xratio mul
	/x2p exch def
	yratio mul
	/y1p exch def
	xratio mul
	/x1p exch def
	Slw setlinewidth
	Slrgb setrgbcolor
	x1p y1p x2p y2p x3p y3p curveto
	stroke
} def
/Stxtl {
	/sp exch def
	yratio mul
	/sizep exch def
	dup
	/anglep exch def
	0 exch sub
	/angle2p exch def
	yratio mul
	/y0p exch def
	xratio mul
	/x0p exch def
	Strgb setrgbcolor
	x0p y0p M anglep rotate sizep fntsize sp show stroke angle2p rotate
} def
/Stxtc {
	/sp exch def
	yratio mul
	/sizep exch def
	dup
	/anglep exch def
	0 exch sub
	/angle2p exch def
	yratio mul
	/y0p exch def
	xratio mul
	/x0p exch def
	Strgb setrgbcolor
	x0p y0p M anglep rotate sizep fntsize sp stringwidth exch -2 div exch rm sp show stroke angle2p rotate
} def
/Stxtr {
	/sp exch def
	yratio mul
	/sizep exch def
	dup
	/anglep exch def
	0 exch sub
	/angle2p exch def
	yratio mul
	/y0p exch def
	xratio mul
	/x0p exch def
	Strgb setrgbcolor
	x0p y0p M anglep rotate sizep fntsize sp stringwidth 1 index -1 mul exch rm pop sp show stroke angle2p rotate
} def
/Srect {
	/sfill exch def
	yratio mul
	/y1 exch def
	xratio mul
	/x1 exch def
	yratio mul
	/y0 exch def
	xratio mul
	/x0 exch def
	sfill 1 eq {
		Ssrgb setrgbcolor
		x0 y0 moveto
		x0 y1 lineto x1 y1 lineto x1 y0 lineto x0 y0 lineto
		fill
	} if
	Slw setlinewidth
	Slrgb setrgbcolor
	x0 y0 moveto
	x0 y1 lineto x1 y1 lineto x1 y0 lineto x0 y0 lineto
	stroke
} def
/Sellipse {
	/sfill exch def
	yratio mul
	/yrad exch def
	xratio mul
	/xrad exch def
	yratio mul
	/y exch def
	xratio mul
	/x exch def
	sfill 1 eq {
		Ssrgb setrgbcolor
		/savematrix matrix currentmatrix def
		x y translate
		xrad yrad scale
		0 0 1 0 360 arc
		savematrix setmatrix
		fill
	} if
	Slw setlinewidth
	Slrgb setrgbcolor
		/savematrix matrix currentmatrix def
		x y translate
		xrad yrad scale
		0 0 1 0 360 arc
		savematrix setmatrix
	stroke
} def
/Stri {
	/sfill exch def
	xratio mul
	/r exch def
	yratio mul
	/y0 exch def
	xratio mul
	/x0 exch def
	/xcen x0 def
	y0 r add
	/ytop exch def
	r 2 div
	y0 exch sub
	/ybot exch def
	r 3 sqrt 2 div mul dup
	xcen exch sub
	/xleft exch def
	xcen add
	/xright exch def
	sfill 1 eq {
		Ssrgb setrgbcolor
		xcen ytop moveto xright ybot lineto xleft ybot lineto xcen ytop lineto fill
	} if
	Slw setlinewidth
	Slrgb setrgbcolor
	xcen ytop moveto xright ybot lineto xleft ybot lineto xcen ytop lineto stroke
} def
/Soldtri {
	/sfill exch def
	xratio mul
	/r exch def
	yratio mul
	/y0 exch def
	xratio mul
	/x0 exch def
	x0 r sub
	/x1 exch def
	y0 r sub
	/y1 exch def
	x0 r add
	/x2 exch def
	y0 r sub
	/y2 exch def
	/x3 x0 def
	y0 r add
	/y3 exch def
	sfill 1 eq {
		Ssrgb setrgbcolor
		x1 y1 moveto x2 y2 lineto x3 y3 lineto x1 y1 lineto fill
	} if
	Slw setlinewidth
	Slrgb setrgbcolor
	x1 y1 moveto x2 y2 lineto x3 y3 lineto x1 y1 lineto stroke
} def
/Sdia {
	/sfill exch def
	xratio mul
	/r exch def
	yratio mul
	/y exch def
	xratio mul
	/x exch def
	x r sub
	/x0 exch def
	/y0 y def
	/x1 x def
	y r sub
	/y1 exch def
	x r add
	/x2 exch def
	/y2 y def
	/x3 x def
	y r add
	/y3 exch def
	sfill 1 eq  {
		Ssrgb setrgbcolor
		x0 y0 moveto x1 y1 lineto x2 y2 lineto x3 y3 lineto x0 y0 lineto fill
	} if
	Slw setlinewidth
	Slrgb setrgbcolor
	x0 y0 moveto x1 y1 lineto x2 y2 lineto x3 y3 lineto x0 y0 lineto stroke
} def
/Scc {
	/sfill exch def
	xratio mul
	/r0 exch def
	yratio mul
	/y0 exch def
	xratio mul
	/x0 exch def
	sfill 1 eq {
		Ssrgb setrgbcolor
		x0 y0 r0 0 360 arc fill
	} if
	Slw setlinewidth
	Slrgb setrgbcolor
	x0 y0 r0 0 360 arc stroke
} def
/Spie {
	/sfill exch def
	/a1 exch def
	/a0 exch def
	xratio mul
	/r exch def
	yratio mul
	/y exch def
	xratio mul
	/x exch def
	sfill 1 eq {
		Ssrgb setrgbcolor
		newpath x y moveto x y r a0 a1 arc closepath
		fill
	} if
	Slw setlinewidth
	Slrgb setrgbcolor
	newpath x y moveto x y r a0 a1 arc closepath
	stroke
} def
/Splu {
	xratio mul
	/r exch def
	yratio mul
	/y exch def
	xratio mul
	/x exch def
	x r sub
	/x0 exch def
	x r add
	/x1 exch def
	x0 y M x1 y L
	y r sub
	/y0 exch def
	y r add
	/y1 exch def
	x y0 M x y1 L
} def
/Scro {
	xratio mul
	/r exch def
	yratio mul
	/y exch def
	xratio mul
	/x exch def
	x r sub
	/x0 exch def
	y r sub
	/y0 exch def
	x r add
	/x1 exch def
	y r add
	/y1 exch def
	x0 y0 M x1 y1 L
	x r add
	/x0 exch def
	y r sub
	/y0 exch def
	x r sub
	/x1 exch def
	y r add
	/y1 exch def
	x0 y0 M x1 y1 L
} def
/Sm {
	yratio mul
	/y exch def
	xratio mul
	/x exch def
	x y M
} def
/Sl {
	yratio mul
	/y exch def
	xratio mul
	/x exch def
	x y L
} def
/SPl {
	yratio mul
	/y exch def
	xratio mul
	/x exch def
	x y PL
} def
/Lcs {
	currentlinecap
	1 setlinecap
} def
/Lcr {
	setlinecap
} def
/Sbp {
	newpath
} def
/Sep {
	/sfill exch def
	closepath
	sfill 1 eq  {
		Ssrgb setrgbcolor
		gsave
		fill
		grestore
	} if
	Slw setlinewidth
	Slrgb setrgbcolor
	Lcs
	stroke
	Lcr
} def
/cp {currentpoint} def 
/M {moveto} def 
/rm {rmoveto} def 
/S {stroke} def 
/L {Slw setlinewidth Slrgb setrgbcolor lineto Lcs S Lcr} def 
/PL {Slw setlinewidth Slrgb setrgbcolor lineto} def 
/MF-Helvetica {
  /newfontname exch def
  /fontname exch def
  /fontdict fontname findfont def
  /newfont fontdict maxlength dict def
  fontdict {
  exch dup /FID eq {pop pop} {exch newfont 3 1 roll put} ifelse
  } forall
  newfont /FontName newfontname put
  newfont /Encoding ISOLatin1Encoding put
  newfontname newfont definefont pop
} def
/Helvetica /Helvetica-0 MF-Helvetica
/Slw 0.120 def
0.918 0.949 0.953 setrgbcolor
0 0 396.000 288.000 Sbgfill
/Slrgb {1.000 1.000 1.000} def
/Strgb {1.000 1.000 1.000} def
/Ssrgb {1.000 1.000 1.000} def
/Ssrgb {0.918 0.949 0.953} def
/Slw 0.576 def
/Slrgb {0.918 0.949 0.953} def
0 0 31999 23272 1 Srect
/Ssrgb {1.000 1.000 1.000} def
/Slw 0.490 def
/Slrgb {1.000 1.000 1.000} def
3138 15616 16742 21185 1 Srect
/Slrgb {0.000 0.000 0.000} def
/Strgb {0.000 0.000 0.000} def
/Slw 0.734 def
/Slrgb {0.918 0.949 0.953} def
3138 16052 16742 16052 Sln
/Slw 0.490 def
/Slrgb {0.000 0.000 0.000} def
/Slw 0.734 def
/Slrgb {0.918 0.949 0.953} def
3138 18401 16742 18401 Sln
/Slw 0.490 def
/Slrgb {0.000 0.000 0.000} def
/Slw 0.734 def
/Slrgb {0.918 0.949 0.953} def
3138 20750 16742 20750 Sln
/Slw 0.490 def
/Slrgb {0.000 0.000 0.000} def
/Slrgb {1.000 1.000 1.000} def
17301 15616 30905 21185 1 Srect
/Slrgb {0.000 0.000 0.000} def
/Slw 0.734 def
/Slrgb {0.918 0.949 0.953} def
17301 16052 30905 16052 Sln
/Slw 0.490 def
/Slrgb {0.000 0.000 0.000} def
/Slw 0.734 def
/Slrgb {0.918 0.949 0.953} def
17301 18401 30905 18401 Sln
/Slw 0.490 def
/Slrgb {0.000 0.000 0.000} def
/Slw 0.734 def
/Slrgb {0.918 0.949 0.953} def
17301 20750 30905 20750 Sln
/Slw 0.490 def
/Slrgb {0.000 0.000 0.000} def
/Slrgb {1.000 1.000 1.000} def
3138 7260 16742 12829 1 Srect
/Slrgb {0.000 0.000 0.000} def
/Slw 0.734 def
/Slrgb {0.918 0.949 0.953} def
3138 7695 16742 7695 Sln
/Slw 0.490 def
/Slrgb {0.000 0.000 0.000} def
/Slw 0.734 def
/Slrgb {0.918 0.949 0.953} def
3138 10044 16742 10044 Sln
/Slw 0.490 def
/Slrgb {0.000 0.000 0.000} def
/Slw 0.734 def
/Slrgb {0.918 0.949 0.953} def
3138 12393 16742 12393 Sln
/Slw 0.490 def
/Slrgb {0.000 0.000 0.000} def
/Slw 0.734 def
/Slrgb {0.102 0.278 0.435} def
5534 16061 Sm
5559 16061 Sl
5559 16061 Sm
5583 16061 Sl
5583 16061 Sm
5607 16060 Sl
5607 16060 Sm
5631 16060 Sl
5631 16060 Sm
5656 16059 Sl
5656 16059 Sm
5680 16059 Sl
5680 16059 Sm
5704 16058 Sl
5704 16058 Sm
5729 16057 Sl
5729 16057 Sm
5753 16056 Sl
5753 16056 Sm
5777 16055 Sl
5777 16055 Sm
5801 16053 Sl
5801 16053 Sm
5826 16052 Sl
5826 16052 Sm
5850 16051 Sl
5850 16051 Sm
5874 16051 Sl
5874 16051 Sm
5899 16051 Sl
5899 16051 Sm
5923 16051 Sl
5923 16051 Sm
5947 16051 Sl
5947 16051 Sm
5971 16051 Sl
5971 16051 Sm
5996 16051 Sl
5996 16051 Sm
6020 16051 Sl
6020 16051 Sm
6044 16051 Sl
6044 16051 Sm
6069 16051 Sl
6069 16051 Sm
6093 16051 Sl
6093 16051 Sm
6117 16051 Sl
6117 16051 Sm
6141 16053 Sl
6141 16053 Sm
6166 16054 Sl
6166 16054 Sm
6190 16055 Sl
6190 16055 Sm
6214 16056 Sl
6214 16056 Sm
6239 16057 Sl
6239 16057 Sm
6263 16058 Sl
6263 16058 Sm
6287 16059 Sl
6287 16059 Sm
6311 16060 Sl
6311 16060 Sm
6336 16060 Sl
6336 16060 Sm
6360 16061 Sl
6360 16061 Sm
6384 16061 Sl
6384 16061 Sm
6409 16061 Sl
6409 16061 Sm
6433 16061 Sl
6433 16061 Sm
6457 16061 Sl
6457 16061 Sm
6481 16061 Sl
6481 16061 Sm
6506 16060 Sl
6506 16060 Sm
6530 16060 Sl
6530 16060 Sm
6554 16059 Sl
6554 16059 Sm
6579 16058 Sl
6579 16058 Sm
6603 16058 Sl
6603 16058 Sm
6627 16058 Sl
6627 16058 Sm
6651 16059 Sl
6651 16059 Sm
6676 16060 Sl
6676 16060 Sm
6700 16061 Sl
6700 16061 Sm
6724 16062 Sl
6724 16062 Sm
6749 16064 Sl
6749 16064 Sm
6773 16065 Sl
6773 16065 Sm
6797 16068 Sl
6797 16068 Sm
6821 16074 Sl
6821 16074 Sm
6846 16079 Sl
6846 16079 Sm
6870 16084 Sl
6870 16084 Sm
6894 16087 Sl
6894 16087 Sm
6919 16091 Sl
6919 16091 Sm
6943 16093 Sl
6943 16093 Sm
6967 16095 Sl
6967 16095 Sm
6991 16097 Sl
6991 16097 Sm
7016 16099 Sl
7016 16099 Sm
7040 16102 Sl
7040 16102 Sm
7064 16104 Sl
7064 16104 Sm
7089 16105 Sl
7089 16105 Sm
7113 16107 Sl
7113 16107 Sm
7137 16107 Sl
7137 16107 Sm
7161 16107 Sl
7161 16107 Sm
7186 16108 Sl
7186 16108 Sm
7210 16109 Sl
7210 16109 Sm
7234 16110 Sl
7234 16110 Sm
7259 16110 Sl
7259 16110 Sm
7283 16110 Sl
7283 16110 Sm
7307 16111 Sl
7307 16111 Sm
7331 16115 Sl
7331 16115 Sm
7356 16118 Sl
7356 16118 Sm
7380 16121 Sl
7380 16121 Sm
7404 16123 Sl
7404 16123 Sm
7428 16128 Sl
7428 16128 Sm
7453 16131 Sl
7453 16131 Sm
7477 16133 Sl
7477 16133 Sm
7501 16134 Sl
7501 16134 Sm
7526 16134 Sl
7526 16134 Sm
7550 16134 Sl
7550 16134 Sm
7574 16132 Sl
7574 16132 Sm
7598 16129 Sl
7598 16129 Sm
7623 16127 Sl
7623 16127 Sm
7647 16126 Sl
7647 16126 Sm
7671 16125 Sl
7671 16125 Sm
7696 16126 Sl
7696 16126 Sm
7720 16129 Sl
7720 16129 Sm
7744 16131 Sl
7744 16131 Sm
7768 16132 Sl
7768 16132 Sm
7793 16135 Sl
7793 16135 Sm
7817 16139 Sl
7817 16139 Sm
7841 16148 Sl
7841 16148 Sm
7866 16156 Sl
7866 16156 Sm
7890 16161 Sl
7890 16161 Sm
7914 16166 Sl
7914 16166 Sm
7938 16174 Sl
7938 16174 Sm
7963 16185 Sl
7963 16185 Sm
7987 16199 Sl
7987 16199 Sm
8011 16213 Sl
8011 16213 Sm
8036 16226 Sl
8036 16226 Sm
8060 16235 Sl
8060 16235 Sm
8084 16241 Sl
8084 16241 Sm
8108 16245 Sl
8108 16245 Sm
8133 16252 Sl
8133 16252 Sm
8157 16256 Sl
8157 16256 Sm
8181 16256 Sl
8181 16256 Sm
8206 16259 Sl
8206 16259 Sm
8230 16262 Sl
8230 16262 Sm
8254 16263 Sl
8254 16263 Sm
8278 16260 Sl
8278 16260 Sm
8303 16258 Sl
8303 16258 Sm
8327 16260 Sl
8327 16260 Sm
8351 16280 Sl
8351 16280 Sm
8376 16305 Sl
8376 16305 Sm
8400 16326 Sl
8400 16326 Sm
8424 16344 Sl
8424 16344 Sm
8448 16365 Sl
8448 16365 Sm
8473 16386 Sl
8473 16386 Sm
8497 16407 Sl
8497 16407 Sm
8521 16427 Sl
8521 16427 Sm
8546 16443 Sl
8546 16443 Sm
8570 16458 Sl
8570 16458 Sm
8594 16473 Sl
8594 16473 Sm
8618 16484 Sl
8618 16484 Sm
8643 16507 Sl
8643 16507 Sm
8667 16523 Sl
8667 16523 Sm
8691 16535 Sl
8691 16535 Sm
8716 16547 Sl
8716 16547 Sm
8740 16559 Sl
8740 16559 Sm
8764 16565 Sl
8764 16565 Sm
8788 16562 Sl
8788 16562 Sm
8813 16561 Sl
8813 16561 Sm
8837 16558 Sl
8837 16558 Sm
8861 16561 Sl
8861 16561 Sm
8886 16564 Sl
8886 16564 Sm
8910 16558 Sl
8910 16558 Sm
8934 16553 Sl
8934 16553 Sm
8958 16561 Sl
8958 16561 Sm
8983 16570 Sl
8983 16570 Sm
9007 16592 Sl
9007 16592 Sm
9031 16626 Sl
9031 16626 Sm
9056 16653 Sl
9056 16653 Sm
9080 16675 Sl
9080 16675 Sm
9104 16697 Sl
9104 16697 Sm
9128 16714 Sl
9128 16714 Sm
9153 16760 Sl
9153 16760 Sm
9177 16797 Sl
9177 16797 Sm
9201 16828 Sl
9201 16828 Sm
9226 16845 Sl
9226 16845 Sm
9250 16871 Sl
9250 16871 Sm
9274 16893 Sl
9274 16893 Sm
9298 16909 Sl
9298 16909 Sm
9323 16921 Sl
9323 16921 Sm
9347 16934 Sl
9347 16934 Sm
9371 16966 Sl
9371 16966 Sm
9396 16999 Sl
9396 16999 Sm
9420 17022 Sl
9420 17022 Sm
9444 17044 Sl
9444 17044 Sm
9468 17069 Sl
9468 17069 Sm
9493 17088 Sl
9493 17088 Sm
9517 17131 Sl
9517 17131 Sm
9541 17197 Sl
9541 17197 Sm
9566 17242 Sl
9566 17242 Sm
9590 17271 Sl
9590 17271 Sm
9614 17299 Sl
9614 17299 Sm
9638 17327 Sl
9638 17327 Sm
9663 17454 Sl
9663 17454 Sm
9687 17563 Sl
9687 17563 Sm
9711 17650 Sl
9711 17650 Sm
9736 17715 Sl
9736 17715 Sm
9760 17800 Sl
9760 17800 Sm
9784 17888 Sl
9784 17888 Sm
9808 17970 Sl
9808 17970 Sm
9833 18053 Sl
9833 18053 Sm
9857 18122 Sl
9857 18122 Sm
9881 18212 Sl
9881 18212 Sm
9906 18295 Sl
9906 18295 Sm
9930 18347 Sl
9930 18347 Sm
9954 18388 Sl
9954 18388 Sm
9978 18427 Sl
9978 18427 Sm
10003 18470 Sl
10003 18470 Sm
10027 18547 Sl
10027 18547 Sm
10051 18653 Sl
10051 18653 Sm
10076 18722 Sl
10076 18722 Sm
10100 18754 Sl
10100 18754 Sm
10124 18788 Sl
10124 18788 Sm
10148 18816 Sl
10148 18816 Sm
10173 18856 Sl
10173 18856 Sm
10197 18862 Sl
10197 18862 Sm
10221 18823 Sl
10221 18823 Sm
10246 18738 Sl
10246 18738 Sm
10270 18738 Sl
10270 18738 Sm
10294 18713 Sl
10294 18713 Sm
10318 18658 Sl
10318 18658 Sm
10343 18584 Sl
10343 18584 Sm
10367 18477 Sl
10367 18477 Sm
10391 18361 Sl
10391 18361 Sm
10416 18231 Sl
10416 18231 Sm
10440 18097 Sl
10440 18097 Sm
10464 17955 Sl
10464 17955 Sm
10488 17830 Sl
10488 17830 Sm
10513 17704 Sl
10513 17704 Sm
10537 17562 Sl
10537 17562 Sm
10561 17418 Sl
10561 17418 Sm
10586 17255 Sl
10586 17255 Sm
10610 17090 Sl
10610 17090 Sm
10634 16980 Sl
10634 16980 Sm
10658 16911 Sl
10658 16911 Sm
10683 16841 Sl
10683 16841 Sm
10707 16770 Sl
10707 16770 Sm
10731 16694 Sl
10731 16694 Sm
10756 16610 Sl
10756 16610 Sm
10780 16575 Sl
10780 16575 Sm
10804 16539 Sl
10804 16539 Sm
10828 16502 Sl
10828 16502 Sm
10853 16466 Sl
10853 16466 Sm
10877 16429 Sl
10877 16429 Sm
10901 16397 Sl
10901 16397 Sm
10926 16368 Sl
10926 16368 Sm
10950 16350 Sl
10950 16350 Sm
10974 16329 Sl
10974 16329 Sm
10998 16306 Sl
10998 16306 Sm
11023 16282 Sl
11023 16282 Sm
11047 16261 Sl
11047 16261 Sm
11071 16248 Sl
11071 16248 Sm
11096 16236 Sl
11096 16236 Sm
11120 16221 Sl
11120 16221 Sm
11144 16213 Sl
11144 16213 Sm
11168 16210 Sl
11168 16210 Sm
11193 16206 Sl
11193 16206 Sm
11217 16200 Sl
11217 16200 Sm
11241 16191 Sl
11241 16191 Sm
11266 16181 Sl
11266 16181 Sm
11290 16174 Sl
11290 16174 Sm
11314 16169 Sl
11314 16169 Sm
11338 16166 Sl
11338 16166 Sm
11363 16163 Sl
11363 16163 Sm
11387 16160 Sl
11387 16160 Sm
11411 16155 Sl
11411 16155 Sm
11436 16149 Sl
11436 16149 Sm
11460 16147 Sl
11460 16147 Sm
11484 16145 Sl
11484 16145 Sm
11508 16142 Sl
11508 16142 Sm
11533 16141 Sl
11533 16141 Sm
11557 16139 Sl
11557 16139 Sm
11581 16137 Sl
11581 16137 Sm
11605 16134 Sl
11605 16134 Sm
11630 16129 Sl
11630 16129 Sm
11654 16129 Sl
11654 16129 Sm
11678 16133 Sl
11678 16133 Sm
11703 16136 Sl
11703 16136 Sm
11727 16138 Sl
11727 16138 Sm
11751 16140 Sl
11751 16140 Sm
11775 16140 Sl
11775 16140 Sm
11800 16138 Sl
11800 16138 Sm
11824 16136 Sl
11824 16136 Sm
11848 16134 Sl
11848 16134 Sm
11873 16131 Sl
11873 16131 Sm
11897 16128 Sl
11897 16128 Sm
11921 16125 Sl
11921 16125 Sm
11945 16121 Sl
11945 16121 Sm
11970 16120 Sl
11970 16120 Sm
11994 16118 Sl
11994 16118 Sm
12018 16115 Sl
12018 16115 Sm
12043 16111 Sl
12043 16111 Sm
12067 16105 Sl
12067 16105 Sm
12091 16100 Sl
12091 16100 Sm
12115 16095 Sl
12115 16095 Sm
12140 16091 Sl
12140 16091 Sm
12164 16088 Sl
12164 16088 Sm
12188 16084 Sl
12188 16084 Sm
12213 16080 Sl
12213 16080 Sm
12237 16076 Sl
12237 16076 Sm
12261 16072 Sl
12261 16072 Sm
12285 16070 Sl
12285 16070 Sm
12310 16067 Sl
12310 16067 Sm
12334 16065 Sl
12334 16065 Sm
12358 16064 Sl
12358 16064 Sm
12383 16061 Sl
12383 16061 Sm
12407 16059 Sl
12407 16059 Sm
12431 16057 Sl
12431 16057 Sm
12455 16054 Sl
12455 16054 Sm
12480 16053 Sl
12480 16053 Sm
12504 16052 Sl
12504 16052 Sm
12528 16053 Sl
12528 16053 Sm
12553 16055 Sl
12553 16055 Sm
12577 16056 Sl
12577 16056 Sm
12601 16057 Sl
12601 16057 Sm
12625 16058 Sl
12625 16058 Sm
12650 16059 Sl
12650 16059 Sm
12674 16059 Sl
12674 16059 Sm
12698 16060 Sl
12698 16060 Sm
12723 16060 Sl
12723 16060 Sm
12747 16061 Sl
12747 16061 Sm
12771 16061 Sl
12771 16061 Sm
12795 16061 Sl
/Slrgb {0.565 0.208 0.231} def
3706 16054 Sm
3744 16054 Sl
3744 16054 Sm
3783 16054 Sl
3783 16054 Sm
3821 16053 Sl
3821 16053 Sm
3859 16053 Sl
3859 16053 Sm
3897 16051 Sl
3897 16051 Sm
3936 16051 Sl
3936 16051 Sm
3974 16051 Sl
3974 16051 Sm
4012 16051 Sl
4012 16051 Sm
4050 16051 Sl
4050 16051 Sm
4088 16051 Sl
4088 16051 Sm
4127 16051 Sl
4127 16051 Sm
4165 16051 Sl
4165 16051 Sm
4203 16051 Sl
4203 16051 Sm
4241 16051 Sl
4241 16051 Sm
4280 16051 Sl
4280 16051 Sm
4318 16051 Sl
4318 16051 Sm
4356 16051 Sl
4356 16051 Sm
4394 16051 Sl
4394 16051 Sm
4433 16051 Sl
4433 16051 Sm
4471 16051 Sl
4471 16051 Sm
4509 16051 Sl
4509 16051 Sm
4547 16051 Sl
4547 16051 Sm
4585 16051 Sl
4585 16051 Sm
4624 16051 Sl
4624 16051 Sm
4662 16051 Sl
4662 16051 Sm
4700 16051 Sl
4700 16051 Sm
4738 16051 Sl
4738 16051 Sm
4777 16051 Sl
4777 16051 Sm
4815 16051 Sl
4815 16051 Sm
4853 16051 Sl
4853 16051 Sm
4891 16051 Sl
4891 16051 Sm
4930 16051 Sl
4930 16051 Sm
4968 16051 Sl
4968 16051 Sm
5006 16051 Sl
5006 16051 Sm
5044 16051 Sl
5044 16051 Sm
5082 16051 Sl
5082 16051 Sm
5121 16051 Sl
5121 16051 Sm
5159 16051 Sl
5159 16051 Sm
5197 16051 Sl
5197 16051 Sm
5235 16051 Sl
5235 16051 Sm
5274 16051 Sl
5274 16051 Sm
5312 16051 Sl
5312 16051 Sm
5350 16051 Sl
5350 16051 Sm
5388 16051 Sl
5388 16051 Sm
5427 16051 Sl
5427 16051 Sm
5465 16051 Sl
5465 16051 Sm
5503 16051 Sl
5503 16051 Sm
5541 16051 Sl
5541 16051 Sm
5580 16051 Sl
5580 16051 Sm
5618 16051 Sl
5618 16051 Sm
5656 16051 Sl
5656 16051 Sm
5694 16051 Sl
5694 16051 Sm
5732 16051 Sl
5732 16051 Sm
5771 16051 Sl
5771 16051 Sm
5809 16051 Sl
5809 16051 Sm
5847 16051 Sl
5847 16051 Sm
5885 16051 Sl
5885 16051 Sm
5924 16051 Sl
5924 16051 Sm
5962 16051 Sl
5962 16051 Sm
6000 16051 Sl
6000 16051 Sm
6038 16051 Sl
6038 16051 Sm
6077 16051 Sl
6077 16051 Sm
6115 16053 Sl
6115 16053 Sm
6153 16055 Sl
6153 16055 Sm
6191 16056 Sl
6191 16056 Sm
6229 16057 Sl
6229 16057 Sm
6268 16058 Sl
6268 16058 Sm
6306 16058 Sl
6306 16058 Sm
6344 16057 Sl
6344 16057 Sm
6382 16056 Sl
6382 16056 Sm
6421 16055 Sl
6421 16055 Sm
6459 16053 Sl
6459 16053 Sm
6497 16052 Sl
6497 16052 Sm
6535 16054 Sl
6535 16054 Sm
6574 16055 Sl
6574 16055 Sm
6612 16057 Sl
6612 16057 Sm
6650 16059 Sl
6650 16059 Sm
6688 16060 Sl
6688 16060 Sm
6727 16061 Sl
6727 16061 Sm
6765 16063 Sl
6765 16063 Sm
6803 16064 Sl
6803 16064 Sm
6841 16064 Sl
6841 16064 Sm
6879 16064 Sl
6879 16064 Sm
6918 16063 Sl
6918 16063 Sm
6956 16063 Sl
6956 16063 Sm
6994 16062 Sl
6994 16062 Sm
7032 16062 Sl
7032 16062 Sm
7071 16063 Sl
7071 16063 Sm
7109 16063 Sl
7109 16063 Sm
7147 16064 Sl
7147 16064 Sm
7185 16066 Sl
7185 16066 Sm
7224 16066 Sl
7224 16066 Sm
7262 16067 Sl
7262 16067 Sm
7300 16069 Sl
7300 16069 Sm
7338 16069 Sl
7338 16069 Sm
7376 16069 Sl
7376 16069 Sm
7415 16067 Sl
7415 16067 Sm
7453 16066 Sl
7453 16066 Sm
7491 16065 Sl
7491 16065 Sm
7529 16065 Sl
7529 16065 Sm
7568 16066 Sl
7568 16066 Sm
7606 16066 Sl
7606 16066 Sm
7644 16064 Sl
7644 16064 Sm
7682 16064 Sl
7682 16064 Sm
7721 16066 Sl
7721 16066 Sm
7759 16067 Sl
7759 16067 Sm
7797 16067 Sl
7797 16067 Sm
7835 16068 Sl
7835 16068 Sm
7874 16067 Sl
7874 16067 Sm
7912 16067 Sl
7912 16067 Sm
7950 16080 Sl
7950 16080 Sm
7988 16090 Sl
7988 16090 Sm
8026 16096 Sl
8026 16096 Sm
8065 16101 Sl
8065 16101 Sm
8103 16107 Sl
8103 16107 Sm
8141 16111 Sl
8141 16111 Sm
8179 16112 Sl
8179 16112 Sm
8218 16113 Sl
8218 16113 Sm
8256 16113 Sl
8256 16113 Sm
8294 16112 Sl
8294 16112 Sm
8332 16115 Sl
8332 16115 Sm
8371 16122 Sl
8371 16122 Sm
8409 16125 Sl
8409 16125 Sm
8447 16140 Sl
8447 16140 Sm
8485 16157 Sl
8485 16157 Sm
8523 16167 Sl
8523 16167 Sm
8562 16171 Sl
8562 16171 Sm
8600 16172 Sl
8600 16172 Sm
8638 16173 Sl
8638 16173 Sm
8676 16169 Sl
8676 16169 Sm
8715 16166 Sl
8715 16166 Sm
8753 16189 Sl
8753 16189 Sm
8791 16204 Sl
8791 16204 Sm
8829 16209 Sl
8829 16209 Sm
8868 16233 Sl
8868 16233 Sm
8906 16247 Sl
8906 16247 Sm
8944 16259 Sl
8944 16259 Sm
8982 16276 Sl
8982 16276 Sm
9021 16283 Sl
9021 16283 Sm
9059 16280 Sl
9059 16280 Sm
9097 16266 Sl
9097 16266 Sm
9135 16267 Sl
9135 16267 Sm
9173 16278 Sl
9173 16278 Sm
9212 16279 Sl
9212 16279 Sm
9250 16295 Sl
9250 16295 Sm
9288 16319 Sl
9288 16319 Sm
9326 16326 Sl
9326 16326 Sm
9365 16346 Sl
9365 16346 Sm
9403 16375 Sl
9403 16375 Sm
9441 16390 Sl
9441 16390 Sm
9479 16449 Sl
9479 16449 Sm
9518 16485 Sl
9518 16485 Sm
9556 16508 Sl
9556 16508 Sm
9594 16505 Sl
9594 16505 Sm
9632 16545 Sl
9632 16545 Sm
9670 16608 Sl
9670 16608 Sm
9709 16651 Sl
9709 16651 Sm
9747 16687 Sl
9747 16687 Sm
9785 16799 Sl
9785 16799 Sm
9823 16875 Sl
9823 16875 Sm
9862 16938 Sl
9862 16938 Sm
9900 17044 Sl
9900 17044 Sm
9938 17123 Sl
9938 17123 Sm
9976 17214 Sl
9976 17214 Sm
10015 17269 Sl
10015 17269 Sm
10053 17365 Sl
10053 17365 Sm
10091 17411 Sl
10091 17411 Sm
10129 17503 Sl
10129 17503 Sm
10168 17723 Sl
10168 17723 Sm
10206 17925 Sl
10206 17925 Sm
10244 18034 Sl
10244 18034 Sm
10282 18249 Sl
10282 18249 Sm
10320 18429 Sl
10320 18429 Sm
10359 18499 Sl
10359 18499 Sm
10397 18646 Sl
10397 18646 Sm
10435 18743 Sl
10435 18743 Sm
10473 18805 Sl
10473 18805 Sm
10512 18768 Sl
10512 18768 Sm
10550 18793 Sl
10550 18793 Sm
10588 18798 Sl
10588 18798 Sm
10626 18696 Sl
10626 18696 Sm
10665 18654 Sl
10665 18654 Sm
10703 18645 Sl
10703 18645 Sm
10741 18567 Sl
10741 18567 Sm
10779 18400 Sl
10779 18400 Sm
10817 18266 Sl
10817 18266 Sm
10856 18176 Sl
10856 18176 Sm
10894 18068 Sl
10894 18068 Sm
10932 17942 Sl
10932 17942 Sm
10970 17844 Sl
10970 17844 Sm
11009 17674 Sl
11009 17674 Sm
11047 17494 Sl
11047 17494 Sm
11085 17400 Sl
11085 17400 Sm
11123 17261 Sl
11123 17261 Sm
11162 17132 Sl
11162 17132 Sm
11200 16999 Sl
11200 16999 Sm
11238 16929 Sl
11238 16929 Sm
11276 16834 Sl
11276 16834 Sm
11315 16733 Sl
11315 16733 Sm
11353 16690 Sl
11353 16690 Sm
11391 16668 Sl
11391 16668 Sm
11429 16624 Sl
11429 16624 Sm
11467 16595 Sl
11467 16595 Sm
11506 16560 Sl
11506 16560 Sm
11544 16506 Sl
11544 16506 Sm
11582 16486 Sl
11582 16486 Sm
11620 16456 Sl
11620 16456 Sm
11659 16422 Sl
11659 16422 Sm
11697 16366 Sl
11697 16366 Sm
11735 16335 Sl
11735 16335 Sm
11773 16309 Sl
11773 16309 Sm
11812 16280 Sl
11812 16280 Sm
11850 16247 Sl
11850 16247 Sm
11888 16219 Sl
11888 16219 Sm
11926 16188 Sl
11926 16188 Sm
11964 16157 Sl
11964 16157 Sm
12003 16129 Sl
12003 16129 Sm
12041 16123 Sl
12041 16123 Sm
12079 16117 Sl
12079 16117 Sm
12117 16114 Sl
12117 16114 Sm
12156 16113 Sl
12156 16113 Sm
12194 16113 Sl
12194 16113 Sm
12232 16113 Sl
12232 16113 Sm
12270 16114 Sl
12270 16114 Sm
12309 16110 Sl
12309 16110 Sm
12347 16102 Sl
12347 16102 Sm
12385 16092 Sl
12385 16092 Sm
12423 16084 Sl
12423 16084 Sm
12461 16077 Sl
12461 16077 Sm
12500 16074 Sl
12500 16074 Sm
12538 16071 Sl
12538 16071 Sm
12576 16070 Sl
12576 16070 Sm
12614 16068 Sl
12614 16068 Sm
12653 16066 Sl
12653 16066 Sm
12691 16066 Sl
12691 16066 Sm
12729 16065 Sl
12729 16065 Sm
12767 16065 Sl
12767 16065 Sm
12806 16063 Sl
12806 16063 Sm
12844 16061 Sl
12844 16061 Sm
12882 16060 Sl
12882 16060 Sm
12920 16060 Sl
12920 16060 Sm
12959 16060 Sl
12959 16060 Sm
12997 16060 Sl
12997 16060 Sm
13035 16059 Sl
13035 16059 Sm
13073 16058 Sl
13073 16058 Sm
13111 16057 Sl
13111 16057 Sm
13150 16056 Sl
13150 16056 Sm
13188 16056 Sl
13188 16056 Sm
13226 16056 Sl
13226 16056 Sm
13264 16056 Sl
13264 16056 Sm
13303 16056 Sl
13303 16056 Sm
13341 16056 Sl
13341 16056 Sm
13379 16055 Sl
13379 16055 Sm
13417 16054 Sl
13417 16054 Sm
13456 16054 Sl
13456 16054 Sm
13494 16054 Sl
13494 16054 Sm
13532 16053 Sl
13532 16053 Sm
13570 16052 Sl
13570 16052 Sm
13608 16051 Sl
13608 16051 Sm
13647 16051 Sl
13647 16051 Sm
13685 16051 Sl
13685 16051 Sm
13723 16051 Sl
13723 16051 Sm
13761 16051 Sl
13761 16051 Sm
13800 16051 Sl
13800 16051 Sm
13838 16051 Sl
13838 16051 Sm
13876 16051 Sl
13876 16051 Sm
13914 16051 Sl
13914 16051 Sm
13953 16051 Sl
13953 16051 Sm
13991 16051 Sl
13991 16051 Sm
14029 16051 Sl
14029 16051 Sm
14067 16051 Sl
14067 16051 Sm
14106 16051 Sl
14106 16051 Sm
14144 16051 Sl
14144 16051 Sm
14182 16051 Sl
14182 16051 Sm
14220 16051 Sl
14220 16051 Sm
14258 16051 Sl
14258 16051 Sm
14297 16051 Sl
14297 16051 Sm
14335 16051 Sl
14335 16051 Sm
14373 16051 Sl
14373 16051 Sm
14411 16051 Sl
14411 16051 Sm
14450 16051 Sl
14450 16051 Sm
14488 16051 Sl
14488 16051 Sm
14526 16051 Sl
14526 16051 Sm
14564 16051 Sl
14564 16051 Sm
14603 16051 Sl
14603 16051 Sm
14641 16051 Sl
14641 16051 Sm
14679 16051 Sl
14679 16051 Sm
14717 16051 Sl
14717 16051 Sm
14755 16051 Sl
14755 16051 Sm
14794 16051 Sl
14794 16051 Sm
14832 16051 Sl
14832 16051 Sm
14870 16051 Sl
14870 16051 Sm
14908 16051 Sl
14908 16051 Sm
14947 16051 Sl
14947 16051 Sm
14985 16053 Sl
14985 16053 Sm
15023 16053 Sl
15023 16053 Sm
15061 16054 Sl
15061 16054 Sm
15100 16054 Sl
15100 16054 Sm
15138 16054 Sl
/Slrgb {0.333 0.459 0.184} def
6420 16062 Sm
6443 16063 Sl
6443 16063 Sm
6465 16063 Sl
6465 16063 Sm
6488 16063 Sl
6488 16063 Sm
6511 16063 Sl
6511 16063 Sm
6533 16065 Sl
6533 16065 Sm
6556 16067 Sl
6556 16067 Sm
6579 16068 Sl
6579 16068 Sm
6601 16069 Sl
6601 16069 Sm
6624 16070 Sl
6624 16070 Sm
6647 16071 Sl
6647 16071 Sm
6669 16071 Sl
6669 16071 Sm
6692 16072 Sl
6692 16072 Sm
6715 16073 Sl
6715 16073 Sm
6737 16074 Sl
6737 16074 Sm
6760 16074 Sl
6760 16074 Sm
6783 16074 Sl
6783 16074 Sm
6805 16075 Sl
6805 16075 Sm
6828 16076 Sl
6828 16076 Sm
6851 16077 Sl
6851 16077 Sm
6873 16079 Sl
6873 16079 Sm
6896 16081 Sl
6896 16081 Sm
6919 16082 Sl
6919 16082 Sm
6941 16084 Sl
6941 16084 Sm
6964 16086 Sl
6964 16086 Sm
6987 16087 Sl
6987 16087 Sm
7009 16089 Sl
7009 16089 Sm
7032 16090 Sl
7032 16090 Sm
7055 16091 Sl
7055 16091 Sm
7077 16092 Sl
7077 16092 Sm
7100 16093 Sl
7100 16093 Sm
7123 16093 Sl
7123 16093 Sm
7145 16093 Sl
7145 16093 Sm
7168 16093 Sl
7168 16093 Sm
7191 16093 Sl
7191 16093 Sm
7213 16096 Sl
7213 16096 Sm
7236 16099 Sl
7236 16099 Sm
7259 16101 Sl
7259 16101 Sm
7281 16103 Sl
7281 16103 Sm
7304 16104 Sl
7304 16104 Sm
7327 16105 Sl
7327 16105 Sm
7349 16106 Sl
7349 16106 Sm
7372 16109 Sl
7372 16109 Sm
7395 16111 Sl
7395 16111 Sm
7417 16113 Sl
7417 16113 Sm
7440 16115 Sl
7440 16115 Sm
7463 16117 Sl
7463 16117 Sm
7485 16118 Sl
7485 16118 Sm
7508 16119 Sl
7508 16119 Sm
7531 16120 Sl
7531 16120 Sm
7553 16123 Sl
7553 16123 Sm
7576 16125 Sl
7576 16125 Sm
7599 16127 Sl
7599 16127 Sm
7621 16129 Sl
7621 16129 Sm
7644 16130 Sl
7644 16130 Sm
7667 16132 Sl
7667 16132 Sm
7689 16133 Sl
7689 16133 Sm
7712 16141 Sl
7712 16141 Sm
7734 16149 Sl
7734 16149 Sm
7757 16157 Sl
7757 16157 Sm
7780 16164 Sl
7780 16164 Sm
7802 16171 Sl
7802 16171 Sm
7825 16178 Sl
7825 16178 Sm
7848 16185 Sl
7848 16185 Sm
7870 16191 Sl
7870 16191 Sm
7893 16196 Sl
7893 16196 Sm
7916 16200 Sl
7916 16200 Sm
7938 16203 Sl
7938 16203 Sm
7961 16205 Sl
7961 16205 Sm
7984 16206 Sl
7984 16206 Sm
8006 16208 Sl
8006 16208 Sm
8029 16210 Sl
8029 16210 Sm
8052 16216 Sl
8052 16216 Sm
8074 16221 Sl
8074 16221 Sm
8097 16226 Sl
8097 16226 Sm
8120 16230 Sl
8120 16230 Sm
8142 16234 Sl
8142 16234 Sm
8165 16237 Sl
8165 16237 Sm
8188 16240 Sl
8188 16240 Sm
8210 16245 Sl
8210 16245 Sm
8233 16258 Sl
8233 16258 Sm
8256 16269 Sl
8256 16269 Sm
8278 16279 Sl
8278 16279 Sm
8301 16288 Sl
8301 16288 Sm
8324 16294 Sl
8324 16294 Sm
8346 16300 Sl
8346 16300 Sm
8369 16305 Sl
8369 16305 Sm
8392 16312 Sl
8392 16312 Sm
8414 16317 Sl
8414 16317 Sm
8437 16321 Sl
8437 16321 Sm
8460 16323 Sl
8460 16323 Sm
8482 16324 Sl
8482 16324 Sm
8505 16324 Sl
8505 16324 Sm
8528 16333 Sl
8528 16333 Sm
8550 16346 Sl
8550 16346 Sm
8573 16361 Sl
8573 16361 Sm
8596 16373 Sl
8596 16373 Sm
8618 16384 Sl
8618 16384 Sm
8641 16396 Sl
8641 16396 Sm
8664 16405 Sl
8664 16405 Sm
8686 16413 Sl
8686 16413 Sm
8709 16419 Sl
8709 16419 Sm
8732 16433 Sl
8732 16433 Sm
8754 16448 Sl
8754 16448 Sm
8777 16461 Sl
8777 16461 Sm
8800 16471 Sl
8800 16471 Sm
8822 16477 Sl
8822 16477 Sm
8845 16482 Sl
8845 16482 Sm
8868 16487 Sl
8868 16487 Sm
8890 16498 Sl
8890 16498 Sm
8913 16515 Sl
8913 16515 Sm
8936 16530 Sl
8936 16530 Sm
8958 16541 Sl
8958 16541 Sm
8981 16550 Sl
8981 16550 Sm
9004 16555 Sl
9004 16555 Sm
9026 16567 Sl
9026 16567 Sm
9049 16584 Sl
9049 16584 Sm
9072 16607 Sl
9072 16607 Sm
9094 16627 Sl
9094 16627 Sm
9117 16643 Sl
9117 16643 Sm
9140 16656 Sl
9140 16656 Sm
9162 16666 Sl
9162 16666 Sm
9185 16672 Sl
9185 16672 Sm
9208 16677 Sl
9208 16677 Sm
9230 16685 Sl
9230 16685 Sm
9253 16701 Sl
9253 16701 Sm
9276 16714 Sl
9276 16714 Sm
9298 16722 Sl
9298 16722 Sm
9321 16729 Sl
9321 16729 Sm
9344 16733 Sl
9344 16733 Sm
9366 16745 Sl
9366 16745 Sm
9389 16754 Sl
9389 16754 Sm
9412 16788 Sl
9412 16788 Sm
9434 16816 Sl
9434 16816 Sm
9457 16839 Sl
9457 16839 Sm
9480 16861 Sl
9480 16861 Sm
9502 16877 Sl
9502 16877 Sm
9525 16891 Sl
9525 16891 Sm
9548 16930 Sl
9548 16930 Sm
9570 16971 Sl
9570 16971 Sm
9593 17010 Sl
9593 17010 Sm
9616 17043 Sl
9616 17043 Sm
9638 17069 Sl
9638 17069 Sm
9661 17089 Sl
9661 17089 Sm
9683 17100 Sl
9683 17100 Sm
9706 17121 Sl
9706 17121 Sm
9729 17143 Sl
9729 17143 Sm
9751 17178 Sl
9751 17178 Sm
9774 17209 Sl
9774 17209 Sm
9797 17233 Sl
9797 17233 Sm
9819 17249 Sl
9819 17249 Sm
9842 17259 Sl
9842 17259 Sm
9865 17270 Sl
9865 17270 Sm
9887 17282 Sl
9887 17282 Sm
9910 17323 Sl
9910 17323 Sm
9933 17387 Sl
9933 17387 Sm
9955 17442 Sl
9955 17442 Sm
9978 17487 Sl
9978 17487 Sm
10001 17522 Sl
10001 17522 Sm
10023 17547 Sl
10023 17547 Sm
10046 17570 Sl
10046 17570 Sm
10069 17593 Sl
10069 17593 Sm
10091 17627 Sl
10091 17627 Sm
10114 17651 Sl
10114 17651 Sm
10137 17663 Sl
10137 17663 Sm
10159 17671 Sl
10159 17671 Sm
10182 17673 Sl
10182 17673 Sm
10205 17676 Sl
10205 17676 Sm
10227 17690 Sl
10227 17690 Sm
10250 17723 Sl
10250 17723 Sm
10273 17749 Sl
10273 17749 Sm
10295 17763 Sl
10295 17763 Sm
10318 17770 Sl
10318 17770 Sm
10341 17773 Sl
10341 17773 Sm
10363 17768 Sl
10363 17768 Sm
10386 17786 Sl
10386 17786 Sm
10409 17793 Sl
10409 17793 Sm
10431 17822 Sl
10431 17822 Sm
10454 17841 Sl
10454 17841 Sm
10477 17846 Sl
10477 17846 Sm
10499 17841 Sl
10499 17841 Sm
10522 17827 Sl
10522 17827 Sm
10545 17812 Sl
10545 17812 Sm
10567 17792 Sl
10567 17792 Sm
10590 17784 Sl
10590 17784 Sm
10613 17771 Sl
10613 17771 Sm
10635 17746 Sl
10635 17746 Sm
10658 17707 Sl
10658 17707 Sm
10681 17658 Sl
10681 17658 Sm
10703 17595 Sl
10703 17595 Sm
10726 17535 Sl
10726 17535 Sm
10749 17498 Sl
10749 17498 Sm
10771 17488 Sl
10771 17488 Sm
10794 17469 Sl
10794 17469 Sm
10817 17441 Sl
10817 17441 Sm
10839 17411 Sl
10839 17411 Sm
10862 17372 Sl
10862 17372 Sm
10885 17332 Sl
10885 17332 Sm
10907 17290 Sl
10907 17290 Sm
10930 17257 Sl
10930 17257 Sm
10953 17223 Sl
10953 17223 Sm
10975 17179 Sl
10975 17179 Sm
10998 17130 Sl
10998 17130 Sm
11021 17079 Sl
11021 17079 Sm
11043 17031 Sl
11043 17031 Sm
11066 17001 Sl
11066 17001 Sm
11089 16969 Sl
11089 16969 Sm
11111 16944 Sl
11111 16944 Sm
11134 16913 Sl
11134 16913 Sm
11157 16878 Sl
11157 16878 Sm
11179 16845 Sl
11179 16845 Sm
11202 16809 Sl
11202 16809 Sm
11225 16770 Sl
11225 16770 Sm
11247 16729 Sl
11247 16729 Sm
11270 16716 Sl
11270 16716 Sm
11293 16700 Sl
11293 16700 Sm
11315 16681 Sl
11315 16681 Sm
11338 16659 Sl
11338 16659 Sm
11361 16637 Sl
11361 16637 Sm
11383 16611 Sl
11383 16611 Sm
11406 16588 Sl
11406 16588 Sm
11429 16574 Sl
11429 16574 Sm
11451 16562 Sl
11451 16562 Sm
11474 16546 Sl
11474 16546 Sm
11497 16527 Sl
11497 16527 Sm
11519 16504 Sl
11519 16504 Sm
11542 16479 Sl
11542 16479 Sm
11564 16465 Sl
11564 16465 Sm
11587 16452 Sl
11587 16452 Sm
11610 16440 Sl
11610 16440 Sm
11632 16426 Sl
11632 16426 Sm
11655 16410 Sl
11655 16410 Sm
11678 16398 Sl
11678 16398 Sm
11700 16384 Sl
11700 16384 Sm
11723 16367 Sl
11723 16367 Sm
11746 16347 Sl
11746 16347 Sm
11768 16333 Sl
11768 16333 Sm
11791 16326 Sl
11791 16326 Sm
11814 16316 Sl
11814 16316 Sm
11836 16305 Sl
11836 16305 Sm
11859 16294 Sl
11859 16294 Sm
11882 16282 Sl
11882 16282 Sm
11904 16269 Sl
11904 16269 Sm
11927 16258 Sl
11927 16258 Sm
11950 16255 Sl
11950 16255 Sm
11972 16251 Sl
11972 16251 Sm
11995 16245 Sl
11995 16245 Sm
12018 16240 Sl
12018 16240 Sm
12040 16232 Sl
12040 16232 Sm
12063 16225 Sl
12063 16225 Sm
12086 16221 Sl
12086 16221 Sm
12108 16216 Sl
12108 16216 Sm
12131 16210 Sl
12131 16210 Sm
12154 16203 Sl
12154 16203 Sm
12176 16196 Sl
12176 16196 Sm
12199 16188 Sl
12199 16188 Sm
12222 16181 Sl
12222 16181 Sm
12244 16175 Sl
12244 16175 Sm
12267 16168 Sl
12267 16168 Sm
12290 16162 Sl
12290 16162 Sm
12312 16156 Sl
12312 16156 Sm
12335 16148 Sl
12335 16148 Sm
12358 16141 Sl
12358 16141 Sm
12380 16135 Sl
12380 16135 Sm
12403 16128 Sl
12403 16128 Sm
12426 16120 Sl
12426 16120 Sm
12448 16116 Sl
12448 16116 Sm
12471 16113 Sl
12471 16113 Sm
12494 16110 Sl
12494 16110 Sm
12516 16107 Sl
12516 16107 Sm
12539 16105 Sl
12539 16105 Sm
12562 16102 Sl
12562 16102 Sm
12584 16099 Sl
12584 16099 Sm
12607 16096 Sl
12607 16096 Sm
12630 16095 Sl
12630 16095 Sm
12652 16093 Sl
12652 16093 Sm
12675 16091 Sl
12675 16091 Sm
12698 16088 Sl
12698 16088 Sm
12720 16085 Sl
12720 16085 Sm
12743 16084 Sl
12743 16084 Sm
12766 16083 Sl
12766 16083 Sm
12788 16083 Sl
12788 16083 Sm
12811 16083 Sl
12811 16083 Sm
12834 16083 Sl
12834 16083 Sm
12856 16083 Sl
12856 16083 Sm
12879 16083 Sl
12879 16083 Sm
12902 16083 Sl
12902 16083 Sm
12924 16082 Sl
12924 16082 Sm
12947 16081 Sl
12947 16081 Sm
12970 16080 Sl
12970 16080 Sm
12992 16078 Sl
12992 16078 Sm
13015 16077 Sl
13015 16077 Sm
13038 16075 Sl
13038 16075 Sm
13060 16074 Sl
13060 16074 Sm
13083 16072 Sl
13083 16072 Sm
13106 16070 Sl
13106 16070 Sm
13128 16069 Sl
13128 16069 Sm
13151 16068 Sl
13151 16068 Sm
13174 16067 Sl
13174 16067 Sm
13196 16066 Sl
/Slrgb {0.102 0.278 0.435} def
18756 16119 Sm
18791 16117 Sl
18791 16117 Sm
18826 16109 Sl
18826 16109 Sm
18861 16096 Sl
18861 16096 Sm
18896 16078 Sl
18896 16078 Sm
18931 16055 Sl
18931 16055 Sm
18966 16051 Sl
18966 16051 Sm
19002 16051 Sl
19002 16051 Sm
19037 16051 Sl
19037 16051 Sm
19072 16051 Sl
19072 16051 Sm
19107 16051 Sl
19107 16051 Sm
19142 16051 Sl
19142 16051 Sm
19177 16051 Sl
19177 16051 Sm
19212 16051 Sl
19212 16051 Sm
19248 16051 Sl
19248 16051 Sm
19283 16051 Sl
19283 16051 Sm
19318 16051 Sl
19318 16051 Sm
19353 16051 Sl
19353 16051 Sm
19388 16051 Sl
19388 16051 Sm
19423 16051 Sl
19423 16051 Sm
19459 16051 Sl
19459 16051 Sm
19494 16051 Sl
19494 16051 Sm
19529 16051 Sl
19529 16051 Sm
19564 16051 Sl
19564 16051 Sm
19599 16051 Sl
19599 16051 Sm
19634 16051 Sl
19634 16051 Sm
19669 16051 Sl
19669 16051 Sm
19705 16051 Sl
19705 16051 Sm
19740 16051 Sl
19740 16051 Sm
19775 16051 Sl
19775 16051 Sm
19810 16051 Sl
19810 16051 Sm
19845 16051 Sl
19845 16051 Sm
19880 16051 Sl
19880 16051 Sm
19916 16051 Sl
19916 16051 Sm
19951 16051 Sl
19951 16051 Sm
19986 16051 Sl
19986 16051 Sm
20021 16051 Sl
20021 16051 Sm
20056 16051 Sl
20056 16051 Sm
20091 16051 Sl
20091 16051 Sm
20126 16051 Sl
20126 16051 Sm
20162 16051 Sl
20162 16051 Sm
20197 16051 Sl
20197 16051 Sm
20232 16051 Sl
20232 16051 Sm
20267 16051 Sl
20267 16051 Sm
20302 16051 Sl
20302 16051 Sm
20337 16051 Sl
20337 16051 Sm
20372 16051 Sl
20372 16051 Sm
20408 16051 Sl
20408 16051 Sm
20443 16051 Sl
20443 16051 Sm
20478 16051 Sl
20478 16051 Sm
20513 16051 Sl
20513 16051 Sm
20548 16051 Sl
20548 16051 Sm
20583 16051 Sl
20583 16051 Sm
20619 16051 Sl
20619 16051 Sm
20654 16051 Sl
20654 16051 Sm
20689 16051 Sl
20689 16051 Sm
20724 16051 Sl
20724 16051 Sm
20759 16051 Sl
20759 16051 Sm
20794 16051 Sl
20794 16051 Sm
20829 16051 Sl
20829 16051 Sm
20865 16051 Sl
20865 16051 Sm
20900 16051 Sl
20900 16051 Sm
20935 16051 Sl
20935 16051 Sm
20970 16051 Sl
20970 16051 Sm
21005 16051 Sl
21005 16051 Sm
21040 16051 Sl
21040 16051 Sm
21076 16051 Sl
21076 16051 Sm
21111 16051 Sl
21111 16051 Sm
21146 16051 Sl
21146 16051 Sm
21181 16051 Sl
21181 16051 Sm
21216 16051 Sl
21216 16051 Sm
21251 16051 Sl
21251 16051 Sm
21286 16051 Sl
21286 16051 Sm
21322 16052 Sl
21322 16052 Sm
21357 16056 Sl
21357 16056 Sm
21392 16060 Sl
21392 16060 Sm
21427 16062 Sl
21427 16062 Sm
21462 16066 Sl
21462 16066 Sm
21497 16071 Sl
21497 16071 Sm
21532 16077 Sl
21532 16077 Sm
21568 16082 Sl
21568 16082 Sm
21603 16094 Sl
21603 16094 Sm
21638 16105 Sl
21638 16105 Sm
21673 16110 Sl
21673 16110 Sm
21708 16113 Sl
21708 16113 Sm
21743 16113 Sl
21743 16113 Sm
21779 16111 Sl
21779 16111 Sm
21814 16104 Sl
21814 16104 Sm
21849 16099 Sl
21849 16099 Sm
21884 16093 Sl
21884 16093 Sm
21919 16084 Sl
21919 16084 Sm
21954 16077 Sl
21954 16077 Sm
21989 16084 Sl
21989 16084 Sm
22025 16091 Sl
22025 16091 Sm
22060 16097 Sl
22060 16097 Sm
22095 16098 Sl
22095 16098 Sm
22130 16104 Sl
22130 16104 Sm
22165 16119 Sl
22165 16119 Sm
22200 16131 Sl
22200 16131 Sm
22235 16142 Sl
22235 16142 Sm
22271 16150 Sl
22271 16150 Sm
22306 16155 Sl
22306 16155 Sm
22341 16154 Sl
22341 16154 Sm
22376 16163 Sl
22376 16163 Sm
22411 16173 Sl
22411 16173 Sm
22446 16176 Sl
22446 16176 Sm
22482 16175 Sl
22482 16175 Sm
22517 16192 Sl
22517 16192 Sm
22552 16199 Sl
22552 16199 Sm
22587 16196 Sl
22587 16196 Sm
22622 16186 Sl
22622 16186 Sm
22657 16184 Sl
22657 16184 Sm
22692 16174 Sl
22692 16174 Sm
22728 16162 Sl
22728 16162 Sm
22763 16145 Sl
22763 16145 Sm
22798 16146 Sl
22798 16146 Sm
22833 16137 Sl
22833 16137 Sm
22868 16143 Sl
22868 16143 Sm
22903 16150 Sl
22903 16150 Sm
22939 16162 Sl
22939 16162 Sm
22974 16172 Sl
22974 16172 Sm
23009 16203 Sl
23009 16203 Sm
23044 16247 Sl
23044 16247 Sm
23079 16275 Sl
23079 16275 Sm
23114 16293 Sl
23114 16293 Sm
23149 16320 Sl
23149 16320 Sm
23185 16389 Sl
23185 16389 Sm
23220 16420 Sl
23220 16420 Sm
23255 16424 Sl
23255 16424 Sm
23290 16426 Sl
23290 16426 Sm
23325 16436 Sl
23325 16436 Sm
23360 16429 Sl
23360 16429 Sm
23395 16437 Sl
23395 16437 Sm
23431 16453 Sl
23431 16453 Sm
23466 16443 Sl
23466 16443 Sm
23501 16432 Sl
23501 16432 Sm
23536 16491 Sl
23536 16491 Sm
23571 16548 Sl
23571 16548 Sm
23606 16577 Sl
23606 16577 Sm
23642 16583 Sl
23642 16583 Sm
23677 16656 Sl
23677 16656 Sm
23712 16733 Sl
23712 16733 Sm
23747 16783 Sl
23747 16783 Sm
23782 16848 Sl
23782 16848 Sm
23817 17034 Sl
23817 17034 Sm
23852 17180 Sl
23852 17180 Sm
23888 17301 Sl
23888 17301 Sm
23923 17385 Sl
23923 17385 Sm
23958 17482 Sl
23958 17482 Sm
23993 17592 Sl
23993 17592 Sm
24028 17737 Sl
24028 17737 Sm
24063 17938 Sl
24063 17938 Sm
24098 18034 Sl
24098 18034 Sm
24134 18086 Sl
24134 18086 Sm
24169 18224 Sl
24169 18224 Sm
24204 18720 Sl
24204 18720 Sm
24239 19005 Sl
24239 19005 Sm
24274 19151 Sl
24274 19151 Sm
24309 19324 Sl
24309 19324 Sm
24345 19741 Sl
24345 19741 Sm
24380 19957 Sl
24380 19957 Sm
24415 20058 Sl
24415 20058 Sm
24450 20165 Sl
24450 20165 Sm
24485 20108 Sl
24485 20108 Sm
24520 19909 Sl
24520 19909 Sm
24555 19810 Sl
24555 19810 Sm
24591 19571 Sl
24591 19571 Sm
24626 19116 Sl
24626 19116 Sm
24661 18532 Sl
24661 18532 Sm
24696 18350 Sl
24696 18350 Sm
24731 18151 Sl
24731 18151 Sm
24766 17820 Sl
24766 17820 Sm
24802 17552 Sl
24802 17552 Sm
24837 17344 Sl
24837 17344 Sm
24872 17199 Sl
24872 17199 Sm
24907 17078 Sl
24907 17078 Sm
24942 16914 Sl
24942 16914 Sm
24977 16733 Sl
24977 16733 Sm
25012 16540 Sl
25012 16540 Sm
25048 16366 Sl
25048 16366 Sm
25083 16313 Sl
25083 16313 Sm
25118 16272 Sl
25118 16272 Sm
25153 16232 Sl
25153 16232 Sm
25188 16208 Sl
25188 16208 Sm
25223 16212 Sl
25223 16212 Sm
25258 16221 Sl
25258 16221 Sm
25294 16219 Sl
25294 16219 Sm
25329 16219 Sl
25329 16219 Sm
25364 16215 Sl
25364 16215 Sm
25399 16203 Sl
25399 16203 Sm
25434 16185 Sl
25434 16185 Sm
25469 16172 Sl
25469 16172 Sm
25505 16162 Sl
25505 16162 Sm
25540 16147 Sl
25540 16147 Sm
25575 16141 Sl
25575 16141 Sm
25610 16140 Sl
25610 16140 Sm
25645 16140 Sl
25645 16140 Sm
25680 16149 Sl
25680 16149 Sm
25715 16161 Sl
25715 16161 Sm
25751 16169 Sl
25751 16169 Sm
25786 16165 Sl
25786 16165 Sm
25821 16153 Sl
25821 16153 Sm
25856 16146 Sl
25856 16146 Sm
25891 16146 Sl
25891 16146 Sm
25926 16143 Sl
25926 16143 Sm
25962 16137 Sl
25962 16137 Sm
25997 16125 Sl
25997 16125 Sm
26032 16118 Sl
26032 16118 Sm
26067 16122 Sl
26067 16122 Sm
26102 16128 Sl
26102 16128 Sm
26137 16129 Sl
26137 16129 Sm
26172 16125 Sl
26172 16125 Sm
26208 16120 Sl
26208 16120 Sm
26243 16130 Sl
26243 16130 Sm
26278 16135 Sl
26278 16135 Sm
26313 16135 Sl
26313 16135 Sm
26348 16132 Sl
26348 16132 Sm
26383 16128 Sl
26383 16128 Sm
26418 16134 Sl
26418 16134 Sm
26454 16137 Sl
26454 16137 Sm
26489 16133 Sl
26489 16133 Sm
26524 16124 Sl
26524 16124 Sm
26559 16107 Sl
26559 16107 Sm
26594 16101 Sl
26594 16101 Sm
26629 16094 Sl
26629 16094 Sm
26665 16086 Sl
26665 16086 Sm
26700 16078 Sl
26700 16078 Sm
26735 16068 Sl
26735 16068 Sm
26770 16065 Sl
26770 16065 Sm
26805 16064 Sl
26805 16064 Sm
26840 16065 Sl
26840 16065 Sm
26875 16064 Sl
26875 16064 Sm
26911 16062 Sl
26911 16062 Sm
26946 16059 Sl
26946 16059 Sm
26981 16055 Sl
26981 16055 Sm
27016 16051 Sl
27016 16051 Sm
27051 16051 Sl
27051 16051 Sm
27086 16051 Sl
27086 16051 Sm
27121 16051 Sl
27121 16051 Sm
27157 16051 Sl
27157 16051 Sm
27192 16051 Sl
27192 16051 Sm
27227 16051 Sl
27227 16051 Sm
27262 16051 Sl
27262 16051 Sm
27297 16051 Sl
27297 16051 Sm
27332 16051 Sl
27332 16051 Sm
27368 16051 Sl
27368 16051 Sm
27403 16051 Sl
27403 16051 Sm
27438 16051 Sl
27438 16051 Sm
27473 16051 Sl
27473 16051 Sm
27508 16051 Sl
27508 16051 Sm
27543 16051 Sl
27543 16051 Sm
27578 16054 Sl
27578 16054 Sm
27614 16059 Sl
27614 16059 Sm
27649 16062 Sl
27649 16062 Sm
27684 16064 Sl
27684 16064 Sm
27719 16065 Sl
27719 16065 Sm
27754 16065 Sl
27754 16065 Sm
27789 16063 Sl
27789 16063 Sm
27825 16061 Sl
27825 16061 Sm
27860 16058 Sl
27860 16058 Sm
27895 16054 Sl
27895 16054 Sm
27930 16051 Sl
27930 16051 Sm
27965 16051 Sl
27965 16051 Sm
28000 16054 Sl
28000 16054 Sm
28035 16058 Sl
28035 16058 Sm
28071 16061 Sl
28071 16061 Sm
28106 16063 Sl
28106 16063 Sm
28141 16064 Sl
28141 16064 Sm
28176 16065 Sl
28176 16065 Sm
28211 16064 Sl
28211 16064 Sm
28246 16062 Sl
28246 16062 Sm
28281 16059 Sl
28281 16059 Sm
28317 16055 Sl
28317 16055 Sm
28352 16051 Sl
28352 16051 Sm
28387 16051 Sl
28387 16051 Sm
28422 16051 Sl
28422 16051 Sm
28457 16051 Sl
28457 16051 Sm
28492 16051 Sl
28492 16051 Sm
28528 16051 Sl
28528 16051 Sm
28563 16051 Sl
28563 16051 Sm
28598 16051 Sl
28598 16051 Sm
28633 16051 Sl
28633 16051 Sm
28668 16051 Sl
28668 16051 Sm
28703 16051 Sl
28703 16051 Sm
28738 16051 Sl
28738 16051 Sm
28774 16051 Sl
28774 16051 Sm
28809 16051 Sl
28809 16051 Sm
28844 16051 Sl
28844 16051 Sm
28879 16051 Sl
28879 16051 Sm
28914 16051 Sl
28914 16051 Sm
28949 16051 Sl
28949 16051 Sm
28984 16051 Sl
28984 16051 Sm
29020 16051 Sl
29020 16051 Sm
29055 16051 Sl
29055 16051 Sm
29090 16052 Sl
29090 16052 Sm
29125 16056 Sl
29125 16056 Sm
29160 16060 Sl
29160 16060 Sm
29195 16063 Sl
29195 16063 Sm
29231 16064 Sl
29231 16064 Sm
29266 16065 Sl
/Slrgb {0.565 0.208 0.231} def
20372 16054 Sm
20401 16054 Sl
20401 16054 Sm
20429 16054 Sl
20429 16054 Sm
20458 16053 Sl
20458 16053 Sm
20486 16052 Sl
20486 16052 Sm
20515 16052 Sl
20515 16052 Sm
20543 16051 Sl
20543 16051 Sm
20571 16051 Sl
20571 16051 Sm
20600 16052 Sl
20600 16052 Sm
20628 16052 Sl
20628 16052 Sm
20657 16053 Sl
20657 16053 Sm
20685 16053 Sl
20685 16053 Sm
20714 16054 Sl
20714 16054 Sm
20742 16054 Sl
20742 16054 Sm
20771 16054 Sl
20771 16054 Sm
20799 16054 Sl
20799 16054 Sm
20828 16054 Sl
20828 16054 Sm
20856 16054 Sl
20856 16054 Sm
20885 16055 Sl
20885 16055 Sm
20913 16055 Sl
20913 16055 Sm
20942 16056 Sl
20942 16056 Sm
20970 16056 Sl
20970 16056 Sm
20999 16057 Sl
20999 16057 Sm
21027 16056 Sl
21027 16056 Sm
21056 16056 Sl
21056 16056 Sm
21084 16055 Sl
21084 16055 Sm
21113 16054 Sl
21113 16054 Sm
21141 16054 Sl
21141 16054 Sm
21170 16054 Sl
21170 16054 Sm
21198 16054 Sl
21198 16054 Sm
21227 16054 Sl
21227 16054 Sm
21255 16054 Sl
21255 16054 Sm
21284 16054 Sl
21284 16054 Sm
21312 16054 Sl
21312 16054 Sm
21341 16053 Sl
21341 16053 Sm
21369 16053 Sl
21369 16053 Sm
21398 16052 Sl
21398 16052 Sm
21426 16051 Sl
21426 16051 Sm
21455 16052 Sl
21455 16052 Sm
21483 16054 Sl
21483 16054 Sm
21512 16057 Sl
21512 16057 Sm
21540 16059 Sl
21540 16059 Sm
21569 16061 Sl
21569 16061 Sm
21597 16062 Sl
21597 16062 Sm
21626 16062 Sl
21626 16062 Sm
21654 16062 Sl
21654 16062 Sm
21683 16061 Sl
21683 16061 Sm
21711 16059 Sl
21711 16059 Sm
21740 16057 Sl
21740 16057 Sm
21768 16054 Sl
21768 16054 Sm
21797 16051 Sl
21797 16051 Sm
21825 16051 Sl
21825 16051 Sm
21853 16052 Sl
21853 16052 Sm
21882 16053 Sl
21882 16053 Sm
21910 16053 Sl
21910 16053 Sm
21939 16054 Sl
21939 16054 Sm
21967 16054 Sl
21967 16054 Sm
21996 16055 Sl
21996 16055 Sm
22024 16058 Sl
22024 16058 Sm
22053 16059 Sl
22053 16059 Sm
22081 16060 Sl
22081 16060 Sm
22110 16061 Sl
22110 16061 Sm
22138 16062 Sl
22138 16062 Sm
22167 16063 Sl
22167 16063 Sm
22195 16064 Sl
22195 16064 Sm
22224 16063 Sl
22224 16063 Sm
22252 16062 Sl
22252 16062 Sm
22281 16059 Sl
22281 16059 Sm
22309 16058 Sl
22309 16058 Sm
22338 16059 Sl
22338 16059 Sm
22366 16059 Sl
22366 16059 Sm
22395 16058 Sl
22395 16058 Sm
22423 16058 Sl
22423 16058 Sm
22452 16058 Sl
22452 16058 Sm
22480 16060 Sl
22480 16060 Sm
22509 16066 Sl
22509 16066 Sm
22537 16073 Sl
22537 16073 Sm
22566 16078 Sl
22566 16078 Sm
22594 16081 Sl
22594 16081 Sm
22623 16083 Sl
22623 16083 Sm
22651 16086 Sl
22651 16086 Sm
22680 16089 Sl
22680 16089 Sm
22708 16090 Sl
22708 16090 Sm
22737 16089 Sl
22737 16089 Sm
22765 16087 Sl
22765 16087 Sm
22794 16085 Sl
22794 16085 Sm
22822 16089 Sl
22822 16089 Sm
22851 16096 Sl
22851 16096 Sm
22879 16101 Sl
22879 16101 Sm
22908 16103 Sl
22908 16103 Sm
22936 16104 Sl
22936 16104 Sm
22965 16104 Sl
22965 16104 Sm
22993 16107 Sl
22993 16107 Sm
23022 16120 Sl
23022 16120 Sm
23050 16131 Sl
23050 16131 Sm
23079 16137 Sl
23079 16137 Sm
23107 16145 Sl
23107 16145 Sm
23135 16155 Sl
23135 16155 Sm
23164 16163 Sl
23164 16163 Sm
23192 16188 Sl
23192 16188 Sm
23221 16204 Sl
23221 16204 Sm
23249 16210 Sl
23249 16210 Sm
23278 16212 Sl
23278 16212 Sm
23306 16216 Sl
23306 16216 Sm
23335 16236 Sl
23335 16236 Sm
23363 16252 Sl
23363 16252 Sm
23392 16255 Sl
23392 16255 Sm
23420 16253 Sl
23420 16253 Sm
23449 16255 Sl
23449 16255 Sm
23477 16250 Sl
23477 16250 Sm
23506 16256 Sl
23506 16256 Sm
23534 16293 Sl
23534 16293 Sm
23563 16321 Sl
23563 16321 Sm
23591 16333 Sl
23591 16333 Sm
23620 16338 Sl
23620 16338 Sm
23648 16361 Sl
23648 16361 Sm
23677 16385 Sl
23677 16385 Sm
23705 16444 Sl
23705 16444 Sm
23734 16471 Sl
23734 16471 Sm
23762 16482 Sl
23762 16482 Sm
23791 16490 Sl
23791 16490 Sm
23819 16517 Sl
23819 16517 Sm
23848 16590 Sl
23848 16590 Sm
23876 16651 Sl
23876 16651 Sm
23905 16686 Sl
23905 16686 Sm
23933 16690 Sl
23933 16690 Sm
23962 16690 Sl
23962 16690 Sm
23990 16697 Sl
23990 16697 Sm
24019 16732 Sl
24019 16732 Sm
24047 16808 Sl
24047 16808 Sm
24076 16842 Sl
24076 16842 Sm
24104 16846 Sl
24104 16846 Sm
24133 16857 Sl
24133 16857 Sm
24161 16985 Sl
24161 16985 Sm
24190 17148 Sl
24190 17148 Sm
24218 17460 Sl
24218 17460 Sm
24247 17676 Sl
24247 17676 Sm
24275 17827 Sl
24275 17827 Sm
24304 17949 Sl
24304 17949 Sm
24332 18120 Sl
24332 18120 Sm
24361 18332 Sl
24361 18332 Sm
24389 18466 Sl
24389 18466 Sm
24418 18540 Sl
24418 18540 Sm
24446 18557 Sl
24446 18557 Sm
24474 18586 Sl
24474 18586 Sm
24503 18669 Sl
24503 18669 Sm
24531 18847 Sl
24531 18847 Sm
24560 19090 Sl
24560 19090 Sm
24588 19183 Sl
24588 19183 Sm
24617 19160 Sl
24617 19160 Sm
24645 19086 Sl
24645 19086 Sm
24674 19127 Sl
24674 19127 Sm
24702 19152 Sl
24702 19152 Sm
24731 19252 Sl
24731 19252 Sm
24759 19195 Sl
24759 19195 Sm
24788 19142 Sl
24788 19142 Sm
24816 19032 Sl
24816 19032 Sm
24845 19028 Sl
24845 19028 Sm
24873 19028 Sl
24873 19028 Sm
24902 18993 Sl
24902 18993 Sm
24930 18843 Sl
24930 18843 Sm
24959 18619 Sl
24959 18619 Sm
24987 18361 Sl
24987 18361 Sm
25016 18165 Sl
25016 18165 Sm
25044 18135 Sl
25044 18135 Sm
25073 18051 Sl
25073 18051 Sm
25101 17897 Sl
25101 17897 Sm
25130 17746 Sl
25130 17746 Sm
25158 17575 Sl
25158 17575 Sm
25187 17444 Sl
25187 17444 Sm
25215 17376 Sl
25215 17376 Sm
25244 17286 Sl
25244 17286 Sm
25272 17149 Sl
25272 17149 Sm
25301 17023 Sl
25301 17023 Sm
25329 16912 Sl
25329 16912 Sm
25358 16876 Sl
25358 16876 Sm
25386 16820 Sl
25386 16820 Sm
25415 16765 Sl
25415 16765 Sm
25443 16700 Sl
25443 16700 Sm
25472 16641 Sl
25472 16641 Sm
25500 16568 Sl
25500 16568 Sm
25529 16511 Sl
25529 16511 Sm
25557 16499 Sl
25557 16499 Sm
25586 16486 Sl
25586 16486 Sm
25614 16468 Sl
25614 16468 Sm
25643 16458 Sl
25643 16458 Sm
25671 16444 Sl
25671 16444 Sm
25700 16435 Sl
25700 16435 Sm
25728 16433 Sl
25728 16433 Sm
25756 16420 Sl
25756 16420 Sm
25785 16391 Sl
25785 16391 Sm
25813 16354 Sl
25813 16354 Sm
25842 16317 Sl
25842 16317 Sm
25870 16292 Sl
25870 16292 Sm
25899 16265 Sl
25899 16265 Sm
25927 16240 Sl
25927 16240 Sm
25956 16215 Sl
25956 16215 Sm
25984 16196 Sl
25984 16196 Sm
26013 16187 Sl
26013 16187 Sm
26041 16181 Sl
26041 16181 Sm
26070 16180 Sl
26070 16180 Sm
26098 16179 Sl
26098 16179 Sm
26127 16174 Sl
26127 16174 Sm
26155 16174 Sl
26155 16174 Sm
26184 16171 Sl
26184 16171 Sm
26212 16171 Sl
26212 16171 Sm
26241 16170 Sl
26241 16170 Sm
26269 16167 Sl
26269 16167 Sm
26298 16162 Sl
26298 16162 Sm
26326 16156 Sl
26326 16156 Sm
26355 16150 Sl
26355 16150 Sm
26383 16146 Sl
26383 16146 Sm
26412 16141 Sl
26412 16141 Sm
26440 16135 Sl
26440 16135 Sm
26469 16126 Sl
26469 16126 Sm
26497 16116 Sl
26497 16116 Sm
26526 16109 Sl
26526 16109 Sm
26554 16099 Sl
26554 16099 Sm
26583 16091 Sl
26583 16091 Sm
26611 16083 Sl
26611 16083 Sm
26640 16074 Sl
26640 16074 Sm
26668 16069 Sl
26668 16069 Sm
26697 16066 Sl
26697 16066 Sm
26725 16064 Sl
26725 16064 Sm
26754 16063 Sl
26754 16063 Sm
26782 16063 Sl
26782 16063 Sm
26811 16064 Sl
26811 16064 Sm
26839 16066 Sl
26839 16066 Sm
26868 16068 Sl
26868 16068 Sm
26896 16070 Sl
26896 16070 Sm
26925 16071 Sl
26925 16071 Sm
26953 16071 Sl
26953 16071 Sm
26982 16070 Sl
26982 16070 Sm
27010 16068 Sl
27010 16068 Sm
27038 16064 Sl
27038 16064 Sm
27067 16062 Sl
27067 16062 Sm
27095 16060 Sl
27095 16060 Sm
27124 16058 Sl
27124 16058 Sm
27152 16056 Sl
27152 16056 Sm
27181 16055 Sl
27181 16055 Sm
27209 16054 Sl
27209 16054 Sm
27238 16054 Sl
27238 16054 Sm
27266 16054 Sl
27266 16054 Sm
27295 16053 Sl
27295 16053 Sm
27323 16053 Sl
27323 16053 Sm
27352 16052 Sl
27352 16052 Sm
27380 16051 Sl
27380 16051 Sm
27409 16051 Sl
27409 16051 Sm
27437 16051 Sl
27437 16051 Sm
27466 16051 Sl
27466 16051 Sm
27494 16051 Sl
27494 16051 Sm
27523 16051 Sl
27523 16051 Sm
27551 16051 Sl
27551 16051 Sm
27580 16051 Sl
27580 16051 Sm
27608 16051 Sl
27608 16051 Sm
27637 16051 Sl
27637 16051 Sm
27665 16051 Sl
27665 16051 Sm
27694 16051 Sl
27694 16051 Sm
27722 16051 Sl
27722 16051 Sm
27751 16051 Sl
27751 16051 Sm
27779 16051 Sl
27779 16051 Sm
27808 16051 Sl
27808 16051 Sm
27836 16051 Sl
27836 16051 Sm
27865 16051 Sl
27865 16051 Sm
27893 16051 Sl
27893 16051 Sm
27922 16051 Sl
27922 16051 Sm
27950 16051 Sl
27950 16051 Sm
27979 16051 Sl
27979 16051 Sm
28007 16051 Sl
28007 16051 Sm
28036 16051 Sl
28036 16051 Sm
28064 16051 Sl
28064 16051 Sm
28093 16051 Sl
28093 16051 Sm
28121 16051 Sl
28121 16051 Sm
28150 16051 Sl
28150 16051 Sm
28178 16051 Sl
28178 16051 Sm
28207 16051 Sl
28207 16051 Sm
28235 16051 Sl
28235 16051 Sm
28264 16051 Sl
28264 16051 Sm
28292 16051 Sl
28292 16051 Sm
28321 16051 Sl
28321 16051 Sm
28349 16051 Sl
28349 16051 Sm
28377 16051 Sl
28377 16051 Sm
28406 16051 Sl
28406 16051 Sm
28434 16051 Sl
28434 16051 Sm
28463 16051 Sl
28463 16051 Sm
28491 16051 Sl
28491 16051 Sm
28520 16051 Sl
28520 16051 Sm
28548 16051 Sl
28548 16051 Sm
28577 16051 Sl
28577 16051 Sm
28605 16051 Sl
28605 16051 Sm
28634 16051 Sl
28634 16051 Sm
28662 16051 Sl
28662 16051 Sm
28691 16051 Sl
28691 16051 Sm
28719 16051 Sl
28719 16051 Sm
28748 16052 Sl
28748 16052 Sm
28776 16052 Sl
28776 16052 Sm
28805 16053 Sl
28805 16053 Sm
28833 16054 Sl
28833 16054 Sm
28862 16054 Sl
28862 16054 Sm
28890 16054 Sl
/Slrgb {0.333 0.459 0.184} def
17736 16059 Sm
17772 16059 Sl
17772 16059 Sm
17808 16059 Sl
17808 16059 Sm
17844 16058 Sl
17844 16058 Sm
17880 16058 Sl
17880 16058 Sm
17916 16057 Sl
17916 16057 Sm
17953 16057 Sl
17953 16057 Sm
17989 16056 Sl
17989 16056 Sm
18025 16055 Sl
18025 16055 Sm
18061 16054 Sl
18061 16054 Sm
18097 16053 Sl
18097 16053 Sm
18133 16053 Sl
18133 16053 Sm
18169 16054 Sl
18169 16054 Sm
18206 16055 Sl
18206 16055 Sm
18242 16056 Sl
18242 16056 Sm
18278 16056 Sl
18278 16056 Sm
18314 16057 Sl
18314 16057 Sm
18350 16058 Sl
18350 16058 Sm
18386 16058 Sl
18386 16058 Sm
18423 16059 Sl
18423 16059 Sm
18459 16059 Sl
18459 16059 Sm
18495 16059 Sl
18495 16059 Sm
18531 16059 Sl
18531 16059 Sm
18567 16059 Sl
18567 16059 Sm
18603 16058 Sl
18603 16058 Sm
18639 16058 Sl
18639 16058 Sm
18676 16057 Sl
18676 16057 Sm
18712 16057 Sl
18712 16057 Sm
18748 16056 Sl
18748 16056 Sm
18784 16055 Sl
18784 16055 Sm
18820 16054 Sl
18820 16054 Sm
18856 16053 Sl
18856 16053 Sm
18892 16052 Sl
18892 16052 Sm
18929 16051 Sl
18929 16051 Sm
18965 16051 Sl
18965 16051 Sm
19001 16051 Sl
19001 16051 Sm
19037 16051 Sl
19037 16051 Sm
19073 16051 Sl
19073 16051 Sm
19109 16051 Sl
19109 16051 Sm
19146 16051 Sl
19146 16051 Sm
19182 16051 Sl
19182 16051 Sm
19218 16051 Sl
19218 16051 Sm
19254 16051 Sl
19254 16051 Sm
19290 16051 Sl
19290 16051 Sm
19326 16051 Sl
19326 16051 Sm
19362 16051 Sl
19362 16051 Sm
19399 16051 Sl
19399 16051 Sm
19435 16051 Sl
19435 16051 Sm
19471 16051 Sl
19471 16051 Sm
19507 16051 Sl
19507 16051 Sm
19543 16051 Sl
19543 16051 Sm
19579 16051 Sl
19579 16051 Sm
19616 16051 Sl
19616 16051 Sm
19652 16051 Sl
19652 16051 Sm
19688 16051 Sl
19688 16051 Sm
19724 16051 Sl
19724 16051 Sm
19760 16051 Sl
19760 16051 Sm
19796 16051 Sl
19796 16051 Sm
19832 16051 Sl
19832 16051 Sm
19869 16051 Sl
19869 16051 Sm
19905 16051 Sl
19905 16051 Sm
19941 16052 Sl
19941 16052 Sm
19977 16054 Sl
19977 16054 Sm
20013 16055 Sl
20013 16055 Sm
20049 16056 Sl
20049 16056 Sm
20086 16056 Sl
20086 16056 Sm
20122 16057 Sl
20122 16057 Sm
20158 16058 Sl
20158 16058 Sm
20194 16058 Sl
20194 16058 Sm
20230 16058 Sl
20230 16058 Sm
20266 16059 Sl
20266 16059 Sm
20302 16059 Sl
20302 16059 Sm
20339 16059 Sl
20339 16059 Sm
20375 16059 Sl
20375 16059 Sm
20411 16058 Sl
20411 16058 Sm
20447 16058 Sl
20447 16058 Sm
20483 16058 Sl
20483 16058 Sm
20519 16057 Sl
20519 16057 Sm
20556 16056 Sl
20556 16056 Sm
20592 16057 Sl
20592 16057 Sm
20628 16057 Sl
20628 16057 Sm
20664 16057 Sl
20664 16057 Sm
20700 16057 Sl
20700 16057 Sm
20736 16057 Sl
20736 16057 Sm
20772 16059 Sl
20772 16059 Sm
20809 16061 Sl
20809 16061 Sm
20845 16062 Sl
20845 16062 Sm
20881 16064 Sl
20881 16064 Sm
20917 16065 Sl
20917 16065 Sm
20953 16065 Sl
20953 16065 Sm
20989 16066 Sl
20989 16066 Sm
21025 16066 Sl
21025 16066 Sm
21062 16066 Sl
21062 16066 Sm
21098 16066 Sl
21098 16066 Sm
21134 16065 Sl
21134 16065 Sm
21170 16065 Sl
21170 16065 Sm
21206 16066 Sl
21206 16066 Sm
21242 16065 Sl
21242 16065 Sm
21279 16065 Sl
21279 16065 Sm
21315 16064 Sl
21315 16064 Sm
21351 16063 Sl
21351 16063 Sm
21387 16064 Sl
21387 16064 Sm
21423 16066 Sl
21423 16066 Sm
21459 16068 Sl
21459 16068 Sm
21495 16069 Sl
21495 16069 Sm
21532 16069 Sl
21532 16069 Sm
21568 16071 Sl
21568 16071 Sm
21604 16072 Sl
21604 16072 Sm
21640 16073 Sl
21640 16073 Sm
21676 16073 Sl
21676 16073 Sm
21712 16074 Sl
21712 16074 Sm
21749 16078 Sl
21749 16078 Sm
21785 16087 Sl
21785 16087 Sm
21821 16095 Sl
21821 16095 Sm
21857 16102 Sl
21857 16102 Sm
21893 16108 Sl
21893 16108 Sm
21929 16113 Sl
21929 16113 Sm
21965 16117 Sl
21965 16117 Sm
22002 16122 Sl
22002 16122 Sm
22038 16128 Sl
22038 16128 Sm
22074 16135 Sl
22074 16135 Sm
22110 16142 Sl
22110 16142 Sm
22146 16149 Sl
22146 16149 Sm
22182 16154 Sl
22182 16154 Sm
22219 16160 Sl
22219 16160 Sm
22255 16170 Sl
22255 16170 Sm
22291 16188 Sl
22291 16188 Sm
22327 16202 Sl
22327 16202 Sm
22363 16213 Sl
22363 16213 Sm
22399 16222 Sl
22399 16222 Sm
22435 16233 Sl
22435 16233 Sm
22472 16242 Sl
22472 16242 Sm
22508 16251 Sl
22508 16251 Sm
22544 16260 Sl
22544 16260 Sm
22580 16290 Sl
22580 16290 Sm
22616 16316 Sl
22616 16316 Sm
22652 16339 Sl
22652 16339 Sm
22688 16358 Sl
22688 16358 Sm
22725 16375 Sl
22725 16375 Sm
22761 16390 Sl
22761 16390 Sm
22797 16410 Sl
22797 16410 Sm
22833 16427 Sl
22833 16427 Sm
22869 16440 Sl
22869 16440 Sm
22905 16452 Sl
22905 16452 Sm
22942 16471 Sl
22942 16471 Sm
22978 16488 Sl
22978 16488 Sm
23014 16495 Sl
23014 16495 Sm
23050 16495 Sl
23050 16495 Sm
23086 16507 Sl
23086 16507 Sm
23122 16518 Sl
23122 16518 Sm
23158 16521 Sl
23158 16521 Sm
23195 16519 Sl
23195 16519 Sm
23231 16512 Sl
23231 16512 Sm
23267 16508 Sl
23267 16508 Sm
23303 16512 Sl
23303 16512 Sm
23339 16510 Sl
23339 16510 Sm
23375 16511 Sl
23375 16511 Sm
23412 16520 Sl
23412 16520 Sm
23448 16549 Sl
23448 16549 Sm
23484 16587 Sl
23484 16587 Sm
23520 16616 Sl
23520 16616 Sm
23556 16643 Sl
23556 16643 Sm
23592 16693 Sl
23592 16693 Sm
23628 16746 Sl
23628 16746 Sm
23665 16791 Sl
23665 16791 Sm
23701 16829 Sl
23701 16829 Sm
23737 16866 Sl
23737 16866 Sm
23773 16915 Sl
23773 16915 Sm
23809 16961 Sl
23809 16961 Sm
23845 16995 Sl
23845 16995 Sm
23882 17016 Sl
23882 17016 Sm
23918 17048 Sl
23918 17048 Sm
23954 17110 Sl
23954 17110 Sm
23990 17193 Sl
23990 17193 Sm
24026 17258 Sl
24026 17258 Sm
24062 17304 Sl
24062 17304 Sm
24098 17355 Sl
24098 17355 Sm
24135 17411 Sl
24135 17411 Sm
24171 17438 Sl
24171 17438 Sm
24207 17462 Sl
24207 17462 Sm
24243 17491 Sl
24243 17491 Sm
24279 17571 Sl
24279 17571 Sm
24315 17638 Sl
24315 17638 Sm
24352 17680 Sl
24352 17680 Sm
24388 17717 Sl
24388 17717 Sm
24424 17760 Sl
24424 17760 Sm
24460 17806 Sl
24460 17806 Sm
24496 17864 Sl
24496 17864 Sm
24532 17897 Sl
24532 17897 Sm
24568 17914 Sl
24568 17914 Sm
24605 17921 Sl
24605 17921 Sm
24641 17937 Sl
24641 17937 Sm
24677 17921 Sl
24677 17921 Sm
24713 17872 Sl
24713 17872 Sm
24749 17827 Sl
24749 17827 Sm
24785 17842 Sl
24785 17842 Sm
24821 17844 Sl
24821 17844 Sm
24858 17822 Sl
24858 17822 Sm
24894 17777 Sl
24894 17777 Sm
24930 17734 Sl
24930 17734 Sm
24966 17685 Sl
24966 17685 Sm
25002 17628 Sl
25002 17628 Sm
25038 17570 Sl
25038 17570 Sm
25075 17515 Sl
25075 17515 Sm
25111 17469 Sl
25111 17469 Sm
25147 17424 Sl
25147 17424 Sm
25183 17365 Sl
25183 17365 Sm
25219 17292 Sl
25219 17292 Sm
25255 17203 Sl
25255 17203 Sm
25291 17143 Sl
25291 17143 Sm
25328 17086 Sl
25328 17086 Sm
25364 17016 Sl
25364 17016 Sm
25400 16939 Sl
25400 16939 Sm
25436 16864 Sl
25436 16864 Sm
25472 16811 Sl
25472 16811 Sm
25508 16743 Sl
25508 16743 Sm
25545 16673 Sl
25545 16673 Sm
25581 16613 Sl
25581 16613 Sm
25617 16571 Sl
25617 16571 Sm
25653 16527 Sl
25653 16527 Sm
25689 16480 Sl
25689 16480 Sm
25725 16430 Sl
25725 16430 Sm
25761 16383 Sl
25761 16383 Sm
25798 16354 Sl
25798 16354 Sm
25834 16339 Sl
25834 16339 Sm
25870 16318 Sl
25870 16318 Sm
25906 16293 Sl
25906 16293 Sm
25942 16271 Sl
25942 16271 Sm
25978 16266 Sl
25978 16266 Sm
26015 16258 Sl
26015 16258 Sm
26051 16249 Sl
26051 16249 Sm
26087 16239 Sl
26087 16239 Sm
26123 16231 Sl
26123 16231 Sm
26159 16222 Sl
26159 16222 Sm
26195 16211 Sl
26195 16211 Sm
26231 16202 Sl
26231 16202 Sm
26268 16191 Sl
26268 16191 Sm
26304 16180 Sl
26304 16180 Sm
26340 16169 Sl
26340 16169 Sm
26376 16159 Sl
26376 16159 Sm
26412 16148 Sl
26412 16148 Sm
26448 16139 Sl
26448 16139 Sm
26484 16133 Sl
26484 16133 Sm
26521 16126 Sl
26521 16126 Sm
26557 16119 Sl
26557 16119 Sm
26593 16115 Sl
26593 16115 Sm
26629 16114 Sl
26629 16114 Sm
26665 16115 Sl
26665 16115 Sm
26701 16115 Sl
26701 16115 Sm
26738 16114 Sl
26738 16114 Sm
26774 16112 Sl
26774 16112 Sm
26810 16108 Sl
26810 16108 Sm
26846 16105 Sl
26846 16105 Sm
26882 16101 Sl
26882 16101 Sm
26918 16096 Sl
26918 16096 Sm
26954 16093 Sl
26954 16093 Sm
26991 16089 Sl
26991 16089 Sm
27027 16085 Sl
27027 16085 Sm
27063 16081 Sl
27063 16081 Sm
27099 16076 Sl
27099 16076 Sm
27135 16073 Sl
27135 16073 Sm
27171 16071 Sl
27171 16071 Sm
27208 16070 Sl
27208 16070 Sm
27244 16068 Sl
27244 16068 Sm
27280 16066 Sl
27280 16066 Sm
27316 16065 Sl
27316 16065 Sm
27352 16063 Sl
27352 16063 Sm
27388 16061 Sl
27388 16061 Sm
27424 16061 Sl
27424 16061 Sm
27461 16062 Sl
27461 16062 Sm
27497 16061 Sl
27497 16061 Sm
27533 16061 Sl
27533 16061 Sm
27569 16060 Sl
27569 16060 Sm
27605 16060 Sl
27605 16060 Sm
27641 16059 Sl
27641 16059 Sm
27678 16061 Sl
27678 16061 Sm
27714 16062 Sl
27714 16062 Sm
27750 16063 Sl
27750 16063 Sm
27786 16063 Sl
27786 16063 Sm
27822 16064 Sl
27822 16064 Sm
27858 16064 Sl
27858 16064 Sm
27894 16064 Sl
27894 16064 Sm
27931 16064 Sl
27931 16064 Sm
27967 16063 Sl
27967 16063 Sm
28003 16062 Sl
28003 16062 Sm
28039 16061 Sl
28039 16061 Sm
28075 16060 Sl
28075 16060 Sm
28111 16059 Sl
28111 16059 Sm
28148 16059 Sl
28148 16059 Sm
28184 16060 Sl
28184 16060 Sm
28220 16060 Sl
28220 16060 Sm
28256 16060 Sl
28256 16060 Sm
28292 16061 Sl
28292 16061 Sm
28328 16060 Sl
28328 16060 Sm
28364 16060 Sl
28364 16060 Sm
28401 16059 Sl
28401 16059 Sm
28437 16059 Sl
28437 16059 Sm
28473 16059 Sl
28473 16059 Sm
28509 16059 Sl
28509 16059 Sm
28545 16059 Sl
/Slrgb {0.102 0.278 0.435} def
4417 7771 Sm
4447 7772 Sl
4447 7772 Sm
4476 7770 Sl
4476 7770 Sm
4505 7764 Sl
4505 7764 Sm
4535 7757 Sl
4535 7757 Sm
4564 7746 Sl
4564 7746 Sm
4594 7733 Sl
4594 7733 Sm
4623 7717 Sl
4623 7717 Sm
4653 7702 Sl
4653 7702 Sm
4682 7694 Sl
4682 7694 Sm
4711 7694 Sl
4711 7694 Sm
4741 7694 Sl
4741 7694 Sm
4770 7694 Sl
4770 7694 Sm
4800 7694 Sl
4800 7694 Sm
4829 7694 Sl
4829 7694 Sm
4859 7694 Sl
4859 7694 Sm
4888 7694 Sl
4888 7694 Sm
4917 7694 Sl
4917 7694 Sm
4947 7694 Sl
4947 7694 Sm
4976 7694 Sl
4976 7694 Sm
5006 7694 Sl
5006 7694 Sm
5035 7694 Sl
5035 7694 Sm
5065 7697 Sl
5065 7697 Sm
5094 7699 Sl
5094 7699 Sm
5123 7701 Sl
5123 7701 Sm
5153 7702 Sl
5153 7702 Sm
5182 7703 Sl
5182 7703 Sm
5212 7704 Sl
5212 7704 Sm
5241 7704 Sl
5241 7704 Sm
5271 7704 Sl
5271 7704 Sm
5300 7704 Sl
5300 7704 Sm
5329 7703 Sl
5329 7703 Sm
5359 7702 Sl
5359 7702 Sm
5388 7701 Sl
5388 7701 Sm
5418 7699 Sl
5418 7699 Sm
5447 7697 Sl
5447 7697 Sm
5477 7694 Sl
5477 7694 Sm
5506 7694 Sl
5506 7694 Sm
5535 7694 Sl
5535 7694 Sm
5565 7694 Sl
5565 7694 Sm
5594 7694 Sl
5594 7694 Sm
5624 7694 Sl
5624 7694 Sm
5653 7694 Sl
5653 7694 Sm
5683 7694 Sl
5683 7694 Sm
5712 7694 Sl
5712 7694 Sm
5742 7694 Sl
5742 7694 Sm
5771 7696 Sl
5771 7696 Sm
5800 7698 Sl
5800 7698 Sm
5830 7700 Sl
5830 7700 Sm
5859 7701 Sl
5859 7701 Sm
5889 7702 Sl
5889 7702 Sm
5918 7703 Sl
5918 7703 Sm
5948 7704 Sl
5948 7704 Sm
5977 7704 Sl
5977 7704 Sm
6006 7704 Sl
6006 7704 Sm
6036 7703 Sl
6036 7703 Sm
6065 7703 Sl
6065 7703 Sm
6095 7701 Sl
6095 7701 Sm
6124 7700 Sl
6124 7700 Sm
6154 7698 Sl
6154 7698 Sm
6183 7696 Sl
6183 7696 Sm
6212 7694 Sl
6212 7694 Sm
6242 7694 Sl
6242 7694 Sm
6271 7694 Sl
6271 7694 Sm
6301 7694 Sl
6301 7694 Sm
6330 7694 Sl
6330 7694 Sm
6360 7694 Sl
6360 7694 Sm
6389 7694 Sl
6389 7694 Sm
6418 7694 Sl
6418 7694 Sm
6448 7694 Sl
6448 7694 Sm
6477 7694 Sl
6477 7694 Sm
6507 7694 Sl
6507 7694 Sm
6536 7694 Sl
6536 7694 Sm
6566 7694 Sl
6566 7694 Sm
6595 7694 Sl
6595 7694 Sm
6624 7694 Sl
6624 7694 Sm
6654 7694 Sl
6654 7694 Sm
6683 7694 Sl
6683 7694 Sm
6713 7694 Sl
6713 7694 Sm
6742 7694 Sl
6742 7694 Sm
6772 7694 Sl
6772 7694 Sm
6801 7694 Sl
6801 7694 Sm
6830 7694 Sl
6830 7694 Sm
6860 7694 Sl
6860 7694 Sm
6889 7694 Sl
6889 7694 Sm
6919 7694 Sl
6919 7694 Sm
6948 7694 Sl
6948 7694 Sm
6978 7695 Sl
6978 7695 Sm
7007 7700 Sl
7007 7700 Sm
7036 7704 Sl
7036 7704 Sm
7066 7707 Sl
7066 7707 Sm
7095 7710 Sl
7095 7710 Sm
7125 7712 Sl
7125 7712 Sm
7154 7713 Sl
7154 7713 Sm
7184 7714 Sl
7184 7714 Sm
7213 7714 Sl
7213 7714 Sm
7242 7713 Sl
7242 7713 Sm
7272 7711 Sl
7272 7711 Sm
7301 7709 Sl
7301 7709 Sm
7331 7706 Sl
7331 7706 Sm
7360 7703 Sl
7360 7703 Sm
7390 7698 Sl
7390 7698 Sm
7419 7694 Sl
7419 7694 Sm
7448 7694 Sl
7448 7694 Sm
7478 7697 Sl
7478 7697 Sm
7507 7699 Sl
7507 7699 Sm
7537 7700 Sl
7537 7700 Sm
7566 7702 Sl
7566 7702 Sm
7596 7703 Sl
7596 7703 Sm
7625 7710 Sl
7625 7710 Sm
7655 7726 Sl
7655 7726 Sm
7684 7741 Sl
7684 7741 Sm
7713 7754 Sl
7713 7754 Sm
7743 7764 Sl
7743 7764 Sm
7772 7771 Sl
7772 7771 Sm
7802 7779 Sl
7802 7779 Sm
7831 7784 Sl
7831 7784 Sm
7861 7788 Sl
7861 7788 Sm
7890 7790 Sl
7890 7790 Sm
7919 7794 Sl
7919 7794 Sm
7949 7798 Sl
7949 7798 Sm
7978 7802 Sl
7978 7802 Sm
8008 7803 Sl
8008 7803 Sm
8037 7800 Sl
8037 7800 Sm
8067 7796 Sl
8067 7796 Sm
8096 7802 Sl
8096 7802 Sm
8125 7804 Sl
8125 7804 Sm
8155 7813 Sl
8155 7813 Sm
8184 7818 Sl
8184 7818 Sm
8214 7818 Sl
8214 7818 Sm
8243 7819 Sl
8243 7819 Sm
8273 7816 Sl
8273 7816 Sm
8302 7811 Sl
8302 7811 Sm
8331 7806 Sl
8331 7806 Sm
8361 7798 Sl
8361 7798 Sm
8390 7791 Sl
8390 7791 Sm
8420 7784 Sl
8420 7784 Sm
8449 7795 Sl
8449 7795 Sm
8479 7808 Sl
8479 7808 Sm
8508 7822 Sl
8508 7822 Sm
8537 7839 Sl
8537 7839 Sm
8567 7851 Sl
8567 7851 Sm
8596 7865 Sl
8596 7865 Sm
8626 7877 Sl
8626 7877 Sm
8655 7894 Sl
8655 7894 Sm
8685 7914 Sl
8685 7914 Sm
8714 7931 Sl
8714 7931 Sm
8743 7939 Sl
8743 7939 Sm
8773 7944 Sl
8773 7944 Sm
8802 7957 Sl
8802 7957 Sm
8832 7977 Sl
8832 7977 Sm
8861 7980 Sl
8861 7980 Sm
8891 7989 Sl
8891 7989 Sm
8920 7998 Sl
8920 7998 Sm
8949 8016 Sl
8949 8016 Sm
8979 8037 Sl
8979 8037 Sm
9008 8051 Sl
9008 8051 Sm
9038 8052 Sl
9038 8052 Sm
9067 8055 Sl
9067 8055 Sm
9097 8064 Sl
9097 8064 Sm
9126 8081 Sl
9126 8081 Sm
9155 8108 Sl
9155 8108 Sm
9185 8139 Sl
9185 8139 Sm
9214 8150 Sl
9214 8150 Sm
9244 8168 Sl
9244 8168 Sm
9273 8201 Sl
9273 8201 Sm
9303 8232 Sl
9303 8232 Sm
9332 8294 Sl
9332 8294 Sm
9362 8346 Sl
9362 8346 Sm
9391 8386 Sl
9391 8386 Sm
9420 8408 Sl
9420 8408 Sm
9450 8439 Sl
9450 8439 Sm
9479 8535 Sl
9479 8535 Sm
9509 8607 Sl
9509 8607 Sm
9538 8659 Sl
9538 8659 Sm
9568 8695 Sl
9568 8695 Sm
9597 8742 Sl
9597 8742 Sm
9626 8819 Sl
9626 8819 Sm
9656 8882 Sl
9656 8882 Sm
9685 8975 Sl
9685 8975 Sm
9715 9024 Sl
9715 9024 Sm
9744 9032 Sl
9744 9032 Sm
9774 9069 Sl
9774 9069 Sm
9803 9096 Sl
9803 9096 Sm
9832 9175 Sl
9832 9175 Sm
9862 9283 Sl
9862 9283 Sm
9891 9347 Sl
9891 9347 Sm
9921 9463 Sl
9921 9463 Sm
9950 9573 Sl
9950 9573 Sm
9980 9826 Sl
9980 9826 Sm
10009 10040 Sl
10009 10040 Sm
10038 10201 Sl
10038 10201 Sm
10068 10360 Sl
10068 10360 Sm
10097 10560 Sl
10097 10560 Sm
10127 10800 Sl
10127 10800 Sm
10156 11041 Sl
10156 11041 Sm
10186 11190 Sl
10186 11190 Sm
10215 11249 Sl
10215 11249 Sm
10244 11213 Sl
10244 11213 Sm
10274 11195 Sl
10274 11195 Sm
10303 11186 Sl
10303 11186 Sm
10333 11124 Sl
10333 11124 Sm
10362 11040 Sl
10362 11040 Sm
10392 10866 Sl
10392 10866 Sm
10421 10772 Sl
10421 10772 Sm
10450 10643 Sl
10450 10643 Sm
10480 10446 Sl
10480 10446 Sm
10509 10214 Sl
10509 10214 Sm
10539 9999 Sl
10539 9999 Sm
10568 9766 Sl
10568 9766 Sm
10598 9588 Sl
10598 9588 Sm
10627 9417 Sl
10627 9417 Sm
10656 9251 Sl
10656 9251 Sm
10686 9053 Sl
10686 9053 Sm
10715 8858 Sl
10715 8858 Sm
10745 8648 Sl
10745 8648 Sm
10774 8478 Sl
10774 8478 Sm
10804 8401 Sl
10804 8401 Sm
10833 8322 Sl
10833 8322 Sm
10862 8236 Sl
10862 8236 Sm
10892 8158 Sl
10892 8158 Sm
10921 8094 Sl
10921 8094 Sm
10951 8049 Sl
10951 8049 Sm
10980 8005 Sl
10980 8005 Sm
11010 7957 Sl
11010 7957 Sm
11039 7906 Sl
11039 7906 Sm
11068 7868 Sl
11068 7868 Sm
11098 7863 Sl
11098 7863 Sm
11127 7860 Sl
11127 7860 Sm
11157 7850 Sl
11157 7850 Sm
11186 7835 Sl
11186 7835 Sm
11216 7822 Sl
11216 7822 Sm
11245 7806 Sl
11245 7806 Sm
11275 7796 Sl
11275 7796 Sm
11304 7790 Sl
11304 7790 Sm
11333 7785 Sl
11333 7785 Sm
11363 7776 Sl
11363 7776 Sm
11392 7764 Sl
11392 7764 Sm
11422 7751 Sl
11422 7751 Sm
11451 7741 Sl
11451 7741 Sm
11481 7738 Sl
11481 7738 Sm
11510 7738 Sl
11510 7738 Sm
11539 7741 Sl
11539 7741 Sm
11569 7744 Sl
11569 7744 Sm
11598 7747 Sl
11598 7747 Sm
11628 7749 Sl
11628 7749 Sm
11657 7752 Sl
11657 7752 Sm
11687 7756 Sl
11687 7756 Sm
11716 7759 Sl
11716 7759 Sm
11745 7762 Sl
11745 7762 Sm
11775 7766 Sl
11775 7766 Sm
11804 7772 Sl
11804 7772 Sm
11834 7774 Sl
11834 7774 Sm
11863 7774 Sl
11863 7774 Sm
11893 7774 Sl
11893 7774 Sm
11922 7772 Sl
11922 7772 Sm
11951 7773 Sl
11951 7773 Sm
11981 7774 Sl
11981 7774 Sm
12010 7772 Sl
12010 7772 Sm
12040 7773 Sl
12040 7773 Sm
12069 7771 Sl
12069 7771 Sm
12099 7767 Sl
12099 7767 Sm
12128 7766 Sl
12128 7766 Sm
12157 7763 Sl
12157 7763 Sm
12187 7757 Sl
12187 7757 Sm
12216 7750 Sl
12216 7750 Sm
12246 7745 Sl
12246 7745 Sm
12275 7738 Sl
12275 7738 Sm
12305 7730 Sl
12305 7730 Sm
12334 7723 Sl
12334 7723 Sm
12363 7717 Sl
12363 7717 Sm
12393 7714 Sl
12393 7714 Sm
12422 7709 Sl
12422 7709 Sm
12452 7703 Sl
12452 7703 Sm
12481 7701 Sl
12481 7701 Sm
12511 7699 Sl
12511 7699 Sm
12540 7697 Sl
12540 7697 Sm
12569 7694 Sl
12569 7694 Sm
12599 7694 Sl
12599 7694 Sm
12628 7694 Sl
12628 7694 Sm
12658 7694 Sl
12658 7694 Sm
12687 7694 Sl
12687 7694 Sm
12717 7694 Sl
12717 7694 Sm
12746 7694 Sl
12746 7694 Sm
12775 7694 Sl
12775 7694 Sm
12805 7694 Sl
12805 7694 Sm
12834 7694 Sl
12834 7694 Sm
12864 7694 Sl
12864 7694 Sm
12893 7694 Sl
12893 7694 Sm
12923 7694 Sl
12923 7694 Sm
12952 7694 Sl
12952 7694 Sm
12981 7694 Sl
12981 7694 Sm
13011 7696 Sl
13011 7696 Sm
13040 7698 Sl
13040 7698 Sm
13070 7700 Sl
13070 7700 Sm
13099 7701 Sl
13099 7701 Sm
13129 7703 Sl
13129 7703 Sm
13158 7703 Sl
13158 7703 Sm
13188 7704 Sl
13188 7704 Sm
13217 7704 Sl
/Slrgb {0.565 0.208 0.231} def
4417 7728 Sm
4457 7728 Sl
4457 7728 Sm
4497 7724 Sl
4497 7724 Sm
4536 7714 Sl
4536 7714 Sm
4576 7701 Sl
4576 7701 Sm
4616 7694 Sl
4616 7694 Sm
4656 7694 Sl
4656 7694 Sm
4695 7694 Sl
4695 7694 Sm
4735 7694 Sl
4735 7694 Sm
4775 7694 Sl
4775 7694 Sm
4815 7694 Sl
4815 7694 Sm
4855 7694 Sl
4855 7694 Sm
4894 7694 Sl
4894 7694 Sm
4934 7694 Sl
4934 7694 Sm
4974 7694 Sl
4974 7694 Sm
5014 7694 Sl
5014 7694 Sm
5053 7694 Sl
5053 7694 Sm
5093 7694 Sl
5093 7694 Sm
5133 7696 Sl
5133 7696 Sm
5173 7698 Sl
5173 7698 Sm
5212 7699 Sl
5212 7699 Sm
5252 7700 Sl
5252 7700 Sm
5292 7699 Sl
5292 7699 Sm
5332 7698 Sl
5332 7698 Sm
5371 7697 Sl
5371 7697 Sm
5411 7694 Sl
5411 7694 Sm
5451 7694 Sl
5451 7694 Sm
5491 7694 Sl
5491 7694 Sm
5531 7694 Sl
5531 7694 Sm
5570 7694 Sl
5570 7694 Sm
5610 7694 Sl
5610 7694 Sm
5650 7694 Sl
5650 7694 Sm
5690 7694 Sl
5690 7694 Sm
5729 7694 Sl
5729 7694 Sm
5769 7695 Sl
5769 7695 Sm
5809 7696 Sl
5809 7696 Sm
5849 7697 Sl
5849 7697 Sm
5888 7699 Sl
5888 7699 Sm
5928 7699 Sl
5928 7699 Sm
5968 7699 Sl
5968 7699 Sm
6008 7699 Sl
6008 7699 Sm
6047 7699 Sl
6047 7699 Sm
6087 7698 Sl
6087 7698 Sm
6127 7697 Sl
6127 7697 Sm
6167 7697 Sl
6167 7697 Sm
6207 7697 Sl
6207 7697 Sm
6246 7696 Sl
6246 7696 Sm
6286 7695 Sl
6286 7695 Sm
6326 7694 Sl
6326 7694 Sm
6366 7694 Sl
6366 7694 Sm
6405 7694 Sl
6405 7694 Sm
6445 7694 Sl
6445 7694 Sm
6485 7694 Sl
6485 7694 Sm
6525 7694 Sl
6525 7694 Sm
6564 7694 Sl
6564 7694 Sm
6604 7694 Sl
6604 7694 Sm
6644 7694 Sl
6644 7694 Sm
6684 7694 Sl
6684 7694 Sm
6723 7694 Sl
6723 7694 Sm
6763 7694 Sl
6763 7694 Sm
6803 7694 Sl
6803 7694 Sm
6843 7694 Sl
6843 7694 Sm
6883 7694 Sl
6883 7694 Sm
6922 7694 Sl
6922 7694 Sm
6962 7694 Sl
6962 7694 Sm
7002 7694 Sl
7002 7694 Sm
7042 7695 Sl
7042 7695 Sm
7081 7696 Sl
7081 7696 Sm
7121 7697 Sl
7121 7697 Sm
7161 7697 Sl
7161 7697 Sm
7201 7697 Sl
7201 7697 Sm
7240 7696 Sl
7240 7696 Sm
7280 7695 Sl
7280 7695 Sm
7320 7694 Sl
7320 7694 Sm
7360 7694 Sl
7360 7694 Sm
7399 7694 Sl
7399 7694 Sm
7439 7694 Sl
7439 7694 Sm
7479 7694 Sl
7479 7694 Sm
7519 7694 Sl
7519 7694 Sm
7559 7695 Sl
7559 7695 Sm
7598 7696 Sl
7598 7696 Sm
7638 7697 Sl
7638 7697 Sm
7678 7698 Sl
7678 7698 Sm
7718 7703 Sl
7718 7703 Sm
7757 7706 Sl
7757 7706 Sm
7797 7708 Sl
7797 7708 Sm
7837 7708 Sl
7837 7708 Sm
7877 7708 Sl
7877 7708 Sm
7916 7706 Sl
7916 7706 Sm
7956 7703 Sl
7956 7703 Sm
7996 7704 Sl
7996 7704 Sm
8036 7709 Sl
8036 7709 Sm
8075 7713 Sl
8075 7713 Sm
8115 7714 Sl
8115 7714 Sm
8155 7714 Sl
8155 7714 Sm
8195 7711 Sl
8195 7711 Sm
8235 7717 Sl
8235 7717 Sm
8274 7721 Sl
8274 7721 Sm
8314 7725 Sl
8314 7725 Sm
8354 7726 Sl
8354 7726 Sm
8394 7729 Sl
8394 7729 Sm
8433 7728 Sl
8433 7728 Sm
8473 7725 Sl
8473 7725 Sm
8513 7732 Sl
8513 7732 Sm
8553 7746 Sl
8553 7746 Sm
8592 7753 Sl
8592 7753 Sm
8632 7754 Sl
8632 7754 Sm
8672 7751 Sl
8672 7751 Sm
8712 7754 Sl
8712 7754 Sm
8751 7763 Sl
8751 7763 Sm
8791 7766 Sl
8791 7766 Sm
8831 7780 Sl
8831 7780 Sm
8871 7792 Sl
8871 7792 Sm
8911 7809 Sl
8911 7809 Sm
8950 7809 Sl
8950 7809 Sm
8990 7799 Sl
8990 7799 Sm
9030 7821 Sl
9030 7821 Sm
9070 7841 Sl
9070 7841 Sm
9109 7848 Sl
9109 7848 Sm
9149 7853 Sl
9149 7853 Sm
9189 7855 Sl
9189 7855 Sm
9229 7871 Sl
9229 7871 Sm
9268 7876 Sl
9268 7876 Sm
9308 7866 Sl
9308 7866 Sm
9348 7893 Sl
9348 7893 Sm
9388 7945 Sl
9388 7945 Sm
9427 8021 Sl
9427 8021 Sm
9467 8061 Sl
9467 8061 Sm
9507 8084 Sl
9507 8084 Sm
9547 8168 Sl
9547 8168 Sm
9587 8203 Sl
9587 8203 Sm
9626 8182 Sl
9626 8182 Sm
9666 8141 Sl
9666 8141 Sm
9706 8146 Sl
9706 8146 Sm
9746 8170 Sl
9746 8170 Sm
9785 8152 Sl
9785 8152 Sm
9825 8148 Sl
9825 8148 Sm
9865 8216 Sl
9865 8216 Sm
9905 8396 Sl
9905 8396 Sm
9944 8616 Sl
9944 8616 Sm
9984 8758 Sl
9984 8758 Sm
10024 8918 Sl
10024 8918 Sm
10064 9255 Sl
10064 9255 Sm
10103 9436 Sl
10103 9436 Sm
10143 9535 Sl
10143 9535 Sm
10183 9667 Sl
10183 9667 Sm
10223 10030 Sl
10223 10030 Sm
10263 10346 Sl
10263 10346 Sm
10302 10468 Sl
10302 10468 Sm
10342 10554 Sl
10342 10554 Sm
10382 10657 Sl
10382 10657 Sm
10422 10818 Sl
10422 10818 Sm
10461 10894 Sl
10461 10894 Sm
10501 10853 Sl
10501 10853 Sm
10541 10862 Sl
10541 10862 Sm
10581 10963 Sl
10581 10963 Sm
10620 10851 Sl
10620 10851 Sm
10660 10553 Sl
10660 10553 Sm
10700 10256 Sl
10700 10256 Sm
10740 10432 Sl
10740 10432 Sm
10779 10373 Sl
10779 10373 Sm
10819 10177 Sl
10819 10177 Sm
10859 9978 Sl
10859 9978 Sm
10899 9826 Sl
10899 9826 Sm
10939 9652 Sl
10939 9652 Sm
10978 9350 Sl
10978 9350 Sm
11018 9165 Sl
11018 9165 Sm
11058 9059 Sl
11058 9059 Sm
11098 8929 Sl
11098 8929 Sm
11137 8781 Sl
11137 8781 Sm
11177 8595 Sl
11177 8595 Sm
11217 8434 Sl
11217 8434 Sm
11257 8392 Sl
11257 8392 Sm
11296 8312 Sl
11296 8312 Sm
11336 8236 Sl
11336 8236 Sm
11376 8175 Sl
11376 8175 Sm
11416 8179 Sl
11416 8179 Sm
11455 8143 Sl
11455 8143 Sm
11495 8075 Sl
11495 8075 Sm
11535 8026 Sl
11535 8026 Sm
11575 7983 Sl
11575 7983 Sm
11615 7945 Sl
11615 7945 Sm
11654 7907 Sl
11654 7907 Sm
11694 7883 Sl
11694 7883 Sm
11734 7868 Sl
11734 7868 Sm
11774 7857 Sl
11774 7857 Sm
11813 7832 Sl
11813 7832 Sm
11853 7809 Sl
11853 7809 Sm
11893 7788 Sl
11893 7788 Sm
11933 7782 Sl
11933 7782 Sm
11972 7770 Sl
11972 7770 Sm
12012 7759 Sl
12012 7759 Sm
12052 7752 Sl
12052 7752 Sm
12092 7752 Sl
12092 7752 Sm
12131 7750 Sl
12131 7750 Sm
12171 7744 Sl
12171 7744 Sm
12211 7735 Sl
12211 7735 Sm
12251 7728 Sl
12251 7728 Sm
12290 7723 Sl
12290 7723 Sm
12330 7720 Sl
12330 7720 Sm
12370 7713 Sl
12370 7713 Sm
12410 7710 Sl
12410 7710 Sm
12450 7710 Sl
12450 7710 Sm
12489 7708 Sl
12489 7708 Sm
12529 7708 Sl
12529 7708 Sm
12569 7709 Sl
12569 7709 Sm
12609 7710 Sl
12609 7710 Sm
12648 7712 Sl
12648 7712 Sm
12688 7710 Sl
12688 7710 Sm
12728 7708 Sl
12728 7708 Sm
12768 7705 Sl
12768 7705 Sm
12807 7701 Sl
12807 7701 Sm
12847 7699 Sl
12847 7699 Sm
12887 7696 Sl
12887 7696 Sm
12927 7694 Sl
12927 7694 Sm
12966 7694 Sl
12966 7694 Sm
13006 7694 Sl
13006 7694 Sm
13046 7694 Sl
13046 7694 Sm
13086 7694 Sl
13086 7694 Sm
13126 7694 Sl
13126 7694 Sm
13165 7694 Sl
13165 7694 Sm
13205 7694 Sl
13205 7694 Sm
13245 7694 Sl
13245 7694 Sm
13285 7694 Sl
13285 7694 Sm
13324 7694 Sl
13324 7694 Sm
13364 7694 Sl
13364 7694 Sm
13404 7694 Sl
13404 7694 Sm
13444 7694 Sl
13444 7694 Sm
13483 7694 Sl
13483 7694 Sm
13523 7694 Sl
13523 7694 Sm
13563 7694 Sl
13563 7694 Sm
13603 7694 Sl
13603 7694 Sm
13642 7694 Sl
13642 7694 Sm
13682 7694 Sl
13682 7694 Sm
13722 7694 Sl
13722 7694 Sm
13762 7694 Sl
13762 7694 Sm
13802 7694 Sl
13802 7694 Sm
13841 7694 Sl
13841 7694 Sm
13881 7694 Sl
13881 7694 Sm
13921 7694 Sl
13921 7694 Sm
13961 7694 Sl
13961 7694 Sm
14000 7694 Sl
14000 7694 Sm
14040 7694 Sl
14040 7694 Sm
14080 7694 Sl
14080 7694 Sm
14120 7694 Sl
14120 7694 Sm
14159 7694 Sl
14159 7694 Sm
14199 7694 Sl
14199 7694 Sm
14239 7694 Sl
14239 7694 Sm
14279 7694 Sl
14279 7694 Sm
14318 7694 Sl
14318 7694 Sm
14358 7694 Sl
14358 7694 Sm
14398 7694 Sl
14398 7694 Sm
14438 7694 Sl
14438 7694 Sm
14478 7694 Sl
14478 7694 Sm
14517 7694 Sl
14517 7694 Sm
14557 7694 Sl
14557 7694 Sm
14597 7694 Sl
14597 7694 Sm
14637 7694 Sl
14637 7694 Sm
14676 7694 Sl
14676 7694 Sm
14716 7694 Sl
14716 7694 Sm
14756 7694 Sl
14756 7694 Sm
14796 7694 Sl
14796 7694 Sm
14835 7694 Sl
14835 7694 Sm
14875 7694 Sl
14875 7694 Sm
14915 7694 Sl
14915 7694 Sm
14955 7694 Sl
14955 7694 Sm
14994 7694 Sl
14994 7694 Sm
15034 7694 Sl
15034 7694 Sm
15074 7694 Sl
15074 7694 Sm
15114 7694 Sl
15114 7694 Sm
15154 7694 Sl
15154 7694 Sm
15193 7694 Sl
15193 7694 Sm
15233 7694 Sl
15233 7694 Sm
15273 7694 Sl
15273 7694 Sm
15313 7694 Sl
15313 7694 Sm
15352 7694 Sl
15352 7694 Sm
15392 7694 Sl
15392 7694 Sm
15432 7694 Sl
15432 7694 Sm
15472 7694 Sl
15472 7694 Sm
15511 7694 Sl
15511 7694 Sm
15551 7694 Sl
15551 7694 Sm
15591 7694 Sl
15591 7694 Sm
15631 7694 Sl
15631 7694 Sm
15670 7694 Sl
15670 7694 Sm
15710 7694 Sl
15710 7694 Sm
15750 7694 Sl
15750 7694 Sm
15790 7694 Sl
15790 7694 Sm
15830 7694 Sl
15830 7694 Sm
15869 7694 Sl
15869 7694 Sm
15909 7694 Sl
15909 7694 Sm
15949 7694 Sl
15949 7694 Sm
15989 7694 Sl
15989 7694 Sm
16028 7694 Sl
16028 7694 Sm
16068 7694 Sl
16068 7694 Sm
16108 7694 Sl
16108 7694 Sm
16148 7694 Sl
16148 7694 Sm
16187 7695 Sl
16187 7695 Sm
16227 7696 Sl
16227 7696 Sm
16267 7697 Sl
16267 7697 Sm
16307 7697 Sl
/Slrgb {0.333 0.459 0.184} def
4417 7701 Sm
4447 7701 Sl
4447 7701 Sm
4476 7701 Sl
4476 7701 Sm
4506 7700 Sl
4506 7700 Sm
4535 7700 Sl
4535 7700 Sm
4565 7699 Sl
4565 7699 Sm
4595 7699 Sl
4595 7699 Sm
4624 7698 Sl
4624 7698 Sm
4654 7698 Sl
4654 7698 Sm
4683 7697 Sl
4683 7697 Sm
4713 7696 Sl
4713 7696 Sm
4743 7695 Sl
4743 7695 Sm
4772 7694 Sl
4772 7694 Sm
4802 7694 Sl
4802 7694 Sm
4831 7694 Sl
4831 7694 Sm
4861 7694 Sl
4861 7694 Sm
4891 7694 Sl
4891 7694 Sm
4920 7694 Sl
4920 7694 Sm
4950 7694 Sl
4950 7694 Sm
4979 7694 Sl
4979 7694 Sm
5009 7694 Sl
5009 7694 Sm
5039 7694 Sl
5039 7694 Sm
5068 7694 Sl
5068 7694 Sm
5098 7694 Sl
5098 7694 Sm
5127 7694 Sl
5127 7694 Sm
5157 7694 Sl
5157 7694 Sm
5186 7694 Sl
5186 7694 Sm
5216 7694 Sl
5216 7694 Sm
5246 7694 Sl
5246 7694 Sm
5275 7694 Sl
5275 7694 Sm
5305 7694 Sl
5305 7694 Sm
5334 7694 Sl
5334 7694 Sm
5364 7694 Sl
5364 7694 Sm
5394 7694 Sl
5394 7694 Sm
5423 7694 Sl
5423 7694 Sm
5453 7694 Sl
5453 7694 Sm
5482 7694 Sl
5482 7694 Sm
5512 7694 Sl
5512 7694 Sm
5542 7694 Sl
5542 7694 Sm
5571 7694 Sl
5571 7694 Sm
5601 7694 Sl
5601 7694 Sm
5630 7694 Sl
5630 7694 Sm
5660 7695 Sl
5660 7695 Sm
5689 7696 Sl
5689 7696 Sm
5719 7697 Sl
5719 7697 Sm
5749 7698 Sl
5749 7698 Sm
5778 7698 Sl
5778 7698 Sm
5808 7699 Sl
5808 7699 Sm
5837 7700 Sl
5837 7700 Sm
5867 7700 Sl
5867 7700 Sm
5897 7700 Sl
5897 7700 Sm
5926 7701 Sl
5926 7701 Sm
5956 7701 Sl
5956 7701 Sm
5985 7701 Sl
5985 7701 Sm
6015 7701 Sl
6015 7701 Sm
6045 7700 Sl
6045 7700 Sm
6074 7700 Sl
6074 7700 Sm
6104 7700 Sl
6104 7700 Sm
6133 7699 Sl
6133 7699 Sm
6163 7699 Sl
6163 7699 Sm
6193 7698 Sl
6193 7698 Sm
6222 7697 Sl
6222 7697 Sm
6252 7697 Sl
6252 7697 Sm
6281 7696 Sl
6281 7696 Sm
6311 7695 Sl
6311 7695 Sm
6340 7695 Sl
6340 7695 Sm
6370 7696 Sl
6370 7696 Sm
6400 7697 Sl
6400 7697 Sm
6429 7698 Sl
6429 7698 Sm
6459 7699 Sl
6459 7699 Sm
6488 7701 Sl
6488 7701 Sm
6518 7702 Sl
6518 7702 Sm
6548 7703 Sl
6548 7703 Sm
6577 7704 Sl
6577 7704 Sm
6607 7705 Sl
6607 7705 Sm
6636 7707 Sl
6636 7707 Sm
6666 7708 Sl
6666 7708 Sm
6696 7709 Sl
6696 7709 Sm
6725 7710 Sl
6725 7710 Sm
6755 7711 Sl
6755 7711 Sm
6784 7711 Sl
6784 7711 Sm
6814 7711 Sl
6814 7711 Sm
6843 7712 Sl
6843 7712 Sm
6873 7713 Sl
6873 7713 Sm
6903 7714 Sl
6903 7714 Sm
6932 7715 Sl
6932 7715 Sm
6962 7715 Sl
6962 7715 Sm
6991 7715 Sl
6991 7715 Sm
7021 7718 Sl
7021 7718 Sm
7051 7719 Sl
7051 7719 Sm
7080 7720 Sl
7080 7720 Sm
7110 7720 Sl
7110 7720 Sm
7139 7722 Sl
7139 7722 Sm
7169 7725 Sl
7169 7725 Sm
7199 7726 Sl
7199 7726 Sm
7228 7727 Sl
7228 7727 Sm
7258 7729 Sl
7258 7729 Sm
7287 7729 Sl
7287 7729 Sm
7317 7730 Sl
7317 7730 Sm
7346 7731 Sl
7346 7731 Sm
7376 7732 Sl
7376 7732 Sm
7406 7733 Sl
7406 7733 Sm
7435 7733 Sl
7435 7733 Sm
7465 7733 Sl
7465 7733 Sm
7494 7734 Sl
7494 7734 Sm
7524 7741 Sl
7524 7741 Sm
7554 7747 Sl
7554 7747 Sm
7583 7754 Sl
7583 7754 Sm
7613 7758 Sl
7613 7758 Sm
7642 7763 Sl
7642 7763 Sm
7672 7769 Sl
7672 7769 Sm
7702 7776 Sl
7702 7776 Sm
7731 7780 Sl
7731 7780 Sm
7761 7783 Sl
7761 7783 Sm
7790 7784 Sl
7790 7784 Sm
7820 7787 Sl
7820 7787 Sm
7850 7792 Sl
7850 7792 Sm
7879 7795 Sl
7879 7795 Sm
7909 7797 Sl
7909 7797 Sm
7938 7798 Sl
7938 7798 Sm
7968 7799 Sl
7968 7799 Sm
7997 7800 Sl
7997 7800 Sm
8027 7808 Sl
8027 7808 Sm
8057 7819 Sl
8057 7819 Sm
8086 7827 Sl
8086 7827 Sm
8116 7834 Sl
8116 7834 Sm
8145 7839 Sl
8145 7839 Sm
8175 7845 Sl
8175 7845 Sm
8205 7857 Sl
8205 7857 Sm
8234 7865 Sl
8234 7865 Sm
8264 7873 Sl
8264 7873 Sm
8293 7880 Sl
8293 7880 Sm
8323 7893 Sl
8323 7893 Sm
8353 7911 Sl
8353 7911 Sm
8382 7925 Sl
8382 7925 Sm
8412 7935 Sl
8412 7935 Sm
8441 7940 Sl
8441 7940 Sm
8471 7942 Sl
8471 7942 Sm
8500 7943 Sl
8500 7943 Sm
8530 7951 Sl
8530 7951 Sm
8560 7969 Sl
8560 7969 Sm
8589 7984 Sl
8589 7984 Sm
8619 7990 Sl
8619 7990 Sm
8648 7994 Sl
8648 7994 Sm
8678 7998 Sl
8678 7998 Sm
8708 8026 Sl
8708 8026 Sm
8737 8053 Sl
8737 8053 Sm
8767 8074 Sl
8767 8074 Sm
8796 8089 Sl
8796 8089 Sm
8826 8102 Sl
8826 8102 Sm
8856 8119 Sl
8856 8119 Sm
8885 8131 Sl
8885 8131 Sm
8915 8134 Sl
8915 8134 Sm
8944 8135 Sl
8944 8135 Sm
8974 8134 Sl
8974 8134 Sm
9004 8139 Sl
9004 8139 Sm
9033 8145 Sl
9033 8145 Sm
9063 8158 Sl
9063 8158 Sm
9092 8166 Sl
9092 8166 Sm
9122 8165 Sl
9122 8165 Sm
9151 8158 Sl
9151 8158 Sm
9181 8151 Sl
9181 8151 Sm
9211 8175 Sl
9211 8175 Sm
9240 8215 Sl
9240 8215 Sm
9270 8246 Sl
9270 8246 Sm
9299 8267 Sl
9299 8267 Sm
9329 8285 Sl
9329 8285 Sm
9359 8316 Sl
9359 8316 Sm
9388 8360 Sl
9388 8360 Sm
9418 8394 Sl
9418 8394 Sm
9447 8417 Sl
9447 8417 Sm
9477 8436 Sl
9477 8436 Sm
9507 8468 Sl
9507 8468 Sm
9536 8509 Sl
9536 8509 Sm
9566 8543 Sl
9566 8543 Sm
9595 8566 Sl
9595 8566 Sm
9625 8583 Sl
9625 8583 Sm
9654 8596 Sl
9654 8596 Sm
9684 8613 Sl
9684 8613 Sm
9714 8664 Sl
9714 8664 Sm
9743 8751 Sl
9743 8751 Sm
9773 8820 Sl
9773 8820 Sm
9802 8872 Sl
9802 8872 Sm
9832 8906 Sl
9832 8906 Sm
9862 8947 Sl
9862 8947 Sm
9891 9012 Sl
9891 9012 Sm
9921 9069 Sl
9921 9069 Sm
9950 9114 Sl
9950 9114 Sm
9980 9165 Sl
9980 9165 Sm
10010 9228 Sl
10010 9228 Sm
10039 9312 Sl
10039 9312 Sm
10069 9375 Sl
10069 9375 Sm
10098 9412 Sl
10098 9412 Sm
10128 9425 Sl
10128 9425 Sm
10158 9424 Sl
10158 9424 Sm
10187 9430 Sl
10187 9430 Sm
10217 9453 Sl
10217 9453 Sm
10246 9517 Sl
10246 9517 Sm
10276 9550 Sl
10276 9550 Sm
10305 9552 Sl
10305 9552 Sm
10335 9537 Sl
10335 9537 Sm
10365 9531 Sl
10365 9531 Sm
10394 9576 Sl
10394 9576 Sm
10424 9636 Sl
10424 9636 Sm
10453 9666 Sl
10453 9666 Sm
10483 9671 Sl
10483 9671 Sm
10513 9671 Sl
10513 9671 Sm
10542 9700 Sl
10542 9700 Sm
10572 9703 Sl
10572 9703 Sm
10601 9679 Sl
10601 9679 Sm
10631 9638 Sl
10631 9638 Sm
10661 9606 Sl
10661 9606 Sm
10690 9577 Sl
10690 9577 Sm
10720 9560 Sl
10720 9560 Sm
10749 9539 Sl
10749 9539 Sm
10779 9491 Sl
10779 9491 Sm
10808 9416 Sl
10808 9416 Sm
10838 9322 Sl
10838 9322 Sm
10868 9218 Sl
10868 9218 Sm
10897 9137 Sl
10897 9137 Sm
10927 9097 Sl
10927 9097 Sm
10956 9035 Sl
10956 9035 Sm
10986 8955 Sl
10986 8955 Sm
11016 8866 Sl
11016 8866 Sm
11045 8789 Sl
11045 8789 Sm
11075 8730 Sl
11075 8730 Sm
11104 8666 Sl
11104 8666 Sm
11134 8587 Sl
11134 8587 Sm
11164 8502 Sl
11164 8502 Sm
11193 8437 Sl
11193 8437 Sm
11223 8398 Sl
11223 8398 Sm
11252 8348 Sl
11252 8348 Sm
11282 8291 Sl
11282 8291 Sm
11312 8232 Sl
11312 8232 Sm
11341 8180 Sl
11341 8180 Sm
11371 8129 Sl
11371 8129 Sm
11400 8092 Sl
11400 8092 Sm
11430 8080 Sl
11430 8080 Sm
11459 8062 Sl
11459 8062 Sm
11489 8042 Sl
11489 8042 Sm
11519 8020 Sl
11519 8020 Sm
11548 7999 Sl
11548 7999 Sm
11578 7987 Sl
11578 7987 Sm
11607 7980 Sl
11607 7980 Sm
11637 7969 Sl
11637 7969 Sm
11667 7960 Sl
11667 7960 Sm
11696 7951 Sl
11696 7951 Sm
11726 7950 Sl
11726 7950 Sm
11755 7947 Sl
11755 7947 Sm
11785 7942 Sl
11785 7942 Sm
11815 7934 Sl
11815 7934 Sm
11844 7925 Sl
11844 7925 Sm
11874 7918 Sl
11874 7918 Sm
11903 7912 Sl
11903 7912 Sm
11933 7905 Sl
11933 7905 Sm
11962 7894 Sl
11962 7894 Sm
11992 7879 Sl
11992 7879 Sm
12022 7863 Sl
12022 7863 Sm
12051 7849 Sl
12051 7849 Sm
12081 7838 Sl
12081 7838 Sm
12110 7832 Sl
12110 7832 Sm
12140 7824 Sl
12140 7824 Sm
12170 7815 Sl
12170 7815 Sm
12199 7804 Sl
12199 7804 Sm
12229 7794 Sl
12229 7794 Sm
12258 7784 Sl
12258 7784 Sm
12288 7773 Sl
12288 7773 Sm
12318 7760 Sl
12318 7760 Sm
12347 7748 Sl
12347 7748 Sm
12377 7736 Sl
12377 7736 Sm
12406 7731 Sl
12406 7731 Sm
12436 7727 Sl
12436 7727 Sm
12466 7724 Sl
12466 7724 Sm
12495 7720 Sl
12495 7720 Sm
12525 7717 Sl
12525 7717 Sm
12554 7714 Sl
12554 7714 Sm
12584 7711 Sl
12584 7711 Sm
12613 7709 Sl
12613 7709 Sm
12643 7707 Sl
12643 7707 Sm
12673 7704 Sl
12673 7704 Sm
12702 7702 Sl
12702 7702 Sm
12732 7701 Sl
12732 7701 Sm
12761 7700 Sl
12761 7700 Sm
12791 7700 Sl
12791 7700 Sm
12821 7700 Sl
12821 7700 Sm
12850 7699 Sl
12850 7699 Sm
12880 7698 Sl
12880 7698 Sm
12909 7698 Sl
12909 7698 Sm
12939 7697 Sl
12939 7697 Sm
12969 7697 Sl
12969 7697 Sm
12998 7697 Sl
12998 7697 Sm
13028 7698 Sl
13028 7698 Sm
13057 7698 Sl
13057 7698 Sm
13087 7699 Sl
13087 7699 Sm
13116 7699 Sl
13116 7699 Sm
13146 7700 Sl
13146 7700 Sm
13176 7700 Sl
13176 7700 Sm
13205 7701 Sl
13205 7701 Sm
13235 7701 Sl
13235 7701 Sm
13264 7701 Sl
/Slw 0.490 def
/Slrgb {0.000 0.000 0.000} def
3138 15616 3138 21185 Sln
3138 16052 2863 16052 Sln
2520 16052 0
/Helvetica-0 findfont 687 yratio mul scalefont setfont
(0) stringwidth pop add
2 div xratio div
dup 4 3 roll exch 90.000 cos mul sub 3 1 roll 90.000 sin mul sub 2 copy
/fntsize {/Helvetica-0 findfont exch scalefont setfont } def
90.000 687
(0) Stxtl
(0) stringwidth pop xratio div
dup 4 3 roll exch 90.000 cos mul add 3 1 roll 90.000 sin mul add 2 copy
pop pop pop pop
3138 18401 2863 18401 Sln
2520 18401 0
/Helvetica-0 findfont 687 yratio mul scalefont setfont
(.5) stringwidth pop add
2 div xratio div
dup 4 3 roll exch 90.000 cos mul sub 3 1 roll 90.000 sin mul sub 2 copy
/fntsize {/Helvetica-0 findfont exch scalefont setfont } def
90.000 687
(.5) Stxtl
(.5) stringwidth pop xratio div
dup 4 3 roll exch 90.000 cos mul add 3 1 roll 90.000 sin mul add 2 copy
pop pop pop pop
3138 20750 2863 20750 Sln
2520 20750 0
/Helvetica-0 findfont 687 yratio mul scalefont setfont
(1) stringwidth pop add
2 div xratio div
dup 4 3 roll exch 90.000 cos mul sub 3 1 roll 90.000 sin mul sub 2 copy
/fntsize {/Helvetica-0 findfont exch scalefont setfont } def
90.000 687
(1) Stxtl
(1) stringwidth pop xratio div
dup 4 3 roll exch 90.000 cos mul add 3 1 roll 90.000 sin mul add 2 copy
pop pop pop pop
3138 7260 3138 12829 Sln
3138 7695 2863 7695 Sln
2520 7695 0
/Helvetica-0 findfont 687 yratio mul scalefont setfont
(0) stringwidth pop add
2 div xratio div
dup 4 3 roll exch 90.000 cos mul sub 3 1 roll 90.000 sin mul sub 2 copy
/fntsize {/Helvetica-0 findfont exch scalefont setfont } def
90.000 687
(0) Stxtl
(0) stringwidth pop xratio div
dup 4 3 roll exch 90.000 cos mul add 3 1 roll 90.000 sin mul add 2 copy
pop pop pop pop
3138 10044 2863 10044 Sln
2520 10044 0
/Helvetica-0 findfont 687 yratio mul scalefont setfont
(.5) stringwidth pop add
2 div xratio div
dup 4 3 roll exch 90.000 cos mul sub 3 1 roll 90.000 sin mul sub 2 copy
/fntsize {/Helvetica-0 findfont exch scalefont setfont } def
90.000 687
(.5) Stxtl
(.5) stringwidth pop xratio div
dup 4 3 roll exch 90.000 cos mul add 3 1 roll 90.000 sin mul add 2 copy
pop pop pop pop
3138 12393 2863 12393 Sln
2520 12393 0
/Helvetica-0 findfont 687 yratio mul scalefont setfont
(1) stringwidth pop add
2 div xratio div
dup 4 3 roll exch 90.000 cos mul sub 3 1 roll 90.000 sin mul sub 2 copy
/fntsize {/Helvetica-0 findfont exch scalefont setfont } def
90.000 687
(1) Stxtl
(1) stringwidth pop xratio div
dup 4 3 roll exch 90.000 cos mul add 3 1 roll 90.000 sin mul add 2 copy
pop pop pop pop
17301 15616 30905 15616 Sln
18478 15616 18478 15342 Sln
18478 14723 0
/Helvetica-0 findfont 687 yratio mul scalefont setfont
(0) stringwidth pop add
2 div xratio div
dup 4 3 roll exch 0.000 cos mul sub 3 1 roll 0.000 sin mul sub 2 copy
/fntsize {/Helvetica-0 findfont exch scalefont setfont } def
0.000 687
(0) Stxtl
(0) stringwidth pop xratio div
dup 4 3 roll exch 0.000 cos mul add 3 1 roll 0.000 sin mul add 2 copy
pop pop pop pop
22156 15616 22156 15342 Sln
22156 14723 0
/Helvetica-0 findfont 687 yratio mul scalefont setfont
(5) stringwidth pop add
2 div xratio div
dup 4 3 roll exch 0.000 cos mul sub 3 1 roll 0.000 sin mul sub 2 copy
/fntsize {/Helvetica-0 findfont exch scalefont setfont } def
0.000 687
(5) Stxtl
(5) stringwidth pop xratio div
dup 4 3 roll exch 0.000 cos mul add 3 1 roll 0.000 sin mul add 2 copy
pop pop pop pop
25835 15616 25835 15342 Sln
25835 14723 0
/Helvetica-0 findfont 687 yratio mul scalefont setfont
(10) stringwidth pop add
2 div xratio div
dup 4 3 roll exch 0.000 cos mul sub 3 1 roll 0.000 sin mul sub 2 copy
/fntsize {/Helvetica-0 findfont exch scalefont setfont } def
0.000 687
(10) Stxtl
(10) stringwidth pop xratio div
dup 4 3 roll exch 0.000 cos mul add 3 1 roll 0.000 sin mul add 2 copy
pop pop pop pop
29513 15616 29513 15342 Sln
29513 14723 0
/Helvetica-0 findfont 687 yratio mul scalefont setfont
(15) stringwidth pop add
2 div xratio div
dup 4 3 roll exch 0.000 cos mul sub 3 1 roll 0.000 sin mul sub 2 copy
/fntsize {/Helvetica-0 findfont exch scalefont setfont } def
0.000 687
(15) Stxtl
(15) stringwidth pop xratio div
dup 4 3 roll exch 0.000 cos mul add 3 1 roll 0.000 sin mul add 2 copy
pop pop pop pop
3138 7260 16742 7260 Sln
4315 7260 4315 6985 Sln
4315 6367 0
/Helvetica-0 findfont 687 yratio mul scalefont setfont
(0) stringwidth pop add
2 div xratio div
dup 4 3 roll exch 0.000 cos mul sub 3 1 roll 0.000 sin mul sub 2 copy
/fntsize {/Helvetica-0 findfont exch scalefont setfont } def
0.000 687
(0) Stxtl
(0) stringwidth pop xratio div
dup 4 3 roll exch 0.000 cos mul add 3 1 roll 0.000 sin mul add 2 copy
pop pop pop pop
7993 7260 7993 6985 Sln
7993 6367 0
/Helvetica-0 findfont 687 yratio mul scalefont setfont
(5) stringwidth pop add
2 div xratio div
dup 4 3 roll exch 0.000 cos mul sub 3 1 roll 0.000 sin mul sub 2 copy
/fntsize {/Helvetica-0 findfont exch scalefont setfont } def
0.000 687
(5) Stxtl
(5) stringwidth pop xratio div
dup 4 3 roll exch 0.000 cos mul add 3 1 roll 0.000 sin mul add 2 copy
pop pop pop pop
11672 7260 11672 6985 Sln
11672 6367 0
/Helvetica-0 findfont 687 yratio mul scalefont setfont
(10) stringwidth pop add
2 div xratio div
dup 4 3 roll exch 0.000 cos mul sub 3 1 roll 0.000 sin mul sub 2 copy
/fntsize {/Helvetica-0 findfont exch scalefont setfont } def
0.000 687
(10) Stxtl
(10) stringwidth pop xratio div
dup 4 3 roll exch 0.000 cos mul add 3 1 roll 0.000 sin mul add 2 copy
pop pop pop pop
15350 7260 15350 6985 Sln
15350 6367 0
/Helvetica-0 findfont 687 yratio mul scalefont setfont
(15) stringwidth pop add
2 div xratio div
dup 4 3 roll exch 0.000 cos mul sub 3 1 roll 0.000 sin mul sub 2 copy
/fntsize {/Helvetica-0 findfont exch scalefont setfont } def
0.000 687
(15) Stxtl
(15) stringwidth pop xratio div
dup 4 3 roll exch 0.000 cos mul add 3 1 roll 0.000 sin mul add 2 copy
pop pop pop pop
/Ssrgb {0.851 0.902 0.922} def
/Slrgb {0.851 0.902 0.922} def
3138 21185 16742 22178 1 Srect
9940 21531 0
/Helvetica-0 findfont 756 yratio mul scalefont setfont
(2002) stringwidth pop add
2 div xratio div
dup 4 3 roll exch 0.000 cos mul sub 3 1 roll 0.000 sin mul sub 2 copy
/fntsize {/Helvetica-0 findfont exch scalefont setfont } def
0.000 756
(2002) Stxtl
(2002) stringwidth pop xratio div
dup 4 3 roll exch 0.000 cos mul add 3 1 roll 0.000 sin mul add 2 copy
pop pop pop pop
17301 21185 30905 22178 1 Srect
24103 21531 0
/Helvetica-0 findfont 756 yratio mul scalefont setfont
(2005) stringwidth pop add
2 div xratio div
dup 4 3 roll exch 0.000 cos mul sub 3 1 roll 0.000 sin mul sub 2 copy
/fntsize {/Helvetica-0 findfont exch scalefont setfont } def
0.000 756
(2005) Stxtl
(2005) stringwidth pop xratio div
dup 4 3 roll exch 0.000 cos mul add 3 1 roll 0.000 sin mul add 2 copy
pop pop pop pop
3138 12829 16742 13822 1 Srect
9940 13174 0
/Helvetica-0 findfont 756 yratio mul scalefont setfont
(2009) stringwidth pop add
2 div xratio div
dup 4 3 roll exch 0.000 cos mul sub 3 1 roll 0.000 sin mul sub 2 copy
/fntsize {/Helvetica-0 findfont exch scalefont setfont } def
0.000 756
(2009) Stxtl
(2009) stringwidth pop xratio div
dup 4 3 roll exch 0.000 cos mul add 3 1 roll 0.000 sin mul add 2 copy
pop pop pop pop
/Ssrgb {1.000 1.000 1.000} def
/Slw 0.576 def
/Slrgb {0.000 0.000 0.000} def
5144 2019 27663 4657 1 Srect
/Slw 0.864 def
/Slrgb {0.102 0.278 0.435} def
5493 3904 8518 3904 Sln
/Slrgb {0.565 0.208 0.231} def
15508 3904 18533 3904 Sln
/Slrgb {0.333 0.459 0.184} def
5493 2772 8518 2772 Sln
9003 3621 2 copy
/fntsize {/Helvetica-0 findfont exch scalefont setfont } def
0.000 808
(Agricult.) Stxtl
(Agricult.) stringwidth pop xratio div
dup 4 3 roll exch 0.000 cos mul add 3 1 roll 0.000 sin mul add 2 copy
pop pop pop pop
19018 3621 2 copy
/fntsize {/Helvetica-0 findfont exch scalefont setfont } def
0.000 808
(Employee \(non-agric.\)) Stxtl
(Employee \(non-agric.\)) stringwidth pop xratio div
dup 4 3 roll exch 0.000 cos mul add 3 1 roll 0.000 sin mul add 2 copy
pop pop pop pop
9003 2489 2 copy
/fntsize {/Helvetica-0 findfont exch scalefont setfont } def
0.000 808
(Self-employed) Stxtl
(Self-employed) stringwidth pop xratio div
dup 4 3 roll exch 0.000 cos mul add 3 1 roll 0.000 sin mul add 2 copy
pop pop pop pop
1381 14101 0
/Helvetica-0 findfont 808 yratio mul scalefont setfont
(kdensity lnincome_adj) stringwidth pop add
2 div xratio div
dup 4 3 roll exch 90.000 cos mul sub 3 1 roll 90.000 sin mul sub 2 copy
/fntsize {/Helvetica-0 findfont exch scalefont setfont } def
90.000 808
(kdensity lnincome_adj) Stxtl
(kdensity lnincome_adj) stringwidth pop xratio div
dup 4 3 roll exch 90.000 cos mul add 3 1 roll 90.000 sin mul add 2 copy
pop pop pop pop
16404 5178 0
/Helvetica-0 findfont 808 yratio mul scalefont setfont
(Monthly log labour income) stringwidth pop add
2 div xratio div
dup 4 3 roll exch 0.000 cos mul sub 3 1 roll 0.000 sin mul sub 2 copy
/fntsize {/Helvetica-0 findfont exch scalefont setfont } def
0.000 808
(Monthly log labour income) Stxtl
(Monthly log labour income) stringwidth pop xratio div
dup 4 3 roll exch 0.000 cos mul add 3 1 roll 0.000 sin mul add 2 copy
pop pop pop pop
1762 1148 2 copy
/fntsize {/Helvetica-0 findfont exch scalefont setfont } def
0.000 646
(Graphs by t) Stxtl
(Graphs by t) stringwidth pop xratio div
dup 4 3 roll exch 0.000 cos mul add 3 1 roll 0.000 sin mul add 2 copy
pop pop pop pop
S showpage
%%EOF
