%!PS-Adobe-2.0 EPSF-2.0
%% This is a Stata generated postscript file
%%BoundingBox: 0 0 396 288
%%HiResBoundingBox: 0.000 0.000 396.000 288.000
%%DocumentNeededResources: font Helvetica
/xratio 0.012375 def
/yratio 0.012375 def
/Sbgfill {
	/y1 exch def
	/x1 exch def
	/y0 exch def
	/x0 exch def
	x0 y0 moveto
	x0 y1 lineto x1 y1 lineto x1 y0 lineto x0 y0 lineto
	fill
} def
/Spt {
	yratio mul
	/yp exch def
	xratio mul
	/xp exch def
	Slrgb setrgbcolor
	newpath
	xp yp moveto
	xp Slw add yp
	lineto
	currentlinecap
	1 setlinecap
	stroke
	setlinecap
} def
/Sln {
	yratio mul
	/y1p exch def
	xratio mul
	/x1p exch def
	yratio mul
	/y0p exch def
	xratio mul
	/x0p exch def
	Slw setlinewidth
	Slrgb setrgbcolor
	x0p y0p M x1p y1p lineto S
} def
/Scrv {
	yratio mul
	/y3p exch def
	xratio mul
	/x3p exch def
	yratio mul
	/y2p exch def
	xratio mul
	/x2p exch def
	yratio mul
	/y1p exch def
	xratio mul
	/x1p exch def
	Slw setlinewidth
	Slrgb setrgbcolor
	x1p y1p x2p y2p x3p y3p curveto
	stroke
} def
/Stxtl {
	/sp exch def
	yratio mul
	/sizep exch def
	dup
	/anglep exch def
	0 exch sub
	/angle2p exch def
	yratio mul
	/y0p exch def
	xratio mul
	/x0p exch def
	Strgb setrgbcolor
	x0p y0p M anglep rotate sizep fntsize sp show stroke angle2p rotate
} def
/Stxtc {
	/sp exch def
	yratio mul
	/sizep exch def
	dup
	/anglep exch def
	0 exch sub
	/angle2p exch def
	yratio mul
	/y0p exch def
	xratio mul
	/x0p exch def
	Strgb setrgbcolor
	x0p y0p M anglep rotate sizep fntsize sp stringwidth exch -2 div exch rm sp show stroke angle2p rotate
} def
/Stxtr {
	/sp exch def
	yratio mul
	/sizep exch def
	dup
	/anglep exch def
	0 exch sub
	/angle2p exch def
	yratio mul
	/y0p exch def
	xratio mul
	/x0p exch def
	Strgb setrgbcolor
	x0p y0p M anglep rotate sizep fntsize sp stringwidth 1 index -1 mul exch rm pop sp show stroke angle2p rotate
} def
/Srect {
	/sfill exch def
	yratio mul
	/y1 exch def
	xratio mul
	/x1 exch def
	yratio mul
	/y0 exch def
	xratio mul
	/x0 exch def
	sfill 1 eq {
		Ssrgb setrgbcolor
		x0 y0 moveto
		x0 y1 lineto x1 y1 lineto x1 y0 lineto x0 y0 lineto
		fill
	} if
	Slw setlinewidth
	Slrgb setrgbcolor
	x0 y0 moveto
	x0 y1 lineto x1 y1 lineto x1 y0 lineto x0 y0 lineto
	stroke
} def
/Sellipse {
	/sfill exch def
	yratio mul
	/yrad exch def
	xratio mul
	/xrad exch def
	yratio mul
	/y exch def
	xratio mul
	/x exch def
	sfill 1 eq {
		Ssrgb setrgbcolor
		/savematrix matrix currentmatrix def
		x y translate
		xrad yrad scale
		0 0 1 0 360 arc
		savematrix setmatrix
		fill
	} if
	Slw setlinewidth
	Slrgb setrgbcolor
		/savematrix matrix currentmatrix def
		x y translate
		xrad yrad scale
		0 0 1 0 360 arc
		savematrix setmatrix
	stroke
} def
/Stri {
	/sfill exch def
	xratio mul
	/r exch def
	yratio mul
	/y0 exch def
	xratio mul
	/x0 exch def
	/xcen x0 def
	y0 r add
	/ytop exch def
	r 2 div
	y0 exch sub
	/ybot exch def
	r 3 sqrt 2 div mul dup
	xcen exch sub
	/xleft exch def
	xcen add
	/xright exch def
	sfill 1 eq {
		Ssrgb setrgbcolor
		xcen ytop moveto xright ybot lineto xleft ybot lineto xcen ytop lineto fill
	} if
	Slw setlinewidth
	Slrgb setrgbcolor
	xcen ytop moveto xright ybot lineto xleft ybot lineto xcen ytop lineto stroke
} def
/Soldtri {
	/sfill exch def
	xratio mul
	/r exch def
	yratio mul
	/y0 exch def
	xratio mul
	/x0 exch def
	x0 r sub
	/x1 exch def
	y0 r sub
	/y1 exch def
	x0 r add
	/x2 exch def
	y0 r sub
	/y2 exch def
	/x3 x0 def
	y0 r add
	/y3 exch def
	sfill 1 eq {
		Ssrgb setrgbcolor
		x1 y1 moveto x2 y2 lineto x3 y3 lineto x1 y1 lineto fill
	} if
	Slw setlinewidth
	Slrgb setrgbcolor
	x1 y1 moveto x2 y2 lineto x3 y3 lineto x1 y1 lineto stroke
} def
/Sdia {
	/sfill exch def
	xratio mul
	/r exch def
	yratio mul
	/y exch def
	xratio mul
	/x exch def
	x r sub
	/x0 exch def
	/y0 y def
	/x1 x def
	y r sub
	/y1 exch def
	x r add
	/x2 exch def
	/y2 y def
	/x3 x def
	y r add
	/y3 exch def
	sfill 1 eq  {
		Ssrgb setrgbcolor
		x0 y0 moveto x1 y1 lineto x2 y2 lineto x3 y3 lineto x0 y0 lineto fill
	} if
	Slw setlinewidth
	Slrgb setrgbcolor
	x0 y0 moveto x1 y1 lineto x2 y2 lineto x3 y3 lineto x0 y0 lineto stroke
} def
/Scc {
	/sfill exch def
	xratio mul
	/r0 exch def
	yratio mul
	/y0 exch def
	xratio mul
	/x0 exch def
	sfill 1 eq {
		Ssrgb setrgbcolor
		x0 y0 r0 0 360 arc fill
	} if
	Slw setlinewidth
	Slrgb setrgbcolor
	x0 y0 r0 0 360 arc stroke
} def
/Spie {
	/sfill exch def
	/a1 exch def
	/a0 exch def
	xratio mul
	/r exch def
	yratio mul
	/y exch def
	xratio mul
	/x exch def
	sfill 1 eq {
		Ssrgb setrgbcolor
		newpath x y moveto x y r a0 a1 arc closepath
		fill
	} if
	Slw setlinewidth
	Slrgb setrgbcolor
	newpath x y moveto x y r a0 a1 arc closepath
	stroke
} def
/Splu {
	xratio mul
	/r exch def
	yratio mul
	/y exch def
	xratio mul
	/x exch def
	x r sub
	/x0 exch def
	x r add
	/x1 exch def
	x0 y M x1 y L
	y r sub
	/y0 exch def
	y r add
	/y1 exch def
	x y0 M x y1 L
} def
/Scro {
	xratio mul
	/r exch def
	yratio mul
	/y exch def
	xratio mul
	/x exch def
	x r sub
	/x0 exch def
	y r sub
	/y0 exch def
	x r add
	/x1 exch def
	y r add
	/y1 exch def
	x0 y0 M x1 y1 L
	x r add
	/x0 exch def
	y r sub
	/y0 exch def
	x r sub
	/x1 exch def
	y r add
	/y1 exch def
	x0 y0 M x1 y1 L
} def
/Sm {
	yratio mul
	/y exch def
	xratio mul
	/x exch def
	x y M
} def
/Sl {
	yratio mul
	/y exch def
	xratio mul
	/x exch def
	x y L
} def
/SPl {
	yratio mul
	/y exch def
	xratio mul
	/x exch def
	x y PL
} def
/Lcs {
	currentlinecap
	1 setlinecap
} def
/Lcr {
	setlinecap
} def
/Sbp {
	newpath
} def
/Sep {
	/sfill exch def
	closepath
	sfill 1 eq  {
		Ssrgb setrgbcolor
		gsave
		fill
		grestore
	} if
	Slw setlinewidth
	Slrgb setrgbcolor
	Lcs
	stroke
	Lcr
} def
/cp {currentpoint} def 
/M {moveto} def 
/rm {rmoveto} def 
/S {stroke} def 
/L {Slw setlinewidth Slrgb setrgbcolor lineto Lcs S Lcr} def 
/PL {Slw setlinewidth Slrgb setrgbcolor lineto} def 
/MF-Helvetica {
  /newfontname exch def
  /fontname exch def
  /fontdict fontname findfont def
  /newfont fontdict maxlength dict def
  fontdict {
  exch dup /FID eq {pop pop} {exch newfont 3 1 roll put} ifelse
  } forall
  newfont /FontName newfontname put
  newfont /Encoding ISOLatin1Encoding put
  newfontname newfont definefont pop
} def
/Helvetica /Helvetica-0 MF-Helvetica
/Slw 0.120 def
0.918 0.949 0.953 setrgbcolor
0 0 396.000 288.000 Sbgfill
/Slrgb {1.000 1.000 1.000} def
/Strgb {1.000 1.000 1.000} def
/Ssrgb {1.000 1.000 1.000} def
/Ssrgb {0.918 0.949 0.953} def
/Slw 0.576 def
/Slrgb {0.918 0.949 0.953} def
0 0 31999 23272 1 Srect
/Ssrgb {1.000 1.000 1.000} def
/Slw 0.490 def
/Slrgb {1.000 1.000 1.000} def
3138 15616 16742 21185 1 Srect
/Slrgb {0.000 0.000 0.000} def
/Strgb {0.000 0.000 0.000} def
/Slw 0.734 def
/Slrgb {0.918 0.949 0.953} def
3138 16052 16742 16052 Sln
/Slw 0.490 def
/Slrgb {0.000 0.000 0.000} def
/Slw 0.734 def
/Slrgb {0.918 0.949 0.953} def
3138 17226 16742 17226 Sln
/Slw 0.490 def
/Slrgb {0.000 0.000 0.000} def
/Slw 0.734 def
/Slrgb {0.918 0.949 0.953} def
3138 18401 16742 18401 Sln
/Slw 0.490 def
/Slrgb {0.000 0.000 0.000} def
/Slw 0.734 def
/Slrgb {0.918 0.949 0.953} def
3138 19575 16742 19575 Sln
/Slw 0.490 def
/Slrgb {0.000 0.000 0.000} def
/Slw 0.734 def
/Slrgb {0.918 0.949 0.953} def
3138 20750 16742 20750 Sln
/Slw 0.490 def
/Slrgb {0.000 0.000 0.000} def
/Slrgb {1.000 1.000 1.000} def
17301 15616 30905 21185 1 Srect
/Slrgb {0.000 0.000 0.000} def
/Slw 0.734 def
/Slrgb {0.918 0.949 0.953} def
17301 16052 30905 16052 Sln
/Slw 0.490 def
/Slrgb {0.000 0.000 0.000} def
/Slw 0.734 def
/Slrgb {0.918 0.949 0.953} def
17301 17226 30905 17226 Sln
/Slw 0.490 def
/Slrgb {0.000 0.000 0.000} def
/Slw 0.734 def
/Slrgb {0.918 0.949 0.953} def
17301 18401 30905 18401 Sln
/Slw 0.490 def
/Slrgb {0.000 0.000 0.000} def
/Slw 0.734 def
/Slrgb {0.918 0.949 0.953} def
17301 19575 30905 19575 Sln
/Slw 0.490 def
/Slrgb {0.000 0.000 0.000} def
/Slw 0.734 def
/Slrgb {0.918 0.949 0.953} def
17301 20750 30905 20750 Sln
/Slw 0.490 def
/Slrgb {0.000 0.000 0.000} def
/Slrgb {1.000 1.000 1.000} def
3138 7260 16742 12829 1 Srect
/Slrgb {0.000 0.000 0.000} def
/Slw 0.734 def
/Slrgb {0.918 0.949 0.953} def
3138 7695 16742 7695 Sln
/Slw 0.490 def
/Slrgb {0.000 0.000 0.000} def
/Slw 0.734 def
/Slrgb {0.918 0.949 0.953} def
3138 8869 16742 8869 Sln
/Slw 0.490 def
/Slrgb {0.000 0.000 0.000} def
/Slw 0.734 def
/Slrgb {0.918 0.949 0.953} def
3138 10044 16742 10044 Sln
/Slw 0.490 def
/Slrgb {0.000 0.000 0.000} def
/Slw 0.734 def
/Slrgb {0.918 0.949 0.953} def
3138 11219 16742 11219 Sln
/Slw 0.490 def
/Slrgb {0.000 0.000 0.000} def
/Slw 0.734 def
/Slrgb {0.918 0.949 0.953} def
3138 12393 16742 12393 Sln
/Slw 0.490 def
/Slrgb {0.000 0.000 0.000} def
/Slw 0.734 def
/Slrgb {0.102 0.278 0.435} def
5694 16114 Sm
5715 16114 Sl
5715 16114 Sm
5736 16114 Sl
5736 16114 Sm
5757 16113 Sl
5757 16113 Sm
5778 16113 Sl
5778 16113 Sm
5799 16113 Sl
5799 16113 Sm
5820 16112 Sl
5820 16112 Sm
5841 16112 Sl
5841 16112 Sm
5862 16111 Sl
5862 16111 Sm
5883 16111 Sl
5883 16111 Sm
5903 16113 Sl
5903 16113 Sm
5924 16116 Sl
5924 16116 Sm
5945 16118 Sl
5945 16118 Sm
5966 16120 Sl
5966 16120 Sm
5987 16121 Sl
5987 16121 Sm
6008 16123 Sl
6008 16123 Sm
6029 16124 Sl
6029 16124 Sm
6050 16126 Sl
6050 16126 Sm
6071 16126 Sl
6071 16126 Sm
6092 16127 Sl
6092 16127 Sm
6113 16128 Sl
6113 16128 Sm
6134 16128 Sl
6134 16128 Sm
6155 16129 Sl
6155 16129 Sm
6176 16129 Sl
6176 16129 Sm
6197 16129 Sl
6197 16129 Sm
6218 16128 Sl
6218 16128 Sm
6239 16128 Sl
6239 16128 Sm
6260 16127 Sl
6260 16127 Sm
6281 16126 Sl
6281 16126 Sm
6302 16125 Sl
6302 16125 Sm
6323 16124 Sl
6323 16124 Sm
6344 16122 Sl
6344 16122 Sm
6365 16121 Sl
6365 16121 Sm
6386 16119 Sl
6386 16119 Sm
6407 16117 Sl
6407 16117 Sm
6428 16115 Sl
6428 16115 Sm
6449 16113 Sl
6449 16113 Sm
6470 16112 Sl
6470 16112 Sm
6491 16116 Sl
6491 16116 Sm
6512 16120 Sl
6512 16120 Sm
6533 16124 Sl
6533 16124 Sm
6554 16127 Sl
6554 16127 Sm
6575 16130 Sl
6575 16130 Sm
6596 16134 Sl
6596 16134 Sm
6617 16137 Sl
6617 16137 Sm
6638 16139 Sl
6638 16139 Sm
6659 16142 Sl
6659 16142 Sm
6680 16144 Sl
6680 16144 Sm
6701 16147 Sl
6701 16147 Sm
6722 16149 Sl
6722 16149 Sm
6743 16150 Sl
6743 16150 Sm
6764 16152 Sl
6764 16152 Sm
6785 16154 Sl
6785 16154 Sm
6806 16155 Sl
6806 16155 Sm
6827 16156 Sl
6827 16156 Sm
6848 16157 Sl
6848 16157 Sm
6869 16158 Sl
6869 16158 Sm
6890 16158 Sl
6890 16158 Sm
6911 16159 Sl
6911 16159 Sm
6932 16159 Sl
6932 16159 Sm
6953 16159 Sl
6953 16159 Sm
6974 16159 Sl
6974 16159 Sm
6995 16158 Sl
6995 16158 Sm
7016 16158 Sl
7016 16158 Sm
7037 16157 Sl
7037 16157 Sm
7058 16156 Sl
7058 16156 Sm
7079 16155 Sl
7079 16155 Sm
7100 16154 Sl
7100 16154 Sm
7121 16152 Sl
7121 16152 Sm
7142 16151 Sl
7142 16151 Sm
7163 16150 Sl
7163 16150 Sm
7184 16151 Sl
7184 16151 Sm
7205 16152 Sl
7205 16152 Sm
7226 16153 Sl
7226 16153 Sm
7247 16153 Sl
7247 16153 Sm
7268 16153 Sl
7268 16153 Sm
7289 16153 Sl
7289 16153 Sm
7310 16153 Sl
7310 16153 Sm
7331 16152 Sl
7331 16152 Sm
7352 16151 Sl
7352 16151 Sm
7373 16150 Sl
7373 16150 Sm
7394 16149 Sl
7394 16149 Sm
7415 16147 Sl
7415 16147 Sm
7436 16147 Sl
7436 16147 Sm
7457 16148 Sl
7457 16148 Sm
7478 16149 Sl
7478 16149 Sm
7499 16150 Sl
7499 16150 Sm
7520 16150 Sl
7520 16150 Sm
7541 16152 Sl
7541 16152 Sm
7561 16156 Sl
7561 16156 Sm
7582 16159 Sl
7582 16159 Sm
7603 16162 Sl
7603 16162 Sm
7624 16165 Sl
7624 16165 Sm
7645 16171 Sl
7645 16171 Sm
7666 16176 Sl
7666 16176 Sm
7687 16182 Sl
7687 16182 Sm
7708 16186 Sl
7708 16186 Sm
7729 16191 Sl
7729 16191 Sm
7750 16195 Sl
7750 16195 Sm
7771 16198 Sl
7771 16198 Sm
7792 16202 Sl
7792 16202 Sm
7813 16205 Sl
7813 16205 Sm
7834 16207 Sl
7834 16207 Sm
7855 16209 Sl
7855 16209 Sm
7876 16215 Sl
7876 16215 Sm
7897 16219 Sl
7897 16219 Sm
7918 16224 Sl
7918 16224 Sm
7939 16227 Sl
7939 16227 Sm
7960 16231 Sl
7960 16231 Sm
7981 16233 Sl
7981 16233 Sm
8002 16236 Sl
8002 16236 Sm
8023 16240 Sl
8023 16240 Sm
8044 16247 Sl
8044 16247 Sm
8065 16255 Sl
8065 16255 Sm
8086 16262 Sl
8086 16262 Sm
8107 16269 Sl
8107 16269 Sm
8128 16276 Sl
8128 16276 Sm
8149 16282 Sl
8149 16282 Sm
8170 16288 Sl
8170 16288 Sm
8191 16293 Sl
8191 16293 Sm
8212 16297 Sl
8212 16297 Sm
8233 16302 Sl
8233 16302 Sm
8254 16305 Sl
8254 16305 Sm
8275 16321 Sl
8275 16321 Sm
8296 16340 Sl
8296 16340 Sm
8317 16358 Sl
8317 16358 Sm
8338 16376 Sl
8338 16376 Sm
8359 16392 Sl
8359 16392 Sm
8380 16408 Sl
8380 16408 Sm
8401 16423 Sl
8401 16423 Sm
8422 16436 Sl
8422 16436 Sm
8443 16449 Sl
8443 16449 Sm
8464 16461 Sl
8464 16461 Sm
8485 16472 Sl
8485 16472 Sm
8506 16482 Sl
8506 16482 Sm
8527 16491 Sl
8527 16491 Sm
8548 16500 Sl
8548 16500 Sm
8569 16507 Sl
8569 16507 Sm
8590 16513 Sl
8590 16513 Sm
8611 16519 Sl
8611 16519 Sm
8632 16523 Sl
8632 16523 Sm
8653 16530 Sl
8653 16530 Sm
8674 16536 Sl
8674 16536 Sm
8695 16544 Sl
8695 16544 Sm
8716 16553 Sl
8716 16553 Sm
8737 16563 Sl
8737 16563 Sm
8758 16571 Sl
8758 16571 Sm
8779 16579 Sl
8779 16579 Sm
8800 16585 Sl
8800 16585 Sm
8821 16597 Sl
8821 16597 Sm
8842 16614 Sl
8842 16614 Sm
8863 16634 Sl
8863 16634 Sm
8884 16655 Sl
8884 16655 Sm
8905 16675 Sl
8905 16675 Sm
8926 16697 Sl
8926 16697 Sm
8947 16717 Sl
8947 16717 Sm
8968 16736 Sl
8968 16736 Sm
8989 16753 Sl
8989 16753 Sm
9010 16771 Sl
9010 16771 Sm
9031 16790 Sl
9031 16790 Sm
9052 16808 Sl
9052 16808 Sm
9073 16825 Sl
9073 16825 Sm
9094 16844 Sl
9094 16844 Sm
9115 16864 Sl
9115 16864 Sm
9136 16882 Sl
9136 16882 Sm
9157 16901 Sl
9157 16901 Sm
9178 16919 Sl
9178 16919 Sm
9198 16938 Sl
9198 16938 Sm
9219 16955 Sl
9219 16955 Sm
9240 16970 Sl
9240 16970 Sm
9261 16984 Sl
9261 16984 Sm
9282 16995 Sl
9282 16995 Sm
9303 17005 Sl
9303 17005 Sm
9324 17013 Sl
9324 17013 Sm
9345 17019 Sl
9345 17019 Sm
9366 17023 Sl
9366 17023 Sm
9387 17025 Sl
9387 17025 Sm
9408 17027 Sl
9408 17027 Sm
9429 17029 Sl
9429 17029 Sm
9450 17029 Sl
9450 17029 Sm
9471 17028 Sl
9471 17028 Sm
9492 17025 Sl
9492 17025 Sm
9513 17020 Sl
9513 17020 Sm
9534 17013 Sl
9534 17013 Sm
9555 17012 Sl
9555 17012 Sm
9576 17011 Sl
9576 17011 Sm
9597 17012 Sl
9597 17012 Sm
9618 17011 Sl
9618 17011 Sm
9639 17008 Sl
9639 17008 Sm
9660 17004 Sl
9660 17004 Sm
9681 16997 Sl
9681 16997 Sm
9702 17007 Sl
9702 17007 Sm
9723 17020 Sl
9723 17020 Sm
9744 17031 Sl
9744 17031 Sm
9765 17044 Sl
9765 17044 Sm
9786 17059 Sl
9786 17059 Sm
9807 17071 Sl
9807 17071 Sm
9828 17099 Sl
9828 17099 Sm
9849 17129 Sl
9849 17129 Sm
9870 17157 Sl
9870 17157 Sm
9891 17186 Sl
9891 17186 Sm
9912 17215 Sl
9912 17215 Sm
9933 17250 Sl
9933 17250 Sm
9954 17287 Sl
9954 17287 Sm
9975 17337 Sl
9975 17337 Sm
9996 17384 Sl
9996 17384 Sm
10017 17430 Sl
10017 17430 Sm
10038 17476 Sl
10038 17476 Sm
10059 17520 Sl
10059 17520 Sm
10080 17579 Sl
10080 17579 Sm
10101 17639 Sl
10101 17639 Sm
10122 17703 Sl
10122 17703 Sm
10143 17764 Sl
10143 17764 Sm
10164 17821 Sl
10164 17821 Sm
10185 17880 Sl
10185 17880 Sm
10206 17937 Sl
10206 17937 Sm
10227 17991 Sl
10227 17991 Sm
10248 18046 Sl
10248 18046 Sm
10269 18100 Sl
10269 18100 Sm
10290 18148 Sl
10290 18148 Sm
10311 18192 Sl
10311 18192 Sm
10332 18230 Sl
10332 18230 Sm
10353 18264 Sl
10353 18264 Sm
10374 18301 Sl
10374 18301 Sm
10395 18339 Sl
10395 18339 Sm
10416 18376 Sl
10416 18376 Sm
10437 18411 Sl
10437 18411 Sm
10458 18442 Sl
10458 18442 Sm
10479 18474 Sl
10479 18474 Sm
10500 18503 Sl
10500 18503 Sm
10521 18528 Sl
10521 18528 Sm
10542 18548 Sl
10542 18548 Sm
10563 18567 Sl
10563 18567 Sm
10584 18585 Sl
10584 18585 Sm
10605 18598 Sl
10605 18598 Sm
10626 18608 Sl
10626 18608 Sm
10647 18617 Sl
10647 18617 Sm
10668 18621 Sl
10668 18621 Sm
10689 18624 Sl
10689 18624 Sm
10710 18627 Sl
10710 18627 Sm
10731 18626 Sl
10731 18626 Sm
10752 18621 Sl
10752 18621 Sm
10773 18611 Sl
10773 18611 Sm
10794 18598 Sl
10794 18598 Sm
10815 18580 Sl
10815 18580 Sm
10836 18559 Sl
10836 18559 Sm
10856 18533 Sl
10856 18533 Sm
10877 18502 Sl
10877 18502 Sm
10898 18468 Sl
10898 18468 Sm
10919 18430 Sl
10919 18430 Sm
10940 18387 Sl
10940 18387 Sm
10961 18340 Sl
10961 18340 Sm
10982 18289 Sl
10982 18289 Sm
11003 18234 Sl
11003 18234 Sm
11024 18175 Sl
11024 18175 Sm
11045 18112 Sl
11045 18112 Sm
11066 18044 Sl
11066 18044 Sm
11087 17973 Sl
11087 17973 Sm
11108 17906 Sl
11108 17906 Sm
11129 17837 Sl
11129 17837 Sm
11150 17764 Sl
11150 17764 Sm
11171 17687 Sl
11171 17687 Sm
11192 17605 Sl
11192 17605 Sm
11213 17524 Sl
11213 17524 Sm
11234 17438 Sl
11234 17438 Sm
11255 17373 Sl
11255 17373 Sm
11276 17305 Sl
11276 17305 Sm
11297 17235 Sl
11297 17235 Sm
11318 17168 Sl
11318 17168 Sm
11339 17100 Sl
11339 17100 Sm
11360 17029 Sl
11360 17029 Sm
11381 16959 Sl
11381 16959 Sm
11402 16889 Sl
11402 16889 Sm
11423 16816 Sl
11423 16816 Sm
11444 16746 Sl
11444 16746 Sm
11465 16675 Sl
11465 16675 Sm
11486 16611 Sl
11486 16611 Sm
11507 16553 Sl
11507 16553 Sm
11528 16505 Sl
11528 16505 Sm
11549 16456 Sl
11549 16456 Sm
11570 16408 Sl
11570 16408 Sm
11591 16361 Sl
11591 16361 Sm
11612 16319 Sl
11612 16319 Sm
11633 16290 Sl
11633 16290 Sm
11654 16269 Sl
11654 16269 Sm
11675 16253 Sl
11675 16253 Sm
11696 16238 Sl
11696 16238 Sm
11717 16223 Sl
11717 16223 Sm
11738 16215 Sl
11738 16215 Sm
11759 16206 Sl
11759 16206 Sm
11780 16196 Sl
11780 16196 Sm
11801 16191 Sl
11801 16191 Sm
11822 16188 Sl
11822 16188 Sm
11843 16184 Sl
11843 16184 Sm
11864 16180 Sl
11864 16180 Sm
11885 16176 Sl
11885 16176 Sm
11906 16171 Sl
11906 16171 Sm
11927 16167 Sl
11927 16167 Sm
11948 16162 Sl
11948 16162 Sm
11969 16156 Sl
/Slrgb {0.565 0.208 0.231} def
7525 16069 Sm
7554 16071 Sl
7554 16071 Sm
7582 16073 Sl
7582 16073 Sm
7611 16074 Sl
7611 16074 Sm
7640 16074 Sl
7640 16074 Sm
7668 16074 Sl
7668 16074 Sm
7697 16073 Sl
7697 16073 Sm
7725 16071 Sl
7725 16071 Sm
7754 16069 Sl
7754 16069 Sm
7783 16068 Sl
7783 16068 Sm
7811 16067 Sl
7811 16067 Sm
7840 16066 Sl
7840 16066 Sm
7869 16067 Sl
7869 16067 Sm
7897 16068 Sl
7897 16068 Sm
7926 16069 Sl
7926 16069 Sm
7954 16070 Sl
7954 16070 Sm
7983 16071 Sl
7983 16071 Sm
8012 16070 Sl
8012 16070 Sm
8040 16070 Sl
8040 16070 Sm
8069 16069 Sl
8069 16069 Sm
8097 16071 Sl
8097 16071 Sm
8126 16072 Sl
8126 16072 Sm
8155 16073 Sl
8155 16073 Sm
8183 16073 Sl
8183 16073 Sm
8212 16076 Sl
8212 16076 Sm
8240 16083 Sl
8240 16083 Sm
8269 16089 Sl
8269 16089 Sm
8298 16093 Sl
8298 16093 Sm
8326 16096 Sl
8326 16096 Sm
8355 16100 Sl
8355 16100 Sm
8383 16105 Sl
8383 16105 Sm
8412 16109 Sl
8412 16109 Sm
8441 16113 Sl
8441 16113 Sm
8469 16117 Sl
8469 16117 Sm
8498 16121 Sl
8498 16121 Sm
8526 16124 Sl
8526 16124 Sm
8555 16128 Sl
8555 16128 Sm
8584 16132 Sl
8584 16132 Sm
8612 16136 Sl
8612 16136 Sm
8641 16141 Sl
8641 16141 Sm
8669 16143 Sl
8669 16143 Sm
8698 16143 Sl
8698 16143 Sm
8727 16141 Sl
8727 16141 Sm
8755 16140 Sl
8755 16140 Sm
8784 16156 Sl
8784 16156 Sm
8812 16171 Sl
8812 16171 Sm
8841 16182 Sl
8841 16182 Sm
8870 16191 Sl
8870 16191 Sm
8898 16198 Sl
8898 16198 Sm
8927 16206 Sl
8927 16206 Sm
8955 16219 Sl
8955 16219 Sm
8984 16228 Sl
8984 16228 Sm
9013 16233 Sl
9013 16233 Sm
9041 16236 Sl
9041 16236 Sm
9070 16237 Sl
9070 16237 Sm
9098 16247 Sl
9098 16247 Sm
9127 16259 Sl
9127 16259 Sm
9156 16273 Sl
9156 16273 Sm
9184 16283 Sl
9184 16283 Sm
9213 16292 Sl
9213 16292 Sm
9241 16299 Sl
9241 16299 Sm
9270 16300 Sl
9270 16300 Sm
9299 16297 Sl
9299 16297 Sm
9327 16312 Sl
9327 16312 Sm
9356 16332 Sl
9356 16332 Sm
9384 16345 Sl
9384 16345 Sm
9413 16354 Sl
9413 16354 Sm
9442 16364 Sl
9442 16364 Sm
9470 16372 Sl
9470 16372 Sm
9499 16384 Sl
9499 16384 Sm
9527 16398 Sl
9527 16398 Sm
9556 16403 Sl
9556 16403 Sm
9585 16403 Sl
9585 16403 Sm
9613 16396 Sl
9613 16396 Sm
9642 16405 Sl
9642 16405 Sm
9670 16443 Sl
9670 16443 Sm
9699 16475 Sl
9699 16475 Sm
9728 16500 Sl
9728 16500 Sm
9756 16517 Sl
9756 16517 Sm
9785 16548 Sl
9785 16548 Sm
9813 16578 Sl
9813 16578 Sm
9842 16598 Sl
9842 16598 Sm
9871 16640 Sl
9871 16640 Sm
9899 16712 Sl
9899 16712 Sm
9928 16763 Sl
9928 16763 Sm
9956 16796 Sl
9956 16796 Sm
9985 16822 Sl
9985 16822 Sm
10014 16842 Sl
10014 16842 Sm
10042 16877 Sl
10042 16877 Sm
10071 16953 Sl
10071 16953 Sm
10099 17007 Sl
10099 17007 Sm
10128 17045 Sl
10128 17045 Sm
10157 17067 Sl
10157 17067 Sm
10185 17088 Sl
10185 17088 Sm
10214 17189 Sl
10214 17189 Sm
10242 17280 Sl
10242 17280 Sm
10271 17352 Sl
10271 17352 Sm
10300 17393 Sl
10300 17393 Sm
10328 17477 Sl
10328 17477 Sm
10357 17546 Sl
10357 17546 Sm
10385 17607 Sl
10385 17607 Sm
10414 17656 Sl
10414 17656 Sm
10443 17788 Sl
10443 17788 Sm
10471 17915 Sl
10471 17915 Sm
10500 17999 Sl
10500 17999 Sm
10529 18081 Sl
10529 18081 Sm
10557 18124 Sl
10557 18124 Sm
10586 18141 Sl
10586 18141 Sm
10614 18337 Sl
10614 18337 Sm
10643 18508 Sl
10643 18508 Sm
10672 18639 Sl
10672 18639 Sm
10700 18742 Sl
10700 18742 Sm
10729 18787 Sl
10729 18787 Sm
10757 18942 Sl
10757 18942 Sm
10786 19103 Sl
10786 19103 Sm
10815 19229 Sl
10815 19229 Sm
10843 19295 Sl
10843 19295 Sm
10872 19348 Sl
10872 19348 Sm
10900 19396 Sl
10900 19396 Sm
10929 19442 Sl
10929 19442 Sm
10958 19440 Sl
10958 19440 Sm
10986 19449 Sl
10986 19449 Sm
11015 19440 Sl
11015 19440 Sm
11043 19396 Sl
11043 19396 Sm
11072 19300 Sl
11072 19300 Sm
11101 19168 Sl
11101 19168 Sm
11129 18983 Sl
11129 18983 Sm
11158 18853 Sl
11158 18853 Sm
11186 18811 Sl
11186 18811 Sm
11215 18727 Sl
11215 18727 Sm
11244 18627 Sl
11244 18627 Sm
11272 18488 Sl
11272 18488 Sm
11301 18342 Sl
11301 18342 Sm
11329 18277 Sl
11329 18277 Sm
11358 18218 Sl
11358 18218 Sm
11387 18156 Sl
11387 18156 Sm
11415 18052 Sl
11415 18052 Sm
11444 17971 Sl
11444 17971 Sm
11472 17889 Sl
11472 17889 Sm
11501 17872 Sl
11501 17872 Sm
11530 17828 Sl
11530 17828 Sm
11558 17784 Sl
11558 17784 Sm
11587 17726 Sl
11587 17726 Sm
11615 17668 Sl
11615 17668 Sm
11644 17595 Sl
11644 17595 Sm
11673 17502 Sl
11673 17502 Sm
11701 17402 Sl
11701 17402 Sm
11730 17358 Sl
11730 17358 Sm
11758 17297 Sl
11758 17297 Sm
11787 17228 Sl
11787 17228 Sm
11816 17158 Sl
11816 17158 Sm
11844 17068 Sl
11844 17068 Sm
11873 16977 Sl
11873 16977 Sm
11901 16914 Sl
11901 16914 Sm
11930 16855 Sl
11930 16855 Sm
11959 16795 Sl
11959 16795 Sm
11987 16728 Sl
11987 16728 Sm
12016 16654 Sl
12016 16654 Sm
12044 16626 Sl
12044 16626 Sm
12073 16596 Sl
12073 16596 Sm
12102 16563 Sl
12102 16563 Sm
12130 16523 Sl
12130 16523 Sm
12159 16492 Sl
12159 16492 Sm
12187 16470 Sl
12187 16470 Sm
12216 16453 Sl
12216 16453 Sm
12245 16431 Sl
12245 16431 Sm
12273 16418 Sl
12273 16418 Sm
12302 16406 Sl
12302 16406 Sm
12330 16387 Sl
12330 16387 Sm
12359 16370 Sl
12359 16370 Sm
12388 16354 Sl
12388 16354 Sm
12416 16334 Sl
12416 16334 Sm
12445 16313 Sl
12445 16313 Sm
12473 16291 Sl
12473 16291 Sm
12502 16266 Sl
12502 16266 Sm
12531 16242 Sl
12531 16242 Sm
12559 16216 Sl
12559 16216 Sm
12588 16195 Sl
12588 16195 Sm
12616 16180 Sl
12616 16180 Sm
12645 16164 Sl
12645 16164 Sm
12674 16152 Sl
12674 16152 Sm
12702 16140 Sl
12702 16140 Sm
12731 16130 Sl
12731 16130 Sm
12759 16123 Sl
12759 16123 Sm
12788 16123 Sl
12788 16123 Sm
12817 16122 Sl
12817 16122 Sm
12845 16120 Sl
12845 16120 Sm
12874 16118 Sl
12874 16118 Sm
12902 16116 Sl
12902 16116 Sm
12931 16112 Sl
12931 16112 Sm
12960 16109 Sl
12960 16109 Sm
12988 16106 Sl
12988 16106 Sm
13017 16102 Sl
13017 16102 Sm
13045 16097 Sl
13045 16097 Sm
13074 16090 Sl
13074 16090 Sm
13103 16083 Sl
13103 16083 Sm
13131 16075 Sl
13131 16075 Sm
13160 16070 Sl
13160 16070 Sm
13189 16067 Sl
13189 16067 Sm
13217 16065 Sl
13217 16065 Sm
13246 16063 Sl
13246 16063 Sm
13274 16063 Sl
13274 16063 Sm
13303 16062 Sl
13303 16062 Sm
13332 16061 Sl
13332 16061 Sm
13360 16060 Sl
13360 16060 Sm
13389 16060 Sl
13389 16060 Sm
13417 16062 Sl
13417 16062 Sm
13446 16063 Sl
13446 16063 Sm
13475 16064 Sl
13475 16064 Sm
13503 16065 Sl
13503 16065 Sm
13532 16065 Sl
13532 16065 Sm
13560 16065 Sl
13560 16065 Sm
13589 16064 Sl
13589 16064 Sm
13618 16063 Sl
13618 16063 Sm
13646 16062 Sl
13646 16062 Sm
13675 16060 Sl
13675 16060 Sm
13703 16060 Sl
13703 16060 Sm
13732 16062 Sl
13732 16062 Sm
13761 16063 Sl
13761 16063 Sm
13789 16063 Sl
13789 16063 Sm
13818 16063 Sl
13818 16063 Sm
13846 16063 Sl
13846 16063 Sm
13875 16063 Sl
13875 16063 Sm
13904 16062 Sl
13904 16062 Sm
13932 16061 Sl
13932 16061 Sm
13961 16060 Sl
13961 16060 Sm
13989 16060 Sl
13989 16060 Sm
14018 16060 Sl
14018 16060 Sm
14047 16059 Sl
14047 16059 Sm
14075 16059 Sl
14075 16059 Sm
14104 16058 Sl
14104 16058 Sm
14132 16057 Sl
14132 16057 Sm
14161 16056 Sl
14161 16056 Sm
14190 16055 Sl
14190 16055 Sm
14218 16053 Sl
14218 16053 Sm
14247 16052 Sl
14247 16052 Sm
14275 16051 Sl
14275 16051 Sm
14304 16051 Sl
14304 16051 Sm
14333 16051 Sl
14333 16051 Sm
14361 16051 Sl
14361 16051 Sm
14390 16051 Sl
14390 16051 Sm
14418 16051 Sl
14418 16051 Sm
14447 16051 Sl
14447 16051 Sm
14476 16051 Sl
14476 16051 Sm
14504 16051 Sl
14504 16051 Sm
14533 16051 Sl
14533 16051 Sm
14561 16051 Sl
14561 16051 Sm
14590 16051 Sl
14590 16051 Sm
14619 16051 Sl
14619 16051 Sm
14647 16051 Sl
14647 16051 Sm
14676 16051 Sl
14676 16051 Sm
14704 16051 Sl
14704 16051 Sm
14733 16051 Sl
14733 16051 Sm
14762 16051 Sl
14762 16051 Sm
14790 16051 Sl
14790 16051 Sm
14819 16051 Sl
14819 16051 Sm
14847 16051 Sl
14847 16051 Sm
14876 16051 Sl
14876 16051 Sm
14905 16051 Sl
14905 16051 Sm
14933 16051 Sl
14933 16051 Sm
14962 16051 Sl
14962 16051 Sm
14990 16051 Sl
14990 16051 Sm
15019 16051 Sl
15019 16051 Sm
15048 16051 Sl
15048 16051 Sm
15076 16051 Sl
15076 16051 Sm
15105 16051 Sl
15105 16051 Sm
15133 16051 Sl
15133 16051 Sm
15162 16051 Sl
15162 16051 Sm
15191 16051 Sl
15191 16051 Sm
15219 16051 Sl
15219 16051 Sm
15248 16051 Sl
15248 16051 Sm
15276 16051 Sl
15276 16051 Sm
15305 16051 Sl
15305 16051 Sm
15334 16051 Sl
15334 16051 Sm
15362 16051 Sl
15362 16051 Sm
15391 16051 Sl
15391 16051 Sm
15419 16051 Sl
15419 16051 Sm
15448 16051 Sl
15448 16051 Sm
15477 16051 Sl
15477 16051 Sm
15505 16051 Sl
15505 16051 Sm
15534 16051 Sl
15534 16051 Sm
15562 16051 Sl
15562 16051 Sm
15591 16051 Sl
15591 16051 Sm
15620 16051 Sl
15620 16051 Sm
15648 16051 Sl
15648 16051 Sm
15677 16051 Sl
15677 16051 Sm
15705 16051 Sl
15705 16051 Sm
15734 16051 Sl
15734 16051 Sm
15763 16051 Sl
15763 16051 Sm
15791 16051 Sl
15791 16051 Sm
15820 16053 Sl
15820 16053 Sm
15848 16054 Sl
15848 16054 Sm
15877 16055 Sl
15877 16055 Sm
15906 16057 Sl
15906 16057 Sm
15934 16058 Sl
15934 16058 Sm
15963 16058 Sl
15963 16058 Sm
15992 16059 Sl
15992 16059 Sm
16020 16060 Sl
16020 16060 Sm
16049 16060 Sl
16049 16060 Sm
16077 16060 Sl
/Slrgb {0.333 0.459 0.184} def
6651 16083 Sm
6675 16087 Sl
6675 16087 Sm
6698 16090 Sl
6698 16090 Sm
6722 16093 Sl
6722 16093 Sm
6746 16096 Sl
6746 16096 Sm
6769 16098 Sl
6769 16098 Sm
6793 16101 Sl
6793 16101 Sm
6816 16103 Sl
6816 16103 Sm
6840 16105 Sl
6840 16105 Sm
6863 16108 Sl
6863 16108 Sm
6887 16110 Sl
6887 16110 Sm
6910 16112 Sl
6910 16112 Sm
6934 16114 Sl
6934 16114 Sm
6958 16115 Sl
6958 16115 Sm
6981 16118 Sl
6981 16118 Sm
7005 16120 Sl
7005 16120 Sm
7028 16123 Sl
7028 16123 Sm
7052 16124 Sl
7052 16124 Sm
7075 16126 Sl
7075 16126 Sm
7099 16128 Sl
7099 16128 Sm
7122 16130 Sl
7122 16130 Sm
7146 16132 Sl
7146 16132 Sm
7170 16134 Sl
7170 16134 Sm
7193 16135 Sl
7193 16135 Sm
7217 16136 Sl
7217 16136 Sm
7240 16139 Sl
7240 16139 Sm
7264 16141 Sl
7264 16141 Sm
7287 16142 Sl
7287 16142 Sm
7311 16144 Sl
7311 16144 Sm
7334 16145 Sl
7334 16145 Sm
7358 16145 Sl
7358 16145 Sm
7382 16150 Sl
7382 16150 Sm
7405 16157 Sl
7405 16157 Sm
7429 16162 Sl
7429 16162 Sm
7452 16167 Sl
7452 16167 Sm
7476 16172 Sl
7476 16172 Sm
7499 16176 Sl
7499 16176 Sm
7523 16180 Sl
7523 16180 Sm
7546 16184 Sl
7546 16184 Sm
7570 16188 Sl
7570 16188 Sm
7594 16191 Sl
7594 16191 Sm
7617 16194 Sl
7617 16194 Sm
7641 16198 Sl
7641 16198 Sm
7664 16202 Sl
7664 16202 Sm
7688 16206 Sl
7688 16206 Sm
7711 16209 Sl
7711 16209 Sm
7735 16211 Sl
7735 16211 Sm
7758 16214 Sl
7758 16214 Sm
7782 16220 Sl
7782 16220 Sm
7806 16227 Sl
7806 16227 Sm
7829 16234 Sl
7829 16234 Sm
7853 16239 Sl
7853 16239 Sm
7876 16244 Sl
7876 16244 Sm
7900 16248 Sl
7900 16248 Sm
7923 16254 Sl
7923 16254 Sm
7947 16270 Sl
7947 16270 Sm
7970 16285 Sl
7970 16285 Sm
7994 16298 Sl
7994 16298 Sm
8018 16312 Sl
8018 16312 Sm
8041 16324 Sl
8041 16324 Sm
8065 16336 Sl
8065 16336 Sm
8088 16349 Sl
8088 16349 Sm
8112 16362 Sl
8112 16362 Sm
8135 16374 Sl
8135 16374 Sm
8159 16385 Sl
8159 16385 Sm
8182 16393 Sl
8182 16393 Sm
8206 16401 Sl
8206 16401 Sm
8230 16408 Sl
8230 16408 Sm
8253 16418 Sl
8253 16418 Sm
8277 16428 Sl
8277 16428 Sm
8300 16438 Sl
8300 16438 Sm
8324 16448 Sl
8324 16448 Sm
8347 16458 Sl
8347 16458 Sm
8371 16466 Sl
8371 16466 Sm
8394 16474 Sl
8394 16474 Sm
8418 16481 Sl
8418 16481 Sm
8442 16486 Sl
8442 16486 Sm
8465 16490 Sl
8465 16490 Sm
8489 16511 Sl
8489 16511 Sm
8512 16537 Sl
8512 16537 Sm
8536 16563 Sl
8536 16563 Sm
8559 16586 Sl
8559 16586 Sm
8583 16607 Sl
8583 16607 Sm
8606 16624 Sl
8606 16624 Sm
8630 16641 Sl
8630 16641 Sm
8654 16659 Sl
8654 16659 Sm
8677 16677 Sl
8677 16677 Sm
8701 16692 Sl
8701 16692 Sm
8724 16704 Sl
8724 16704 Sm
8748 16715 Sl
8748 16715 Sm
8771 16725 Sl
8771 16725 Sm
8795 16737 Sl
8795 16737 Sm
8818 16763 Sl
8818 16763 Sm
8842 16785 Sl
8842 16785 Sm
8866 16804 Sl
8866 16804 Sm
8889 16821 Sl
8889 16821 Sm
8913 16836 Sl
8913 16836 Sm
8936 16853 Sl
8936 16853 Sm
8960 16866 Sl
8960 16866 Sm
8983 16875 Sl
8983 16875 Sm
9007 16882 Sl
9007 16882 Sm
9030 16893 Sl
9030 16893 Sm
9054 16912 Sl
9054 16912 Sm
9078 16940 Sl
9078 16940 Sm
9101 16964 Sl
9101 16964 Sm
9125 16984 Sl
9125 16984 Sm
9148 17001 Sl
9148 17001 Sm
9172 17016 Sl
9172 17016 Sm
9195 17028 Sl
9195 17028 Sm
9219 17055 Sl
9219 17055 Sm
9242 17078 Sl
9242 17078 Sm
9266 17098 Sl
9266 17098 Sm
9289 17113 Sl
9289 17113 Sm
9313 17124 Sl
9313 17124 Sm
9337 17131 Sl
9337 17131 Sm
9360 17150 Sl
9360 17150 Sm
9384 17170 Sl
9384 17170 Sm
9407 17187 Sl
9407 17187 Sm
9431 17201 Sl
9431 17201 Sm
9454 17212 Sl
9454 17212 Sm
9478 17220 Sl
9478 17220 Sm
9501 17225 Sl
9501 17225 Sm
9525 17225 Sl
9525 17225 Sm
9549 17222 Sl
9549 17222 Sm
9572 17216 Sl
9572 17216 Sm
9596 17224 Sl
9596 17224 Sm
9619 17245 Sl
9619 17245 Sm
9643 17267 Sl
9643 17267 Sm
9666 17285 Sl
9666 17285 Sm
9690 17302 Sl
9690 17302 Sm
9713 17313 Sl
9713 17313 Sm
9737 17321 Sl
9737 17321 Sm
9761 17339 Sl
9761 17339 Sm
9784 17368 Sl
9784 17368 Sm
9808 17395 Sl
9808 17395 Sm
9831 17416 Sl
9831 17416 Sm
9855 17432 Sl
9855 17432 Sm
9878 17443 Sl
9878 17443 Sm
9902 17465 Sl
9902 17465 Sm
9925 17509 Sl
9925 17509 Sm
9949 17563 Sl
9949 17563 Sm
9973 17612 Sl
9973 17612 Sm
9996 17654 Sl
9996 17654 Sm
10020 17688 Sl
10020 17688 Sm
10043 17716 Sl
10043 17716 Sm
10067 17738 Sl
10067 17738 Sm
10090 17765 Sl
10090 17765 Sm
10114 17786 Sl
10114 17786 Sm
10137 17806 Sl
10137 17806 Sm
10161 17829 Sl
10161 17829 Sm
10185 17857 Sl
10185 17857 Sm
10208 17878 Sl
10208 17878 Sm
10232 17893 Sl
10232 17893 Sm
10255 17900 Sl
10255 17900 Sm
10279 17900 Sl
10279 17900 Sm
10302 17898 Sl
10302 17898 Sm
10326 17925 Sl
10326 17925 Sm
10349 17957 Sl
10349 17957 Sm
10373 17984 Sl
10373 17984 Sm
10397 18002 Sl
10397 18002 Sm
10420 18015 Sl
10420 18015 Sm
10444 18020 Sl
10444 18020 Sm
10467 18022 Sl
10467 18022 Sm
10491 18033 Sl
10491 18033 Sm
10514 18045 Sl
10514 18045 Sm
10538 18049 Sl
10538 18049 Sm
10561 18045 Sl
10561 18045 Sm
10585 18034 Sl
10585 18034 Sm
10609 18016 Sl
10609 18016 Sm
10632 17999 Sl
10632 17999 Sm
10656 17988 Sl
10656 17988 Sm
10679 17969 Sl
10679 17969 Sm
10703 17941 Sl
10703 17941 Sm
10726 17926 Sl
10726 17926 Sm
10750 17905 Sl
10750 17905 Sm
10773 17879 Sl
10773 17879 Sm
10797 17847 Sl
10797 17847 Sm
10821 17811 Sl
10821 17811 Sm
10844 17767 Sl
10844 17767 Sm
10868 17726 Sl
10868 17726 Sm
10891 17693 Sl
10891 17693 Sm
10915 17668 Sl
10915 17668 Sm
10938 17638 Sl
10938 17638 Sm
10962 17601 Sl
10962 17601 Sm
10985 17560 Sl
10985 17560 Sm
11009 17512 Sl
11009 17512 Sm
11033 17470 Sl
11033 17470 Sm
11056 17460 Sl
11056 17460 Sm
11080 17444 Sl
11080 17444 Sm
11103 17424 Sl
11103 17424 Sm
11127 17399 Sl
11127 17399 Sm
11150 17368 Sl
11150 17368 Sm
11174 17331 Sl
11174 17331 Sm
11197 17293 Sl
11197 17293 Sm
11221 17258 Sl
11221 17258 Sm
11245 17222 Sl
11245 17222 Sm
11268 17187 Sl
11268 17187 Sm
11292 17151 Sl
11292 17151 Sm
11315 17114 Sl
11315 17114 Sm
11339 17072 Sl
11339 17072 Sm
11362 17026 Sl
11362 17026 Sm
11386 16975 Sl
11386 16975 Sm
11409 16921 Sl
11409 16921 Sm
11433 16868 Sl
11433 16868 Sm
11457 16851 Sl
11457 16851 Sm
11480 16830 Sl
11480 16830 Sm
11504 16807 Sl
11504 16807 Sm
11527 16781 Sl
11527 16781 Sm
11551 16753 Sl
11551 16753 Sm
11574 16723 Sl
11574 16723 Sm
11598 16698 Sl
11598 16698 Sm
11621 16673 Sl
11621 16673 Sm
11645 16649 Sl
11645 16649 Sm
11669 16622 Sl
11669 16622 Sm
11692 16591 Sl
11692 16591 Sm
11716 16559 Sl
11716 16559 Sm
11739 16526 Sl
11739 16526 Sm
11763 16499 Sl
11763 16499 Sm
11786 16485 Sl
11786 16485 Sm
11810 16470 Sl
11810 16470 Sm
11833 16454 Sl
11833 16454 Sm
11857 16437 Sl
11857 16437 Sm
11881 16419 Sl
11881 16419 Sm
11904 16402 Sl
11904 16402 Sm
11928 16387 Sl
11928 16387 Sm
11951 16370 Sl
11951 16370 Sm
11975 16351 Sl
11975 16351 Sm
11998 16340 Sl
11998 16340 Sm
12022 16333 Sl
12022 16333 Sm
12045 16324 Sl
12045 16324 Sm
12069 16315 Sl
12069 16315 Sm
12093 16305 Sl
12093 16305 Sm
12116 16295 Sl
12116 16295 Sm
12140 16285 Sl
12140 16285 Sm
12163 16275 Sl
12163 16275 Sm
12187 16271 Sl
12187 16271 Sm
12210 16266 Sl
12210 16266 Sm
12234 16260 Sl
12234 16260 Sm
12257 16253 Sl
12257 16253 Sm
12281 16245 Sl
12281 16245 Sm
12305 16236 Sl
12305 16236 Sm
12328 16232 Sl
12328 16232 Sm
12352 16228 Sl
12352 16228 Sm
12375 16222 Sl
12375 16222 Sm
12399 16216 Sl
12399 16216 Sm
12422 16209 Sl
12422 16209 Sm
12446 16204 Sl
12446 16204 Sm
12469 16198 Sl
12469 16198 Sm
12493 16191 Sl
12493 16191 Sm
12517 16184 Sl
12517 16184 Sm
12540 16177 Sl
12540 16177 Sm
12564 16175 Sl
12564 16175 Sm
12587 16172 Sl
12587 16172 Sm
12611 16169 Sl
12611 16169 Sm
12634 16165 Sl
12634 16165 Sm
12658 16162 Sl
12658 16162 Sm
12681 16158 Sl
12681 16158 Sm
12705 16153 Sl
12705 16153 Sm
12729 16150 Sl
12729 16150 Sm
12752 16148 Sl
12752 16148 Sm
12776 16144 Sl
12776 16144 Sm
12799 16141 Sl
12799 16141 Sm
12823 16137 Sl
12823 16137 Sm
12846 16132 Sl
12846 16132 Sm
12870 16129 Sl
12870 16129 Sm
12893 16127 Sl
12893 16127 Sm
12917 16124 Sl
12917 16124 Sm
12941 16122 Sl
12941 16122 Sm
12964 16120 Sl
12964 16120 Sm
12988 16117 Sl
12988 16117 Sm
13011 16114 Sl
13011 16114 Sm
13035 16111 Sl
13035 16111 Sm
13058 16109 Sl
13058 16109 Sm
13082 16108 Sl
13082 16108 Sm
13105 16106 Sl
13105 16106 Sm
13129 16105 Sl
13129 16105 Sm
13152 16104 Sl
13152 16104 Sm
13176 16102 Sl
13176 16102 Sm
13200 16101 Sl
13200 16101 Sm
13223 16100 Sl
13223 16100 Sm
13247 16099 Sl
13247 16099 Sm
13270 16097 Sl
13270 16097 Sm
13294 16097 Sl
13294 16097 Sm
13317 16097 Sl
13317 16097 Sm
13341 16096 Sl
13341 16096 Sm
13364 16096 Sl
13364 16096 Sm
13388 16095 Sl
13388 16095 Sm
13412 16093 Sl
13412 16093 Sm
13435 16092 Sl
13435 16092 Sm
13459 16091 Sl
13459 16091 Sm
13482 16092 Sl
13482 16092 Sm
13506 16091 Sl
13506 16091 Sm
13529 16091 Sl
13529 16091 Sm
13553 16091 Sl
13553 16091 Sm
13576 16090 Sl
13576 16090 Sm
13600 16089 Sl
13600 16089 Sm
13624 16088 Sl
13624 16088 Sm
13647 16087 Sl
13647 16087 Sm
13671 16086 Sl
13671 16086 Sm
13694 16086 Sl
/Slrgb {0.102 0.278 0.435} def
21950 16440 Sm
21967 16451 Sl
21967 16451 Sm
21985 16461 Sl
21985 16461 Sm
22002 16469 Sl
22002 16469 Sm
22019 16475 Sl
22019 16475 Sm
22036 16480 Sl
22036 16480 Sm
22053 16483 Sl
22053 16483 Sm
22071 16485 Sl
22071 16485 Sm
22088 16489 Sl
22088 16489 Sm
22105 16495 Sl
22105 16495 Sm
22122 16500 Sl
22122 16500 Sm
22139 16502 Sl
22139 16502 Sm
22156 16502 Sl
22156 16502 Sm
22174 16501 Sl
22174 16501 Sm
22191 16498 Sl
22191 16498 Sm
22208 16493 Sl
22208 16493 Sm
22225 16487 Sl
22225 16487 Sm
22242 16486 Sl
22242 16486 Sm
22259 16482 Sl
22259 16482 Sm
22277 16476 Sl
22277 16476 Sm
22294 16469 Sl
22294 16469 Sm
22311 16459 Sl
22311 16459 Sm
22328 16447 Sl
22328 16447 Sm
22345 16433 Sl
22345 16433 Sm
22362 16419 Sl
22362 16419 Sm
22380 16411 Sl
22380 16411 Sm
22397 16405 Sl
22397 16405 Sm
22414 16402 Sl
22414 16402 Sm
22431 16399 Sl
22431 16399 Sm
22448 16400 Sl
22448 16400 Sm
22465 16400 Sl
22465 16400 Sm
22483 16398 Sl
22483 16398 Sm
22500 16400 Sl
22500 16400 Sm
22517 16406 Sl
22517 16406 Sm
22534 16419 Sl
22534 16419 Sm
22551 16433 Sl
22551 16433 Sm
22568 16451 Sl
22568 16451 Sm
22586 16466 Sl
22586 16466 Sm
22603 16480 Sl
22603 16480 Sm
22620 16491 Sl
22620 16491 Sm
22637 16500 Sl
22637 16500 Sm
22654 16506 Sl
22654 16506 Sm
22671 16511 Sl
22671 16511 Sm
22689 16514 Sl
22689 16514 Sm
22706 16518 Sl
22706 16518 Sm
22723 16524 Sl
22723 16524 Sm
22740 16529 Sl
22740 16529 Sm
22757 16531 Sl
22757 16531 Sm
22774 16532 Sl
22774 16532 Sm
22792 16530 Sl
22792 16530 Sm
22809 16527 Sl
22809 16527 Sm
22826 16522 Sl
22826 16522 Sm
22843 16516 Sl
22843 16516 Sm
22860 16507 Sl
22860 16507 Sm
22878 16497 Sl
22878 16497 Sm
22895 16485 Sl
22895 16485 Sm
22912 16470 Sl
22912 16470 Sm
22929 16456 Sl
22929 16456 Sm
22946 16446 Sl
22946 16446 Sm
22963 16444 Sl
22963 16444 Sm
22981 16446 Sl
22981 16446 Sm
22998 16445 Sl
22998 16445 Sm
23015 16442 Sl
23015 16442 Sm
23032 16437 Sl
23032 16437 Sm
23049 16430 Sl
23049 16430 Sm
23066 16420 Sl
23066 16420 Sm
23084 16415 Sl
23084 16415 Sm
23101 16409 Sl
23101 16409 Sm
23118 16402 Sl
23118 16402 Sm
23135 16392 Sl
23135 16392 Sm
23152 16381 Sl
23152 16381 Sm
23169 16368 Sl
23169 16368 Sm
23187 16355 Sl
23187 16355 Sm
23204 16346 Sl
23204 16346 Sm
23221 16343 Sl
23221 16343 Sm
23238 16337 Sl
23238 16337 Sm
23255 16333 Sl
23255 16333 Sm
23272 16331 Sl
23272 16331 Sm
23290 16328 Sl
23290 16328 Sm
23307 16324 Sl
23307 16324 Sm
23324 16317 Sl
23324 16317 Sm
23341 16314 Sl
23341 16314 Sm
23358 16313 Sl
23358 16313 Sm
23375 16317 Sl
23375 16317 Sm
23393 16321 Sl
23393 16321 Sm
23410 16330 Sl
23410 16330 Sm
23427 16339 Sl
23427 16339 Sm
23444 16346 Sl
23444 16346 Sm
23461 16351 Sl
23461 16351 Sm
23478 16356 Sl
23478 16356 Sm
23496 16359 Sl
23496 16359 Sm
23513 16366 Sl
23513 16366 Sm
23530 16374 Sl
23530 16374 Sm
23547 16380 Sl
23547 16380 Sm
23564 16385 Sl
23564 16385 Sm
23582 16389 Sl
23582 16389 Sm
23599 16391 Sl
23599 16391 Sm
23616 16397 Sl
23616 16397 Sm
23633 16403 Sl
23633 16403 Sm
23650 16407 Sl
23650 16407 Sm
23667 16410 Sl
23667 16410 Sm
23685 16410 Sl
23685 16410 Sm
23702 16415 Sl
23702 16415 Sm
23719 16419 Sl
23719 16419 Sm
23736 16426 Sl
23736 16426 Sm
23753 16448 Sl
23753 16448 Sm
23770 16466 Sl
23770 16466 Sm
23788 16482 Sl
23788 16482 Sm
23805 16500 Sl
23805 16500 Sm
23822 16525 Sl
23822 16525 Sm
23839 16548 Sl
23839 16548 Sm
23856 16568 Sl
23856 16568 Sm
23873 16589 Sl
23873 16589 Sm
23891 16612 Sl
23891 16612 Sm
23908 16632 Sl
23908 16632 Sm
23925 16668 Sl
23925 16668 Sm
23942 16707 Sl
23942 16707 Sm
23959 16747 Sl
23959 16747 Sm
23976 16782 Sl
23976 16782 Sm
23994 16813 Sl
23994 16813 Sm
24011 16841 Sl
24011 16841 Sm
24028 16864 Sl
24028 16864 Sm
24045 16891 Sl
24045 16891 Sm
24062 16927 Sl
24062 16927 Sm
24079 16976 Sl
24079 16976 Sm
24097 17020 Sl
24097 17020 Sm
24114 17066 Sl
24114 17066 Sm
24131 17114 Sl
24131 17114 Sm
24148 17158 Sl
24148 17158 Sm
24165 17200 Sl
24165 17200 Sm
24182 17239 Sl
24182 17239 Sm
24200 17278 Sl
24200 17278 Sm
24217 17318 Sl
24217 17318 Sm
24234 17355 Sl
24234 17355 Sm
24251 17404 Sl
24251 17404 Sm
24268 17450 Sl
24268 17450 Sm
24285 17491 Sl
24285 17491 Sm
24303 17539 Sl
24303 17539 Sm
24320 17580 Sl
24320 17580 Sm
24337 17613 Sl
24337 17613 Sm
24354 17644 Sl
24354 17644 Sm
24371 17677 Sl
24371 17677 Sm
24389 17708 Sl
24389 17708 Sm
24406 17734 Sl
24406 17734 Sm
24423 17763 Sl
24423 17763 Sm
24440 17795 Sl
24440 17795 Sm
24457 17822 Sl
24457 17822 Sm
24474 17918 Sl
24474 17918 Sm
24492 18025 Sl
24492 18025 Sm
24509 18121 Sl
24509 18121 Sm
24526 18207 Sl
24526 18207 Sm
24543 18297 Sl
24543 18297 Sm
24560 18378 Sl
24560 18378 Sm
24577 18474 Sl
24577 18474 Sm
24595 18586 Sl
24595 18586 Sm
24612 18713 Sl
24612 18713 Sm
24629 18881 Sl
24629 18881 Sm
24646 19039 Sl
24646 19039 Sm
24663 19189 Sl
24663 19189 Sm
24680 19322 Sl
24680 19322 Sm
24698 19438 Sl
24698 19438 Sm
24715 19537 Sl
24715 19537 Sm
24732 19626 Sl
24732 19626 Sm
24749 19699 Sl
24749 19699 Sm
24766 19773 Sl
24766 19773 Sm
24783 19843 Sl
24783 19843 Sm
24801 19919 Sl
24801 19919 Sm
24818 19978 Sl
24818 19978 Sm
24835 20021 Sl
24835 20021 Sm
24852 20068 Sl
24852 20068 Sm
24869 20099 Sl
24869 20099 Sm
24886 20114 Sl
24886 20114 Sm
24904 20120 Sl
24904 20120 Sm
24921 20137 Sl
24921 20137 Sm
24938 20141 Sl
24938 20141 Sm
24955 20133 Sl
24955 20133 Sm
24972 20123 Sl
24972 20123 Sm
24989 20096 Sl
24989 20096 Sm
25007 20055 Sl
25007 20055 Sm
25024 20013 Sl
25024 20013 Sm
25041 19963 Sl
25041 19963 Sm
25058 19901 Sl
25058 19901 Sm
25075 19823 Sl
25075 19823 Sm
25092 19741 Sl
25092 19741 Sm
25110 19654 Sl
25110 19654 Sm
25127 19552 Sl
25127 19552 Sm
25144 19447 Sl
25144 19447 Sm
25161 19330 Sl
25161 19330 Sm
25178 19198 Sl
25178 19198 Sm
25196 19053 Sl
25196 19053 Sm
25213 18900 Sl
25213 18900 Sm
25230 18735 Sl
25230 18735 Sm
25247 18561 Sl
25247 18561 Sm
25264 18376 Sl
25264 18376 Sm
25281 18197 Sl
25281 18197 Sm
25299 18005 Sl
25299 18005 Sm
25316 17844 Sl
25316 17844 Sm
25333 17727 Sl
25333 17727 Sm
25350 17607 Sl
25350 17607 Sm
25367 17480 Sl
25367 17480 Sm
25384 17356 Sl
25384 17356 Sm
25402 17225 Sl
25402 17225 Sm
25419 17102 Sl
25419 17102 Sm
25436 16992 Sl
25436 16992 Sm
25453 16875 Sl
25453 16875 Sm
25470 16835 Sl
25470 16835 Sm
25487 16793 Sl
25487 16793 Sm
25505 16761 Sl
25505 16761 Sm
25522 16726 Sl
25522 16726 Sm
25539 16687 Sl
25539 16687 Sm
25556 16645 Sl
25556 16645 Sm
25573 16599 Sl
25573 16599 Sm
25590 16550 Sl
25590 16550 Sm
25608 16502 Sl
25608 16502 Sm
25625 16454 Sl
25625 16454 Sm
25642 16414 Sl
25642 16414 Sm
25659 16376 Sl
25659 16376 Sm
25676 16335 Sl
25676 16335 Sm
25693 16307 Sl
25693 16307 Sm
25711 16286 Sl
25711 16286 Sm
25728 16262 Sl
25728 16262 Sm
25745 16244 Sl
25745 16244 Sm
25762 16226 Sl
25762 16226 Sm
25779 16208 Sl
25779 16208 Sm
25796 16195 Sl
25796 16195 Sm
25814 16181 Sl
25814 16181 Sm
25831 16166 Sl
25831 16166 Sm
25848 16150 Sl
25848 16150 Sm
25865 16138 Sl
25865 16138 Sm
25882 16136 Sl
25882 16136 Sm
25900 16134 Sl
25900 16134 Sm
25917 16131 Sl
25917 16131 Sm
25934 16128 Sl
25934 16128 Sm
25951 16125 Sl
25951 16125 Sm
25968 16121 Sl
25968 16121 Sm
25985 16117 Sl
25985 16117 Sm
26003 16113 Sl
26003 16113 Sm
26020 16109 Sl
26020 16109 Sm
26037 16104 Sl
26037 16104 Sm
26054 16099 Sl
26054 16099 Sm
26071 16093 Sl
26071 16093 Sm
26088 16088 Sl
26088 16088 Sm
26106 16082 Sl
26106 16082 Sm
26123 16075 Sl
26123 16075 Sm
26140 16069 Sl
26140 16069 Sm
26157 16062 Sl
26157 16062 Sm
26174 16054 Sl
26174 16054 Sm
26191 16051 Sl
26191 16051 Sm
26209 16051 Sl
26209 16051 Sm
26226 16051 Sl
26226 16051 Sm
26243 16051 Sl
26243 16051 Sm
26260 16051 Sl
26260 16051 Sm
26277 16051 Sl
26277 16051 Sm
26294 16051 Sl
26294 16051 Sm
26312 16051 Sl
26312 16051 Sm
26329 16051 Sl
26329 16051 Sm
26346 16051 Sl
26346 16051 Sm
26363 16051 Sl
26363 16051 Sm
26380 16051 Sl
26380 16051 Sm
26397 16051 Sl
26397 16051 Sm
26415 16051 Sl
26415 16051 Sm
26432 16051 Sl
26432 16051 Sm
26449 16051 Sl
26449 16051 Sm
26466 16051 Sl
26466 16051 Sm
26483 16051 Sl
26483 16051 Sm
26500 16051 Sl
26500 16051 Sm
26518 16051 Sl
26518 16051 Sm
26535 16051 Sl
26535 16051 Sm
26552 16051 Sl
26552 16051 Sm
26569 16051 Sl
26569 16051 Sm
26586 16051 Sl
26586 16051 Sm
26603 16051 Sl
26603 16051 Sm
26621 16051 Sl
26621 16051 Sm
26638 16051 Sl
26638 16051 Sm
26655 16051 Sl
26655 16051 Sm
26672 16056 Sl
26672 16056 Sm
26689 16063 Sl
26689 16063 Sm
26707 16070 Sl
26707 16070 Sm
26724 16077 Sl
26724 16077 Sm
26741 16083 Sl
26741 16083 Sm
26758 16089 Sl
26758 16089 Sm
26775 16094 Sl
26775 16094 Sm
26792 16100 Sl
26792 16100 Sm
26810 16105 Sl
26810 16105 Sm
26827 16110 Sl
26827 16110 Sm
26844 16114 Sl
26844 16114 Sm
26861 16118 Sl
26861 16118 Sm
26878 16122 Sl
26878 16122 Sm
26895 16126 Sl
26895 16126 Sm
26913 16129 Sl
26913 16129 Sm
26930 16132 Sl
26930 16132 Sm
26947 16134 Sl
26947 16134 Sm
26964 16137 Sl
26964 16137 Sm
26981 16139 Sl
26981 16139 Sm
26998 16140 Sl
26998 16140 Sm
27016 16142 Sl
27016 16142 Sm
27033 16143 Sl
27033 16143 Sm
27050 16143 Sl
27050 16143 Sm
27067 16144 Sl
27067 16144 Sm
27084 16144 Sl
/Slrgb {0.565 0.208 0.231} def
20993 16059 Sm
21022 16059 Sl
21022 16059 Sm
21051 16058 Sl
21051 16058 Sm
21081 16057 Sl
21081 16057 Sm
21110 16056 Sl
21110 16056 Sm
21140 16055 Sl
21140 16055 Sm
21169 16054 Sl
21169 16054 Sm
21199 16052 Sl
21199 16052 Sm
21228 16051 Sl
21228 16051 Sm
21258 16051 Sl
21258 16051 Sm
21287 16051 Sl
21287 16051 Sm
21316 16051 Sl
21316 16051 Sm
21346 16051 Sl
21346 16051 Sm
21375 16051 Sl
21375 16051 Sm
21405 16051 Sl
21405 16051 Sm
21434 16051 Sl
21434 16051 Sm
21464 16051 Sl
21464 16051 Sm
21493 16051 Sl
21493 16051 Sm
21523 16051 Sl
21523 16051 Sm
21552 16051 Sl
21552 16051 Sm
21581 16051 Sl
21581 16051 Sm
21611 16051 Sl
21611 16051 Sm
21640 16051 Sl
21640 16051 Sm
21670 16051 Sl
21670 16051 Sm
21699 16052 Sl
21699 16052 Sm
21729 16054 Sl
21729 16054 Sm
21758 16059 Sl
21758 16059 Sm
21788 16063 Sl
21788 16063 Sm
21817 16067 Sl
21817 16067 Sm
21846 16070 Sl
21846 16070 Sm
21876 16072 Sl
21876 16072 Sm
21905 16074 Sl
21905 16074 Sm
21935 16074 Sl
21935 16074 Sm
21964 16074 Sl
21964 16074 Sm
21994 16072 Sl
21994 16072 Sm
22023 16070 Sl
22023 16070 Sm
22053 16067 Sl
22053 16067 Sm
22082 16063 Sl
22082 16063 Sm
22111 16059 Sl
22111 16059 Sm
22141 16055 Sl
22141 16055 Sm
22170 16051 Sl
22170 16051 Sm
22200 16051 Sl
22200 16051 Sm
22229 16051 Sl
22229 16051 Sm
22259 16051 Sl
22259 16051 Sm
22288 16052 Sl
22288 16052 Sm
22318 16055 Sl
22318 16055 Sm
22347 16059 Sl
22347 16059 Sm
22376 16061 Sl
22376 16061 Sm
22406 16064 Sl
22406 16064 Sm
22435 16068 Sl
22435 16068 Sm
22465 16070 Sl
22465 16070 Sm
22494 16072 Sl
22494 16072 Sm
22524 16073 Sl
22524 16073 Sm
22553 16073 Sl
22553 16073 Sm
22583 16072 Sl
22583 16072 Sm
22612 16071 Sl
22612 16071 Sm
22641 16070 Sl
22641 16070 Sm
22671 16068 Sl
22671 16068 Sm
22700 16065 Sl
22700 16065 Sm
22730 16063 Sl
22730 16063 Sm
22759 16062 Sl
22759 16062 Sm
22789 16061 Sl
22789 16061 Sm
22818 16063 Sl
22818 16063 Sm
22848 16070 Sl
22848 16070 Sm
22877 16082 Sl
22877 16082 Sm
22906 16091 Sl
22906 16091 Sm
22936 16098 Sl
22936 16098 Sm
22965 16105 Sl
22965 16105 Sm
22995 16111 Sl
22995 16111 Sm
23024 16116 Sl
23024 16116 Sm
23054 16121 Sl
23054 16121 Sm
23083 16126 Sl
23083 16126 Sm
23113 16128 Sl
23113 16128 Sm
23142 16130 Sl
23142 16130 Sm
23171 16132 Sl
23171 16132 Sm
23201 16134 Sl
23201 16134 Sm
23230 16134 Sl
23230 16134 Sm
23260 16134 Sl
23260 16134 Sm
23289 16137 Sl
23289 16137 Sm
23319 16141 Sl
23319 16141 Sm
23348 16143 Sl
23348 16143 Sm
23378 16145 Sl
23378 16145 Sm
23407 16160 Sl
23407 16160 Sm
23436 16176 Sl
23436 16176 Sm
23466 16189 Sl
23466 16189 Sm
23495 16208 Sl
23495 16208 Sm
23525 16224 Sl
23525 16224 Sm
23554 16238 Sl
23554 16238 Sm
23584 16267 Sl
23584 16267 Sm
23613 16302 Sl
23613 16302 Sm
23643 16327 Sl
23643 16327 Sm
23672 16347 Sl
23672 16347 Sm
23701 16361 Sl
23701 16361 Sm
23731 16384 Sl
23731 16384 Sm
23760 16406 Sl
23760 16406 Sm
23790 16413 Sl
23790 16413 Sm
23819 16409 Sl
23819 16409 Sm
23849 16418 Sl
23849 16418 Sm
23878 16425 Sl
23878 16425 Sm
23908 16428 Sl
23908 16428 Sm
23937 16432 Sl
23937 16432 Sm
23966 16473 Sl
23966 16473 Sm
23996 16500 Sl
23996 16500 Sm
24025 16535 Sl
24025 16535 Sm
24055 16566 Sl
24055 16566 Sm
24084 16588 Sl
24084 16588 Sm
24114 16610 Sl
24114 16610 Sm
24143 16665 Sl
24143 16665 Sm
24173 16722 Sl
24173 16722 Sm
24202 16761 Sl
24202 16761 Sm
24231 16785 Sl
24231 16785 Sm
24261 16788 Sl
24261 16788 Sm
24290 16868 Sl
24290 16868 Sm
24320 16924 Sl
24320 16924 Sm
24349 16960 Sl
24349 16960 Sm
24379 16971 Sl
24379 16971 Sm
24408 17016 Sl
24408 17016 Sm
24438 17039 Sl
24438 17039 Sm
24467 17078 Sl
24467 17078 Sm
24496 17114 Sl
24496 17114 Sm
24526 17198 Sl
24526 17198 Sm
24555 17264 Sl
24555 17264 Sm
24585 17338 Sl
24585 17338 Sm
24614 17435 Sl
24614 17435 Sm
24644 17583 Sl
24644 17583 Sm
24673 17774 Sl
24673 17774 Sm
24703 18103 Sl
24703 18103 Sm
24732 18425 Sl
24732 18425 Sm
24761 18681 Sl
24761 18681 Sm
24791 18919 Sl
24791 18919 Sm
24820 19127 Sl
24820 19127 Sm
24850 19401 Sl
24850 19401 Sm
24879 19581 Sl
24879 19581 Sm
24909 19725 Sl
24909 19725 Sm
24938 19807 Sl
24938 19807 Sm
24968 19924 Sl
24968 19924 Sm
24997 19948 Sl
24997 19948 Sm
25026 19958 Sl
25026 19958 Sm
25056 19885 Sl
25056 19885 Sm
25085 19838 Sl
25085 19838 Sm
25115 19775 Sl
25115 19775 Sm
25144 19760 Sl
25144 19760 Sm
25174 19636 Sl
25174 19636 Sm
25203 19501 Sl
25203 19501 Sm
25233 19375 Sl
25233 19375 Sm
25262 19289 Sl
25262 19289 Sm
25291 19225 Sl
25291 19225 Sm
25321 19096 Sl
25321 19096 Sm
25350 18949 Sl
25350 18949 Sm
25380 18792 Sl
25380 18792 Sm
25409 18697 Sl
25409 18697 Sm
25439 18616 Sl
25439 18616 Sm
25468 18542 Sl
25468 18542 Sm
25498 18464 Sl
25498 18464 Sm
25527 18396 Sl
25527 18396 Sm
25556 18313 Sl
25556 18313 Sm
25586 18219 Sl
25586 18219 Sm
25615 18074 Sl
25615 18074 Sm
25645 17954 Sl
25645 17954 Sm
25674 17878 Sl
25674 17878 Sm
25704 17802 Sl
25704 17802 Sm
25733 17691 Sl
25733 17691 Sm
25763 17567 Sl
25763 17567 Sm
25792 17469 Sl
25792 17469 Sm
25821 17386 Sl
25821 17386 Sm
25851 17330 Sl
25851 17330 Sm
25880 17266 Sl
25880 17266 Sm
25910 17177 Sl
25910 17177 Sm
25939 17094 Sl
25939 17094 Sm
25969 17030 Sl
25969 17030 Sm
25998 16994 Sl
25998 16994 Sm
26028 16957 Sl
26028 16957 Sm
26057 16898 Sl
26057 16898 Sm
26086 16837 Sl
26086 16837 Sm
26116 16786 Sl
26116 16786 Sm
26145 16729 Sl
26145 16729 Sm
26175 16668 Sl
26175 16668 Sm
26204 16601 Sl
26204 16601 Sm
26234 16575 Sl
26234 16575 Sm
26263 16545 Sl
26263 16545 Sm
26293 16515 Sl
26293 16515 Sm
26322 16481 Sl
26322 16481 Sm
26351 16447 Sl
26351 16447 Sm
26381 16415 Sl
26381 16415 Sm
26410 16401 Sl
26410 16401 Sm
26440 16388 Sl
26440 16388 Sm
26469 16364 Sl
26469 16364 Sm
26499 16335 Sl
26499 16335 Sm
26528 16296 Sl
26528 16296 Sm
26558 16270 Sl
26558 16270 Sm
26587 16240 Sl
26587 16240 Sm
26616 16221 Sl
26616 16221 Sm
26646 16204 Sl
26646 16204 Sm
26675 16202 Sl
26675 16202 Sm
26705 16202 Sl
26705 16202 Sm
26734 16208 Sl
26734 16208 Sm
26764 16207 Sl
26764 16207 Sm
26793 16201 Sl
26793 16201 Sm
26823 16197 Sl
26823 16197 Sm
26852 16195 Sl
26852 16195 Sm
26881 16198 Sl
26881 16198 Sm
26911 16200 Sl
26911 16200 Sm
26940 16202 Sl
26940 16202 Sm
26970 16199 Sl
26970 16199 Sm
26999 16191 Sl
26999 16191 Sm
27029 16178 Sl
27029 16178 Sm
27058 16164 Sl
27058 16164 Sm
27088 16150 Sl
27088 16150 Sm
27117 16140 Sl
27117 16140 Sm
27146 16135 Sl
27146 16135 Sm
27176 16129 Sl
27176 16129 Sm
27205 16120 Sl
27205 16120 Sm
27235 16110 Sl
27235 16110 Sm
27264 16099 Sl
27264 16099 Sm
27294 16088 Sl
27294 16088 Sm
27323 16078 Sl
27323 16078 Sm
27353 16072 Sl
27353 16072 Sm
27382 16067 Sl
27382 16067 Sm
27411 16066 Sl
27411 16066 Sm
27441 16066 Sl
27441 16066 Sm
27470 16066 Sl
27470 16066 Sm
27500 16064 Sl
27500 16064 Sm
27529 16062 Sl
27529 16062 Sm
27559 16059 Sl
27559 16059 Sm
27588 16061 Sl
27588 16061 Sm
27618 16062 Sl
27618 16062 Sm
27647 16064 Sl
27647 16064 Sm
27676 16064 Sl
27676 16064 Sm
27706 16064 Sl
27706 16064 Sm
27735 16064 Sl
27735 16064 Sm
27765 16063 Sl
27765 16063 Sm
27794 16061 Sl
27794 16061 Sm
27824 16059 Sl
27824 16059 Sm
27853 16058 Sl
27853 16058 Sm
27883 16057 Sl
27883 16057 Sm
27912 16056 Sl
27912 16056 Sm
27941 16054 Sl
27941 16054 Sm
27971 16052 Sl
27971 16052 Sm
28000 16051 Sl
28000 16051 Sm
28030 16051 Sl
28030 16051 Sm
28059 16051 Sl
28059 16051 Sm
28089 16051 Sl
28089 16051 Sm
28118 16051 Sl
28118 16051 Sm
28148 16051 Sl
28148 16051 Sm
28177 16051 Sl
28177 16051 Sm
28206 16051 Sl
28206 16051 Sm
28236 16051 Sl
28236 16051 Sm
28265 16051 Sl
28265 16051 Sm
28295 16051 Sl
28295 16051 Sm
28324 16051 Sl
28324 16051 Sm
28354 16051 Sl
28354 16051 Sm
28383 16051 Sl
28383 16051 Sm
28413 16051 Sl
28413 16051 Sm
28442 16051 Sl
28442 16051 Sm
28471 16051 Sl
28471 16051 Sm
28501 16051 Sl
28501 16051 Sm
28530 16051 Sl
28530 16051 Sm
28560 16051 Sl
28560 16051 Sm
28589 16051 Sl
28589 16051 Sm
28619 16051 Sl
28619 16051 Sm
28648 16051 Sl
28648 16051 Sm
28678 16051 Sl
28678 16051 Sm
28707 16051 Sl
28707 16051 Sm
28736 16051 Sl
28736 16051 Sm
28766 16051 Sl
28766 16051 Sm
28795 16051 Sl
28795 16051 Sm
28825 16051 Sl
28825 16051 Sm
28854 16051 Sl
28854 16051 Sm
28884 16051 Sl
28884 16051 Sm
28913 16051 Sl
28913 16051 Sm
28943 16051 Sl
28943 16051 Sm
28972 16051 Sl
28972 16051 Sm
29001 16051 Sl
29001 16051 Sm
29031 16051 Sl
29031 16051 Sm
29060 16051 Sl
29060 16051 Sm
29090 16051 Sl
29090 16051 Sm
29119 16051 Sl
29119 16051 Sm
29149 16051 Sl
29149 16051 Sm
29178 16051 Sl
29178 16051 Sm
29208 16051 Sl
29208 16051 Sm
29237 16051 Sl
29237 16051 Sm
29266 16051 Sl
29266 16051 Sm
29296 16051 Sl
29296 16051 Sm
29325 16051 Sl
29325 16051 Sm
29355 16051 Sl
29355 16051 Sm
29384 16051 Sl
29384 16051 Sm
29414 16051 Sl
29414 16051 Sm
29443 16051 Sl
29443 16051 Sm
29473 16051 Sl
29473 16051 Sm
29502 16051 Sl
29502 16051 Sm
29531 16051 Sl
29531 16051 Sm
29561 16051 Sl
29561 16051 Sm
29590 16052 Sl
29590 16052 Sm
29620 16054 Sl
29620 16054 Sm
29649 16055 Sl
29649 16055 Sm
29679 16056 Sl
29679 16056 Sm
29708 16057 Sl
29708 16057 Sm
29738 16058 Sl
29738 16058 Sm
29767 16059 Sl
29767 16059 Sm
29796 16059 Sl
/Slrgb {0.333 0.459 0.184} def
17736 16070 Sm
17775 16070 Sl
17775 16070 Sm
17814 16069 Sl
17814 16069 Sm
17853 16069 Sl
17853 16069 Sm
17892 16069 Sl
17892 16069 Sm
17931 16068 Sl
17931 16068 Sm
17970 16067 Sl
17970 16067 Sm
18009 16066 Sl
18009 16066 Sm
18048 16065 Sl
18048 16065 Sm
18087 16063 Sl
18087 16063 Sm
18127 16062 Sl
18127 16062 Sm
18166 16060 Sl
18166 16060 Sm
18205 16059 Sl
18205 16059 Sm
18244 16057 Sl
18244 16057 Sm
18283 16055 Sl
18283 16055 Sm
18322 16052 Sl
18322 16052 Sm
18361 16051 Sl
18361 16051 Sm
18400 16051 Sl
18400 16051 Sm
18439 16051 Sl
18439 16051 Sm
18478 16051 Sl
18478 16051 Sm
18517 16051 Sl
18517 16051 Sm
18556 16051 Sl
18556 16051 Sm
18596 16051 Sl
18596 16051 Sm
18635 16051 Sl
18635 16051 Sm
18674 16051 Sl
18674 16051 Sm
18713 16051 Sl
18713 16051 Sm
18752 16051 Sl
18752 16051 Sm
18791 16051 Sl
18791 16051 Sm
18830 16051 Sl
18830 16051 Sm
18869 16051 Sl
18869 16051 Sm
18908 16051 Sl
18908 16051 Sm
18947 16051 Sl
18947 16051 Sm
18986 16051 Sl
18986 16051 Sm
19026 16051 Sl
19026 16051 Sm
19065 16051 Sl
19065 16051 Sm
19104 16051 Sl
19104 16051 Sm
19143 16051 Sl
19143 16051 Sm
19182 16051 Sl
19182 16051 Sm
19221 16051 Sl
19221 16051 Sm
19260 16051 Sl
19260 16051 Sm
19299 16051 Sl
19299 16051 Sm
19338 16051 Sl
19338 16051 Sm
19377 16051 Sl
19377 16051 Sm
19416 16051 Sl
19416 16051 Sm
19456 16051 Sl
19456 16051 Sm
19495 16051 Sl
19495 16051 Sm
19534 16051 Sl
19534 16051 Sm
19573 16051 Sl
19573 16051 Sm
19612 16051 Sl
19612 16051 Sm
19651 16051 Sl
19651 16051 Sm
19690 16051 Sl
19690 16051 Sm
19729 16051 Sl
19729 16051 Sm
19768 16051 Sl
19768 16051 Sm
19807 16051 Sl
19807 16051 Sm
19846 16051 Sl
19846 16051 Sm
19886 16051 Sl
19886 16051 Sm
19925 16051 Sl
19925 16051 Sm
19964 16054 Sl
19964 16054 Sm
20003 16056 Sl
20003 16056 Sm
20042 16058 Sl
20042 16058 Sm
20081 16060 Sl
20081 16060 Sm
20120 16061 Sl
20120 16061 Sm
20159 16063 Sl
20159 16063 Sm
20198 16064 Sl
20198 16064 Sm
20237 16066 Sl
20237 16066 Sm
20276 16067 Sl
20276 16067 Sm
20316 16068 Sl
20316 16068 Sm
20355 16068 Sl
20355 16068 Sm
20394 16069 Sl
20394 16069 Sm
20433 16069 Sl
20433 16069 Sm
20472 16070 Sl
20472 16070 Sm
20511 16070 Sl
20511 16070 Sm
20550 16070 Sl
20550 16070 Sm
20589 16070 Sl
20589 16070 Sm
20628 16070 Sl
20628 16070 Sm
20667 16072 Sl
20667 16072 Sm
20706 16073 Sl
20706 16073 Sm
20745 16075 Sl
20745 16075 Sm
20785 16075 Sl
20785 16075 Sm
20824 16078 Sl
20824 16078 Sm
20863 16080 Sl
20863 16080 Sm
20902 16082 Sl
20902 16082 Sm
20941 16084 Sl
20941 16084 Sm
20980 16085 Sl
20980 16085 Sm
21019 16085 Sl
21019 16085 Sm
21058 16086 Sl
21058 16086 Sm
21097 16085 Sl
21097 16085 Sm
21136 16085 Sl
21136 16085 Sm
21175 16086 Sl
21175 16086 Sm
21215 16087 Sl
21215 16087 Sm
21254 16087 Sl
21254 16087 Sm
21293 16089 Sl
21293 16089 Sm
21332 16092 Sl
21332 16092 Sm
21371 16093 Sl
21371 16093 Sm
21410 16095 Sl
21410 16095 Sm
21449 16095 Sl
21449 16095 Sm
21488 16096 Sl
21488 16096 Sm
21527 16100 Sl
21527 16100 Sm
21566 16104 Sl
21566 16104 Sm
21605 16107 Sl
21605 16107 Sm
21645 16109 Sl
21645 16109 Sm
21684 16111 Sl
21684 16111 Sm
21723 16111 Sl
21723 16111 Sm
21762 16111 Sl
21762 16111 Sm
21801 16110 Sl
21801 16110 Sm
21840 16109 Sl
21840 16109 Sm
21879 16111 Sl
21879 16111 Sm
21918 16120 Sl
21918 16120 Sm
21957 16134 Sl
21957 16134 Sm
21996 16146 Sl
21996 16146 Sm
22035 16159 Sl
22035 16159 Sm
22075 16173 Sl
22075 16173 Sm
22114 16186 Sl
22114 16186 Sm
22153 16197 Sl
22153 16197 Sm
22192 16207 Sl
22192 16207 Sm
22231 16219 Sl
22231 16219 Sm
22270 16231 Sl
22270 16231 Sm
22309 16242 Sl
22309 16242 Sm
22348 16250 Sl
22348 16250 Sm
22387 16256 Sl
22387 16256 Sm
22426 16261 Sl
22426 16261 Sm
22465 16272 Sl
22465 16272 Sm
22505 16289 Sl
22505 16289 Sm
22544 16303 Sl
22544 16303 Sm
22583 16314 Sl
22583 16314 Sm
22622 16324 Sl
22622 16324 Sm
22661 16338 Sl
22661 16338 Sm
22700 16350 Sl
22700 16350 Sm
22739 16368 Sl
22739 16368 Sm
22778 16392 Sl
22778 16392 Sm
22817 16433 Sl
22817 16433 Sm
22856 16468 Sl
22856 16468 Sm
22895 16497 Sl
22895 16497 Sm
22934 16525 Sl
22934 16525 Sm
22974 16549 Sl
22974 16549 Sm
23013 16575 Sl
23013 16575 Sm
23052 16607 Sl
23052 16607 Sm
23091 16634 Sl
23091 16634 Sm
23130 16666 Sl
23130 16666 Sm
23169 16706 Sl
23169 16706 Sm
23208 16760 Sl
23208 16760 Sm
23247 16808 Sl
23247 16808 Sm
23286 16852 Sl
23286 16852 Sm
23325 16891 Sl
23325 16891 Sm
23364 16930 Sl
23364 16930 Sm
23404 16960 Sl
23404 16960 Sm
23443 16982 Sl
23443 16982 Sm
23482 17005 Sl
23482 17005 Sm
23521 17020 Sl
23521 17020 Sm
23560 17037 Sl
23560 17037 Sm
23599 17066 Sl
23599 17066 Sm
23638 17083 Sl
23638 17083 Sm
23677 17102 Sl
23677 17102 Sm
23716 17120 Sl
23716 17120 Sm
23755 17158 Sl
23755 17158 Sm
23794 17191 Sl
23794 17191 Sm
23834 17211 Sl
23834 17211 Sm
23873 17228 Sl
23873 17228 Sm
23912 17266 Sl
23912 17266 Sm
23951 17294 Sl
23951 17294 Sm
23990 17319 Sl
23990 17319 Sm
24029 17363 Sl
24029 17363 Sm
24068 17402 Sl
24068 17402 Sm
24107 17438 Sl
24107 17438 Sm
24146 17478 Sl
24146 17478 Sm
24185 17505 Sl
24185 17505 Sm
24224 17525 Sl
24224 17525 Sm
24264 17561 Sl
24264 17561 Sm
24303 17623 Sl
24303 17623 Sm
24342 17689 Sl
24342 17689 Sm
24381 17749 Sl
24381 17749 Sm
24420 17811 Sl
24420 17811 Sm
24459 17872 Sl
24459 17872 Sm
24498 17927 Sl
24498 17927 Sm
24537 17964 Sl
24537 17964 Sm
24576 18007 Sl
24576 18007 Sm
24615 18046 Sl
24615 18046 Sm
24654 18077 Sl
24654 18077 Sm
24694 18094 Sl
24694 18094 Sm
24733 18089 Sl
24733 18089 Sm
24772 18071 Sl
24772 18071 Sm
24811 18058 Sl
24811 18058 Sm
24850 18037 Sl
24850 18037 Sm
24889 18012 Sl
24889 18012 Sm
24928 17970 Sl
24928 17970 Sm
24967 17942 Sl
24967 17942 Sm
25006 17910 Sl
25006 17910 Sm
25045 17875 Sl
25045 17875 Sm
25084 17819 Sl
25084 17819 Sm
25123 17782 Sl
25123 17782 Sm
25163 17739 Sl
25163 17739 Sm
25202 17698 Sl
25202 17698 Sm
25241 17648 Sl
25241 17648 Sm
25280 17590 Sl
25280 17590 Sm
25319 17531 Sl
25319 17531 Sm
25358 17475 Sl
25358 17475 Sm
25397 17413 Sl
25397 17413 Sm
25436 17341 Sl
25436 17341 Sm
25475 17271 Sl
25475 17271 Sm
25514 17224 Sl
25514 17224 Sm
25553 17191 Sl
25553 17191 Sm
25593 17157 Sl
25593 17157 Sm
25632 17115 Sl
25632 17115 Sm
25671 17072 Sl
25671 17072 Sm
25710 17033 Sl
25710 17033 Sm
25749 16981 Sl
25749 16981 Sm
25788 16934 Sl
25788 16934 Sm
25827 16895 Sl
25827 16895 Sm
25866 16867 Sl
25866 16867 Sm
25905 16838 Sl
25905 16838 Sm
25944 16802 Sl
25944 16802 Sm
25983 16758 Sl
25983 16758 Sm
26023 16706 Sl
26023 16706 Sm
26062 16661 Sl
26062 16661 Sm
26101 16624 Sl
26101 16624 Sm
26140 16585 Sl
26140 16585 Sm
26179 16544 Sl
26179 16544 Sm
26218 16504 Sl
26218 16504 Sm
26257 16473 Sl
26257 16473 Sm
26296 16436 Sl
26296 16436 Sm
26335 16398 Sl
26335 16398 Sm
26374 16365 Sl
26374 16365 Sm
26413 16348 Sl
26413 16348 Sm
26453 16329 Sl
26453 16329 Sm
26492 16305 Sl
26492 16305 Sm
26531 16284 Sl
26531 16284 Sm
26570 16265 Sl
26570 16265 Sm
26609 16252 Sl
26609 16252 Sm
26648 16244 Sl
26648 16244 Sm
26687 16235 Sl
26687 16235 Sm
26726 16224 Sl
26726 16224 Sm
26765 16217 Sl
26765 16217 Sm
26804 16212 Sl
26804 16212 Sm
26843 16211 Sl
26843 16211 Sm
26883 16209 Sl
26883 16209 Sm
26922 16206 Sl
26922 16206 Sm
26961 16201 Sl
26961 16201 Sm
27000 16194 Sl
27000 16194 Sm
27039 16185 Sl
27039 16185 Sm
27078 16177 Sl
27078 16177 Sm
27117 16171 Sl
27117 16171 Sm
27156 16166 Sl
27156 16166 Sm
27195 16160 Sl
27195 16160 Sm
27234 16152 Sl
27234 16152 Sm
27273 16146 Sl
27273 16146 Sm
27312 16140 Sl
27312 16140 Sm
27352 16135 Sl
27352 16135 Sm
27391 16131 Sl
27391 16131 Sm
27430 16127 Sl
27430 16127 Sm
27469 16123 Sl
27469 16123 Sm
27508 16118 Sl
27508 16118 Sm
27547 16114 Sl
27547 16114 Sm
27586 16110 Sl
27586 16110 Sm
27625 16106 Sl
27625 16106 Sm
27664 16101 Sl
27664 16101 Sm
27703 16095 Sl
27703 16095 Sm
27742 16089 Sl
27742 16089 Sm
27782 16083 Sl
27782 16083 Sm
27821 16078 Sl
27821 16078 Sm
27860 16072 Sl
27860 16072 Sm
27899 16066 Sl
27899 16066 Sm
27938 16061 Sl
27938 16061 Sm
27977 16057 Sl
27977 16057 Sm
28016 16053 Sl
28016 16053 Sm
28055 16051 Sl
28055 16051 Sm
28094 16051 Sl
28094 16051 Sm
28133 16051 Sl
28133 16051 Sm
28172 16051 Sl
28172 16051 Sm
28212 16051 Sl
28212 16051 Sm
28251 16051 Sl
28251 16051 Sm
28290 16051 Sl
28290 16051 Sm
28329 16051 Sl
28329 16051 Sm
28368 16051 Sl
28368 16051 Sm
28407 16051 Sl
28407 16051 Sm
28446 16051 Sl
28446 16051 Sm
28485 16051 Sl
28485 16051 Sm
28524 16051 Sl
28524 16051 Sm
28563 16051 Sl
28563 16051 Sm
28602 16051 Sl
28602 16051 Sm
28642 16051 Sl
28642 16051 Sm
28681 16051 Sl
28681 16051 Sm
28720 16051 Sl
28720 16051 Sm
28759 16051 Sl
28759 16051 Sm
28798 16051 Sl
28798 16051 Sm
28837 16052 Sl
28837 16052 Sm
28876 16055 Sl
28876 16055 Sm
28915 16057 Sl
28915 16057 Sm
28954 16059 Sl
28954 16059 Sm
28993 16060 Sl
28993 16060 Sm
29032 16062 Sl
29032 16062 Sm
29072 16063 Sl
29072 16063 Sm
29111 16065 Sl
29111 16065 Sm
29150 16066 Sl
29150 16066 Sm
29189 16067 Sl
29189 16067 Sm
29228 16068 Sl
29228 16068 Sm
29267 16069 Sl
29267 16069 Sm
29306 16069 Sl
29306 16069 Sm
29345 16069 Sl
29345 16069 Sm
29384 16070 Sl
29384 16070 Sm
29423 16070 Sl
/Slrgb {0.102 0.278 0.435} def
8005 7961 Sm
8021 7975 Sl
8021 7975 Sm
8037 7992 Sl
8037 7992 Sm
8053 8008 Sl
8053 8008 Sm
8069 8023 Sl
8069 8023 Sm
8085 8040 Sl
8085 8040 Sm
8101 8057 Sl
8101 8057 Sm
8117 8073 Sl
8117 8073 Sm
8133 8087 Sl
8133 8087 Sm
8149 8101 Sl
8149 8101 Sm
8165 8114 Sl
8165 8114 Sm
8181 8126 Sl
8181 8126 Sm
8197 8136 Sl
8197 8136 Sm
8213 8152 Sl
8213 8152 Sm
8229 8168 Sl
8229 8168 Sm
8245 8183 Sl
8245 8183 Sm
8261 8196 Sl
8261 8196 Sm
8277 8208 Sl
8277 8208 Sm
8293 8219 Sl
8293 8219 Sm
8309 8229 Sl
8309 8229 Sm
8325 8238 Sl
8325 8238 Sm
8341 8245 Sl
8341 8245 Sm
8357 8251 Sl
8357 8251 Sm
8373 8256 Sl
8373 8256 Sm
8389 8260 Sl
8389 8260 Sm
8405 8262 Sl
8405 8262 Sm
8421 8263 Sl
8421 8263 Sm
8437 8263 Sl
8437 8263 Sm
8453 8262 Sl
8453 8262 Sm
8469 8259 Sl
8469 8259 Sm
8485 8255 Sl
8485 8255 Sm
8501 8250 Sl
8501 8250 Sm
8517 8244 Sl
8517 8244 Sm
8533 8241 Sl
8533 8241 Sm
8549 8242 Sl
8549 8242 Sm
8565 8243 Sl
8565 8243 Sm
8581 8242 Sl
8581 8242 Sm
8597 8241 Sl
8597 8241 Sm
8613 8238 Sl
8613 8238 Sm
8629 8233 Sl
8629 8233 Sm
8645 8227 Sl
8645 8227 Sm
8661 8220 Sl
8661 8220 Sm
8677 8212 Sl
8677 8212 Sm
8693 8202 Sl
8693 8202 Sm
8709 8191 Sl
8709 8191 Sm
8725 8182 Sl
8725 8182 Sm
8741 8176 Sl
8741 8176 Sm
8757 8170 Sl
8757 8170 Sm
8773 8165 Sl
8773 8165 Sm
8789 8159 Sl
8789 8159 Sm
8805 8152 Sl
8805 8152 Sm
8821 8143 Sl
8821 8143 Sm
8837 8133 Sl
8837 8133 Sm
8853 8122 Sl
8853 8122 Sm
8869 8110 Sl
8869 8110 Sm
8885 8097 Sl
8885 8097 Sm
8901 8086 Sl
8901 8086 Sm
8917 8081 Sl
8917 8081 Sm
8933 8076 Sl
8933 8076 Sm
8949 8076 Sl
8949 8076 Sm
8965 8077 Sl
8965 8077 Sm
8981 8078 Sl
8981 8078 Sm
8997 8080 Sl
8997 8080 Sm
9013 8083 Sl
9013 8083 Sm
9029 8087 Sl
9029 8087 Sm
9045 8091 Sl
9045 8091 Sm
9061 8096 Sl
9061 8096 Sm
9077 8101 Sl
9077 8101 Sm
9093 8108 Sl
9093 8108 Sm
9109 8116 Sl
9109 8116 Sm
9125 8124 Sl
9125 8124 Sm
9141 8130 Sl
9141 8130 Sm
9157 8138 Sl
9157 8138 Sm
9173 8146 Sl
9173 8146 Sm
9188 8152 Sl
9188 8152 Sm
9204 8163 Sl
9204 8163 Sm
9220 8173 Sl
9220 8173 Sm
9236 8182 Sl
9236 8182 Sm
9252 8190 Sl
9252 8190 Sm
9268 8197 Sl
9268 8197 Sm
9284 8220 Sl
9284 8220 Sm
9300 8242 Sl
9300 8242 Sm
9316 8262 Sl
9316 8262 Sm
9332 8281 Sl
9332 8281 Sm
9348 8298 Sl
9348 8298 Sm
9364 8314 Sl
9364 8314 Sm
9380 8328 Sl
9380 8328 Sm
9396 8341 Sl
9396 8341 Sm
9412 8352 Sl
9412 8352 Sm
9428 8365 Sl
9428 8365 Sm
9444 8376 Sl
9444 8376 Sm
9460 8395 Sl
9460 8395 Sm
9476 8418 Sl
9476 8418 Sm
9492 8444 Sl
9492 8444 Sm
9508 8469 Sl
9508 8469 Sm
9524 8492 Sl
9524 8492 Sm
9540 8513 Sl
9540 8513 Sm
9556 8531 Sl
9556 8531 Sm
9572 8548 Sl
9572 8548 Sm
9588 8561 Sl
9588 8561 Sm
9604 8579 Sl
9604 8579 Sm
9620 8596 Sl
9620 8596 Sm
9636 8620 Sl
9636 8620 Sm
9652 8647 Sl
9652 8647 Sm
9668 8672 Sl
9668 8672 Sm
9684 8693 Sl
9684 8693 Sm
9700 8713 Sl
9700 8713 Sm
9716 8732 Sl
9716 8732 Sm
9732 8750 Sl
9732 8750 Sm
9748 8768 Sl
9748 8768 Sm
9764 8784 Sl
9764 8784 Sm
9780 8799 Sl
9780 8799 Sm
9796 8814 Sl
9796 8814 Sm
9812 8830 Sl
9812 8830 Sm
9828 8853 Sl
9828 8853 Sm
9844 8880 Sl
9844 8880 Sm
9860 8907 Sl
9860 8907 Sm
9876 8941 Sl
9876 8941 Sm
9892 8972 Sl
9892 8972 Sm
9908 8999 Sl
9908 8999 Sm
9924 9023 Sl
9924 9023 Sm
9940 9042 Sl
9940 9042 Sm
9956 9060 Sl
9956 9060 Sm
9972 9080 Sl
9972 9080 Sm
9988 9103 Sl
9988 9103 Sm
10004 9128 Sl
10004 9128 Sm
10020 9159 Sl
10020 9159 Sm
10036 9190 Sl
10036 9190 Sm
10052 9231 Sl
10052 9231 Sm
10068 9268 Sl
10068 9268 Sm
10084 9300 Sl
10084 9300 Sm
10100 9329 Sl
10100 9329 Sm
10116 9358 Sl
10116 9358 Sm
10132 9385 Sl
10132 9385 Sm
10148 9413 Sl
10148 9413 Sm
10164 9449 Sl
10164 9449 Sm
10180 9485 Sl
10180 9485 Sm
10196 9531 Sl
10196 9531 Sm
10212 9571 Sl
10212 9571 Sm
10228 9609 Sl
10228 9609 Sm
10244 9642 Sl
10244 9642 Sm
10260 9675 Sl
10260 9675 Sm
10276 9713 Sl
10276 9713 Sm
10292 9748 Sl
10292 9748 Sm
10308 9789 Sl
10308 9789 Sm
10324 9836 Sl
10324 9836 Sm
10340 9882 Sl
10340 9882 Sm
10356 9931 Sl
10356 9931 Sm
10372 9985 Sl
10372 9985 Sm
10388 10033 Sl
10388 10033 Sm
10404 10078 Sl
10404 10078 Sm
10420 10126 Sl
10420 10126 Sm
10436 10169 Sl
10436 10169 Sm
10452 10205 Sl
10452 10205 Sm
10468 10235 Sl
10468 10235 Sm
10484 10263 Sl
10484 10263 Sm
10500 10286 Sl
10500 10286 Sm
10516 10311 Sl
10516 10311 Sm
10532 10340 Sl
10532 10340 Sm
10547 10367 Sl
10547 10367 Sm
10563 10401 Sl
10563 10401 Sm
10579 10428 Sl
10579 10428 Sm
10595 10458 Sl
10595 10458 Sm
10611 10484 Sl
10611 10484 Sm
10627 10502 Sl
10627 10502 Sm
10643 10514 Sl
10643 10514 Sm
10659 10519 Sl
10659 10519 Sm
10675 10518 Sl
10675 10518 Sm
10691 10516 Sl
10691 10516 Sm
10707 10521 Sl
10707 10521 Sm
10723 10521 Sl
10723 10521 Sm
10739 10520 Sl
10739 10520 Sm
10755 10514 Sl
10755 10514 Sm
10771 10504 Sl
10771 10504 Sm
10787 10492 Sl
10787 10492 Sm
10803 10473 Sl
10803 10473 Sm
10819 10451 Sl
10819 10451 Sm
10835 10425 Sl
10835 10425 Sm
10851 10396 Sl
10851 10396 Sm
10867 10363 Sl
10867 10363 Sm
10883 10331 Sl
10883 10331 Sm
10899 10302 Sl
10899 10302 Sm
10915 10273 Sl
10915 10273 Sm
10931 10245 Sl
10931 10245 Sm
10947 10219 Sl
10947 10219 Sm
10963 10188 Sl
10963 10188 Sm
10979 10151 Sl
10979 10151 Sm
10995 10107 Sl
10995 10107 Sm
11011 10058 Sl
11011 10058 Sm
11027 10006 Sl
11027 10006 Sm
11043 9951 Sl
11043 9951 Sm
11059 9892 Sl
11059 9892 Sm
11075 9831 Sl
11075 9831 Sm
11091 9768 Sl
11091 9768 Sm
11107 9709 Sl
11107 9709 Sm
11123 9654 Sl
11123 9654 Sm
11139 9595 Sl
11139 9595 Sm
11155 9530 Sl
11155 9530 Sm
11171 9463 Sl
11171 9463 Sm
11187 9393 Sl
11187 9393 Sm
11203 9318 Sl
11203 9318 Sm
11219 9245 Sl
11219 9245 Sm
11235 9176 Sl
11235 9176 Sm
11251 9110 Sl
11251 9110 Sm
11267 9052 Sl
11267 9052 Sm
11283 8990 Sl
11283 8990 Sm
11299 8927 Sl
11299 8927 Sm
11315 8861 Sl
11315 8861 Sm
11331 8796 Sl
11331 8796 Sm
11347 8733 Sl
11347 8733 Sm
11363 8667 Sl
11363 8667 Sm
11379 8614 Sl
11379 8614 Sm
11395 8567 Sl
11395 8567 Sm
11411 8519 Sl
11411 8519 Sm
11427 8471 Sl
11427 8471 Sm
11443 8430 Sl
11443 8430 Sm
11459 8387 Sl
11459 8387 Sm
11475 8345 Sl
11475 8345 Sm
11491 8312 Sl
11491 8312 Sm
11507 8277 Sl
11507 8277 Sm
11523 8241 Sl
11523 8241 Sm
11539 8204 Sl
11539 8204 Sm
11555 8167 Sl
11555 8167 Sm
11571 8131 Sl
11571 8131 Sm
11587 8099 Sl
11587 8099 Sm
11603 8066 Sl
11603 8066 Sm
11619 8033 Sl
11619 8033 Sm
11635 8004 Sl
11635 8004 Sm
11651 7974 Sl
11651 7974 Sm
11667 7954 Sl
11667 7954 Sm
11683 7933 Sl
11683 7933 Sm
11699 7912 Sl
11699 7912 Sm
11715 7889 Sl
11715 7889 Sm
11731 7866 Sl
11731 7866 Sm
11747 7842 Sl
11747 7842 Sm
11763 7825 Sl
11763 7825 Sm
11779 7806 Sl
11779 7806 Sm
11795 7787 Sl
11795 7787 Sm
11811 7775 Sl
11811 7775 Sm
11827 7762 Sl
11827 7762 Sm
11843 7753 Sl
11843 7753 Sm
11859 7743 Sl
11859 7743 Sm
11875 7733 Sl
11875 7733 Sm
11890 7723 Sl
11890 7723 Sm
11906 7717 Sl
11906 7717 Sm
11922 7710 Sl
11922 7710 Sm
11938 7703 Sl
11938 7703 Sm
11954 7699 Sl
11954 7699 Sm
11970 7695 Sl
11970 7695 Sm
11986 7694 Sl
11986 7694 Sm
12002 7694 Sl
12002 7694 Sm
12018 7697 Sl
12018 7697 Sm
12034 7700 Sl
12034 7700 Sm
12050 7704 Sl
12050 7704 Sm
12066 7707 Sl
12066 7707 Sm
12082 7710 Sl
12082 7710 Sm
12098 7714 Sl
12098 7714 Sm
12114 7717 Sl
12114 7717 Sm
12130 7720 Sl
12130 7720 Sm
12146 7722 Sl
12146 7722 Sm
12162 7727 Sl
12162 7727 Sm
12178 7733 Sl
12178 7733 Sm
12194 7739 Sl
12194 7739 Sm
12210 7745 Sl
12210 7745 Sm
12226 7750 Sl
12226 7750 Sm
12242 7759 Sl
12242 7759 Sm
12258 7769 Sl
12258 7769 Sm
12274 7781 Sl
12274 7781 Sm
12290 7792 Sl
12290 7792 Sm
12306 7804 Sl
12306 7804 Sm
12322 7814 Sl
12322 7814 Sm
12338 7824 Sl
12338 7824 Sm
12354 7834 Sl
12354 7834 Sm
12370 7844 Sl
12370 7844 Sm
12386 7852 Sl
12386 7852 Sm
12402 7861 Sl
12402 7861 Sm
12418 7869 Sl
12418 7869 Sm
12434 7877 Sl
12434 7877 Sm
12450 7884 Sl
12450 7884 Sm
12466 7890 Sl
12466 7890 Sm
12482 7896 Sl
12482 7896 Sm
12498 7902 Sl
12498 7902 Sm
12514 7908 Sl
12514 7908 Sm
12530 7912 Sl
12530 7912 Sm
12546 7917 Sl
12546 7917 Sm
12562 7921 Sl
12562 7921 Sm
12578 7924 Sl
12578 7924 Sm
12594 7927 Sl
12594 7927 Sm
12610 7930 Sl
12610 7930 Sm
12626 7932 Sl
12626 7932 Sm
12642 7934 Sl
12642 7934 Sm
12658 7935 Sl
12658 7935 Sm
12674 7936 Sl
12674 7936 Sm
12690 7936 Sl
12690 7936 Sm
12706 7936 Sl
12706 7936 Sm
12722 7936 Sl
12722 7936 Sm
12738 7935 Sl
12738 7935 Sm
12754 7933 Sl
12754 7933 Sm
12770 7932 Sl
12770 7932 Sm
12786 7929 Sl
/Slrgb {0.565 0.208 0.231} def
4486 7733 Sm
4516 7734 Sl
4516 7734 Sm
4546 7732 Sl
4546 7732 Sm
4576 7730 Sl
4576 7730 Sm
4606 7725 Sl
4606 7725 Sm
4636 7720 Sl
4636 7720 Sm
4667 7712 Sl
4667 7712 Sm
4697 7703 Sl
4697 7703 Sm
4727 7696 Sl
4727 7696 Sm
4757 7694 Sl
4757 7694 Sm
4787 7694 Sl
4787 7694 Sm
4817 7694 Sl
4817 7694 Sm
4848 7694 Sl
4848 7694 Sm
4878 7694 Sl
4878 7694 Sm
4908 7694 Sl
4908 7694 Sm
4938 7694 Sl
4938 7694 Sm
4968 7694 Sl
4968 7694 Sm
4998 7694 Sl
4998 7694 Sm
5028 7694 Sl
5028 7694 Sm
5059 7694 Sl
5059 7694 Sm
5089 7694 Sl
5089 7694 Sm
5119 7694 Sl
5119 7694 Sm
5149 7694 Sl
5149 7694 Sm
5179 7694 Sl
5179 7694 Sm
5209 7694 Sl
5209 7694 Sm
5239 7694 Sl
5239 7694 Sm
5270 7694 Sl
5270 7694 Sm
5300 7694 Sl
5300 7694 Sm
5330 7694 Sl
5330 7694 Sm
5360 7694 Sl
5360 7694 Sm
5390 7694 Sl
5390 7694 Sm
5420 7694 Sl
5420 7694 Sm
5450 7694 Sl
5450 7694 Sm
5481 7694 Sl
5481 7694 Sm
5511 7694 Sl
5511 7694 Sm
5541 7694 Sl
5541 7694 Sm
5571 7694 Sl
5571 7694 Sm
5601 7694 Sl
5601 7694 Sm
5631 7694 Sl
5631 7694 Sm
5662 7694 Sl
5662 7694 Sm
5692 7694 Sl
5692 7694 Sm
5722 7694 Sl
5722 7694 Sm
5752 7694 Sl
5752 7694 Sm
5782 7694 Sl
5782 7694 Sm
5812 7694 Sl
5812 7694 Sm
5842 7694 Sl
5842 7694 Sm
5873 7694 Sl
5873 7694 Sm
5903 7694 Sl
5903 7694 Sm
5933 7694 Sl
5933 7694 Sm
5963 7694 Sl
5963 7694 Sm
5993 7694 Sl
5993 7694 Sm
6023 7694 Sl
6023 7694 Sm
6053 7694 Sl
6053 7694 Sm
6084 7694 Sl
6084 7694 Sm
6114 7694 Sl
6114 7694 Sm
6144 7695 Sl
6144 7695 Sm
6174 7696 Sl
6174 7696 Sm
6204 7698 Sl
6204 7698 Sm
6234 7699 Sl
6234 7699 Sm
6265 7700 Sl
6265 7700 Sm
6295 7700 Sl
6295 7700 Sm
6325 7701 Sl
6325 7701 Sm
6355 7701 Sl
6355 7701 Sm
6385 7701 Sl
6385 7701 Sm
6415 7700 Sl
6415 7700 Sm
6445 7700 Sl
6445 7700 Sm
6476 7699 Sl
6476 7699 Sm
6506 7698 Sl
6506 7698 Sm
6536 7696 Sl
6536 7696 Sm
6566 7694 Sl
6566 7694 Sm
6596 7694 Sl
6596 7694 Sm
6626 7694 Sl
6626 7694 Sm
6656 7694 Sl
6656 7694 Sm
6687 7694 Sl
6687 7694 Sm
6717 7694 Sl
6717 7694 Sm
6747 7694 Sl
6747 7694 Sm
6777 7694 Sl
6777 7694 Sm
6807 7694 Sl
6807 7694 Sm
6837 7694 Sl
6837 7694 Sm
6868 7694 Sl
6868 7694 Sm
6898 7694 Sl
6898 7694 Sm
6928 7694 Sl
6928 7694 Sm
6958 7694 Sl
6958 7694 Sm
6988 7694 Sl
6988 7694 Sm
7018 7694 Sl
7018 7694 Sm
7048 7694 Sl
7048 7694 Sm
7079 7694 Sl
7079 7694 Sm
7109 7694 Sl
7109 7694 Sm
7139 7694 Sl
7139 7694 Sm
7169 7694 Sl
7169 7694 Sm
7199 7694 Sl
7199 7694 Sm
7229 7694 Sl
7229 7694 Sm
7259 7694 Sl
7259 7694 Sm
7290 7694 Sl
7290 7694 Sm
7320 7694 Sl
7320 7694 Sm
7350 7694 Sl
7350 7694 Sm
7380 7694 Sl
7380 7694 Sm
7410 7694 Sl
7410 7694 Sm
7440 7694 Sl
7440 7694 Sm
7470 7694 Sl
7470 7694 Sm
7501 7694 Sl
7501 7694 Sm
7531 7694 Sl
7531 7694 Sm
7561 7694 Sl
7561 7694 Sm
7591 7694 Sl
7591 7694 Sm
7621 7694 Sl
7621 7694 Sm
7651 7694 Sl
7651 7694 Sm
7682 7694 Sl
7682 7694 Sm
7712 7694 Sl
7712 7694 Sm
7742 7694 Sl
7742 7694 Sm
7772 7694 Sl
7772 7694 Sm
7802 7695 Sl
7802 7695 Sm
7832 7697 Sl
7832 7697 Sm
7862 7698 Sl
7862 7698 Sm
7893 7699 Sl
7893 7699 Sm
7923 7700 Sl
7923 7700 Sm
7953 7702 Sl
7953 7702 Sm
7983 7705 Sl
7983 7705 Sm
8013 7710 Sl
8013 7710 Sm
8043 7713 Sl
8043 7713 Sm
8073 7716 Sl
8073 7716 Sm
8104 7717 Sl
8104 7717 Sm
8134 7719 Sl
8134 7719 Sm
8164 7720 Sl
8164 7720 Sm
8194 7719 Sl
8194 7719 Sm
8224 7718 Sl
8224 7718 Sm
8254 7719 Sl
8254 7719 Sm
8285 7721 Sl
8285 7721 Sm
8315 7722 Sl
8315 7722 Sm
8345 7722 Sl
8345 7722 Sm
8375 7723 Sl
8375 7723 Sm
8405 7725 Sl
8405 7725 Sm
8435 7728 Sl
8435 7728 Sm
8465 7729 Sl
8465 7729 Sm
8496 7728 Sl
8496 7728 Sm
8526 7729 Sl
8526 7729 Sm
8556 7738 Sl
8556 7738 Sm
8586 7745 Sl
8586 7745 Sm
8616 7748 Sl
8616 7748 Sm
8646 7749 Sl
8646 7749 Sm
8676 7748 Sl
8676 7748 Sm
8707 7751 Sl
8707 7751 Sm
8737 7755 Sl
8737 7755 Sm
8767 7758 Sl
8767 7758 Sm
8797 7760 Sl
8797 7760 Sm
8827 7763 Sl
8827 7763 Sm
8857 7769 Sl
8857 7769 Sm
8888 7776 Sl
8888 7776 Sm
8918 7777 Sl
8918 7777 Sm
8948 7773 Sl
8948 7773 Sm
8978 7777 Sl
8978 7777 Sm
9008 7780 Sl
9008 7780 Sm
9038 7779 Sl
9038 7779 Sm
9068 7782 Sl
9068 7782 Sm
9099 7796 Sl
9099 7796 Sm
9129 7806 Sl
9129 7806 Sm
9159 7817 Sl
9159 7817 Sm
9189 7829 Sl
9189 7829 Sm
9219 7839 Sl
9219 7839 Sm
9249 7848 Sl
9249 7848 Sm
9279 7872 Sl
9279 7872 Sm
9310 7894 Sl
9310 7894 Sm
9340 7907 Sl
9340 7907 Sm
9370 7913 Sl
9370 7913 Sm
9400 7926 Sl
9400 7926 Sm
9430 7956 Sl
9430 7956 Sm
9460 7970 Sl
9460 7970 Sm
9490 7980 Sl
9490 7980 Sm
9521 7993 Sl
9521 7993 Sm
9551 8009 Sl
9551 8009 Sm
9581 8015 Sl
9581 8015 Sm
9611 8021 Sl
9611 8021 Sm
9641 8047 Sl
9641 8047 Sm
9671 8075 Sl
9671 8075 Sm
9702 8102 Sl
9702 8102 Sm
9732 8125 Sl
9732 8125 Sm
9762 8141 Sl
9762 8141 Sm
9792 8157 Sl
9792 8157 Sm
9822 8202 Sl
9822 8202 Sm
9852 8269 Sl
9852 8269 Sm
9882 8315 Sl
9882 8315 Sm
9913 8345 Sl
9913 8345 Sm
9943 8380 Sl
9943 8380 Sm
9973 8462 Sl
9973 8462 Sm
10003 8513 Sl
10003 8513 Sm
10033 8534 Sl
10033 8534 Sm
10063 8544 Sl
10063 8544 Sm
10093 8564 Sl
10093 8564 Sm
10124 8559 Sl
10124 8559 Sm
10154 8558 Sl
10154 8558 Sm
10184 8565 Sl
10184 8565 Sm
10214 8574 Sl
10214 8574 Sm
10244 8587 Sl
10244 8587 Sm
10274 8609 Sl
10274 8609 Sm
10305 8627 Sl
10305 8627 Sm
10335 8656 Sl
10335 8656 Sm
10365 8772 Sl
10365 8772 Sm
10395 8974 Sl
10395 8974 Sm
10425 9155 Sl
10425 9155 Sm
10455 9315 Sl
10455 9315 Sm
10485 9478 Sl
10485 9478 Sm
10516 9722 Sl
10516 9722 Sm
10546 9971 Sl
10546 9971 Sm
10576 10167 Sl
10576 10167 Sm
10606 10340 Sl
10606 10340 Sm
10636 10546 Sl
10636 10546 Sm
10666 10737 Sl
10666 10737 Sm
10696 10929 Sl
10696 10929 Sm
10727 11092 Sl
10727 11092 Sm
10757 11226 Sl
10757 11226 Sm
10787 11298 Sl
10787 11298 Sm
10817 11418 Sl
10817 11418 Sm
10847 11461 Sl
10847 11461 Sm
10877 11416 Sl
10877 11416 Sm
10908 11343 Sl
10908 11343 Sm
10938 11369 Sl
10938 11369 Sm
10968 11395 Sl
10968 11395 Sm
10998 11325 Sl
10998 11325 Sm
11028 11190 Sl
11028 11190 Sm
11058 11028 Sl
11058 11028 Sm
11088 10914 Sl
11088 10914 Sm
11119 10829 Sl
11119 10829 Sm
11149 10747 Sl
11149 10747 Sm
11179 10660 Sl
11179 10660 Sm
11209 10552 Sl
11209 10552 Sm
11239 10475 Sl
11239 10475 Sm
11269 10396 Sl
11269 10396 Sm
11299 10265 Sl
11299 10265 Sm
11330 10119 Sl
11330 10119 Sm
11360 10076 Sl
11360 10076 Sm
11390 10030 Sl
11390 10030 Sm
11420 9938 Sl
11420 9938 Sm
11450 9844 Sl
11450 9844 Sm
11480 9763 Sl
11480 9763 Sm
11510 9667 Sl
11510 9667 Sm
11541 9598 Sl
11541 9598 Sm
11571 9484 Sl
11571 9484 Sm
11601 9334 Sl
11601 9334 Sm
11631 9178 Sl
11631 9178 Sm
11661 9086 Sl
11661 9086 Sm
11691 9028 Sl
11691 9028 Sm
11722 8938 Sl
11722 8938 Sm
11752 8827 Sl
11752 8827 Sm
11782 8706 Sl
11782 8706 Sm
11812 8629 Sl
11812 8629 Sm
11842 8538 Sl
11842 8538 Sm
11872 8452 Sl
11872 8452 Sm
11902 8396 Sl
11902 8396 Sm
11933 8359 Sl
11933 8359 Sm
11963 8311 Sl
11963 8311 Sm
11993 8257 Sl
11993 8257 Sm
12023 8201 Sl
12023 8201 Sm
12053 8152 Sl
12053 8152 Sm
12083 8127 Sl
12083 8127 Sm
12113 8102 Sl
12113 8102 Sm
12144 8072 Sl
12144 8072 Sm
12174 8036 Sl
12174 8036 Sm
12204 8005 Sl
12204 8005 Sm
12234 7981 Sl
12234 7981 Sm
12264 7952 Sl
12264 7952 Sm
12294 7925 Sl
12294 7925 Sm
12325 7895 Sl
12325 7895 Sm
12355 7874 Sl
12355 7874 Sm
12385 7860 Sl
12385 7860 Sm
12415 7852 Sl
12415 7852 Sm
12445 7843 Sl
12445 7843 Sm
12475 7834 Sl
12475 7834 Sm
12505 7821 Sl
12505 7821 Sm
12536 7806 Sl
12536 7806 Sm
12566 7795 Sl
12566 7795 Sm
12596 7787 Sl
12596 7787 Sm
12626 7782 Sl
12626 7782 Sm
12656 7780 Sl
12656 7780 Sm
12686 7773 Sl
12686 7773 Sm
12716 7770 Sl
12716 7770 Sm
12747 7766 Sl
12747 7766 Sm
12777 7761 Sl
12777 7761 Sm
12807 7757 Sl
12807 7757 Sm
12837 7752 Sl
12837 7752 Sm
12867 7747 Sl
12867 7747 Sm
12897 7742 Sl
12897 7742 Sm
12928 7737 Sl
12928 7737 Sm
12958 7732 Sl
12958 7732 Sm
12988 7726 Sl
12988 7726 Sm
13018 7721 Sl
13018 7721 Sm
13048 7720 Sl
13048 7720 Sm
13078 7719 Sl
13078 7719 Sm
13108 7718 Sl
13108 7718 Sm
13139 7717 Sl
13139 7717 Sm
13169 7716 Sl
13169 7716 Sm
13199 7715 Sl
13199 7715 Sm
13229 7712 Sl
13229 7712 Sm
13259 7708 Sl
13259 7708 Sm
13289 7705 Sl
13289 7705 Sm
13319 7706 Sl
13319 7706 Sm
13350 7707 Sl
13350 7707 Sm
13380 7708 Sl
13380 7708 Sm
13410 7709 Sl
13410 7709 Sm
13440 7709 Sl
13440 7709 Sm
13470 7708 Sl
13470 7708 Sm
13500 7708 Sl
/Slrgb {0.333 0.459 0.184} def
7048 7731 Sm
7071 7734 Sl
7071 7734 Sm
7094 7737 Sl
7094 7737 Sm
7118 7741 Sl
7118 7741 Sm
7141 7744 Sl
7141 7744 Sm
7165 7746 Sl
7165 7746 Sm
7188 7749 Sl
7188 7749 Sm
7212 7751 Sl
7212 7751 Sm
7235 7755 Sl
7235 7755 Sm
7258 7759 Sl
7258 7759 Sm
7282 7762 Sl
7282 7762 Sm
7305 7765 Sl
7305 7765 Sm
7329 7768 Sl
7329 7768 Sm
7352 7771 Sl
7352 7771 Sm
7376 7774 Sl
7376 7774 Sm
7399 7776 Sl
7399 7776 Sm
7422 7778 Sl
7422 7778 Sm
7446 7780 Sl
7446 7780 Sm
7469 7783 Sl
7469 7783 Sm
7493 7785 Sl
7493 7785 Sm
7516 7786 Sl
7516 7786 Sm
7540 7787 Sl
7540 7787 Sm
7563 7788 Sl
7563 7788 Sm
7586 7788 Sl
7586 7788 Sm
7610 7791 Sl
7610 7791 Sm
7633 7796 Sl
7633 7796 Sm
7657 7802 Sl
7657 7802 Sm
7680 7807 Sl
7680 7807 Sm
7704 7813 Sl
7704 7813 Sm
7727 7818 Sl
7727 7818 Sm
7750 7822 Sl
7750 7822 Sm
7774 7826 Sl
7774 7826 Sm
7797 7833 Sl
7797 7833 Sm
7821 7839 Sl
7821 7839 Sm
7844 7844 Sl
7844 7844 Sm
7868 7848 Sl
7868 7848 Sm
7891 7852 Sl
7891 7852 Sm
7914 7855 Sl
7914 7855 Sm
7938 7857 Sl
7938 7857 Sm
7961 7860 Sl
7961 7860 Sm
7985 7863 Sl
7985 7863 Sm
8008 7867 Sl
8008 7867 Sm
8031 7871 Sl
8031 7871 Sm
8055 7876 Sl
8055 7876 Sm
8078 7880 Sl
8078 7880 Sm
8102 7883 Sl
8102 7883 Sm
8125 7887 Sl
8125 7887 Sm
8149 7892 Sl
8149 7892 Sm
8172 7899 Sl
8172 7899 Sm
8195 7913 Sl
8195 7913 Sm
8219 7928 Sl
8219 7928 Sm
8242 7941 Sl
8242 7941 Sm
8266 7955 Sl
8266 7955 Sm
8289 7968 Sl
8289 7968 Sm
8313 7980 Sl
8313 7980 Sm
8336 7992 Sl
8336 7992 Sm
8359 8006 Sl
8359 8006 Sm
8383 8019 Sl
8383 8019 Sm
8406 8031 Sl
8406 8031 Sm
8430 8041 Sl
8430 8041 Sm
8453 8052 Sl
8453 8052 Sm
8477 8063 Sl
8477 8063 Sm
8500 8077 Sl
8500 8077 Sm
8523 8096 Sl
8523 8096 Sm
8547 8113 Sl
8547 8113 Sm
8570 8128 Sl
8570 8128 Sm
8594 8142 Sl
8594 8142 Sm
8617 8154 Sl
8617 8154 Sm
8641 8165 Sl
8641 8165 Sm
8664 8175 Sl
8664 8175 Sm
8687 8182 Sl
8687 8182 Sm
8711 8189 Sl
8711 8189 Sm
8734 8203 Sl
8734 8203 Sm
8758 8224 Sl
8758 8224 Sm
8781 8245 Sl
8781 8245 Sm
8805 8263 Sl
8805 8263 Sm
8828 8279 Sl
8828 8279 Sm
8851 8294 Sl
8851 8294 Sm
8875 8307 Sl
8875 8307 Sm
8898 8321 Sl
8898 8321 Sm
8922 8349 Sl
8922 8349 Sm
8945 8375 Sl
8945 8375 Sm
8968 8397 Sl
8968 8397 Sm
8992 8417 Sl
8992 8417 Sm
9015 8434 Sl
9015 8434 Sm
9039 8447 Sl
9039 8447 Sm
9062 8464 Sl
9062 8464 Sm
9086 8481 Sl
9086 8481 Sm
9109 8495 Sl
9109 8495 Sm
9132 8508 Sl
9132 8508 Sm
9156 8518 Sl
9156 8518 Sm
9179 8527 Sl
9179 8527 Sm
9203 8534 Sl
9203 8534 Sm
9226 8538 Sl
9226 8538 Sm
9250 8542 Sl
9250 8542 Sm
9273 8544 Sl
9273 8544 Sm
9296 8555 Sl
9296 8555 Sm
9320 8572 Sl
9320 8572 Sm
9343 8588 Sl
9343 8588 Sm
9367 8600 Sl
9367 8600 Sm
9390 8611 Sl
9390 8611 Sm
9414 8620 Sl
9414 8620 Sm
9437 8629 Sl
9437 8629 Sm
9460 8646 Sl
9460 8646 Sm
9484 8673 Sl
9484 8673 Sm
9507 8697 Sl
9507 8697 Sm
9531 8716 Sl
9531 8716 Sm
9554 8730 Sl
9554 8730 Sm
9578 8745 Sl
9578 8745 Sm
9601 8762 Sl
9601 8762 Sm
9624 8787 Sl
9624 8787 Sm
9648 8816 Sl
9648 8816 Sm
9671 8841 Sl
9671 8841 Sm
9695 8862 Sl
9695 8862 Sm
9718 8877 Sl
9718 8877 Sm
9742 8889 Sl
9742 8889 Sm
9765 8902 Sl
9765 8902 Sm
9788 8921 Sl
9788 8921 Sm
9812 8943 Sl
9812 8943 Sm
9835 8960 Sl
9835 8960 Sm
9859 8978 Sl
9859 8978 Sm
9882 9002 Sl
9882 9002 Sm
9905 9024 Sl
9905 9024 Sm
9929 9044 Sl
9929 9044 Sm
9952 9062 Sl
9952 9062 Sm
9976 9081 Sl
9976 9081 Sm
9999 9103 Sl
9999 9103 Sm
10023 9151 Sl
10023 9151 Sm
10046 9207 Sl
10046 9207 Sm
10069 9261 Sl
10069 9261 Sm
10093 9310 Sl
10093 9310 Sm
10116 9354 Sl
10116 9354 Sm
10140 9393 Sl
10140 9393 Sm
10163 9429 Sl
10163 9429 Sm
10187 9466 Sl
10187 9466 Sm
10210 9505 Sl
10210 9505 Sm
10233 9537 Sl
10233 9537 Sm
10257 9563 Sl
10257 9563 Sm
10280 9588 Sl
10280 9588 Sm
10304 9613 Sl
10304 9613 Sm
10327 9638 Sl
10327 9638 Sm
10351 9668 Sl
10351 9668 Sm
10374 9691 Sl
10374 9691 Sm
10397 9711 Sl
10397 9711 Sm
10421 9730 Sl
10421 9730 Sm
10444 9745 Sl
10444 9745 Sm
10468 9753 Sl
10468 9753 Sm
10491 9753 Sl
10491 9753 Sm
10515 9748 Sl
10515 9748 Sm
10538 9740 Sl
10538 9740 Sm
10561 9738 Sl
10561 9738 Sm
10585 9752 Sl
10585 9752 Sm
10608 9774 Sl
10608 9774 Sm
10632 9786 Sl
10632 9786 Sm
10655 9791 Sl
10655 9791 Sm
10679 9791 Sl
10679 9791 Sm
10702 9787 Sl
10702 9787 Sm
10725 9781 Sl
10725 9781 Sm
10749 9789 Sl
10749 9789 Sm
10772 9791 Sl
10772 9791 Sm
10796 9785 Sl
10796 9785 Sm
10819 9771 Sl
10819 9771 Sm
10843 9748 Sl
10843 9748 Sm
10866 9725 Sl
10866 9725 Sm
10889 9702 Sl
10889 9702 Sm
10913 9682 Sl
10913 9682 Sm
10936 9664 Sl
10936 9664 Sm
10960 9639 Sl
10960 9639 Sm
10983 9608 Sl
10983 9608 Sm
11006 9573 Sl
11006 9573 Sm
11030 9536 Sl
11030 9536 Sm
11053 9493 Sl
11053 9493 Sm
11077 9447 Sl
11077 9447 Sm
11100 9400 Sl
11100 9400 Sm
11124 9359 Sl
11124 9359 Sm
11147 9332 Sl
11147 9332 Sm
11170 9309 Sl
11170 9309 Sm
11194 9280 Sl
11194 9280 Sm
11217 9247 Sl
11217 9247 Sm
11241 9210 Sl
11241 9210 Sm
11264 9168 Sl
11264 9168 Sm
11288 9125 Sl
11288 9125 Sm
11311 9085 Sl
11311 9085 Sm
11334 9044 Sl
11334 9044 Sm
11358 8999 Sl
11358 8999 Sm
11381 8951 Sl
11381 8951 Sm
11405 8902 Sl
11405 8902 Sm
11428 8855 Sl
11428 8855 Sm
11452 8810 Sl
11452 8810 Sm
11475 8774 Sl
11475 8774 Sm
11498 8736 Sl
11498 8736 Sm
11522 8697 Sl
11522 8697 Sm
11545 8654 Sl
11545 8654 Sm
11569 8608 Sl
11569 8608 Sm
11592 8558 Sl
11592 8558 Sm
11616 8506 Sl
11616 8506 Sm
11639 8454 Sl
11639 8454 Sm
11662 8403 Sl
11662 8403 Sm
11686 8355 Sl
11686 8355 Sm
11709 8328 Sl
11709 8328 Sm
11733 8299 Sl
11733 8299 Sm
11756 8266 Sl
11756 8266 Sm
11780 8232 Sl
11780 8232 Sm
11803 8200 Sl
11803 8200 Sm
11826 8169 Sl
11826 8169 Sm
11850 8140 Sl
11850 8140 Sm
11873 8118 Sl
11873 8118 Sm
11897 8098 Sl
11897 8098 Sm
11920 8077 Sl
11920 8077 Sm
11943 8055 Sl
11943 8055 Sm
11967 8032 Sl
11967 8032 Sm
11990 8013 Sl
11990 8013 Sm
12014 7996 Sl
12014 7996 Sm
12037 7984 Sl
12037 7984 Sm
12061 7971 Sl
12061 7971 Sm
12084 7958 Sl
12084 7958 Sm
12107 7944 Sl
12107 7944 Sm
12131 7931 Sl
12131 7931 Sm
12154 7923 Sl
12154 7923 Sm
12178 7915 Sl
12178 7915 Sm
12201 7907 Sl
12201 7907 Sm
12225 7902 Sl
12225 7902 Sm
12248 7897 Sl
12248 7897 Sm
12271 7893 Sl
12271 7893 Sm
12295 7888 Sl
12295 7888 Sm
12318 7881 Sl
12318 7881 Sm
12342 7874 Sl
12342 7874 Sm
12365 7865 Sl
12365 7865 Sm
12389 7856 Sl
12389 7856 Sm
12412 7846 Sl
12412 7846 Sm
12435 7841 Sl
12435 7841 Sm
12459 7835 Sl
12459 7835 Sm
12482 7829 Sl
12482 7829 Sm
12506 7824 Sl
12506 7824 Sm
12529 7819 Sl
12529 7819 Sm
12553 7814 Sl
12553 7814 Sm
12576 7810 Sl
12576 7810 Sm
12599 7806 Sl
12599 7806 Sm
12623 7801 Sl
12623 7801 Sm
12646 7796 Sl
12646 7796 Sm
12670 7791 Sl
12670 7791 Sm
12693 7785 Sl
12693 7785 Sm
12717 7779 Sl
12717 7779 Sm
12740 7774 Sl
12740 7774 Sm
12763 7771 Sl
12763 7771 Sm
12787 7767 Sl
12787 7767 Sm
12810 7763 Sl
12810 7763 Sm
12834 7759 Sl
12834 7759 Sm
12857 7755 Sl
12857 7755 Sm
12880 7750 Sl
12880 7750 Sm
12904 7746 Sl
12904 7746 Sm
12927 7742 Sl
12927 7742 Sm
12951 7739 Sl
12951 7739 Sm
12974 7737 Sl
12974 7737 Sm
12998 7735 Sl
12998 7735 Sm
13021 7734 Sl
13021 7734 Sm
13044 7732 Sl
13044 7732 Sm
13068 7731 Sl
13068 7731 Sm
13091 7729 Sl
13091 7729 Sm
13115 7726 Sl
13115 7726 Sm
13138 7724 Sl
13138 7724 Sm
13162 7722 Sl
13162 7722 Sm
13185 7719 Sl
13185 7719 Sm
13208 7716 Sl
13208 7716 Sm
13232 7713 Sl
13232 7713 Sm
13255 7710 Sl
13255 7710 Sm
13279 7708 Sl
13279 7708 Sm
13302 7707 Sl
13302 7707 Sm
13326 7705 Sl
13326 7705 Sm
13349 7704 Sl
13349 7704 Sm
13372 7704 Sl
13372 7704 Sm
13396 7703 Sl
13396 7703 Sm
13419 7703 Sl
13419 7703 Sm
13443 7702 Sl
13443 7702 Sm
13466 7701 Sl
13466 7701 Sm
13490 7701 Sl
13490 7701 Sm
13513 7701 Sl
13513 7701 Sm
13536 7701 Sl
13536 7701 Sm
13560 7701 Sl
13560 7701 Sm
13583 7701 Sl
13583 7701 Sm
13607 7701 Sl
13607 7701 Sm
13630 7701 Sl
13630 7701 Sm
13654 7701 Sl
13654 7701 Sm
13677 7701 Sl
13677 7701 Sm
13700 7702 Sl
13700 7702 Sm
13724 7703 Sl
13724 7703 Sm
13747 7703 Sl
13747 7703 Sm
13771 7704 Sl
13771 7704 Sm
13794 7704 Sl
13794 7704 Sm
13817 7705 Sl
13817 7705 Sm
13841 7705 Sl
13841 7705 Sm
13864 7705 Sl
13864 7705 Sm
13888 7706 Sl
13888 7706 Sm
13911 7706 Sl
13911 7706 Sm
13935 7706 Sl
13935 7706 Sm
13958 7707 Sl
13958 7707 Sm
13981 7707 Sl
13981 7707 Sm
14005 7707 Sl
14005 7707 Sm
14028 7707 Sl
14028 7707 Sm
14052 7707 Sl
/Slw 0.490 def
/Slrgb {0.000 0.000 0.000} def
3138 15616 3138 21185 Sln
3138 16052 2863 16052 Sln
2520 16052 0
/Helvetica-0 findfont 687 yratio mul scalefont setfont
(0) stringwidth pop add
2 div xratio div
dup 4 3 roll exch 90.000 cos mul sub 3 1 roll 90.000 sin mul sub 2 copy
/fntsize {/Helvetica-0 findfont exch scalefont setfont } def
90.000 687
(0) Stxtl
(0) stringwidth pop xratio div
dup 4 3 roll exch 90.000 cos mul add 3 1 roll 90.000 sin mul add 2 copy
pop pop pop pop
3138 17226 2863 17226 Sln
2520 17226 0
/Helvetica-0 findfont 687 yratio mul scalefont setfont
(.2) stringwidth pop add
2 div xratio div
dup 4 3 roll exch 90.000 cos mul sub 3 1 roll 90.000 sin mul sub 2 copy
/fntsize {/Helvetica-0 findfont exch scalefont setfont } def
90.000 687
(.2) Stxtl
(.2) stringwidth pop xratio div
dup 4 3 roll exch 90.000 cos mul add 3 1 roll 90.000 sin mul add 2 copy
pop pop pop pop
3138 18401 2863 18401 Sln
2520 18401 0
/Helvetica-0 findfont 687 yratio mul scalefont setfont
(.4) stringwidth pop add
2 div xratio div
dup 4 3 roll exch 90.000 cos mul sub 3 1 roll 90.000 sin mul sub 2 copy
/fntsize {/Helvetica-0 findfont exch scalefont setfont } def
90.000 687
(.4) Stxtl
(.4) stringwidth pop xratio div
dup 4 3 roll exch 90.000 cos mul add 3 1 roll 90.000 sin mul add 2 copy
pop pop pop pop
3138 19575 2863 19575 Sln
2520 19575 0
/Helvetica-0 findfont 687 yratio mul scalefont setfont
(.6) stringwidth pop add
2 div xratio div
dup 4 3 roll exch 90.000 cos mul sub 3 1 roll 90.000 sin mul sub 2 copy
/fntsize {/Helvetica-0 findfont exch scalefont setfont } def
90.000 687
(.6) Stxtl
(.6) stringwidth pop xratio div
dup 4 3 roll exch 90.000 cos mul add 3 1 roll 90.000 sin mul add 2 copy
pop pop pop pop
3138 20750 2863 20750 Sln
2520 20750 0
/Helvetica-0 findfont 687 yratio mul scalefont setfont
(.8) stringwidth pop add
2 div xratio div
dup 4 3 roll exch 90.000 cos mul sub 3 1 roll 90.000 sin mul sub 2 copy
/fntsize {/Helvetica-0 findfont exch scalefont setfont } def
90.000 687
(.8) Stxtl
(.8) stringwidth pop xratio div
dup 4 3 roll exch 90.000 cos mul add 3 1 roll 90.000 sin mul add 2 copy
pop pop pop pop
3138 7260 3138 12829 Sln
3138 7695 2863 7695 Sln
2520 7695 0
/Helvetica-0 findfont 687 yratio mul scalefont setfont
(0) stringwidth pop add
2 div xratio div
dup 4 3 roll exch 90.000 cos mul sub 3 1 roll 90.000 sin mul sub 2 copy
/fntsize {/Helvetica-0 findfont exch scalefont setfont } def
90.000 687
(0) Stxtl
(0) stringwidth pop xratio div
dup 4 3 roll exch 90.000 cos mul add 3 1 roll 90.000 sin mul add 2 copy
pop pop pop pop
3138 8869 2863 8869 Sln
2520 8869 0
/Helvetica-0 findfont 687 yratio mul scalefont setfont
(.2) stringwidth pop add
2 div xratio div
dup 4 3 roll exch 90.000 cos mul sub 3 1 roll 90.000 sin mul sub 2 copy
/fntsize {/Helvetica-0 findfont exch scalefont setfont } def
90.000 687
(.2) Stxtl
(.2) stringwidth pop xratio div
dup 4 3 roll exch 90.000 cos mul add 3 1 roll 90.000 sin mul add 2 copy
pop pop pop pop
3138 10044 2863 10044 Sln
2520 10044 0
/Helvetica-0 findfont 687 yratio mul scalefont setfont
(.4) stringwidth pop add
2 div xratio div
dup 4 3 roll exch 90.000 cos mul sub 3 1 roll 90.000 sin mul sub 2 copy
/fntsize {/Helvetica-0 findfont exch scalefont setfont } def
90.000 687
(.4) Stxtl
(.4) stringwidth pop xratio div
dup 4 3 roll exch 90.000 cos mul add 3 1 roll 90.000 sin mul add 2 copy
pop pop pop pop
3138 11219 2863 11219 Sln
2520 11219 0
/Helvetica-0 findfont 687 yratio mul scalefont setfont
(.6) stringwidth pop add
2 div xratio div
dup 4 3 roll exch 90.000 cos mul sub 3 1 roll 90.000 sin mul sub 2 copy
/fntsize {/Helvetica-0 findfont exch scalefont setfont } def
90.000 687
(.6) Stxtl
(.6) stringwidth pop xratio div
dup 4 3 roll exch 90.000 cos mul add 3 1 roll 90.000 sin mul add 2 copy
pop pop pop pop
3138 12393 2863 12393 Sln
2520 12393 0
/Helvetica-0 findfont 687 yratio mul scalefont setfont
(.8) stringwidth pop add
2 div xratio div
dup 4 3 roll exch 90.000 cos mul sub 3 1 roll 90.000 sin mul sub 2 copy
/fntsize {/Helvetica-0 findfont exch scalefont setfont } def
90.000 687
(.8) Stxtl
(.8) stringwidth pop xratio div
dup 4 3 roll exch 90.000 cos mul add 3 1 roll 90.000 sin mul add 2 copy
pop pop pop pop
17301 15616 30905 15616 Sln
18538 15616 18538 15342 Sln
18538 14723 0
/Helvetica-0 findfont 687 yratio mul scalefont setfont
(0) stringwidth pop add
2 div xratio div
dup 4 3 roll exch 0.000 cos mul sub 3 1 roll 0.000 sin mul sub 2 copy
/fntsize {/Helvetica-0 findfont exch scalefont setfont } def
0.000 687
(0) Stxtl
(0) stringwidth pop xratio div
dup 4 3 roll exch 0.000 cos mul add 3 1 roll 0.000 sin mul add 2 copy
pop pop pop pop
22515 15616 22515 15342 Sln
22515 14723 0
/Helvetica-0 findfont 687 yratio mul scalefont setfont
(5) stringwidth pop add
2 div xratio div
dup 4 3 roll exch 0.000 cos mul sub 3 1 roll 0.000 sin mul sub 2 copy
/fntsize {/Helvetica-0 findfont exch scalefont setfont } def
0.000 687
(5) Stxtl
(5) stringwidth pop xratio div
dup 4 3 roll exch 0.000 cos mul add 3 1 roll 0.000 sin mul add 2 copy
pop pop pop pop
26493 15616 26493 15342 Sln
26493 14723 0
/Helvetica-0 findfont 687 yratio mul scalefont setfont
(10) stringwidth pop add
2 div xratio div
dup 4 3 roll exch 0.000 cos mul sub 3 1 roll 0.000 sin mul sub 2 copy
/fntsize {/Helvetica-0 findfont exch scalefont setfont } def
0.000 687
(10) Stxtl
(10) stringwidth pop xratio div
dup 4 3 roll exch 0.000 cos mul add 3 1 roll 0.000 sin mul add 2 copy
pop pop pop pop
30470 15616 30470 15342 Sln
30470 14723 0
/Helvetica-0 findfont 687 yratio mul scalefont setfont
(15) stringwidth pop add
2 div xratio div
dup 4 3 roll exch 0.000 cos mul sub 3 1 roll 0.000 sin mul sub 2 copy
/fntsize {/Helvetica-0 findfont exch scalefont setfont } def
0.000 687
(15) Stxtl
(15) stringwidth pop xratio div
dup 4 3 roll exch 0.000 cos mul add 3 1 roll 0.000 sin mul add 2 copy
pop pop pop pop
3138 7260 16742 7260 Sln
4375 7260 4375 6985 Sln
4375 6367 0
/Helvetica-0 findfont 687 yratio mul scalefont setfont
(0) stringwidth pop add
2 div xratio div
dup 4 3 roll exch 0.000 cos mul sub 3 1 roll 0.000 sin mul sub 2 copy
/fntsize {/Helvetica-0 findfont exch scalefont setfont } def
0.000 687
(0) Stxtl
(0) stringwidth pop xratio div
dup 4 3 roll exch 0.000 cos mul add 3 1 roll 0.000 sin mul add 2 copy
pop pop pop pop
8352 7260 8352 6985 Sln
8352 6367 0
/Helvetica-0 findfont 687 yratio mul scalefont setfont
(5) stringwidth pop add
2 div xratio div
dup 4 3 roll exch 0.000 cos mul sub 3 1 roll 0.000 sin mul sub 2 copy
/fntsize {/Helvetica-0 findfont exch scalefont setfont } def
0.000 687
(5) Stxtl
(5) stringwidth pop xratio div
dup 4 3 roll exch 0.000 cos mul add 3 1 roll 0.000 sin mul add 2 copy
pop pop pop pop
12330 7260 12330 6985 Sln
12330 6367 0
/Helvetica-0 findfont 687 yratio mul scalefont setfont
(10) stringwidth pop add
2 div xratio div
dup 4 3 roll exch 0.000 cos mul sub 3 1 roll 0.000 sin mul sub 2 copy
/fntsize {/Helvetica-0 findfont exch scalefont setfont } def
0.000 687
(10) Stxtl
(10) stringwidth pop xratio div
dup 4 3 roll exch 0.000 cos mul add 3 1 roll 0.000 sin mul add 2 copy
pop pop pop pop
16307 7260 16307 6985 Sln
16307 6367 0
/Helvetica-0 findfont 687 yratio mul scalefont setfont
(15) stringwidth pop add
2 div xratio div
dup 4 3 roll exch 0.000 cos mul sub 3 1 roll 0.000 sin mul sub 2 copy
/fntsize {/Helvetica-0 findfont exch scalefont setfont } def
0.000 687
(15) Stxtl
(15) stringwidth pop xratio div
dup 4 3 roll exch 0.000 cos mul add 3 1 roll 0.000 sin mul add 2 copy
pop pop pop pop
/Ssrgb {0.851 0.902 0.922} def
/Slrgb {0.851 0.902 0.922} def
3138 21185 16742 22178 1 Srect
9940 21531 0
/Helvetica-0 findfont 756 yratio mul scalefont setfont
(0) stringwidth pop add
2 div xratio div
dup 4 3 roll exch 0.000 cos mul sub 3 1 roll 0.000 sin mul sub 2 copy
/fntsize {/Helvetica-0 findfont exch scalefont setfont } def
0.000 756
(0) Stxtl
(0) stringwidth pop xratio div
dup 4 3 roll exch 0.000 cos mul add 3 1 roll 0.000 sin mul add 2 copy
pop pop pop pop
17301 21185 30905 22178 1 Srect
24103 21531 0
/Helvetica-0 findfont 756 yratio mul scalefont setfont
(1) stringwidth pop add
2 div xratio div
dup 4 3 roll exch 0.000 cos mul sub 3 1 roll 0.000 sin mul sub 2 copy
/fntsize {/Helvetica-0 findfont exch scalefont setfont } def
0.000 756
(1) Stxtl
(1) stringwidth pop xratio div
dup 4 3 roll exch 0.000 cos mul add 3 1 roll 0.000 sin mul add 2 copy
pop pop pop pop
3138 12829 16742 13822 1 Srect
9940 13174 0
/Helvetica-0 findfont 756 yratio mul scalefont setfont
(2) stringwidth pop add
2 div xratio div
dup 4 3 roll exch 0.000 cos mul sub 3 1 roll 0.000 sin mul sub 2 copy
/fntsize {/Helvetica-0 findfont exch scalefont setfont } def
0.000 756
(2) Stxtl
(2) stringwidth pop xratio div
dup 4 3 roll exch 0.000 cos mul add 3 1 roll 0.000 sin mul add 2 copy
pop pop pop pop
/Ssrgb {1.000 1.000 1.000} def
/Slw 0.576 def
/Slrgb {0.000 0.000 0.000} def
5144 2019 27663 4657 1 Srect
/Slw 0.864 def
/Slrgb {0.102 0.278 0.435} def
5493 3904 8518 3904 Sln
/Slrgb {0.565 0.208 0.231} def
15508 3904 18533 3904 Sln
/Slrgb {0.333 0.459 0.184} def
5493 2772 8518 2772 Sln
9003 3621 2 copy
/fntsize {/Helvetica-0 findfont exch scalefont setfont } def
0.000 808
(Agricult.) Stxtl
(Agricult.) stringwidth pop xratio div
dup 4 3 roll exch 0.000 cos mul add 3 1 roll 0.000 sin mul add 2 copy
pop pop pop pop
19018 3621 2 copy
/fntsize {/Helvetica-0 findfont exch scalefont setfont } def
0.000 808
(Employee \(non-agric.\)) Stxtl
(Employee \(non-agric.\)) stringwidth pop xratio div
dup 4 3 roll exch 0.000 cos mul add 3 1 roll 0.000 sin mul add 2 copy
pop pop pop pop
9003 2489 2 copy
/fntsize {/Helvetica-0 findfont exch scalefont setfont } def
0.000 808
(Self-employed) Stxtl
(Self-employed) stringwidth pop xratio div
dup 4 3 roll exch 0.000 cos mul add 3 1 roll 0.000 sin mul add 2 copy
pop pop pop pop
1381 14101 0
/Helvetica-0 findfont 808 yratio mul scalefont setfont
(kdensity lnincome_adj) stringwidth pop add
2 div xratio div
dup 4 3 roll exch 90.000 cos mul sub 3 1 roll 90.000 sin mul sub 2 copy
/fntsize {/Helvetica-0 findfont exch scalefont setfont } def
90.000 808
(kdensity lnincome_adj) Stxtl
(kdensity lnincome_adj) stringwidth pop xratio div
dup 4 3 roll exch 90.000 cos mul add 3 1 roll 90.000 sin mul add 2 copy
pop pop pop pop
16404 5178 0
/Helvetica-0 findfont 808 yratio mul scalefont setfont
(x) stringwidth pop add
2 div xratio div
dup 4 3 roll exch 0.000 cos mul sub 3 1 roll 0.000 sin mul sub 2 copy
/fntsize {/Helvetica-0 findfont exch scalefont setfont } def
0.000 808
(x) Stxtl
(x) stringwidth pop xratio div
dup 4 3 roll exch 0.000 cos mul add 3 1 roll 0.000 sin mul add 2 copy
pop pop pop pop
1762 1148 2 copy
/fntsize {/Helvetica-0 findfont exch scalefont setfont } def
0.000 646
(Graphs by t) Stxtl
(Graphs by t) stringwidth pop xratio div
dup 4 3 roll exch 0.000 cos mul add 3 1 roll 0.000 sin mul add 2 copy
pop pop pop pop
S showpage
%%EOF
