%!PS-Adobe-2.0 EPSF-2.0
%% This is a Stata generated postscript file
%%BoundingBox: 0 0 396 288
%%HiResBoundingBox: 0.000 0.000 396.000 288.000
%%DocumentNeededResources: font Helvetica
/xratio 0.012375 def
/yratio 0.012375 def
/Sbgfill {
	/y1 exch def
	/x1 exch def
	/y0 exch def
	/x0 exch def
	x0 y0 moveto
	x0 y1 lineto x1 y1 lineto x1 y0 lineto x0 y0 lineto
	fill
} def
/Spt {
	yratio mul
	/yp exch def
	xratio mul
	/xp exch def
	Slrgb setrgbcolor
	newpath
	xp yp moveto
	xp Slw add yp
	lineto
	currentlinecap
	1 setlinecap
	stroke
	setlinecap
} def
/Sln {
	yratio mul
	/y1p exch def
	xratio mul
	/x1p exch def
	yratio mul
	/y0p exch def
	xratio mul
	/x0p exch def
	Slw setlinewidth
	Slrgb setrgbcolor
	x0p y0p M x1p y1p lineto S
} def
/Scrv {
	yratio mul
	/y3p exch def
	xratio mul
	/x3p exch def
	yratio mul
	/y2p exch def
	xratio mul
	/x2p exch def
	yratio mul
	/y1p exch def
	xratio mul
	/x1p exch def
	Slw setlinewidth
	Slrgb setrgbcolor
	x1p y1p x2p y2p x3p y3p curveto
	stroke
} def
/Stxtl {
	/sp exch def
	yratio mul
	/sizep exch def
	dup
	/anglep exch def
	0 exch sub
	/angle2p exch def
	yratio mul
	/y0p exch def
	xratio mul
	/x0p exch def
	Strgb setrgbcolor
	x0p y0p M anglep rotate sizep fntsize sp show stroke angle2p rotate
} def
/Stxtc {
	/sp exch def
	yratio mul
	/sizep exch def
	dup
	/anglep exch def
	0 exch sub
	/angle2p exch def
	yratio mul
	/y0p exch def
	xratio mul
	/x0p exch def
	Strgb setrgbcolor
	x0p y0p M anglep rotate sizep fntsize sp stringwidth exch -2 div exch rm sp show stroke angle2p rotate
} def
/Stxtr {
	/sp exch def
	yratio mul
	/sizep exch def
	dup
	/anglep exch def
	0 exch sub
	/angle2p exch def
	yratio mul
	/y0p exch def
	xratio mul
	/x0p exch def
	Strgb setrgbcolor
	x0p y0p M anglep rotate sizep fntsize sp stringwidth 1 index -1 mul exch rm pop sp show stroke angle2p rotate
} def
/Srect {
	/sfill exch def
	yratio mul
	/y1 exch def
	xratio mul
	/x1 exch def
	yratio mul
	/y0 exch def
	xratio mul
	/x0 exch def
	sfill 1 eq {
		Ssrgb setrgbcolor
		x0 y0 moveto
		x0 y1 lineto x1 y1 lineto x1 y0 lineto x0 y0 lineto
		fill
	} if
	Slw setlinewidth
	Slrgb setrgbcolor
	x0 y0 moveto
	x0 y1 lineto x1 y1 lineto x1 y0 lineto x0 y0 lineto
	stroke
} def
/Sellipse {
	/sfill exch def
	yratio mul
	/yrad exch def
	xratio mul
	/xrad exch def
	yratio mul
	/y exch def
	xratio mul
	/x exch def
	sfill 1 eq {
		Ssrgb setrgbcolor
		/savematrix matrix currentmatrix def
		x y translate
		xrad yrad scale
		0 0 1 0 360 arc
		savematrix setmatrix
		fill
	} if
	Slw setlinewidth
	Slrgb setrgbcolor
		/savematrix matrix currentmatrix def
		x y translate
		xrad yrad scale
		0 0 1 0 360 arc
		savematrix setmatrix
	stroke
} def
/Stri {
	/sfill exch def
	xratio mul
	/r exch def
	yratio mul
	/y0 exch def
	xratio mul
	/x0 exch def
	/xcen x0 def
	y0 r add
	/ytop exch def
	r 2 div
	y0 exch sub
	/ybot exch def
	r 3 sqrt 2 div mul dup
	xcen exch sub
	/xleft exch def
	xcen add
	/xright exch def
	sfill 1 eq {
		Ssrgb setrgbcolor
		xcen ytop moveto xright ybot lineto xleft ybot lineto xcen ytop lineto fill
	} if
	Slw setlinewidth
	Slrgb setrgbcolor
	xcen ytop moveto xright ybot lineto xleft ybot lineto xcen ytop lineto stroke
} def
/Soldtri {
	/sfill exch def
	xratio mul
	/r exch def
	yratio mul
	/y0 exch def
	xratio mul
	/x0 exch def
	x0 r sub
	/x1 exch def
	y0 r sub
	/y1 exch def
	x0 r add
	/x2 exch def
	y0 r sub
	/y2 exch def
	/x3 x0 def
	y0 r add
	/y3 exch def
	sfill 1 eq {
		Ssrgb setrgbcolor
		x1 y1 moveto x2 y2 lineto x3 y3 lineto x1 y1 lineto fill
	} if
	Slw setlinewidth
	Slrgb setrgbcolor
	x1 y1 moveto x2 y2 lineto x3 y3 lineto x1 y1 lineto stroke
} def
/Sdia {
	/sfill exch def
	xratio mul
	/r exch def
	yratio mul
	/y exch def
	xratio mul
	/x exch def
	x r sub
	/x0 exch def
	/y0 y def
	/x1 x def
	y r sub
	/y1 exch def
	x r add
	/x2 exch def
	/y2 y def
	/x3 x def
	y r add
	/y3 exch def
	sfill 1 eq  {
		Ssrgb setrgbcolor
		x0 y0 moveto x1 y1 lineto x2 y2 lineto x3 y3 lineto x0 y0 lineto fill
	} if
	Slw setlinewidth
	Slrgb setrgbcolor
	x0 y0 moveto x1 y1 lineto x2 y2 lineto x3 y3 lineto x0 y0 lineto stroke
} def
/Scc {
	/sfill exch def
	xratio mul
	/r0 exch def
	yratio mul
	/y0 exch def
	xratio mul
	/x0 exch def
	sfill 1 eq {
		Ssrgb setrgbcolor
		x0 y0 r0 0 360 arc fill
	} if
	Slw setlinewidth
	Slrgb setrgbcolor
	x0 y0 r0 0 360 arc stroke
} def
/Spie {
	/sfill exch def
	/a1 exch def
	/a0 exch def
	xratio mul
	/r exch def
	yratio mul
	/y exch def
	xratio mul
	/x exch def
	sfill 1 eq {
		Ssrgb setrgbcolor
		newpath x y moveto x y r a0 a1 arc closepath
		fill
	} if
	Slw setlinewidth
	Slrgb setrgbcolor
	newpath x y moveto x y r a0 a1 arc closepath
	stroke
} def
/Splu {
	xratio mul
	/r exch def
	yratio mul
	/y exch def
	xratio mul
	/x exch def
	x r sub
	/x0 exch def
	x r add
	/x1 exch def
	x0 y M x1 y L
	y r sub
	/y0 exch def
	y r add
	/y1 exch def
	x y0 M x y1 L
} def
/Scro {
	xratio mul
	/r exch def
	yratio mul
	/y exch def
	xratio mul
	/x exch def
	x r sub
	/x0 exch def
	y r sub
	/y0 exch def
	x r add
	/x1 exch def
	y r add
	/y1 exch def
	x0 y0 M x1 y1 L
	x r add
	/x0 exch def
	y r sub
	/y0 exch def
	x r sub
	/x1 exch def
	y r add
	/y1 exch def
	x0 y0 M x1 y1 L
} def
/Sm {
	yratio mul
	/y exch def
	xratio mul
	/x exch def
	x y M
} def
/Sl {
	yratio mul
	/y exch def
	xratio mul
	/x exch def
	x y L
} def
/SPl {
	yratio mul
	/y exch def
	xratio mul
	/x exch def
	x y PL
} def
/Lcs {
	currentlinecap
	1 setlinecap
} def
/Lcr {
	setlinecap
} def
/Sbp {
	newpath
} def
/Sep {
	/sfill exch def
	closepath
	sfill 1 eq  {
		Ssrgb setrgbcolor
		gsave
		fill
		grestore
	} if
	Slw setlinewidth
	Slrgb setrgbcolor
	Lcs
	stroke
	Lcr
} def
/cp {currentpoint} def 
/M {moveto} def 
/rm {rmoveto} def 
/S {stroke} def 
/L {Slw setlinewidth Slrgb setrgbcolor lineto Lcs S Lcr} def 
/PL {Slw setlinewidth Slrgb setrgbcolor lineto} def 
/MF-Helvetica {
  /newfontname exch def
  /fontname exch def
  /fontdict fontname findfont def
  /newfont fontdict maxlength dict def
  fontdict {
  exch dup /FID eq {pop pop} {exch newfont 3 1 roll put} ifelse
  } forall
  newfont /FontName newfontname put
  newfont /Encoding ISOLatin1Encoding put
  newfontname newfont definefont pop
} def
/Helvetica /Helvetica-0 MF-Helvetica
/Slw 0.120 def
0.918 0.949 0.953 setrgbcolor
0 0 396.000 288.000 Sbgfill
/Slrgb {1.000 1.000 1.000} def
/Strgb {1.000 1.000 1.000} def
/Ssrgb {1.000 1.000 1.000} def
/Ssrgb {0.918 0.949 0.953} def
/Slw 0.576 def
/Slrgb {0.918 0.949 0.953} def
0 0 31999 23272 1 Srect
/Ssrgb {1.000 1.000 1.000} def
/Slw 0.490 def
/Slrgb {1.000 1.000 1.000} def
3138 15616 16742 21185 1 Srect
/Slrgb {0.000 0.000 0.000} def
/Strgb {0.000 0.000 0.000} def
/Slw 0.734 def
/Slrgb {0.918 0.949 0.953} def
3138 16052 16742 16052 Sln
/Slw 0.490 def
/Slrgb {0.000 0.000 0.000} def
/Slw 0.734 def
/Slrgb {0.918 0.949 0.953} def
3138 17140 16742 17140 Sln
/Slw 0.490 def
/Slrgb {0.000 0.000 0.000} def
/Slw 0.734 def
/Slrgb {0.918 0.949 0.953} def
3138 18229 16742 18229 Sln
/Slw 0.490 def
/Slrgb {0.000 0.000 0.000} def
/Slw 0.734 def
/Slrgb {0.918 0.949 0.953} def
3138 19318 16742 19318 Sln
/Slw 0.490 def
/Slrgb {0.000 0.000 0.000} def
/Slw 0.734 def
/Slrgb {0.918 0.949 0.953} def
3138 20407 16742 20407 Sln
/Slw 0.490 def
/Slrgb {0.000 0.000 0.000} def
/Slrgb {1.000 1.000 1.000} def
17301 15616 30905 21185 1 Srect
/Slrgb {0.000 0.000 0.000} def
/Slw 0.734 def
/Slrgb {0.918 0.949 0.953} def
17301 16052 30905 16052 Sln
/Slw 0.490 def
/Slrgb {0.000 0.000 0.000} def
/Slw 0.734 def
/Slrgb {0.918 0.949 0.953} def
17301 17140 30905 17140 Sln
/Slw 0.490 def
/Slrgb {0.000 0.000 0.000} def
/Slw 0.734 def
/Slrgb {0.918 0.949 0.953} def
17301 18229 30905 18229 Sln
/Slw 0.490 def
/Slrgb {0.000 0.000 0.000} def
/Slw 0.734 def
/Slrgb {0.918 0.949 0.953} def
17301 19318 30905 19318 Sln
/Slw 0.490 def
/Slrgb {0.000 0.000 0.000} def
/Slw 0.734 def
/Slrgb {0.918 0.949 0.953} def
17301 20407 30905 20407 Sln
/Slw 0.490 def
/Slrgb {0.000 0.000 0.000} def
/Slrgb {1.000 1.000 1.000} def
3138 7260 16742 12829 1 Srect
/Slrgb {0.000 0.000 0.000} def
/Slw 0.734 def
/Slrgb {0.918 0.949 0.953} def
3138 7695 16742 7695 Sln
/Slw 0.490 def
/Slrgb {0.000 0.000 0.000} def
/Slw 0.734 def
/Slrgb {0.918 0.949 0.953} def
3138 8784 16742 8784 Sln
/Slw 0.490 def
/Slrgb {0.000 0.000 0.000} def
/Slw 0.734 def
/Slrgb {0.918 0.949 0.953} def
3138 9872 16742 9872 Sln
/Slw 0.490 def
/Slrgb {0.000 0.000 0.000} def
/Slw 0.734 def
/Slrgb {0.918 0.949 0.953} def
3138 10961 16742 10961 Sln
/Slw 0.490 def
/Slrgb {0.000 0.000 0.000} def
/Slw 0.734 def
/Slrgb {0.918 0.949 0.953} def
3138 12050 16742 12050 Sln
/Slw 0.490 def
/Slrgb {0.000 0.000 0.000} def
/Slw 0.734 def
/Slrgb {0.102 0.278 0.435} def
6799 16086 Sm
6819 16089 Sl
6819 16089 Sm
6839 16092 Sl
6839 16092 Sm
6859 16094 Sl
6859 16094 Sm
6879 16096 Sl
6879 16096 Sm
6899 16097 Sl
6899 16097 Sm
6919 16099 Sl
6919 16099 Sm
6939 16103 Sl
6939 16103 Sm
6959 16106 Sl
6959 16106 Sm
6979 16108 Sl
6979 16108 Sm
6998 16110 Sl
6998 16110 Sm
7018 16112 Sl
7018 16112 Sm
7038 16114 Sl
7038 16114 Sm
7058 16115 Sl
7058 16115 Sm
7078 16116 Sl
7078 16116 Sm
7098 16118 Sl
7098 16118 Sm
7118 16122 Sl
7118 16122 Sm
7138 16124 Sl
7138 16124 Sm
7158 16126 Sl
7158 16126 Sm
7178 16127 Sl
7178 16127 Sm
7198 16126 Sl
7198 16126 Sm
7218 16126 Sl
7218 16126 Sm
7238 16129 Sl
7238 16129 Sm
7258 16131 Sl
7258 16131 Sm
7278 16131 Sl
7278 16131 Sm
7297 16133 Sl
7297 16133 Sm
7317 16137 Sl
7317 16137 Sm
7337 16141 Sl
7337 16141 Sm
7357 16144 Sl
7357 16144 Sm
7377 16145 Sl
7377 16145 Sm
7397 16146 Sl
7397 16146 Sm
7417 16145 Sl
7417 16145 Sm
7437 16145 Sl
7437 16145 Sm
7457 16144 Sl
7457 16144 Sm
7477 16142 Sl
7477 16142 Sm
7497 16138 Sl
7497 16138 Sm
7517 16135 Sl
7517 16135 Sm
7537 16135 Sl
7537 16135 Sm
7557 16134 Sl
7557 16134 Sm
7576 16132 Sl
7576 16132 Sm
7596 16129 Sl
7596 16129 Sm
7616 16131 Sl
7616 16131 Sm
7636 16132 Sl
7636 16132 Sm
7656 16133 Sl
7656 16133 Sm
7676 16133 Sl
7676 16133 Sm
7696 16135 Sl
7696 16135 Sm
7716 16137 Sl
7716 16137 Sm
7736 16141 Sl
7736 16141 Sm
7756 16149 Sl
7756 16149 Sm
7776 16158 Sl
7776 16158 Sm
7796 16164 Sl
7796 16164 Sm
7816 16170 Sl
7816 16170 Sm
7836 16178 Sl
7836 16178 Sm
7855 16185 Sl
7855 16185 Sm
7875 16195 Sl
7875 16195 Sm
7895 16207 Sl
7895 16207 Sm
7915 16221 Sl
7915 16221 Sm
7935 16234 Sl
7935 16234 Sm
7955 16246 Sl
7955 16246 Sm
7975 16255 Sl
7975 16255 Sm
7995 16261 Sl
7995 16261 Sm
8015 16266 Sl
8015 16266 Sm
8035 16271 Sl
8035 16271 Sm
8055 16277 Sl
8055 16277 Sm
8075 16280 Sl
8075 16280 Sm
8095 16281 Sl
8095 16281 Sm
8115 16282 Sl
8115 16282 Sm
8135 16287 Sl
8135 16287 Sm
8154 16290 Sl
8154 16290 Sm
8174 16291 Sl
8174 16291 Sm
8194 16289 Sl
8194 16289 Sm
8214 16289 Sl
8214 16289 Sm
8234 16286 Sl
8234 16286 Sm
8254 16291 Sl
8254 16291 Sm
8274 16305 Sl
8274 16305 Sm
8294 16324 Sl
8294 16324 Sm
8314 16340 Sl
8314 16340 Sm
8334 16357 Sl
8334 16357 Sm
8354 16376 Sl
8354 16376 Sm
8374 16394 Sl
8374 16394 Sm
8394 16412 Sl
8394 16412 Sm
8414 16429 Sl
8414 16429 Sm
8433 16451 Sl
8433 16451 Sm
8453 16469 Sl
8453 16469 Sm
8473 16486 Sl
8473 16486 Sm
8493 16501 Sl
8493 16501 Sm
8513 16519 Sl
8513 16519 Sm
8533 16533 Sl
8533 16533 Sm
8553 16550 Sl
8553 16550 Sm
8573 16573 Sl
8573 16573 Sm
8593 16590 Sl
8593 16590 Sm
8613 16604 Sl
8613 16604 Sm
8633 16617 Sl
8633 16617 Sm
8653 16630 Sl
8653 16630 Sm
8673 16639 Sl
8673 16639 Sm
8693 16643 Sl
8693 16643 Sm
8712 16642 Sl
8712 16642 Sm
8732 16644 Sl
8732 16644 Sm
8752 16641 Sl
8752 16641 Sm
8772 16641 Sl
8772 16641 Sm
8792 16639 Sl
8792 16639 Sm
8812 16637 Sl
8812 16637 Sm
8832 16627 Sl
8832 16627 Sm
8852 16622 Sl
8852 16622 Sm
8872 16623 Sl
8872 16623 Sm
8892 16626 Sl
8892 16626 Sm
8912 16627 Sl
8912 16627 Sm
8932 16637 Sl
8932 16637 Sm
8952 16667 Sl
8952 16667 Sm
8972 16691 Sl
8972 16691 Sm
8992 16712 Sl
8992 16712 Sm
9011 16730 Sl
9011 16730 Sm
9031 16751 Sl
9031 16751 Sm
9051 16766 Sl
9051 16766 Sm
9071 16795 Sl
9071 16795 Sm
9091 16838 Sl
9091 16838 Sm
9111 16873 Sl
9111 16873 Sm
9131 16902 Sl
9131 16902 Sm
9151 16928 Sl
9151 16928 Sm
9171 16958 Sl
9171 16958 Sm
9191 16984 Sl
9191 16984 Sm
9211 17011 Sl
9211 17011 Sm
9231 17033 Sl
9231 17033 Sm
9251 17051 Sl
9251 17051 Sm
9271 17063 Sl
9271 17063 Sm
9290 17101 Sl
9290 17101 Sm
9310 17136 Sl
9310 17136 Sm
9330 17181 Sl
9330 17181 Sm
9350 17213 Sl
9350 17213 Sm
9370 17248 Sl
9370 17248 Sm
9390 17285 Sl
9390 17285 Sm
9410 17313 Sl
9410 17313 Sm
9430 17334 Sl
9430 17334 Sm
9450 17378 Sl
9450 17378 Sm
9470 17450 Sl
9470 17450 Sm
9490 17500 Sl
9490 17500 Sm
9510 17536 Sl
9510 17536 Sm
9530 17570 Sl
9530 17570 Sm
9550 17614 Sl
9550 17614 Sm
9569 17643 Sl
9569 17643 Sm
9589 17737 Sl
9589 17737 Sm
9609 17851 Sl
9609 17851 Sm
9629 17944 Sl
9629 17944 Sm
9649 18015 Sl
9649 18015 Sm
9669 18088 Sl
9669 18088 Sm
9689 18161 Sl
9689 18161 Sm
9709 18234 Sl
9709 18234 Sm
9729 18312 Sl
9729 18312 Sm
9749 18381 Sl
9749 18381 Sm
9769 18450 Sl
9769 18450 Sm
9789 18499 Sl
9789 18499 Sm
9809 18585 Sl
9809 18585 Sm
9829 18649 Sl
9829 18649 Sm
9848 18707 Sl
9848 18707 Sm
9868 18732 Sl
9868 18732 Sm
9888 18773 Sl
9888 18773 Sm
9908 18805 Sl
9908 18805 Sm
9928 18830 Sl
9928 18830 Sm
9948 18848 Sl
9948 18848 Sm
9968 18920 Sl
9968 18920 Sm
9988 19014 Sl
9988 19014 Sm
10008 19073 Sl
10008 19073 Sm
10028 19103 Sl
10028 19103 Sm
10048 19138 Sl
10048 19138 Sm
10068 19185 Sl
10068 19185 Sm
10088 19197 Sl
10088 19197 Sm
10108 19227 Sl
10108 19227 Sm
10128 19236 Sl
10128 19236 Sm
10147 19212 Sl
10147 19212 Sm
10167 19152 Sl
10167 19152 Sm
10187 19138 Sl
10187 19138 Sm
10207 19135 Sl
10207 19135 Sm
10227 19120 Sl
10227 19120 Sm
10247 19076 Sl
10247 19076 Sm
10267 19014 Sl
10267 19014 Sm
10287 18931 Sl
10287 18931 Sm
10307 18836 Sl
10307 18836 Sm
10327 18736 Sl
10327 18736 Sm
10347 18623 Sl
10347 18623 Sm
10367 18509 Sl
10367 18509 Sm
10387 18370 Sl
10387 18370 Sm
10407 18269 Sl
10407 18269 Sm
10426 18157 Sl
10426 18157 Sm
10446 18044 Sl
10446 18044 Sm
10466 17906 Sl
10466 17906 Sm
10486 17773 Sl
10486 17773 Sm
10506 17631 Sl
10506 17631 Sm
10526 17470 Sl
10526 17470 Sm
10546 17309 Sl
10546 17309 Sm
10566 17210 Sl
10566 17210 Sm
10586 17146 Sl
10586 17146 Sm
10606 17076 Sl
10606 17076 Sm
10626 17004 Sl
10626 17004 Sm
10646 16930 Sl
10646 16930 Sm
10666 16852 Sl
10666 16852 Sm
10686 16766 Sl
10686 16766 Sm
10705 16722 Sl
10705 16722 Sm
10725 16685 Sl
10725 16685 Sm
10745 16648 Sl
10745 16648 Sm
10765 16609 Sl
10765 16609 Sm
10785 16569 Sl
10785 16569 Sm
10805 16528 Sl
10805 16528 Sm
10825 16499 Sl
10825 16499 Sm
10845 16466 Sl
10845 16466 Sm
10865 16442 Sl
10865 16442 Sm
10885 16425 Sl
10885 16425 Sm
10905 16404 Sl
10905 16404 Sm
10925 16383 Sl
10925 16383 Sm
10945 16359 Sl
10945 16359 Sm
10965 16334 Sl
10965 16334 Sm
10985 16309 Sl
10985 16309 Sm
11004 16295 Sl
11004 16295 Sm
11024 16283 Sl
11024 16283 Sm
11044 16269 Sl
11044 16269 Sm
11064 16253 Sl
11064 16253 Sm
11084 16248 Sl
11084 16248 Sm
11104 16247 Sl
11104 16247 Sm
11124 16242 Sl
11124 16242 Sm
11144 16236 Sl
11144 16236 Sm
11164 16228 Sl
11164 16228 Sm
11184 16218 Sl
11184 16218 Sm
11204 16207 Sl
11204 16207 Sm
11224 16198 Sl
11224 16198 Sm
11244 16192 Sl
11244 16192 Sm
11264 16188 Sl
11264 16188 Sm
11283 16184 Sl
11283 16184 Sm
11303 16181 Sl
11303 16181 Sm
11323 16178 Sl
11323 16178 Sm
11343 16173 Sl
11343 16173 Sm
11363 16167 Sl
11363 16167 Sm
11383 16164 Sl
11383 16164 Sm
11403 16163 Sl
11403 16163 Sm
11423 16161 Sl
11423 16161 Sm
11443 16159 Sl
11443 16159 Sm
11463 16157 Sl
11463 16157 Sm
11483 16156 Sl
11483 16156 Sm
11503 16155 Sl
11503 16155 Sm
11523 16155 Sl
11523 16155 Sm
11543 16154 Sl
11543 16154 Sm
11562 16151 Sl
11562 16151 Sm
11582 16146 Sl
11582 16146 Sm
11602 16149 Sl
11602 16149 Sm
11622 16154 Sl
11622 16154 Sm
11642 16158 Sl
11642 16158 Sm
11662 16160 Sl
11662 16160 Sm
11682 16162 Sl
11682 16162 Sm
11702 16164 Sl
11702 16164 Sm
11722 16164 Sl
11722 16164 Sm
11742 16163 Sl
11742 16163 Sm
11762 16161 Sl
11762 16161 Sm
11782 16159 Sl
11782 16159 Sm
11802 16156 Sl
11802 16156 Sm
11822 16152 Sl
11822 16152 Sm
11842 16150 Sl
11842 16150 Sm
11861 16146 Sl
11861 16146 Sm
11881 16142 Sl
11881 16142 Sm
11901 16140 Sl
11901 16140 Sm
11921 16139 Sl
11921 16139 Sm
11941 16137 Sl
11941 16137 Sm
11961 16134 Sl
11961 16134 Sm
11981 16130 Sl
11981 16130 Sm
12001 16125 Sl
12001 16125 Sm
12021 16119 Sl
12021 16119 Sm
12041 16114 Sl
12041 16114 Sm
12061 16109 Sl
12061 16109 Sm
12081 16105 Sl
12081 16105 Sm
12101 16101 Sl
12101 16101 Sm
12121 16098 Sl
12121 16098 Sm
12140 16094 Sl
12140 16094 Sm
12160 16090 Sl
12160 16090 Sm
12180 16085 Sl
12180 16085 Sm
12200 16080 Sl
12200 16080 Sm
12220 16078 Sl
12220 16078 Sm
12240 16075 Sl
12240 16075 Sm
12260 16072 Sl
12260 16072 Sm
12280 16070 Sl
12280 16070 Sm
12300 16068 Sl
12300 16068 Sm
12320 16066 Sl
12320 16066 Sm
12340 16064 Sl
12340 16064 Sm
12360 16062 Sl
12360 16062 Sm
12380 16059 Sl
12380 16059 Sm
12400 16056 Sl
12400 16056 Sm
12419 16054 Sl
12419 16054 Sm
12439 16053 Sl
12439 16053 Sm
12459 16051 Sl
12459 16051 Sm
12479 16053 Sl
12479 16053 Sm
12499 16054 Sl
12499 16054 Sm
12519 16056 Sl
12519 16056 Sm
12539 16057 Sl
12539 16057 Sm
12559 16058 Sl
12559 16058 Sm
12579 16059 Sl
12579 16059 Sm
12599 16060 Sl
12599 16060 Sm
12619 16061 Sl
12619 16061 Sm
12639 16062 Sl
12639 16062 Sm
12659 16063 Sl
12659 16063 Sm
12679 16063 Sl
12679 16063 Sm
12699 16063 Sl
12699 16063 Sm
12718 16064 Sl
12718 16064 Sm
12738 16064 Sl
12738 16064 Sm
12758 16064 Sl
/Slrgb {0.565 0.208 0.231} def
3573 16058 Sm
3606 16058 Sl
3606 16058 Sm
3638 16057 Sl
3638 16057 Sm
3671 16056 Sl
3671 16056 Sm
3704 16055 Sl
3704 16055 Sm
3736 16053 Sl
3736 16053 Sm
3769 16051 Sl
3769 16051 Sm
3802 16051 Sl
3802 16051 Sm
3835 16051 Sl
3835 16051 Sm
3867 16051 Sl
3867 16051 Sm
3900 16051 Sl
3900 16051 Sm
3933 16051 Sl
3933 16051 Sm
3966 16051 Sl
3966 16051 Sm
3998 16051 Sl
3998 16051 Sm
4031 16051 Sl
4031 16051 Sm
4064 16051 Sl
4064 16051 Sm
4096 16051 Sl
4096 16051 Sm
4129 16051 Sl
4129 16051 Sm
4162 16051 Sl
4162 16051 Sm
4195 16051 Sl
4195 16051 Sm
4227 16051 Sl
4227 16051 Sm
4260 16051 Sl
4260 16051 Sm
4293 16051 Sl
4293 16051 Sm
4326 16051 Sl
4326 16051 Sm
4358 16051 Sl
4358 16051 Sm
4391 16051 Sl
4391 16051 Sm
4424 16051 Sl
4424 16051 Sm
4456 16051 Sl
4456 16051 Sm
4489 16051 Sl
4489 16051 Sm
4522 16051 Sl
4522 16051 Sm
4555 16051 Sl
4555 16051 Sm
4587 16051 Sl
4587 16051 Sm
4620 16051 Sl
4620 16051 Sm
4653 16051 Sl
4653 16051 Sm
4686 16051 Sl
4686 16051 Sm
4718 16051 Sl
4718 16051 Sm
4751 16051 Sl
4751 16051 Sm
4784 16051 Sl
4784 16051 Sm
4816 16051 Sl
4816 16051 Sm
4849 16051 Sl
4849 16051 Sm
4882 16051 Sl
4882 16051 Sm
4915 16051 Sl
4915 16051 Sm
4947 16051 Sl
4947 16051 Sm
4980 16051 Sl
4980 16051 Sm
5013 16051 Sl
5013 16051 Sm
5046 16051 Sl
5046 16051 Sm
5078 16051 Sl
5078 16051 Sm
5111 16051 Sl
5111 16051 Sm
5144 16051 Sl
5144 16051 Sm
5176 16051 Sl
5176 16051 Sm
5209 16051 Sl
5209 16051 Sm
5242 16051 Sl
5242 16051 Sm
5275 16051 Sl
5275 16051 Sm
5307 16051 Sl
5307 16051 Sm
5340 16051 Sl
5340 16051 Sm
5373 16051 Sl
5373 16051 Sm
5406 16051 Sl
5406 16051 Sm
5438 16051 Sl
5438 16051 Sm
5471 16051 Sl
5471 16051 Sm
5504 16051 Sl
5504 16051 Sm
5536 16051 Sl
5536 16051 Sm
5569 16051 Sl
5569 16051 Sm
5602 16051 Sl
5602 16051 Sm
5635 16051 Sl
5635 16051 Sm
5667 16051 Sl
5667 16051 Sm
5700 16051 Sl
5700 16051 Sm
5733 16051 Sl
5733 16051 Sm
5766 16051 Sl
5766 16051 Sm
5798 16051 Sl
5798 16051 Sm
5831 16051 Sl
5831 16051 Sm
5864 16051 Sl
5864 16051 Sm
5896 16051 Sl
5896 16051 Sm
5929 16051 Sl
5929 16051 Sm
5962 16051 Sl
5962 16051 Sm
5995 16052 Sl
5995 16052 Sm
6027 16056 Sl
6027 16056 Sm
6060 16059 Sl
6060 16059 Sm
6093 16062 Sl
6093 16062 Sm
6126 16063 Sl
6126 16063 Sm
6158 16064 Sl
6158 16064 Sm
6191 16065 Sl
6191 16065 Sm
6224 16064 Sl
6224 16064 Sm
6256 16062 Sl
6256 16062 Sm
6289 16060 Sl
6289 16060 Sm
6322 16057 Sl
6322 16057 Sm
6355 16053 Sl
6355 16053 Sm
6387 16052 Sl
6387 16052 Sm
6420 16054 Sl
6420 16054 Sm
6453 16057 Sl
6453 16057 Sm
6486 16060 Sl
6486 16060 Sm
6518 16063 Sl
6518 16063 Sm
6551 16067 Sl
6551 16067 Sm
6584 16069 Sl
6584 16069 Sm
6616 16070 Sl
6616 16070 Sm
6649 16071 Sl
6649 16071 Sm
6682 16073 Sl
6682 16073 Sm
6715 16074 Sl
6715 16074 Sm
6747 16075 Sl
6747 16075 Sm
6780 16075 Sl
6780 16075 Sm
6813 16074 Sl
6813 16074 Sm
6846 16073 Sl
6846 16073 Sm
6878 16073 Sl
6878 16073 Sm
6911 16072 Sl
6911 16072 Sm
6944 16071 Sl
6944 16071 Sm
6976 16071 Sl
6976 16071 Sm
7009 16068 Sl
7009 16068 Sm
7042 16068 Sl
7042 16068 Sm
7075 16068 Sl
7075 16068 Sm
7107 16069 Sl
7107 16069 Sm
7140 16069 Sl
7140 16069 Sm
7173 16069 Sl
7173 16069 Sm
7206 16070 Sl
7206 16070 Sm
7238 16070 Sl
7238 16070 Sm
7271 16071 Sl
7271 16071 Sm
7304 16070 Sl
7304 16070 Sm
7336 16069 Sl
7336 16069 Sm
7369 16070 Sl
7369 16070 Sm
7402 16070 Sl
7402 16070 Sm
7435 16071 Sl
7435 16071 Sm
7467 16071 Sl
7467 16071 Sm
7500 16070 Sl
7500 16070 Sm
7533 16067 Sl
7533 16067 Sm
7566 16064 Sl
7566 16064 Sm
7598 16065 Sl
7598 16065 Sm
7631 16065 Sl
7631 16065 Sm
7664 16066 Sl
7664 16066 Sm
7696 16067 Sl
7696 16067 Sm
7729 16069 Sl
7729 16069 Sm
7762 16069 Sl
7762 16069 Sm
7795 16070 Sl
7795 16070 Sm
7827 16070 Sl
7827 16070 Sm
7860 16082 Sl
7860 16082 Sm
7893 16094 Sl
7893 16094 Sm
7926 16102 Sl
7926 16102 Sm
7958 16106 Sl
7958 16106 Sm
7991 16109 Sl
7991 16109 Sm
8024 16114 Sl
8024 16114 Sm
8056 16120 Sl
8056 16120 Sm
8089 16123 Sl
8089 16123 Sm
8122 16121 Sl
8122 16121 Sm
8155 16120 Sl
8155 16120 Sm
8187 16117 Sl
8187 16117 Sm
8220 16110 Sl
8220 16110 Sm
8253 16125 Sl
8253 16125 Sm
8286 16134 Sl
8286 16134 Sm
8318 16136 Sl
8318 16136 Sm
8351 16132 Sl
8351 16132 Sm
8384 16152 Sl
8384 16152 Sm
8417 16171 Sl
8417 16171 Sm
8449 16181 Sl
8449 16181 Sm
8482 16181 Sl
8482 16181 Sm
8515 16174 Sl
8515 16174 Sm
8547 16171 Sl
8547 16171 Sm
8580 16163 Sl
8580 16163 Sm
8613 16157 Sl
8613 16157 Sm
8646 16153 Sl
8646 16153 Sm
8678 16174 Sl
8678 16174 Sm
8711 16194 Sl
8711 16194 Sm
8744 16212 Sl
8744 16212 Sm
8777 16245 Sl
8777 16245 Sm
8809 16266 Sl
8809 16266 Sm
8842 16277 Sl
8842 16277 Sm
8875 16281 Sl
8875 16281 Sm
8907 16298 Sl
8907 16298 Sm
8940 16304 Sl
8940 16304 Sm
8973 16293 Sl
8973 16293 Sm
9006 16267 Sl
9006 16267 Sm
9038 16236 Sl
9038 16236 Sm
9071 16262 Sl
9071 16262 Sm
9104 16279 Sl
9104 16279 Sm
9137 16283 Sl
9137 16283 Sm
9169 16275 Sl
9169 16275 Sm
9202 16287 Sl
9202 16287 Sm
9235 16287 Sl
9235 16287 Sm
9267 16294 Sl
9267 16294 Sm
9300 16312 Sl
9300 16312 Sm
9333 16323 Sl
9333 16323 Sm
9366 16329 Sl
9366 16329 Sm
9398 16340 Sl
9398 16340 Sm
9431 16375 Sl
9431 16375 Sm
9464 16410 Sl
9464 16410 Sm
9497 16425 Sl
9497 16425 Sm
9529 16415 Sl
9529 16415 Sm
9562 16433 Sl
9562 16433 Sm
9595 16501 Sl
9595 16501 Sm
9627 16547 Sl
9627 16547 Sm
9660 16570 Sl
9660 16570 Sm
9693 16611 Sl
9693 16611 Sm
9726 16717 Sl
9726 16717 Sm
9758 16791 Sl
9758 16791 Sm
9791 16865 Sl
9791 16865 Sm
9824 16952 Sl
9824 16952 Sm
9857 17021 Sl
9857 17021 Sm
9889 17077 Sl
9889 17077 Sm
9922 17145 Sl
9922 17145 Sm
9955 17239 Sl
9955 17239 Sm
9987 17286 Sl
9987 17286 Sm
10020 17337 Sl
10020 17337 Sm
10053 17313 Sl
10053 17313 Sm
10086 17509 Sl
10086 17509 Sm
10118 17765 Sl
10118 17765 Sm
10151 17962 Sl
10151 17962 Sm
10184 18082 Sl
10184 18082 Sm
10217 18274 Sl
10217 18274 Sm
10249 18510 Sl
10249 18510 Sm
10282 18688 Sl
10282 18688 Sm
10315 18837 Sl
10315 18837 Sm
10347 18992 Sl
10347 18992 Sm
10380 19089 Sl
10380 19089 Sm
10413 19158 Sl
10413 19158 Sm
10446 19228 Sl
10446 19228 Sm
10478 19434 Sl
10478 19434 Sm
10511 19549 Sl
10511 19549 Sm
10544 19580 Sl
10544 19580 Sm
10577 19413 Sl
10577 19413 Sm
10609 19532 Sl
10609 19532 Sm
10642 19570 Sl
10642 19570 Sm
10675 19499 Sl
10675 19499 Sm
10707 19330 Sl
10707 19330 Sm
10740 19116 Sl
10740 19116 Sm
10773 19030 Sl
10773 19030 Sm
10806 18907 Sl
10806 18907 Sm
10838 18786 Sl
10838 18786 Sm
10871 18576 Sl
10871 18576 Sm
10904 18438 Sl
10904 18438 Sm
10937 18238 Sl
10937 18238 Sm
10969 17993 Sl
10969 17993 Sm
11002 17876 Sl
11002 17876 Sm
11035 17739 Sl
11035 17739 Sm
11067 17571 Sl
11067 17571 Sm
11100 17378 Sl
11100 17378 Sm
11133 17258 Sl
11133 17258 Sm
11166 17198 Sl
11166 17198 Sm
11198 17101 Sl
11198 17101 Sm
11231 16976 Sl
11231 16976 Sm
11264 16829 Sl
11264 16829 Sm
11297 16865 Sl
11297 16865 Sm
11329 16862 Sl
11329 16862 Sm
11362 16845 Sl
11362 16845 Sm
11395 16815 Sl
11395 16815 Sm
11427 16795 Sl
11427 16795 Sm
11460 16740 Sl
11460 16740 Sm
11493 16699 Sl
11493 16699 Sm
11526 16670 Sl
11526 16670 Sm
11558 16610 Sl
11558 16610 Sm
11591 16560 Sl
11591 16560 Sm
11624 16484 Sl
11624 16484 Sm
11657 16426 Sl
11657 16426 Sm
11689 16407 Sl
11689 16407 Sm
11722 16382 Sl
11722 16382 Sm
11755 16354 Sl
11755 16354 Sm
11787 16319 Sl
11787 16319 Sm
11820 16293 Sl
11820 16293 Sm
11853 16263 Sl
11853 16263 Sm
11886 16230 Sl
11886 16230 Sm
11918 16196 Sl
11918 16196 Sm
11951 16161 Sl
11951 16161 Sm
11984 16146 Sl
11984 16146 Sm
12017 16137 Sl
12017 16137 Sm
12049 16127 Sl
12049 16127 Sm
12082 16119 Sl
12082 16119 Sm
12115 16125 Sl
12115 16125 Sm
12147 16125 Sl
12147 16125 Sm
12180 16128 Sl
12180 16128 Sm
12213 16133 Sl
12213 16133 Sm
12246 16135 Sl
12246 16135 Sm
12278 16131 Sl
12278 16131 Sm
12311 16124 Sl
12311 16124 Sm
12344 16115 Sl
12344 16115 Sm
12377 16106 Sl
12377 16106 Sm
12409 16095 Sl
12409 16095 Sm
12442 16087 Sl
12442 16087 Sm
12475 16083 Sl
12475 16083 Sm
12507 16081 Sl
12507 16081 Sm
12540 16079 Sl
12540 16079 Sm
12573 16076 Sl
12573 16076 Sm
12606 16075 Sl
12606 16075 Sm
12638 16073 Sl
12638 16073 Sm
12671 16071 Sl
12671 16071 Sm
12704 16070 Sl
12704 16070 Sm
12737 16068 Sl
12737 16068 Sm
12769 16065 Sl
12769 16065 Sm
12802 16061 Sl
12802 16061 Sm
12835 16060 Sl
12835 16060 Sm
12867 16062 Sl
12867 16062 Sm
12900 16063 Sl
12900 16063 Sm
12933 16063 Sl
12933 16063 Sm
12966 16062 Sl
12966 16062 Sm
12998 16060 Sl
12998 16060 Sm
13031 16058 Sl
13031 16058 Sm
13064 16057 Sl
13064 16057 Sm
13097 16056 Sl
13097 16056 Sm
13129 16054 Sl
13129 16054 Sm
13162 16052 Sl
13162 16052 Sm
13195 16053 Sl
13195 16053 Sm
13227 16055 Sl
13227 16055 Sm
13260 16056 Sl
13260 16056 Sm
13293 16057 Sl
13293 16057 Sm
13326 16058 Sl
13326 16058 Sm
13358 16058 Sl
/Slrgb {0.333 0.459 0.184} def
7111 16069 Sm
7132 16070 Sl
7132 16070 Sm
7152 16071 Sl
7152 16071 Sm
7172 16072 Sl
7172 16072 Sm
7192 16072 Sl
7192 16072 Sm
7213 16073 Sl
7213 16073 Sm
7233 16073 Sl
7233 16073 Sm
7253 16073 Sl
7253 16073 Sm
7273 16073 Sl
7273 16073 Sm
7294 16072 Sl
7294 16072 Sm
7314 16072 Sl
7314 16072 Sm
7334 16071 Sl
7334 16071 Sm
7354 16070 Sl
7354 16070 Sm
7374 16069 Sl
7374 16069 Sm
7395 16067 Sl
7395 16067 Sm
7415 16066 Sl
7415 16066 Sm
7435 16064 Sl
7435 16064 Sm
7455 16063 Sl
7455 16063 Sm
7476 16063 Sl
7476 16063 Sm
7496 16062 Sl
7496 16062 Sm
7516 16062 Sl
7516 16062 Sm
7536 16061 Sl
7536 16061 Sm
7557 16062 Sl
7557 16062 Sm
7577 16062 Sl
7577 16062 Sm
7597 16063 Sl
7597 16063 Sm
7617 16063 Sl
7617 16063 Sm
7638 16063 Sl
7638 16063 Sm
7658 16062 Sl
7658 16062 Sm
7678 16062 Sl
7678 16062 Sm
7698 16061 Sl
7698 16061 Sm
7719 16066 Sl
7719 16066 Sm
7739 16071 Sl
7739 16071 Sm
7759 16076 Sl
7759 16076 Sm
7779 16080 Sl
7779 16080 Sm
7800 16084 Sl
7800 16084 Sm
7820 16087 Sl
7820 16087 Sm
7840 16090 Sl
7840 16090 Sm
7860 16093 Sl
7860 16093 Sm
7880 16095 Sl
7880 16095 Sm
7901 16097 Sl
7901 16097 Sm
7921 16099 Sl
7921 16099 Sm
7941 16100 Sl
7941 16100 Sm
7961 16100 Sl
7961 16100 Sm
7982 16101 Sl
7982 16101 Sm
8002 16101 Sl
8002 16101 Sm
8022 16102 Sl
8022 16102 Sm
8042 16102 Sl
8042 16102 Sm
8063 16102 Sl
8063 16102 Sm
8083 16102 Sl
8083 16102 Sm
8103 16103 Sl
8103 16103 Sm
8123 16103 Sl
8123 16103 Sm
8144 16102 Sl
8144 16102 Sm
8164 16101 Sl
8164 16101 Sm
8184 16099 Sl
8184 16099 Sm
8204 16098 Sl
8204 16098 Sm
8225 16098 Sl
8225 16098 Sm
8245 16099 Sl
8245 16099 Sm
8265 16100 Sl
8265 16100 Sm
8285 16100 Sl
8285 16100 Sm
8306 16099 Sl
8306 16099 Sm
8326 16098 Sl
8326 16098 Sm
8346 16097 Sl
8346 16097 Sm
8366 16099 Sl
8366 16099 Sm
8387 16104 Sl
8387 16104 Sm
8407 16107 Sl
8407 16107 Sm
8427 16111 Sl
8427 16111 Sm
8447 16113 Sl
8447 16113 Sm
8467 16115 Sl
8467 16115 Sm
8488 16117 Sl
8488 16117 Sm
8508 16117 Sl
8508 16117 Sm
8528 16121 Sl
8528 16121 Sm
8548 16127 Sl
8548 16127 Sm
8569 16132 Sl
8569 16132 Sm
8589 16139 Sl
8589 16139 Sm
8609 16146 Sl
8609 16146 Sm
8629 16151 Sl
8629 16151 Sm
8650 16157 Sl
8650 16157 Sm
8670 16163 Sl
8670 16163 Sm
8690 16168 Sl
8690 16168 Sm
8710 16172 Sl
8710 16172 Sm
8731 16175 Sl
8731 16175 Sm
8751 16190 Sl
8751 16190 Sm
8771 16204 Sl
8771 16204 Sm
8791 16217 Sl
8791 16217 Sm
8812 16227 Sl
8812 16227 Sm
8832 16236 Sl
8832 16236 Sm
8852 16242 Sl
8852 16242 Sm
8872 16248 Sl
8872 16248 Sm
8893 16257 Sl
8893 16257 Sm
8913 16281 Sl
8913 16281 Sm
8933 16308 Sl
8933 16308 Sm
8953 16333 Sl
8953 16333 Sm
8973 16354 Sl
8973 16354 Sm
8994 16372 Sl
8994 16372 Sm
9014 16388 Sl
9014 16388 Sm
9034 16404 Sl
9034 16404 Sm
9054 16433 Sl
9054 16433 Sm
9075 16457 Sl
9075 16457 Sm
9095 16476 Sl
9095 16476 Sm
9115 16492 Sl
9115 16492 Sm
9135 16505 Sl
9135 16505 Sm
9156 16515 Sl
9156 16515 Sm
9176 16523 Sl
9176 16523 Sm
9196 16531 Sl
9196 16531 Sm
9216 16537 Sl
9216 16537 Sm
9237 16541 Sl
9237 16541 Sm
9257 16554 Sl
9257 16554 Sm
9277 16573 Sl
9277 16573 Sm
9297 16590 Sl
9297 16590 Sm
9318 16603 Sl
9318 16603 Sm
9338 16612 Sl
9338 16612 Sm
9358 16618 Sl
9358 16618 Sm
9378 16618 Sl
9378 16618 Sm
9399 16623 Sl
9399 16623 Sm
9419 16643 Sl
9419 16643 Sm
9439 16685 Sl
9439 16685 Sm
9459 16717 Sl
9459 16717 Sm
9480 16742 Sl
9480 16742 Sm
9500 16763 Sl
9500 16763 Sm
9520 16777 Sl
9520 16777 Sm
9540 16787 Sl
9540 16787 Sm
9560 16821 Sl
9560 16821 Sm
9581 16872 Sl
9581 16872 Sm
9601 16917 Sl
9601 16917 Sm
9621 16955 Sl
9621 16955 Sm
9641 16985 Sl
9641 16985 Sm
9662 17005 Sl
9662 17005 Sm
9682 17022 Sl
9682 17022 Sm
9702 17045 Sl
9702 17045 Sm
9722 17077 Sl
9722 17077 Sm
9743 17115 Sl
9743 17115 Sm
9763 17146 Sl
9763 17146 Sm
9783 17193 Sl
9783 17193 Sm
9803 17230 Sl
9803 17230 Sm
9824 17260 Sl
9824 17260 Sm
9844 17278 Sl
9844 17278 Sm
9864 17291 Sl
9864 17291 Sm
9884 17294 Sl
9884 17294 Sm
9905 17289 Sl
9905 17289 Sm
9925 17291 Sl
9925 17291 Sm
9945 17413 Sl
9945 17413 Sm
9965 17532 Sl
9965 17532 Sm
9986 17636 Sl
9986 17636 Sm
10006 17724 Sl
10006 17724 Sm
10026 17795 Sl
10026 17795 Sm
10046 17850 Sl
10046 17850 Sm
10066 17893 Sl
10066 17893 Sm
10087 17984 Sl
10087 17984 Sm
10107 18074 Sl
10107 18074 Sm
10127 18152 Sl
10127 18152 Sm
10147 18212 Sl
10147 18212 Sm
10168 18253 Sl
10168 18253 Sm
10188 18289 Sl
10188 18289 Sm
10208 18326 Sl
10208 18326 Sm
10228 18368 Sl
10228 18368 Sm
10249 18462 Sl
10249 18462 Sm
10269 18532 Sl
10269 18532 Sm
10289 18591 Sl
10289 18591 Sm
10309 18634 Sl
10309 18634 Sm
10330 18657 Sl
10330 18657 Sm
10350 18663 Sl
10350 18663 Sm
10370 18662 Sl
10370 18662 Sm
10390 18676 Sl
10390 18676 Sm
10411 18665 Sl
10411 18665 Sm
10431 18649 Sl
10431 18649 Sm
10451 18652 Sl
10451 18652 Sm
10471 18678 Sl
10471 18678 Sm
10492 18680 Sl
10492 18680 Sm
10512 18656 Sl
10512 18656 Sm
10532 18611 Sl
10532 18611 Sm
10552 18547 Sl
10552 18547 Sm
10573 18453 Sl
10573 18453 Sm
10593 18417 Sl
10593 18417 Sm
10613 18443 Sl
10613 18443 Sm
10633 18479 Sl
10633 18479 Sm
10653 18492 Sl
10653 18492 Sm
10674 18485 Sl
10674 18485 Sm
10694 18455 Sl
10694 18455 Sm
10714 18401 Sl
10714 18401 Sm
10734 18352 Sl
10734 18352 Sm
10755 18318 Sl
10755 18318 Sm
10775 18300 Sl
10775 18300 Sm
10795 18261 Sl
10795 18261 Sm
10815 18198 Sl
10815 18198 Sm
10836 18117 Sl
10836 18117 Sm
10856 18042 Sl
10856 18042 Sm
10876 17956 Sl
10876 17956 Sm
10896 17898 Sl
10896 17898 Sm
10917 17849 Sl
10917 17849 Sm
10937 17788 Sl
10937 17788 Sm
10957 17726 Sl
10957 17726 Sm
10977 17683 Sl
10977 17683 Sm
10998 17626 Sl
10998 17626 Sm
11018 17565 Sl
11018 17565 Sm
11038 17509 Sl
11038 17509 Sm
11058 17442 Sl
11058 17442 Sm
11079 17362 Sl
11079 17362 Sm
11099 17271 Sl
11099 17271 Sm
11119 17244 Sl
11119 17244 Sm
11139 17233 Sl
11139 17233 Sm
11159 17219 Sl
11159 17219 Sm
11180 17196 Sl
11180 17196 Sm
11200 17170 Sl
11200 17170 Sm
11220 17137 Sl
11220 17137 Sm
11240 17096 Sl
11240 17096 Sm
11261 17055 Sl
11261 17055 Sm
11281 17052 Sl
11281 17052 Sm
11301 17046 Sl
11301 17046 Sm
11321 17029 Sl
11321 17029 Sm
11342 17004 Sl
11342 17004 Sm
11362 16970 Sl
11362 16970 Sm
11382 16928 Sl
11382 16928 Sm
11402 16885 Sl
11402 16885 Sm
11423 16873 Sl
11423 16873 Sm
11443 16858 Sl
11443 16858 Sm
11463 16836 Sl
11463 16836 Sm
11483 16808 Sl
11483 16808 Sm
11504 16776 Sl
11504 16776 Sm
11524 16745 Sl
11524 16745 Sm
11544 16715 Sl
11544 16715 Sm
11564 16680 Sl
11564 16680 Sm
11585 16642 Sl
11585 16642 Sm
11605 16598 Sl
11605 16598 Sm
11625 16569 Sl
11625 16569 Sm
11645 16555 Sl
11645 16555 Sm
11665 16544 Sl
11665 16544 Sm
11686 16529 Sl
11686 16529 Sm
11706 16512 Sl
11706 16512 Sm
11726 16496 Sl
11726 16496 Sm
11746 16475 Sl
11746 16475 Sm
11767 16448 Sl
11767 16448 Sm
11787 16429 Sl
11787 16429 Sm
11807 16425 Sl
11807 16425 Sm
11827 16420 Sl
11827 16420 Sm
11848 16411 Sl
11848 16411 Sm
11868 16402 Sl
11868 16402 Sm
11888 16389 Sl
11888 16389 Sm
11908 16374 Sl
11908 16374 Sm
11929 16366 Sl
11929 16366 Sm
11949 16363 Sl
11949 16363 Sm
11969 16362 Sl
11969 16362 Sm
11989 16357 Sl
11989 16357 Sm
12010 16351 Sl
12010 16351 Sm
12030 16344 Sl
12030 16344 Sm
12050 16336 Sl
12050 16336 Sm
12070 16326 Sl
12070 16326 Sm
12091 16318 Sl
12091 16318 Sm
12111 16310 Sl
12111 16310 Sm
12131 16299 Sl
12131 16299 Sm
12151 16287 Sl
12151 16287 Sm
12172 16274 Sl
12172 16274 Sm
12192 16259 Sl
12192 16259 Sm
12212 16241 Sl
12212 16241 Sm
12232 16226 Sl
12232 16226 Sm
12252 16212 Sl
12252 16212 Sm
12273 16195 Sl
12273 16195 Sm
12293 16178 Sl
12293 16178 Sm
12313 16172 Sl
12313 16172 Sm
12333 16167 Sl
12333 16167 Sm
12354 16164 Sl
12354 16164 Sm
12374 16160 Sl
12374 16160 Sm
12394 16157 Sl
12394 16157 Sm
12414 16153 Sl
12414 16153 Sm
12435 16148 Sl
12435 16148 Sm
12455 16141 Sl
12455 16141 Sm
12475 16136 Sl
12475 16136 Sm
12495 16130 Sl
12495 16130 Sm
12516 16124 Sl
12516 16124 Sm
12536 16116 Sl
12536 16116 Sm
12556 16109 Sl
12556 16109 Sm
12576 16101 Sl
12576 16101 Sm
12597 16093 Sl
12597 16093 Sm
12617 16092 Sl
12617 16092 Sm
12637 16090 Sl
12637 16090 Sm
12657 16089 Sl
12657 16089 Sm
12678 16089 Sl
12678 16089 Sm
12698 16090 Sl
12698 16090 Sm
12718 16090 Sl
12718 16090 Sm
12738 16090 Sl
12738 16090 Sm
12758 16089 Sl
12758 16089 Sm
12779 16088 Sl
12779 16088 Sm
12799 16086 Sl
12799 16086 Sm
12819 16085 Sl
12819 16085 Sm
12839 16083 Sl
12839 16083 Sm
12860 16082 Sl
12860 16082 Sm
12880 16080 Sl
12880 16080 Sm
12900 16078 Sl
12900 16078 Sm
12920 16077 Sl
12920 16077 Sm
12941 16076 Sl
12941 16076 Sm
12961 16074 Sl
12961 16074 Sm
12981 16073 Sl
12981 16073 Sm
13001 16074 Sl
13001 16074 Sm
13022 16075 Sl
13022 16075 Sm
13042 16075 Sl
13042 16075 Sm
13062 16075 Sl
13062 16075 Sm
13082 16075 Sl
13082 16075 Sm
13103 16075 Sl
13103 16075 Sm
13123 16075 Sl
13123 16075 Sm
13143 16074 Sl
13143 16074 Sm
13163 16074 Sl
/Slrgb {0.102 0.278 0.435} def
18632 16136 Sm
18667 16133 Sl
18667 16133 Sm
18703 16124 Sl
18703 16124 Sm
18738 16108 Sl
18738 16108 Sm
18774 16087 Sl
18774 16087 Sm
18809 16059 Sl
18809 16059 Sm
18845 16051 Sl
18845 16051 Sm
18880 16051 Sl
18880 16051 Sm
18916 16051 Sl
18916 16051 Sm
18951 16051 Sl
18951 16051 Sm
18987 16051 Sl
18987 16051 Sm
19022 16051 Sl
19022 16051 Sm
19058 16051 Sl
19058 16051 Sm
19093 16051 Sl
19093 16051 Sm
19129 16051 Sl
19129 16051 Sm
19164 16051 Sl
19164 16051 Sm
19200 16051 Sl
19200 16051 Sm
19236 16051 Sl
19236 16051 Sm
19271 16051 Sl
19271 16051 Sm
19307 16051 Sl
19307 16051 Sm
19342 16051 Sl
19342 16051 Sm
19378 16051 Sl
19378 16051 Sm
19413 16051 Sl
19413 16051 Sm
19449 16051 Sl
19449 16051 Sm
19484 16051 Sl
19484 16051 Sm
19520 16051 Sl
19520 16051 Sm
19555 16051 Sl
19555 16051 Sm
19591 16051 Sl
19591 16051 Sm
19626 16051 Sl
19626 16051 Sm
19662 16051 Sl
19662 16051 Sm
19697 16051 Sl
19697 16051 Sm
19733 16051 Sl
19733 16051 Sm
19768 16051 Sl
19768 16051 Sm
19804 16051 Sl
19804 16051 Sm
19839 16051 Sl
19839 16051 Sm
19875 16051 Sl
19875 16051 Sm
19910 16051 Sl
19910 16051 Sm
19946 16051 Sl
19946 16051 Sm
19981 16051 Sl
19981 16051 Sm
20017 16051 Sl
20017 16051 Sm
20053 16051 Sl
20053 16051 Sm
20088 16051 Sl
20088 16051 Sm
20124 16051 Sl
20124 16051 Sm
20159 16051 Sl
20159 16051 Sm
20195 16051 Sl
20195 16051 Sm
20230 16051 Sl
20230 16051 Sm
20266 16051 Sl
20266 16051 Sm
20301 16051 Sl
20301 16051 Sm
20337 16051 Sl
20337 16051 Sm
20372 16051 Sl
20372 16051 Sm
20408 16051 Sl
20408 16051 Sm
20443 16051 Sl
20443 16051 Sm
20479 16051 Sl
20479 16051 Sm
20514 16051 Sl
20514 16051 Sm
20550 16051 Sl
20550 16051 Sm
20585 16051 Sl
20585 16051 Sm
20621 16051 Sl
20621 16051 Sm
20656 16051 Sl
20656 16051 Sm
20692 16051 Sl
20692 16051 Sm
20727 16051 Sl
20727 16051 Sm
20763 16051 Sl
20763 16051 Sm
20799 16051 Sl
20799 16051 Sm
20834 16051 Sl
20834 16051 Sm
20870 16051 Sl
20870 16051 Sm
20905 16051 Sl
20905 16051 Sm
20941 16051 Sl
20941 16051 Sm
20976 16051 Sl
20976 16051 Sm
21012 16051 Sl
21012 16051 Sm
21047 16051 Sl
21047 16051 Sm
21083 16051 Sl
21083 16051 Sm
21118 16051 Sl
21118 16051 Sm
21154 16051 Sl
21154 16051 Sm
21189 16051 Sl
21189 16051 Sm
21225 16052 Sl
21225 16052 Sm
21260 16058 Sl
21260 16058 Sm
21296 16062 Sl
21296 16062 Sm
21331 16065 Sl
21331 16065 Sm
21367 16067 Sl
21367 16067 Sm
21402 16068 Sl
21402 16068 Sm
21438 16067 Sl
21438 16067 Sm
21473 16066 Sl
21473 16066 Sm
21509 16068 Sl
21509 16068 Sm
21544 16068 Sl
21544 16068 Sm
21580 16067 Sl
21580 16067 Sm
21616 16067 Sl
21616 16067 Sm
21651 16068 Sl
21651 16068 Sm
21687 16068 Sl
21687 16068 Sm
21722 16066 Sl
21722 16066 Sm
21758 16068 Sl
21758 16068 Sm
21793 16069 Sl
21793 16069 Sm
21829 16068 Sl
21829 16068 Sm
21864 16066 Sl
21864 16066 Sm
21900 16073 Sl
21900 16073 Sm
21935 16079 Sl
21935 16079 Sm
21971 16087 Sl
21971 16087 Sm
22006 16091 Sl
22006 16091 Sm
22042 16096 Sl
22042 16096 Sm
22077 16110 Sl
22077 16110 Sm
22113 16122 Sl
22113 16122 Sm
22148 16133 Sl
22148 16133 Sm
22184 16139 Sl
22184 16139 Sm
22219 16141 Sl
22219 16141 Sm
22255 16139 Sl
22255 16139 Sm
22290 16142 Sl
22290 16142 Sm
22326 16149 Sl
22326 16149 Sm
22362 16150 Sl
22362 16150 Sm
22397 16152 Sl
22397 16152 Sm
22433 16173 Sl
22433 16173 Sm
22468 16188 Sl
22468 16188 Sm
22504 16194 Sl
22504 16194 Sm
22539 16192 Sl
22539 16192 Sm
22575 16198 Sl
22575 16198 Sm
22610 16195 Sl
22610 16195 Sm
22646 16186 Sl
22646 16186 Sm
22681 16169 Sl
22681 16169 Sm
22717 16162 Sl
22717 16162 Sm
22752 16142 Sl
22752 16142 Sm
22788 16139 Sl
22788 16139 Sm
22823 16145 Sl
22823 16145 Sm
22859 16159 Sl
22859 16159 Sm
22894 16171 Sl
22894 16171 Sm
22930 16208 Sl
22930 16208 Sm
22965 16263 Sl
22965 16263 Sm
23001 16302 Sl
23001 16302 Sm
23036 16333 Sl
23036 16333 Sm
23072 16378 Sl
23072 16378 Sm
23108 16455 Sl
23108 16455 Sm
23143 16490 Sl
23143 16490 Sm
23179 16493 Sl
23179 16493 Sm
23214 16500 Sl
23214 16500 Sm
23250 16509 Sl
23250 16509 Sm
23285 16500 Sl
23285 16500 Sm
23321 16508 Sl
23321 16508 Sm
23356 16524 Sl
23356 16524 Sm
23392 16508 Sl
23392 16508 Sm
23427 16493 Sl
23427 16493 Sm
23463 16542 Sl
23463 16542 Sm
23498 16601 Sl
23498 16601 Sm
23534 16632 Sl
23534 16632 Sm
23569 16639 Sl
23569 16639 Sm
23605 16723 Sl
23605 16723 Sm
23640 16802 Sl
23640 16802 Sm
23676 16861 Sl
23676 16861 Sm
23711 16939 Sl
23711 16939 Sm
23747 17182 Sl
23747 17182 Sm
23782 17351 Sl
23782 17351 Sm
23818 17476 Sl
23818 17476 Sm
23853 17572 Sl
23853 17572 Sm
23889 17704 Sl
23889 17704 Sm
23925 17831 Sl
23925 17831 Sm
23960 18013 Sl
23960 18013 Sm
23996 18259 Sl
23996 18259 Sm
24031 18381 Sl
24031 18381 Sm
24067 18461 Sl
24067 18461 Sm
24102 18649 Sl
24102 18649 Sm
24138 19183 Sl
24138 19183 Sm
24173 19474 Sl
24173 19474 Sm
24209 19617 Sl
24209 19617 Sm
24244 19823 Sl
24244 19823 Sm
24280 20243 Sl
24280 20243 Sm
24315 20442 Sl
24315 20442 Sm
24351 20578 Sl
24351 20578 Sm
24386 20746 Sl
24386 20746 Sm
24422 20750 Sl
24422 20750 Sm
24457 20584 Sl
24457 20584 Sm
24493 20463 Sl
24493 20463 Sm
24528 20221 Sl
24528 20221 Sm
24564 19721 Sl
24564 19721 Sm
24599 19086 Sl
24599 19086 Sm
24635 18824 Sl
24635 18824 Sm
24671 18583 Sl
24671 18583 Sm
24706 18184 Sl
24706 18184 Sm
24742 17847 Sl
24742 17847 Sm
24777 17598 Sl
24777 17598 Sm
24813 17449 Sl
24813 17449 Sm
24848 17300 Sl
24848 17300 Sm
24884 17112 Sl
24884 17112 Sm
24919 16898 Sl
24919 16898 Sm
24955 16663 Sl
24955 16663 Sm
24990 16439 Sl
24990 16439 Sm
25026 16370 Sl
25026 16370 Sm
25061 16317 Sl
25061 16317 Sm
25097 16265 Sl
25097 16265 Sm
25132 16236 Sl
25132 16236 Sm
25168 16241 Sl
25168 16241 Sm
25203 16254 Sl
25203 16254 Sm
25239 16257 Sl
25239 16257 Sm
25274 16260 Sl
25274 16260 Sm
25310 16257 Sl
25310 16257 Sm
25345 16242 Sl
25345 16242 Sm
25381 16220 Sl
25381 16220 Sm
25416 16203 Sl
25416 16203 Sm
25452 16193 Sl
25452 16193 Sm
25488 16175 Sl
25488 16175 Sm
25523 16166 Sl
25523 16166 Sm
25559 16163 Sl
25559 16163 Sm
25594 16163 Sl
25594 16163 Sm
25630 16175 Sl
25630 16175 Sm
25665 16191 Sl
25665 16191 Sm
25701 16200 Sl
25701 16200 Sm
25736 16195 Sl
25736 16195 Sm
25772 16180 Sl
25772 16180 Sm
25807 16171 Sl
25807 16171 Sm
25843 16170 Sl
25843 16170 Sm
25878 16166 Sl
25878 16166 Sm
25914 16161 Sl
25914 16161 Sm
25949 16146 Sl
25949 16146 Sm
25985 16138 Sl
25985 16138 Sm
26020 16141 Sl
26020 16141 Sm
26056 16148 Sl
26056 16148 Sm
26091 16150 Sl
26091 16150 Sm
26127 16144 Sl
26127 16144 Sm
26162 16138 Sl
26162 16138 Sm
26198 16144 Sl
26198 16144 Sm
26234 16146 Sl
26234 16146 Sm
26269 16142 Sl
26269 16142 Sm
26305 16137 Sl
26305 16137 Sm
26340 16133 Sl
26340 16133 Sm
26376 16139 Sl
26376 16139 Sm
26411 16145 Sl
26411 16145 Sm
26447 16143 Sl
26447 16143 Sm
26482 16136 Sl
26482 16136 Sm
26518 16121 Sl
26518 16121 Sm
26553 16113 Sl
26553 16113 Sm
26589 16105 Sl
26589 16105 Sm
26624 16096 Sl
26624 16096 Sm
26660 16085 Sl
26660 16085 Sm
26695 16074 Sl
26695 16074 Sm
26731 16069 Sl
26731 16069 Sm
26766 16068 Sl
26766 16068 Sm
26802 16068 Sl
26802 16068 Sm
26837 16067 Sl
26837 16067 Sm
26873 16064 Sl
26873 16064 Sm
26908 16061 Sl
26908 16061 Sm
26944 16056 Sl
26944 16056 Sm
26980 16051 Sl
26980 16051 Sm
27015 16051 Sl
27015 16051 Sm
27051 16051 Sl
27051 16051 Sm
27086 16051 Sl
27086 16051 Sm
27122 16051 Sl
27122 16051 Sm
27157 16051 Sl
27157 16051 Sm
27193 16051 Sl
27193 16051 Sm
27228 16051 Sl
27228 16051 Sm
27264 16051 Sl
27264 16051 Sm
27299 16051 Sl
27299 16051 Sm
27335 16051 Sl
27335 16051 Sm
27370 16051 Sl
27370 16051 Sm
27406 16051 Sl
27406 16051 Sm
27441 16051 Sl
27441 16051 Sm
27477 16051 Sl
27477 16051 Sm
27512 16051 Sl
27512 16051 Sm
27548 16056 Sl
27548 16056 Sm
27583 16061 Sl
27583 16061 Sm
27619 16064 Sl
27619 16064 Sm
27654 16067 Sl
27654 16067 Sm
27690 16068 Sl
27690 16068 Sm
27725 16068 Sl
27725 16068 Sm
27761 16067 Sl
27761 16067 Sm
27797 16064 Sl
27797 16064 Sm
27832 16060 Sl
27832 16060 Sm
27868 16055 Sl
27868 16055 Sm
27903 16051 Sl
27903 16051 Sm
27939 16051 Sl
27939 16051 Sm
27974 16055 Sl
27974 16055 Sm
28010 16060 Sl
28010 16060 Sm
28045 16064 Sl
28045 16064 Sm
28081 16066 Sl
28081 16066 Sm
28116 16068 Sl
28116 16068 Sm
28152 16068 Sl
28152 16068 Sm
28187 16067 Sl
28187 16067 Sm
28223 16065 Sl
28223 16065 Sm
28258 16061 Sl
28258 16061 Sm
28294 16056 Sl
28294 16056 Sm
28329 16051 Sl
28329 16051 Sm
28365 16051 Sl
28365 16051 Sm
28400 16051 Sl
28400 16051 Sm
28436 16051 Sl
28436 16051 Sm
28471 16051 Sl
28471 16051 Sm
28507 16051 Sl
28507 16051 Sm
28543 16051 Sl
28543 16051 Sm
28578 16051 Sl
28578 16051 Sm
28614 16051 Sl
28614 16051 Sm
28649 16051 Sl
28649 16051 Sm
28685 16051 Sl
28685 16051 Sm
28720 16051 Sl
28720 16051 Sm
28756 16051 Sl
28756 16051 Sm
28791 16051 Sl
28791 16051 Sm
28827 16051 Sl
28827 16051 Sm
28862 16051 Sl
28862 16051 Sm
28898 16051 Sl
28898 16051 Sm
28933 16051 Sl
28933 16051 Sm
28969 16051 Sl
28969 16051 Sm
29004 16051 Sl
29004 16051 Sm
29040 16051 Sl
29040 16051 Sm
29075 16053 Sl
29075 16053 Sm
29111 16058 Sl
29111 16058 Sm
29146 16062 Sl
29146 16062 Sm
29182 16066 Sl
29182 16066 Sm
29217 16067 Sl
29217 16067 Sm
29253 16068 Sl
/Slrgb {0.565 0.208 0.231} def
20265 16057 Sm
20288 16056 Sl
20288 16056 Sm
20312 16056 Sl
20312 16056 Sm
20335 16056 Sl
20335 16056 Sm
20358 16055 Sl
20358 16055 Sm
20381 16054 Sl
20381 16054 Sm
20404 16052 Sl
20404 16052 Sm
20427 16051 Sl
20427 16051 Sm
20451 16051 Sl
20451 16051 Sm
20474 16051 Sl
20474 16051 Sm
20497 16051 Sl
20497 16051 Sm
20520 16051 Sl
20520 16051 Sm
20543 16051 Sl
20543 16051 Sm
20566 16051 Sl
20566 16051 Sm
20590 16051 Sl
20590 16051 Sm
20613 16051 Sl
20613 16051 Sm
20636 16051 Sl
20636 16051 Sm
20659 16051 Sl
20659 16051 Sm
20682 16051 Sl
20682 16051 Sm
20705 16051 Sl
20705 16051 Sm
20729 16053 Sl
20729 16053 Sm
20752 16054 Sl
20752 16054 Sm
20775 16055 Sl
20775 16055 Sm
20798 16058 Sl
20798 16058 Sm
20821 16059 Sl
20821 16059 Sm
20844 16060 Sl
20844 16060 Sm
20868 16061 Sl
20868 16061 Sm
20891 16062 Sl
20891 16062 Sm
20914 16061 Sl
20914 16061 Sm
20937 16061 Sl
20937 16061 Sm
20960 16060 Sl
20960 16060 Sm
20983 16058 Sl
20983 16058 Sm
21007 16056 Sl
21007 16056 Sm
21030 16056 Sl
21030 16056 Sm
21053 16056 Sl
21053 16056 Sm
21076 16056 Sl
21076 16056 Sm
21099 16056 Sl
21099 16056 Sm
21122 16056 Sl
21122 16056 Sm
21145 16057 Sl
21145 16057 Sm
21169 16057 Sl
21169 16057 Sm
21192 16056 Sl
21192 16056 Sm
21215 16056 Sl
21215 16056 Sm
21238 16055 Sl
21238 16055 Sm
21261 16054 Sl
21261 16054 Sm
21284 16053 Sl
21284 16053 Sm
21308 16052 Sl
21308 16052 Sm
21331 16051 Sl
21331 16051 Sm
21354 16051 Sl
21354 16051 Sm
21377 16051 Sl
21377 16051 Sm
21400 16052 Sl
21400 16052 Sm
21423 16054 Sl
21423 16054 Sm
21447 16055 Sl
21447 16055 Sm
21470 16055 Sl
21470 16055 Sm
21493 16056 Sl
21493 16056 Sm
21516 16056 Sl
21516 16056 Sm
21539 16057 Sl
21539 16057 Sm
21562 16056 Sl
21562 16056 Sm
21586 16056 Sl
21586 16056 Sm
21609 16056 Sl
21609 16056 Sm
21632 16055 Sl
21632 16055 Sm
21655 16054 Sl
21655 16054 Sm
21678 16052 Sl
21678 16052 Sm
21701 16051 Sl
21701 16051 Sm
21725 16051 Sl
21725 16051 Sm
21748 16052 Sl
21748 16052 Sm
21771 16053 Sl
21771 16053 Sm
21794 16055 Sl
21794 16055 Sm
21817 16055 Sl
21817 16055 Sm
21840 16056 Sl
21840 16056 Sm
21864 16056 Sl
21864 16056 Sm
21887 16057 Sl
21887 16057 Sm
21910 16057 Sl
21910 16057 Sm
21933 16058 Sl
21933 16058 Sm
21956 16059 Sl
21956 16059 Sm
21979 16059 Sl
21979 16059 Sm
22003 16059 Sl
22003 16059 Sm
22026 16058 Sl
22026 16058 Sm
22049 16058 Sl
22049 16058 Sm
22072 16059 Sl
22072 16059 Sm
22095 16060 Sl
22095 16060 Sm
22118 16060 Sl
22118 16060 Sm
22142 16060 Sl
22142 16060 Sm
22165 16059 Sl
22165 16059 Sm
22188 16058 Sl
22188 16058 Sm
22211 16058 Sl
22211 16058 Sm
22234 16058 Sl
22234 16058 Sm
22257 16059 Sl
22257 16059 Sm
22281 16059 Sl
22281 16059 Sm
22304 16059 Sl
22304 16059 Sm
22327 16058 Sl
22327 16058 Sm
22350 16058 Sl
22350 16058 Sm
22373 16059 Sl
22373 16059 Sm
22396 16060 Sl
22396 16060 Sm
22420 16062 Sl
22420 16062 Sm
22443 16066 Sl
22443 16066 Sm
22466 16069 Sl
22466 16069 Sm
22489 16071 Sl
22489 16071 Sm
22512 16071 Sl
22512 16071 Sm
22535 16072 Sl
22535 16072 Sm
22559 16073 Sl
22559 16073 Sm
22582 16074 Sl
22582 16074 Sm
22605 16076 Sl
22605 16076 Sm
22628 16077 Sl
22628 16077 Sm
22651 16076 Sl
22651 16076 Sm
22674 16076 Sl
22674 16076 Sm
22698 16075 Sl
22698 16075 Sm
22721 16075 Sl
22721 16075 Sm
22744 16081 Sl
22744 16081 Sm
22767 16087 Sl
22767 16087 Sm
22790 16090 Sl
22790 16090 Sm
22813 16092 Sl
22813 16092 Sm
22836 16093 Sl
22836 16093 Sm
22860 16095 Sl
22860 16095 Sm
22883 16095 Sl
22883 16095 Sm
22906 16100 Sl
22906 16100 Sm
22929 16105 Sl
22929 16105 Sm
22952 16115 Sl
22952 16115 Sm
22975 16121 Sl
22975 16121 Sm
22999 16124 Sl
22999 16124 Sm
23022 16124 Sl
23022 16124 Sm
23045 16128 Sl
23045 16128 Sm
23068 16133 Sl
23068 16133 Sm
23091 16136 Sl
23091 16136 Sm
23114 16149 Sl
23114 16149 Sm
23138 16156 Sl
23138 16156 Sm
23161 16160 Sl
23161 16160 Sm
23184 16160 Sl
23184 16160 Sm
23207 16163 Sl
23207 16163 Sm
23230 16167 Sl
23230 16167 Sm
23253 16188 Sl
23253 16188 Sm
23277 16205 Sl
23277 16205 Sm
23300 16215 Sl
23300 16215 Sm
23323 16217 Sl
23323 16217 Sm
23346 16217 Sl
23346 16217 Sm
23369 16220 Sl
23369 16220 Sm
23392 16216 Sl
23392 16216 Sm
23416 16218 Sl
23416 16218 Sm
23439 16227 Sl
23439 16227 Sm
23462 16248 Sl
23462 16248 Sm
23485 16264 Sl
23485 16264 Sm
23508 16272 Sl
23508 16272 Sm
23531 16276 Sl
23531 16276 Sm
23555 16285 Sl
23555 16285 Sm
23578 16305 Sl
23578 16305 Sm
23601 16320 Sl
23601 16320 Sm
23624 16357 Sl
23624 16357 Sm
23647 16394 Sl
23647 16394 Sm
23670 16415 Sl
23670 16415 Sm
23694 16426 Sl
23694 16426 Sm
23717 16439 Sl
23717 16439 Sm
23740 16451 Sl
23740 16451 Sm
23763 16511 Sl
23763 16511 Sm
23786 16581 Sl
23786 16581 Sm
23809 16628 Sl
23809 16628 Sm
23833 16659 Sl
23833 16659 Sm
23856 16665 Sl
23856 16665 Sm
23879 16673 Sl
23879 16673 Sm
23902 16669 Sl
23902 16669 Sm
23925 16675 Sl
23925 16675 Sm
23948 16719 Sl
23948 16719 Sm
23972 16761 Sl
23972 16761 Sm
23995 16779 Sl
23995 16779 Sm
24018 16778 Sl
24018 16778 Sm
24041 16770 Sl
24041 16770 Sm
24064 16766 Sl
24064 16766 Sm
24087 16827 Sl
24087 16827 Sm
24111 16914 Sl
24111 16914 Sm
24134 17067 Sl
24134 17067 Sm
24157 17292 Sl
24157 17292 Sm
24180 17461 Sl
24180 17461 Sm
24203 17591 Sl
24203 17591 Sm
24226 17687 Sl
24226 17687 Sm
24250 17800 Sl
24250 17800 Sm
24273 17968 Sl
24273 17968 Sm
24296 18166 Sl
24296 18166 Sm
24319 18304 Sl
24319 18304 Sm
24342 18419 Sl
24342 18419 Sm
24365 18462 Sl
24365 18462 Sm
24389 18559 Sl
24389 18559 Sm
24412 18659 Sl
24412 18659 Sm
24435 18754 Sl
24435 18754 Sm
24458 19019 Sl
24458 19019 Sm
24481 19296 Sl
24481 19296 Sm
24504 19568 Sl
24504 19568 Sm
24528 19729 Sl
24528 19729 Sm
24551 19802 Sl
24551 19802 Sm
24574 19819 Sl
24574 19819 Sm
24597 19857 Sl
24597 19857 Sm
24620 19967 Sl
24620 19967 Sm
24643 20010 Sl
24643 20010 Sm
24666 20216 Sl
24666 20216 Sm
24690 20252 Sl
24690 20252 Sm
24713 20273 Sl
24713 20273 Sm
24736 20206 Sl
24736 20206 Sm
24759 20155 Sl
24759 20155 Sm
24782 20137 Sl
24782 20137 Sm
24805 20117 Sl
24805 20117 Sm
24829 20156 Sl
24829 20156 Sm
24852 20069 Sl
24852 20069 Sm
24875 19847 Sl
24875 19847 Sm
24898 19571 Sl
24898 19571 Sm
24921 19265 Sl
24921 19265 Sm
24944 18976 Sl
24944 18976 Sm
24968 18846 Sl
24968 18846 Sm
24991 18817 Sl
24991 18817 Sm
25014 18716 Sl
25014 18716 Sm
25037 18547 Sl
25037 18547 Sm
25060 18357 Sl
25060 18357 Sm
25083 18167 Sl
25083 18167 Sm
25107 18013 Sl
25107 18013 Sm
25130 17886 Sl
25130 17886 Sm
25153 17793 Sl
25153 17793 Sm
25176 17710 Sl
25176 17710 Sm
25199 17564 Sl
25199 17564 Sm
25222 17404 Sl
25222 17404 Sm
25246 17247 Sl
25246 17247 Sm
25269 17115 Sl
25269 17115 Sm
25292 17070 Sl
25292 17070 Sm
25315 16996 Sl
25315 16996 Sm
25338 16930 Sl
25338 16930 Sm
25361 16859 Sl
25361 16859 Sm
25385 16789 Sl
25385 16789 Sm
25408 16737 Sl
25408 16737 Sm
25431 16666 Sl
25431 16666 Sm
25454 16609 Sl
25454 16609 Sm
25477 16571 Sl
25477 16571 Sm
25500 16572 Sl
25500 16572 Sm
25524 16563 Sl
25524 16563 Sm
25547 16566 Sl
25547 16566 Sm
25570 16556 Sl
25570 16556 Sm
25593 16554 Sl
25593 16554 Sm
25616 16545 Sl
25616 16545 Sm
25639 16535 Sl
25639 16535 Sm
25663 16544 Sl
25663 16544 Sm
25686 16541 Sl
25686 16541 Sm
25709 16529 Sl
25709 16529 Sm
25732 16499 Sl
25732 16499 Sm
25755 16461 Sl
25755 16461 Sm
25778 16413 Sl
25778 16413 Sm
25802 16387 Sl
25802 16387 Sm
25825 16361 Sl
25825 16361 Sm
25848 16333 Sl
25848 16333 Sm
25871 16307 Sl
25871 16307 Sm
25894 16278 Sl
25894 16278 Sm
25917 16259 Sl
25917 16259 Sm
25941 16235 Sl
25941 16235 Sm
25964 16228 Sl
25964 16228 Sm
25987 16216 Sl
25987 16216 Sm
26010 16210 Sl
26010 16210 Sm
26033 16208 Sl
26033 16208 Sm
26056 16204 Sl
26056 16204 Sm
26080 16197 Sl
26080 16197 Sm
26103 16192 Sl
26103 16192 Sm
26126 16186 Sl
26126 16186 Sm
26149 16182 Sl
26149 16182 Sm
26172 16185 Sl
26172 16185 Sm
26195 16186 Sl
26195 16186 Sm
26219 16186 Sl
26219 16186 Sm
26242 16186 Sl
26242 16186 Sm
26265 16182 Sl
26265 16182 Sm
26288 16177 Sl
26288 16177 Sm
26311 16171 Sl
26311 16171 Sm
26334 16169 Sl
26334 16169 Sm
26357 16164 Sl
26357 16164 Sm
26381 16160 Sl
26381 16160 Sm
26404 16153 Sl
26404 16153 Sm
26427 16147 Sl
26427 16147 Sm
26450 16137 Sl
26450 16137 Sm
26473 16132 Sl
26473 16132 Sm
26496 16126 Sl
26496 16126 Sm
26520 16117 Sl
26520 16117 Sm
26543 16109 Sl
26543 16109 Sm
26566 16099 Sl
26566 16099 Sm
26589 16087 Sl
26589 16087 Sm
26612 16079 Sl
26612 16079 Sm
26635 16072 Sl
26635 16072 Sm
26659 16069 Sl
26659 16069 Sm
26682 16067 Sl
26682 16067 Sm
26705 16067 Sl
26705 16067 Sm
26728 16068 Sl
26728 16068 Sm
26751 16070 Sl
26751 16070 Sm
26774 16071 Sl
26774 16071 Sm
26798 16074 Sl
26798 16074 Sm
26821 16076 Sl
26821 16076 Sm
26844 16078 Sl
26844 16078 Sm
26867 16079 Sl
26867 16079 Sm
26890 16080 Sl
26890 16080 Sm
26913 16080 Sl
26913 16080 Sm
26937 16079 Sl
26937 16079 Sm
26960 16077 Sl
26960 16077 Sm
26983 16074 Sl
26983 16074 Sm
27006 16070 Sl
27006 16070 Sm
27029 16066 Sl
27029 16066 Sm
27052 16064 Sl
27052 16064 Sm
27076 16063 Sl
27076 16063 Sm
27099 16060 Sl
27099 16060 Sm
27122 16059 Sl
27122 16059 Sm
27145 16059 Sl
27145 16059 Sm
27168 16058 Sl
27168 16058 Sm
27191 16057 Sl
/Slrgb {0.333 0.459 0.184} def
18376 16069 Sm
18408 16069 Sl
18408 16069 Sm
18440 16069 Sl
18440 16069 Sm
18472 16068 Sl
18472 16068 Sm
18505 16067 Sl
18505 16067 Sm
18537 16065 Sl
18537 16065 Sm
18569 16063 Sl
18569 16063 Sm
18601 16061 Sl
18601 16061 Sm
18634 16058 Sl
18634 16058 Sm
18666 16055 Sl
18666 16055 Sm
18698 16052 Sl
18698 16052 Sm
18730 16051 Sl
18730 16051 Sm
18762 16051 Sl
18762 16051 Sm
18795 16051 Sl
18795 16051 Sm
18827 16051 Sl
18827 16051 Sm
18859 16051 Sl
18859 16051 Sm
18891 16051 Sl
18891 16051 Sm
18923 16051 Sl
18923 16051 Sm
18956 16051 Sl
18956 16051 Sm
18988 16051 Sl
18988 16051 Sm
19020 16051 Sl
19020 16051 Sm
19052 16051 Sl
19052 16051 Sm
19085 16051 Sl
19085 16051 Sm
19117 16051 Sl
19117 16051 Sm
19149 16051 Sl
19149 16051 Sm
19181 16051 Sl
19181 16051 Sm
19213 16051 Sl
19213 16051 Sm
19246 16051 Sl
19246 16051 Sm
19278 16051 Sl
19278 16051 Sm
19310 16051 Sl
19310 16051 Sm
19342 16051 Sl
19342 16051 Sm
19375 16051 Sl
19375 16051 Sm
19407 16051 Sl
19407 16051 Sm
19439 16051 Sl
19439 16051 Sm
19471 16051 Sl
19471 16051 Sm
19503 16051 Sl
19503 16051 Sm
19536 16051 Sl
19536 16051 Sm
19568 16051 Sl
19568 16051 Sm
19600 16051 Sl
19600 16051 Sm
19632 16051 Sl
19632 16051 Sm
19664 16051 Sl
19664 16051 Sm
19697 16051 Sl
19697 16051 Sm
19729 16051 Sl
19729 16051 Sm
19761 16051 Sl
19761 16051 Sm
19793 16051 Sl
19793 16051 Sm
19826 16051 Sl
19826 16051 Sm
19858 16051 Sl
19858 16051 Sm
19890 16051 Sl
19890 16051 Sm
19922 16051 Sl
19922 16051 Sm
19954 16051 Sl
19954 16051 Sm
19987 16051 Sl
19987 16051 Sm
20019 16051 Sl
20019 16051 Sm
20051 16051 Sl
20051 16051 Sm
20083 16051 Sl
20083 16051 Sm
20115 16051 Sl
20115 16051 Sm
20148 16051 Sl
20148 16051 Sm
20180 16051 Sl
20180 16051 Sm
20212 16051 Sl
20212 16051 Sm
20244 16051 Sl
20244 16051 Sm
20277 16051 Sl
20277 16051 Sm
20309 16051 Sl
20309 16051 Sm
20341 16051 Sl
20341 16051 Sm
20373 16051 Sl
20373 16051 Sm
20405 16051 Sl
20405 16051 Sm
20438 16051 Sl
20438 16051 Sm
20470 16051 Sl
20470 16051 Sm
20502 16051 Sl
20502 16051 Sm
20534 16051 Sl
20534 16051 Sm
20566 16051 Sl
20566 16051 Sm
20599 16051 Sl
20599 16051 Sm
20631 16051 Sl
20631 16051 Sm
20663 16051 Sl
20663 16051 Sm
20695 16051 Sl
20695 16051 Sm
20728 16051 Sl
20728 16051 Sm
20760 16051 Sl
20760 16051 Sm
20792 16051 Sl
20792 16051 Sm
20824 16051 Sl
20824 16051 Sm
20856 16051 Sl
20856 16051 Sm
20889 16051 Sl
20889 16051 Sm
20921 16051 Sl
20921 16051 Sm
20953 16051 Sl
20953 16051 Sm
20985 16051 Sl
20985 16051 Sm
21017 16051 Sl
21017 16051 Sm
21050 16051 Sl
21050 16051 Sm
21082 16051 Sl
21082 16051 Sm
21114 16051 Sl
21114 16051 Sm
21146 16051 Sl
21146 16051 Sm
21179 16051 Sl
21179 16051 Sm
21211 16051 Sl
21211 16051 Sm
21243 16051 Sl
21243 16051 Sm
21275 16051 Sl
21275 16051 Sm
21307 16051 Sl
21307 16051 Sm
21340 16051 Sl
21340 16051 Sm
21372 16051 Sl
21372 16051 Sm
21404 16051 Sl
21404 16051 Sm
21436 16051 Sl
21436 16051 Sm
21469 16051 Sl
21469 16051 Sm
21501 16051 Sl
21501 16051 Sm
21533 16051 Sl
21533 16051 Sm
21565 16051 Sl
21565 16051 Sm
21597 16051 Sl
21597 16051 Sm
21630 16051 Sl
21630 16051 Sm
21662 16051 Sl
21662 16051 Sm
21694 16051 Sl
21694 16051 Sm
21726 16051 Sl
21726 16051 Sm
21758 16055 Sl
21758 16055 Sm
21791 16058 Sl
21791 16058 Sm
21823 16060 Sl
21823 16060 Sm
21855 16063 Sl
21855 16063 Sm
21887 16065 Sl
21887 16065 Sm
21920 16066 Sl
21920 16066 Sm
21952 16067 Sl
21952 16067 Sm
21984 16069 Sl
21984 16069 Sm
22016 16073 Sl
22016 16073 Sm
22048 16079 Sl
22048 16079 Sm
22081 16087 Sl
22081 16087 Sm
22113 16095 Sl
22113 16095 Sm
22145 16108 Sl
22145 16108 Sm
22177 16119 Sl
22177 16119 Sm
22209 16128 Sl
22209 16128 Sm
22242 16137 Sl
22242 16137 Sm
22274 16162 Sl
22274 16162 Sm
22306 16183 Sl
22306 16183 Sm
22338 16199 Sl
22338 16199 Sm
22371 16212 Sl
22371 16212 Sm
22403 16225 Sl
22403 16225 Sm
22435 16243 Sl
22435 16243 Sm
22467 16258 Sl
22467 16258 Sm
22499 16270 Sl
22499 16270 Sm
22532 16279 Sl
22532 16279 Sm
22564 16294 Sl
22564 16294 Sm
22596 16305 Sl
22596 16305 Sm
22628 16310 Sl
22628 16310 Sm
22660 16313 Sl
22660 16313 Sm
22693 16314 Sl
22693 16314 Sm
22725 16313 Sl
22725 16313 Sm
22757 16311 Sl
22757 16311 Sm
22789 16316 Sl
22789 16316 Sm
22822 16323 Sl
22822 16323 Sm
22854 16322 Sl
22854 16322 Sm
22886 16313 Sl
22886 16313 Sm
22918 16307 Sl
22918 16307 Sm
22950 16315 Sl
22950 16315 Sm
22983 16317 Sl
22983 16317 Sm
23015 16312 Sl
23015 16312 Sm
23047 16302 Sl
23047 16302 Sm
23079 16299 Sl
23079 16299 Sm
23111 16300 Sl
23111 16300 Sm
23144 16300 Sl
23144 16300 Sm
23176 16299 Sl
23176 16299 Sm
23208 16297 Sl
23208 16297 Sm
23240 16305 Sl
23240 16305 Sm
23273 16309 Sl
23273 16309 Sm
23305 16311 Sl
23305 16311 Sm
23337 16310 Sl
23337 16310 Sm
23369 16306 Sl
23369 16306 Sm
23401 16302 Sl
23401 16302 Sm
23434 16299 Sl
23434 16299 Sm
23466 16366 Sl
23466 16366 Sm
23498 16424 Sl
23498 16424 Sm
23530 16475 Sl
23530 16475 Sm
23563 16531 Sl
23563 16531 Sm
23595 16604 Sl
23595 16604 Sm
23627 16681 Sl
23627 16681 Sm
23659 16750 Sl
23659 16750 Sm
23691 16805 Sl
23691 16805 Sm
23724 16850 Sl
23724 16850 Sm
23756 16904 Sl
23756 16904 Sm
23788 16949 Sl
23788 16949 Sm
23820 16986 Sl
23820 16986 Sm
23852 17012 Sl
23852 17012 Sm
23885 17022 Sl
23885 17022 Sm
23917 17031 Sl
23917 17031 Sm
23949 17047 Sl
23949 17047 Sm
23981 17166 Sl
23981 17166 Sm
24014 17247 Sl
24014 17247 Sm
24046 17302 Sl
24046 17302 Sm
24078 17330 Sl
24078 17330 Sm
24110 17386 Sl
24110 17386 Sm
24142 17483 Sl
24142 17483 Sm
24175 17546 Sl
24175 17546 Sm
24207 17592 Sl
24207 17592 Sm
24239 17676 Sl
24239 17676 Sm
24271 17817 Sl
24271 17817 Sm
24303 17960 Sl
24303 17960 Sm
24336 18092 Sl
24336 18092 Sm
24368 18189 Sl
24368 18189 Sm
24400 18285 Sl
24400 18285 Sm
24432 18364 Sl
24432 18364 Sm
24465 18414 Sl
24465 18414 Sm
24497 18549 Sl
24497 18549 Sm
24529 18625 Sl
24529 18625 Sm
24561 18641 Sl
24561 18641 Sm
24593 18633 Sl
24593 18633 Sm
24626 18642 Sl
24626 18642 Sm
24658 18753 Sl
24658 18753 Sm
24690 18811 Sl
24690 18811 Sm
24722 18809 Sl
24722 18809 Sm
24754 18785 Sl
24754 18785 Sm
24787 18789 Sl
24787 18789 Sm
24819 18766 Sl
24819 18766 Sm
24851 18687 Sl
24851 18687 Sm
24883 18577 Sl
24883 18577 Sm
24916 18463 Sl
24916 18463 Sm
24948 18390 Sl
24948 18390 Sm
24980 18295 Sl
24980 18295 Sm
25012 18242 Sl
25012 18242 Sm
25044 18154 Sl
25044 18154 Sm
25077 18047 Sl
25077 18047 Sm
25109 17909 Sl
25109 17909 Sm
25141 17793 Sl
25141 17793 Sm
25173 17773 Sl
25173 17773 Sm
25205 17723 Sl
25205 17723 Sm
25238 17642 Sl
25238 17642 Sm
25270 17543 Sl
25270 17543 Sm
25302 17456 Sl
25302 17456 Sm
25334 17410 Sl
25334 17410 Sm
25367 17334 Sl
25367 17334 Sm
25399 17239 Sl
25399 17239 Sm
25431 17145 Sl
25431 17145 Sm
25463 17083 Sl
25463 17083 Sm
25495 17002 Sl
25495 17002 Sm
25528 16919 Sl
25528 16919 Sm
25560 16827 Sl
25560 16827 Sm
25592 16728 Sl
25592 16728 Sm
25624 16625 Sl
25624 16625 Sm
25657 16542 Sl
25657 16542 Sm
25689 16512 Sl
25689 16512 Sm
25721 16472 Sl
25721 16472 Sm
25753 16421 Sl
25753 16421 Sm
25785 16370 Sl
25785 16370 Sm
25818 16339 Sl
25818 16339 Sm
25850 16349 Sl
25850 16349 Sm
25882 16351 Sl
25882 16351 Sm
25914 16349 Sl
25914 16349 Sm
25946 16342 Sl
25946 16342 Sm
25979 16343 Sl
25979 16343 Sm
26011 16338 Sl
26011 16338 Sm
26043 16331 Sl
26043 16331 Sm
26075 16321 Sl
26075 16321 Sm
26108 16308 Sl
26108 16308 Sm
26140 16290 Sl
26140 16290 Sm
26172 16274 Sl
26172 16274 Sm
26204 16253 Sl
26204 16253 Sm
26236 16233 Sl
26236 16233 Sm
26269 16208 Sl
26269 16208 Sm
26301 16183 Sl
26301 16183 Sm
26333 16161 Sl
26333 16161 Sm
26365 16150 Sl
26365 16150 Sm
26397 16139 Sl
26397 16139 Sm
26430 16126 Sl
26430 16126 Sm
26462 16115 Sl
26462 16115 Sm
26494 16111 Sl
26494 16111 Sm
26526 16114 Sl
26526 16114 Sm
26559 16115 Sl
26559 16115 Sm
26591 16116 Sl
26591 16116 Sm
26623 16118 Sl
26623 16118 Sm
26655 16122 Sl
26655 16122 Sm
26687 16123 Sl
26687 16123 Sm
26720 16123 Sl
26720 16123 Sm
26752 16121 Sl
26752 16121 Sm
26784 16117 Sl
26784 16117 Sm
26816 16113 Sl
26816 16113 Sm
26848 16113 Sl
26848 16113 Sm
26881 16113 Sl
26881 16113 Sm
26913 16113 Sl
26913 16113 Sm
26945 16111 Sl
26945 16111 Sm
26977 16107 Sl
26977 16107 Sm
27010 16102 Sl
27010 16102 Sm
27042 16099 Sl
27042 16099 Sm
27074 16098 Sl
27074 16098 Sm
27106 16096 Sl
27106 16096 Sm
27138 16092 Sl
27138 16092 Sm
27171 16088 Sl
27171 16088 Sm
27203 16083 Sl
27203 16083 Sm
27235 16077 Sl
27235 16077 Sm
27267 16070 Sl
27267 16070 Sm
27299 16067 Sl
27299 16067 Sm
27332 16066 Sl
27332 16066 Sm
27364 16068 Sl
27364 16068 Sm
27396 16069 Sl
27396 16069 Sm
27428 16069 Sl
27428 16069 Sm
27461 16069 Sl
27461 16069 Sm
27493 16068 Sl
27493 16068 Sm
27525 16066 Sl
27525 16066 Sm
27557 16067 Sl
27557 16067 Sm
27589 16068 Sl
27589 16068 Sm
27622 16069 Sl
27622 16069 Sm
27654 16069 Sl
27654 16069 Sm
27686 16070 Sl
27686 16070 Sm
27718 16073 Sl
27718 16073 Sm
27751 16075 Sl
27751 16075 Sm
27783 16077 Sl
27783 16077 Sm
27815 16078 Sl
27815 16078 Sm
27847 16078 Sl
27847 16078 Sm
27879 16077 Sl
27879 16077 Sm
27912 16076 Sl
27912 16076 Sm
27944 16074 Sl
27944 16074 Sm
27976 16071 Sl
27976 16071 Sm
28008 16069 Sl
/Slrgb {0.102 0.278 0.435} def
4291 7790 Sm
4321 7791 Sl
4321 7791 Sm
4351 7788 Sl
4351 7788 Sm
4381 7782 Sl
4381 7782 Sm
4410 7773 Sl
4410 7773 Sm
4440 7760 Sl
4440 7760 Sm
4470 7744 Sl
4470 7744 Sm
4500 7725 Sl
4500 7725 Sm
4529 7705 Sl
4529 7705 Sm
4559 7694 Sl
4559 7694 Sm
4589 7694 Sl
4589 7694 Sm
4619 7694 Sl
4619 7694 Sm
4648 7694 Sl
4648 7694 Sm
4678 7694 Sl
4678 7694 Sm
4708 7694 Sl
4708 7694 Sm
4737 7694 Sl
4737 7694 Sm
4767 7694 Sl
4767 7694 Sm
4797 7694 Sl
4797 7694 Sm
4827 7694 Sl
4827 7694 Sm
4856 7694 Sl
4856 7694 Sm
4886 7694 Sl
4886 7694 Sm
4916 7695 Sl
4916 7695 Sm
4946 7698 Sl
4946 7698 Sm
4975 7700 Sl
4975 7700 Sm
5005 7702 Sl
5005 7702 Sm
5035 7704 Sl
5035 7704 Sm
5065 7705 Sl
5065 7705 Sm
5094 7706 Sl
5094 7706 Sm
5124 7706 Sl
5124 7706 Sm
5154 7706 Sl
5154 7706 Sm
5184 7706 Sl
5184 7706 Sm
5213 7705 Sl
5213 7705 Sm
5243 7704 Sl
5243 7704 Sm
5273 7702 Sl
5273 7702 Sm
5303 7700 Sl
5303 7700 Sm
5332 7698 Sl
5332 7698 Sm
5362 7695 Sl
5362 7695 Sm
5392 7694 Sl
5392 7694 Sm
5422 7694 Sl
5422 7694 Sm
5451 7694 Sl
5451 7694 Sm
5481 7694 Sl
5481 7694 Sm
5511 7694 Sl
5511 7694 Sm
5541 7694 Sl
5541 7694 Sm
5570 7694 Sl
5570 7694 Sm
5600 7694 Sl
5600 7694 Sm
5630 7694 Sl
5630 7694 Sm
5659 7696 Sl
5659 7696 Sm
5689 7699 Sl
5689 7699 Sm
5719 7701 Sl
5719 7701 Sm
5749 7703 Sl
5749 7703 Sm
5778 7705 Sl
5778 7705 Sm
5808 7706 Sl
5808 7706 Sm
5838 7706 Sl
5838 7706 Sm
5868 7706 Sl
5868 7706 Sm
5897 7706 Sl
5897 7706 Sm
5927 7706 Sl
5927 7706 Sm
5957 7705 Sl
5957 7705 Sm
5987 7703 Sl
5987 7703 Sm
6016 7701 Sl
6016 7701 Sm
6046 7699 Sl
6046 7699 Sm
6076 7696 Sl
6076 7696 Sm
6106 7694 Sl
6106 7694 Sm
6135 7694 Sl
6135 7694 Sm
6165 7694 Sl
6165 7694 Sm
6195 7694 Sl
6195 7694 Sm
6225 7694 Sl
6225 7694 Sm
6254 7694 Sl
6254 7694 Sm
6284 7694 Sl
6284 7694 Sm
6314 7694 Sl
6314 7694 Sm
6344 7694 Sl
6344 7694 Sm
6373 7694 Sl
6373 7694 Sm
6403 7694 Sl
6403 7694 Sm
6433 7694 Sl
6433 7694 Sm
6463 7694 Sl
6463 7694 Sm
6492 7694 Sl
6492 7694 Sm
6522 7694 Sl
6522 7694 Sm
6552 7694 Sl
6552 7694 Sm
6581 7694 Sl
6581 7694 Sm
6611 7694 Sl
6611 7694 Sm
6641 7694 Sl
6641 7694 Sm
6671 7694 Sl
6671 7694 Sm
6700 7694 Sl
6700 7694 Sm
6730 7694 Sl
6730 7694 Sm
6760 7694 Sl
6760 7694 Sm
6790 7694 Sl
6790 7694 Sm
6819 7694 Sl
6819 7694 Sm
6849 7694 Sl
6849 7694 Sm
6879 7697 Sl
6879 7697 Sm
6909 7702 Sl
6909 7702 Sm
6938 7707 Sl
6938 7707 Sm
6968 7711 Sl
6968 7711 Sm
6998 7714 Sl
6998 7714 Sm
7028 7716 Sl
7028 7716 Sm
7057 7718 Sl
7057 7718 Sm
7087 7719 Sl
7087 7719 Sm
7117 7718 Sl
7117 7718 Sm
7147 7717 Sl
7147 7717 Sm
7176 7716 Sl
7176 7716 Sm
7206 7713 Sl
7206 7713 Sm
7236 7709 Sl
7236 7709 Sm
7266 7705 Sl
7266 7705 Sm
7295 7700 Sl
7295 7700 Sm
7325 7694 Sl
7325 7694 Sm
7355 7694 Sl
7355 7694 Sm
7385 7694 Sl
7385 7694 Sm
7414 7694 Sl
7414 7694 Sm
7444 7694 Sl
7444 7694 Sm
7474 7694 Sl
7474 7694 Sm
7504 7694 Sl
7504 7694 Sm
7533 7702 Sl
7533 7702 Sm
7563 7716 Sl
7563 7716 Sm
7593 7729 Sl
7593 7729 Sm
7622 7741 Sl
7622 7741 Sm
7652 7751 Sl
7652 7751 Sm
7682 7759 Sl
7682 7759 Sm
7712 7766 Sl
7712 7766 Sm
7741 7772 Sl
7741 7772 Sm
7771 7774 Sl
7771 7774 Sm
7801 7773 Sl
7801 7773 Sm
7831 7772 Sl
7831 7772 Sm
7860 7773 Sl
7860 7773 Sm
7890 7774 Sl
7890 7774 Sm
7920 7773 Sl
7920 7773 Sm
7950 7768 Sl
7950 7768 Sm
7979 7761 Sl
7979 7761 Sm
8009 7765 Sl
8009 7765 Sm
8039 7768 Sl
8039 7768 Sm
8069 7776 Sl
8069 7776 Sm
8098 7782 Sl
8098 7782 Sm
8128 7787 Sl
8128 7787 Sm
8158 7790 Sl
8158 7790 Sm
8188 7790 Sl
8188 7790 Sm
8217 7789 Sl
8217 7789 Sm
8247 7786 Sl
8247 7786 Sm
8277 7779 Sl
8277 7779 Sm
8307 7774 Sl
8307 7774 Sm
8336 7770 Sl
8336 7770 Sm
8366 7786 Sl
8366 7786 Sm
8396 7801 Sl
8396 7801 Sm
8426 7820 Sl
8426 7820 Sm
8455 7845 Sl
8455 7845 Sm
8485 7863 Sl
8485 7863 Sm
8515 7880 Sl
8515 7880 Sm
8544 7896 Sl
8544 7896 Sm
8574 7918 Sl
8574 7918 Sm
8604 7944 Sl
8604 7944 Sm
8634 7964 Sl
8634 7964 Sm
8663 7974 Sl
8663 7974 Sm
8693 7983 Sl
8693 7983 Sm
8723 7999 Sl
8723 7999 Sm
8753 8017 Sl
8753 8017 Sm
8782 8017 Sl
8782 8017 Sm
8812 8020 Sl
8812 8020 Sm
8842 8024 Sl
8842 8024 Sm
8872 8040 Sl
8872 8040 Sm
8901 8059 Sl
8901 8059 Sm
8931 8074 Sl
8931 8074 Sm
8961 8075 Sl
8961 8075 Sm
8991 8081 Sl
8991 8081 Sm
9020 8089 Sl
9020 8089 Sm
9050 8107 Sl
9050 8107 Sm
9080 8143 Sl
9080 8143 Sm
9110 8180 Sl
9110 8180 Sm
9139 8197 Sl
9139 8197 Sm
9169 8222 Sl
9169 8222 Sm
9199 8257 Sl
9199 8257 Sm
9229 8289 Sl
9229 8289 Sm
9258 8362 Sl
9258 8362 Sm
9288 8415 Sl
9288 8415 Sm
9318 8454 Sl
9318 8454 Sm
9348 8480 Sl
9348 8480 Sm
9377 8536 Sl
9377 8536 Sm
9407 8648 Sl
9407 8648 Sm
9437 8730 Sl
9437 8730 Sm
9466 8793 Sl
9466 8793 Sm
9496 8836 Sl
9496 8836 Sm
9526 8888 Sl
9526 8888 Sm
9556 8987 Sl
9556 8987 Sm
9585 9068 Sl
9585 9068 Sm
9615 9167 Sl
9615 9167 Sm
9645 9222 Sl
9645 9222 Sm
9675 9230 Sl
9675 9230 Sm
9704 9255 Sl
9704 9255 Sm
9734 9287 Sl
9734 9287 Sm
9764 9403 Sl
9764 9403 Sm
9794 9526 Sl
9794 9526 Sm
9823 9584 Sl
9823 9584 Sm
9853 9725 Sl
9853 9725 Sm
9883 9865 Sl
9883 9865 Sm
9913 10186 Sl
9913 10186 Sm
9942 10442 Sl
9942 10442 Sm
9972 10642 Sl
9972 10642 Sm
10002 10840 Sl
10002 10840 Sm
10032 11073 Sl
10032 11073 Sm
10061 11353 Sl
10061 11353 Sm
10091 11637 Sl
10091 11637 Sm
10121 11817 Sl
10121 11817 Sm
10151 11885 Sl
10151 11885 Sm
10180 11847 Sl
10180 11847 Sm
10210 11812 Sl
10210 11812 Sm
10240 11820 Sl
10240 11820 Sm
10270 11777 Sl
10270 11777 Sm
10299 11690 Sl
10299 11690 Sm
10329 11491 Sl
10329 11491 Sm
10359 11356 Sl
10359 11356 Sm
10388 11212 Sl
10388 11212 Sm
10418 10995 Sl
10418 10995 Sm
10448 10732 Sl
10448 10732 Sm
10478 10456 Sl
10478 10456 Sm
10507 10163 Sl
10507 10163 Sm
10537 9951 Sl
10537 9951 Sm
10567 9747 Sl
10567 9747 Sm
10597 9548 Sl
10597 9548 Sm
10626 9312 Sl
10626 9312 Sm
10656 9073 Sl
10656 9073 Sm
10686 8819 Sl
10686 8819 Sm
10716 8613 Sl
10716 8613 Sm
10745 8518 Sl
10745 8518 Sm
10775 8429 Sl
10775 8429 Sm
10805 8336 Sl
10805 8336 Sm
10835 8248 Sl
10835 8248 Sm
10864 8172 Sl
10864 8172 Sm
10894 8120 Sl
10894 8120 Sm
10924 8075 Sl
10924 8075 Sm
10954 8024 Sl
10954 8024 Sm
10983 7967 Sl
10983 7967 Sm
11013 7921 Sl
11013 7921 Sm
11043 7906 Sl
11043 7906 Sm
11073 7904 Sl
11073 7904 Sm
11102 7892 Sl
11102 7892 Sm
11132 7873 Sl
11132 7873 Sm
11162 7856 Sl
11162 7856 Sm
11192 7837 Sl
11192 7837 Sm
11221 7824 Sl
11221 7824 Sm
11251 7816 Sl
11251 7816 Sm
11281 7810 Sl
11281 7810 Sm
11311 7798 Sl
11311 7798 Sm
11340 7784 Sl
11340 7784 Sm
11370 7767 Sl
11370 7767 Sm
11400 7754 Sl
11400 7754 Sm
11429 7750 Sl
11429 7750 Sm
11459 7750 Sl
11459 7750 Sm
11489 7755 Sl
11489 7755 Sm
11519 7758 Sl
11519 7758 Sm
11548 7761 Sl
11548 7761 Sm
11578 7764 Sl
11578 7764 Sm
11608 7767 Sl
11608 7767 Sm
11638 7769 Sl
11638 7769 Sm
11667 7770 Sl
11667 7770 Sm
11697 7771 Sl
11697 7771 Sm
11727 7775 Sl
11727 7775 Sm
11757 7778 Sl
11757 7778 Sm
11786 7778 Sl
11786 7778 Sm
11816 7775 Sl
11816 7775 Sm
11846 7767 Sl
11846 7767 Sm
11876 7760 Sl
11876 7760 Sm
11905 7756 Sl
11905 7756 Sm
11935 7755 Sl
11935 7755 Sm
11965 7752 Sl
11965 7752 Sm
11995 7754 Sl
11995 7754 Sm
12024 7754 Sl
12024 7754 Sm
12054 7752 Sl
12054 7752 Sm
12084 7753 Sl
12084 7753 Sm
12114 7753 Sl
12114 7753 Sm
12143 7751 Sl
12143 7751 Sm
12173 7748 Sl
12173 7748 Sm
12203 7746 Sl
12203 7746 Sm
12233 7743 Sl
12233 7743 Sm
12262 7738 Sl
12262 7738 Sm
12292 7731 Sl
12292 7731 Sm
12322 7723 Sl
12322 7723 Sm
12351 7719 Sl
12351 7719 Sm
12381 7713 Sl
12381 7713 Sm
12411 7706 Sl
12411 7706 Sm
12441 7702 Sl
12441 7702 Sm
12470 7700 Sl
12470 7700 Sm
12500 7698 Sl
12500 7698 Sm
12530 7695 Sl
12530 7695 Sm
12560 7694 Sl
12560 7694 Sm
12589 7694 Sl
12589 7694 Sm
12619 7694 Sl
12619 7694 Sm
12649 7694 Sl
12649 7694 Sm
12679 7694 Sl
12679 7694 Sm
12708 7694 Sl
12708 7694 Sm
12738 7694 Sl
12738 7694 Sm
12768 7694 Sl
12768 7694 Sm
12798 7694 Sl
12798 7694 Sm
12827 7694 Sl
12827 7694 Sm
12857 7694 Sl
12857 7694 Sm
12887 7694 Sl
12887 7694 Sm
12917 7694 Sl
12917 7694 Sm
12946 7694 Sl
12946 7694 Sm
12976 7696 Sl
12976 7696 Sm
13006 7699 Sl
13006 7699 Sm
13036 7701 Sl
13036 7701 Sm
13065 7703 Sl
13065 7703 Sm
13095 7705 Sl
13095 7705 Sm
13125 7706 Sl
13125 7706 Sm
13155 7706 Sl
13155 7706 Sm
13184 7706 Sl
/Slrgb {0.565 0.208 0.231} def
4291 7730 Sm
4332 7730 Sl
4332 7730 Sm
4372 7725 Sl
4372 7725 Sm
4412 7714 Sl
4412 7714 Sm
4452 7700 Sl
4452 7700 Sm
4492 7694 Sl
4492 7694 Sm
4532 7694 Sl
4532 7694 Sm
4573 7694 Sl
4573 7694 Sm
4613 7694 Sl
4613 7694 Sm
4653 7694 Sl
4653 7694 Sm
4693 7694 Sl
4693 7694 Sm
4733 7694 Sl
4733 7694 Sm
4774 7694 Sl
4774 7694 Sm
4814 7694 Sl
4814 7694 Sm
4854 7694 Sl
4854 7694 Sm
4894 7694 Sl
4894 7694 Sm
4934 7694 Sl
4934 7694 Sm
4974 7694 Sl
4974 7694 Sm
5015 7697 Sl
5015 7697 Sm
5055 7701 Sl
5055 7701 Sm
5095 7704 Sl
5095 7704 Sm
5135 7705 Sl
5135 7705 Sm
5175 7704 Sl
5175 7704 Sm
5216 7702 Sl
5216 7702 Sm
5256 7698 Sl
5256 7698 Sm
5296 7694 Sl
5296 7694 Sm
5336 7694 Sl
5336 7694 Sm
5376 7694 Sl
5376 7694 Sm
5417 7694 Sl
5417 7694 Sm
5457 7694 Sl
5457 7694 Sm
5497 7694 Sl
5497 7694 Sm
5537 7694 Sl
5537 7694 Sm
5577 7694 Sl
5577 7694 Sm
5617 7694 Sl
5617 7694 Sm
5658 7694 Sl
5658 7694 Sm
5698 7697 Sl
5698 7697 Sm
5738 7700 Sl
5738 7700 Sm
5778 7703 Sl
5778 7703 Sm
5818 7704 Sl
5818 7704 Sm
5859 7704 Sl
5859 7704 Sm
5899 7702 Sl
5899 7702 Sm
5939 7699 Sl
5939 7699 Sm
5979 7697 Sl
5979 7697 Sm
6019 7694 Sl
6019 7694 Sm
6059 7694 Sl
6059 7694 Sm
6100 7694 Sl
6100 7694 Sm
6140 7694 Sl
6140 7694 Sm
6180 7694 Sl
6180 7694 Sm
6220 7694 Sl
6220 7694 Sm
6260 7694 Sl
6260 7694 Sm
6301 7694 Sl
6301 7694 Sm
6341 7694 Sl
6341 7694 Sm
6381 7694 Sl
6381 7694 Sm
6421 7694 Sl
6421 7694 Sm
6461 7694 Sl
6461 7694 Sm
6502 7694 Sl
6502 7694 Sm
6542 7694 Sl
6542 7694 Sm
6582 7694 Sl
6582 7694 Sm
6622 7694 Sl
6622 7694 Sm
6662 7694 Sl
6662 7694 Sm
6702 7694 Sl
6702 7694 Sm
6743 7694 Sl
6743 7694 Sm
6783 7694 Sl
6783 7694 Sm
6823 7694 Sl
6823 7694 Sm
6863 7694 Sl
6863 7694 Sm
6903 7694 Sl
6903 7694 Sm
6944 7696 Sl
6944 7696 Sm
6984 7698 Sl
6984 7698 Sm
7024 7699 Sl
7024 7699 Sm
7064 7700 Sl
7064 7700 Sm
7104 7699 Sl
7104 7699 Sm
7144 7698 Sl
7144 7698 Sm
7185 7696 Sl
7185 7696 Sm
7225 7694 Sl
7225 7694 Sm
7265 7694 Sl
7265 7694 Sm
7305 7694 Sl
7305 7694 Sm
7345 7694 Sl
7345 7694 Sm
7386 7694 Sl
7386 7694 Sm
7426 7694 Sl
7426 7694 Sm
7466 7694 Sl
7466 7694 Sm
7506 7694 Sl
7506 7694 Sm
7546 7694 Sl
7546 7694 Sm
7587 7694 Sl
7587 7694 Sm
7627 7698 Sl
7627 7698 Sm
7667 7702 Sl
7667 7702 Sm
7707 7704 Sl
7707 7704 Sm
7747 7705 Sl
7747 7705 Sm
7787 7704 Sl
7787 7704 Sm
7828 7702 Sl
7828 7702 Sm
7868 7698 Sl
7868 7698 Sm
7908 7698 Sl
7908 7698 Sm
7948 7704 Sl
7948 7704 Sm
7988 7708 Sl
7988 7708 Sm
8029 7710 Sl
8029 7710 Sm
8069 7709 Sl
8069 7709 Sm
8109 7708 Sl
8109 7708 Sm
8149 7709 Sl
8149 7709 Sm
8189 7710 Sl
8189 7710 Sm
8229 7716 Sl
8229 7716 Sm
8270 7719 Sl
8270 7719 Sm
8310 7720 Sl
8310 7720 Sm
8350 7717 Sl
8350 7717 Sm
8390 7713 Sl
8390 7713 Sm
8430 7723 Sl
8430 7723 Sm
8471 7735 Sl
8471 7735 Sm
8511 7745 Sl
8511 7745 Sm
8551 7749 Sl
8551 7749 Sm
8591 7752 Sl
8591 7752 Sm
8631 7748 Sl
8631 7748 Sm
8672 7751 Sl
8672 7751 Sm
8712 7753 Sl
8712 7753 Sm
8752 7761 Sl
8752 7761 Sm
8792 7766 Sl
8792 7766 Sm
8832 7773 Sl
8832 7773 Sm
8872 7773 Sl
8872 7773 Sm
8913 7765 Sl
8913 7765 Sm
8953 7777 Sl
8953 7777 Sm
8993 7790 Sl
8993 7790 Sm
9033 7795 Sl
9033 7795 Sm
9073 7797 Sl
9073 7797 Sm
9114 7800 Sl
9114 7800 Sm
9154 7803 Sl
9154 7803 Sm
9194 7792 Sl
9194 7792 Sm
9234 7777 Sl
9234 7777 Sm
9274 7791 Sl
9274 7791 Sm
9314 7819 Sl
9314 7819 Sm
9355 7910 Sl
9355 7910 Sm
9395 7967 Sl
9395 7967 Sm
9435 8008 Sl
9435 8008 Sm
9475 8073 Sl
9475 8073 Sm
9515 8100 Sl
9515 8100 Sm
9556 8080 Sl
9556 8080 Sm
9596 8032 Sl
9596 8032 Sm
9636 8046 Sl
9636 8046 Sm
9676 8064 Sl
9676 8064 Sm
9716 8047 Sl
9716 8047 Sm
9757 8032 Sl
9757 8032 Sm
9797 8065 Sl
9797 8065 Sm
9837 8204 Sl
9837 8204 Sm
9877 8442 Sl
9877 8442 Sm
9917 8604 Sl
9917 8604 Sm
9957 8760 Sl
9957 8760 Sm
9998 9060 Sl
9998 9060 Sm
10038 9273 Sl
10038 9273 Sm
10078 9345 Sl
10078 9345 Sm
10118 9531 Sl
10118 9531 Sm
10158 9999 Sl
10158 9999 Sm
10199 10442 Sl
10199 10442 Sm
10239 10700 Sl
10239 10700 Sm
10279 10898 Sl
10279 10898 Sm
10319 11103 Sl
10319 11103 Sm
10359 11399 Sl
10359 11399 Sm
10399 11707 Sl
10399 11707 Sm
10440 11786 Sl
10440 11786 Sm
10480 11840 Sl
10480 11840 Sm
10520 12031 Sl
10520 12031 Sm
10560 11911 Sl
10560 11911 Sm
10600 11491 Sl
10600 11491 Sm
10641 11094 Sl
10641 11094 Sm
10681 11421 Sl
10681 11421 Sm
10721 11350 Sl
10721 11350 Sm
10761 11032 Sl
10761 11032 Sm
10801 10761 Sl
10801 10761 Sm
10842 10541 Sl
10842 10541 Sm
10882 10216 Sl
10882 10216 Sm
10922 9796 Sl
10922 9796 Sm
10962 9601 Sl
10962 9601 Sm
11002 9473 Sl
11002 9473 Sm
11042 9290 Sl
11042 9290 Sm
11083 9108 Sl
11083 9108 Sm
11123 8832 Sl
11123 8832 Sm
11163 8610 Sl
11163 8610 Sm
11203 8565 Sl
11203 8565 Sm
11243 8470 Sl
11243 8470 Sm
11284 8391 Sl
11284 8391 Sm
11324 8336 Sl
11324 8336 Sm
11364 8337 Sl
11364 8337 Sm
11404 8277 Sl
11404 8277 Sm
11444 8179 Sl
11444 8179 Sm
11484 8121 Sl
11484 8121 Sm
11525 8069 Sl
11525 8069 Sm
11565 8022 Sl
11565 8022 Sm
11605 7983 Sl
11605 7983 Sm
11645 7950 Sl
11645 7950 Sm
11685 7927 Sl
11685 7927 Sm
11726 7910 Sl
11726 7910 Sm
11766 7875 Sl
11766 7875 Sm
11806 7843 Sl
11806 7843 Sm
11846 7819 Sl
11846 7819 Sm
11886 7812 Sl
11886 7812 Sm
11927 7792 Sl
11927 7792 Sm
11967 7770 Sl
11967 7770 Sm
12007 7763 Sl
12007 7763 Sm
12047 7760 Sl
12047 7760 Sm
12087 7760 Sl
12087 7760 Sm
12127 7756 Sl
12127 7756 Sm
12168 7749 Sl
12168 7749 Sm
12208 7743 Sl
12208 7743 Sm
12248 7733 Sl
12248 7733 Sm
12288 7727 Sl
12288 7727 Sm
12328 7714 Sl
12328 7714 Sm
12369 7710 Sl
12369 7710 Sm
12409 7710 Sl
12409 7710 Sm
12449 7710 Sl
12449 7710 Sm
12489 7713 Sl
12489 7713 Sm
12529 7717 Sl
12529 7717 Sm
12569 7720 Sl
12569 7720 Sm
12610 7720 Sl
12610 7720 Sm
12650 7716 Sl
12650 7716 Sm
12690 7710 Sl
12690 7710 Sm
12730 7703 Sl
12730 7703 Sm
12770 7698 Sl
12770 7698 Sm
12811 7696 Sl
12811 7696 Sm
12851 7694 Sl
12851 7694 Sm
12891 7694 Sl
12891 7694 Sm
12931 7694 Sl
12931 7694 Sm
12971 7694 Sl
12971 7694 Sm
13012 7694 Sl
13012 7694 Sm
13052 7694 Sl
13052 7694 Sm
13092 7694 Sl
13092 7694 Sm
13132 7694 Sl
13132 7694 Sm
13172 7694 Sl
13172 7694 Sm
13212 7694 Sl
13212 7694 Sm
13253 7694 Sl
13253 7694 Sm
13293 7694 Sl
13293 7694 Sm
13333 7694 Sl
13333 7694 Sm
13373 7694 Sl
13373 7694 Sm
13413 7694 Sl
13413 7694 Sm
13454 7694 Sl
13454 7694 Sm
13494 7694 Sl
13494 7694 Sm
13534 7694 Sl
13534 7694 Sm
13574 7694 Sl
13574 7694 Sm
13614 7694 Sl
13614 7694 Sm
13654 7694 Sl
13654 7694 Sm
13695 7694 Sl
13695 7694 Sm
13735 7694 Sl
13735 7694 Sm
13775 7694 Sl
13775 7694 Sm
13815 7694 Sl
13815 7694 Sm
13855 7694 Sl
13855 7694 Sm
13896 7694 Sl
13896 7694 Sm
13936 7694 Sl
13936 7694 Sm
13976 7694 Sl
13976 7694 Sm
14016 7694 Sl
14016 7694 Sm
14056 7694 Sl
14056 7694 Sm
14097 7694 Sl
14097 7694 Sm
14137 7694 Sl
14137 7694 Sm
14177 7694 Sl
14177 7694 Sm
14217 7694 Sl
14217 7694 Sm
14257 7694 Sl
14257 7694 Sm
14297 7694 Sl
14297 7694 Sm
14338 7694 Sl
14338 7694 Sm
14378 7694 Sl
14378 7694 Sm
14418 7694 Sl
14418 7694 Sm
14458 7694 Sl
14458 7694 Sm
14498 7694 Sl
14498 7694 Sm
14539 7694 Sl
14539 7694 Sm
14579 7694 Sl
14579 7694 Sm
14619 7694 Sl
14619 7694 Sm
14659 7694 Sl
14659 7694 Sm
14699 7694 Sl
14699 7694 Sm
14739 7694 Sl
14739 7694 Sm
14780 7694 Sl
14780 7694 Sm
14820 7694 Sl
14820 7694 Sm
14860 7694 Sl
14860 7694 Sm
14900 7694 Sl
14900 7694 Sm
14940 7694 Sl
14940 7694 Sm
14981 7694 Sl
14981 7694 Sm
15021 7694 Sl
15021 7694 Sm
15061 7694 Sl
15061 7694 Sm
15101 7694 Sl
15101 7694 Sm
15141 7694 Sl
15141 7694 Sm
15182 7694 Sl
15182 7694 Sm
15222 7694 Sl
15222 7694 Sm
15262 7694 Sl
15262 7694 Sm
15302 7694 Sl
15302 7694 Sm
15342 7694 Sl
15342 7694 Sm
15382 7694 Sl
15382 7694 Sm
15423 7694 Sl
15423 7694 Sm
15463 7694 Sl
15463 7694 Sm
15503 7694 Sl
15503 7694 Sm
15543 7694 Sl
15543 7694 Sm
15583 7694 Sl
15583 7694 Sm
15624 7694 Sl
15624 7694 Sm
15664 7694 Sl
15664 7694 Sm
15704 7694 Sl
15704 7694 Sm
15744 7694 Sl
15744 7694 Sm
15784 7694 Sl
15784 7694 Sm
15824 7694 Sl
15824 7694 Sm
15865 7694 Sl
15865 7694 Sm
15905 7694 Sl
15905 7694 Sm
15945 7694 Sl
15945 7694 Sm
15985 7694 Sl
15985 7694 Sm
16025 7694 Sl
16025 7694 Sm
16066 7694 Sl
16066 7694 Sm
16106 7694 Sl
16106 7694 Sm
16146 7694 Sl
16146 7694 Sm
16186 7696 Sl
16186 7696 Sm
16226 7698 Sl
16226 7698 Sm
16267 7699 Sl
16267 7699 Sm
16307 7700 Sl
/Slrgb {0.333 0.459 0.184} def
4291 7708 Sm
4319 7708 Sl
4319 7708 Sm
4347 7708 Sl
4347 7708 Sm
4375 7707 Sl
4375 7707 Sm
4403 7706 Sl
4403 7706 Sm
4431 7705 Sl
4431 7705 Sm
4459 7704 Sl
4459 7704 Sm
4487 7703 Sl
4487 7703 Sm
4515 7701 Sl
4515 7701 Sm
4543 7699 Sl
4543 7699 Sm
4571 7697 Sl
4571 7697 Sm
4598 7694 Sl
4598 7694 Sm
4626 7694 Sl
4626 7694 Sm
4654 7694 Sl
4654 7694 Sm
4682 7694 Sl
4682 7694 Sm
4710 7694 Sl
4710 7694 Sm
4738 7694 Sl
4738 7694 Sm
4766 7694 Sl
4766 7694 Sm
4794 7694 Sl
4794 7694 Sm
4822 7694 Sl
4822 7694 Sm
4850 7694 Sl
4850 7694 Sm
4878 7694 Sl
4878 7694 Sm
4906 7694 Sl
4906 7694 Sm
4933 7694 Sl
4933 7694 Sm
4961 7694 Sl
4961 7694 Sm
4989 7694 Sl
4989 7694 Sm
5017 7694 Sl
5017 7694 Sm
5045 7694 Sl
5045 7694 Sm
5073 7694 Sl
5073 7694 Sm
5101 7694 Sl
5101 7694 Sm
5129 7694 Sl
5129 7694 Sm
5157 7694 Sl
5157 7694 Sm
5185 7694 Sl
5185 7694 Sm
5213 7694 Sl
5213 7694 Sm
5241 7694 Sl
5241 7694 Sm
5268 7694 Sl
5268 7694 Sm
5296 7694 Sl
5296 7694 Sm
5324 7694 Sl
5324 7694 Sm
5352 7694 Sl
5352 7694 Sm
5380 7694 Sl
5380 7694 Sm
5408 7694 Sl
5408 7694 Sm
5436 7694 Sl
5436 7694 Sm
5464 7694 Sl
5464 7694 Sm
5492 7694 Sl
5492 7694 Sm
5520 7694 Sl
5520 7694 Sm
5548 7694 Sl
5548 7694 Sm
5576 7695 Sl
5576 7695 Sm
5603 7698 Sl
5603 7698 Sm
5631 7700 Sl
5631 7700 Sm
5659 7702 Sl
5659 7702 Sm
5687 7703 Sl
5687 7703 Sm
5715 7705 Sl
5715 7705 Sm
5743 7706 Sl
5743 7706 Sm
5771 7707 Sl
5771 7707 Sm
5799 7708 Sl
5799 7708 Sm
5827 7708 Sl
5827 7708 Sm
5855 7708 Sl
5855 7708 Sm
5883 7708 Sl
5883 7708 Sm
5911 7708 Sl
5911 7708 Sm
5938 7708 Sl
5938 7708 Sm
5966 7707 Sl
5966 7707 Sm
5994 7706 Sl
5994 7706 Sm
6022 7705 Sl
6022 7705 Sm
6050 7703 Sl
6050 7703 Sm
6078 7702 Sl
6078 7702 Sm
6106 7700 Sl
6106 7700 Sm
6134 7698 Sl
6134 7698 Sm
6162 7695 Sl
6162 7695 Sm
6190 7694 Sl
6190 7694 Sm
6218 7694 Sl
6218 7694 Sm
6246 7694 Sl
6246 7694 Sm
6273 7697 Sl
6273 7697 Sm
6301 7699 Sl
6301 7699 Sm
6329 7701 Sl
6329 7701 Sm
6357 7703 Sl
6357 7703 Sm
6385 7704 Sl
6385 7704 Sm
6413 7706 Sl
6413 7706 Sm
6441 7707 Sl
6441 7707 Sm
6469 7707 Sl
6469 7707 Sm
6497 7708 Sl
6497 7708 Sm
6525 7708 Sl
6525 7708 Sm
6553 7708 Sl
6553 7708 Sm
6581 7708 Sl
6581 7708 Sm
6608 7708 Sl
6608 7708 Sm
6636 7707 Sl
6636 7707 Sm
6664 7706 Sl
6664 7706 Sm
6692 7705 Sl
6692 7705 Sm
6720 7704 Sl
6720 7704 Sm
6748 7702 Sl
6748 7702 Sm
6776 7701 Sl
6776 7701 Sm
6804 7699 Sl
6804 7699 Sm
6832 7696 Sl
6832 7696 Sm
6860 7694 Sl
6860 7694 Sm
6888 7694 Sl
6888 7694 Sm
6916 7694 Sl
6916 7694 Sm
6943 7694 Sl
6943 7694 Sm
6971 7694 Sl
6971 7694 Sm
6999 7694 Sl
6999 7694 Sm
7027 7694 Sl
7027 7694 Sm
7055 7694 Sl
7055 7694 Sm
7083 7694 Sl
7083 7694 Sm
7111 7694 Sl
7111 7694 Sm
7139 7694 Sl
7139 7694 Sm
7167 7694 Sl
7167 7694 Sm
7195 7694 Sl
7195 7694 Sm
7223 7694 Sl
7223 7694 Sm
7251 7694 Sl
7251 7694 Sm
7278 7694 Sl
7278 7694 Sm
7306 7694 Sl
7306 7694 Sm
7334 7697 Sl
7334 7697 Sm
7362 7699 Sl
7362 7699 Sm
7390 7701 Sl
7390 7701 Sm
7418 7703 Sl
7418 7703 Sm
7446 7705 Sl
7446 7705 Sm
7474 7711 Sl
7474 7711 Sm
7502 7717 Sl
7502 7717 Sm
7530 7721 Sl
7530 7721 Sm
7558 7725 Sl
7558 7725 Sm
7586 7729 Sl
7586 7729 Sm
7613 7732 Sl
7613 7732 Sm
7641 7736 Sl
7641 7736 Sm
7669 7739 Sl
7669 7739 Sm
7697 7742 Sl
7697 7742 Sm
7725 7743 Sl
7725 7743 Sm
7753 7745 Sl
7753 7745 Sm
7781 7746 Sl
7781 7746 Sm
7809 7747 Sl
7809 7747 Sm
7837 7747 Sl
7837 7747 Sm
7865 7745 Sl
7865 7745 Sm
7893 7743 Sl
7893 7743 Sm
7921 7739 Sl
7921 7739 Sm
7948 7737 Sl
7948 7737 Sm
7976 7737 Sl
7976 7737 Sm
8004 7737 Sl
8004 7737 Sm
8032 7736 Sl
8032 7736 Sm
8060 7735 Sl
8060 7735 Sm
8088 7736 Sl
8088 7736 Sm
8116 7737 Sl
8116 7737 Sm
8144 7739 Sl
8144 7739 Sm
8172 7740 Sl
8172 7740 Sm
8200 7742 Sl
8200 7742 Sm
8228 7744 Sl
8228 7744 Sm
8256 7746 Sl
8256 7746 Sm
8283 7754 Sl
8283 7754 Sm
8311 7760 Sl
8311 7760 Sm
8339 7765 Sl
8339 7765 Sm
8367 7769 Sl
8367 7769 Sm
8395 7773 Sl
8395 7773 Sm
8423 7775 Sl
8423 7775 Sm
8451 7777 Sl
8451 7777 Sm
8479 7782 Sl
8479 7782 Sm
8507 7799 Sl
8507 7799 Sm
8535 7814 Sl
8535 7814 Sm
8563 7825 Sl
8563 7825 Sm
8591 7839 Sl
8591 7839 Sm
8618 7851 Sl
8618 7851 Sm
8646 7864 Sl
8646 7864 Sm
8674 7886 Sl
8674 7886 Sm
8702 7902 Sl
8702 7902 Sm
8730 7913 Sl
8730 7913 Sm
8758 7921 Sl
8758 7921 Sm
8786 7929 Sl
8786 7929 Sm
8814 7940 Sl
8814 7940 Sm
8842 7945 Sl
8842 7945 Sm
8870 7945 Sl
8870 7945 Sm
8898 7949 Sl
8898 7949 Sm
8926 7952 Sl
8926 7952 Sm
8954 7952 Sl
8954 7952 Sm
8981 7952 Sl
8981 7952 Sm
9009 7954 Sl
9009 7954 Sm
9037 7954 Sl
9037 7954 Sm
9065 7950 Sl
9065 7950 Sm
9093 7946 Sl
9093 7946 Sm
9121 7950 Sl
9121 7950 Sm
9149 7969 Sl
9149 7969 Sm
9177 8010 Sl
9177 8010 Sm
9205 8047 Sl
9205 8047 Sm
9233 8078 Sl
9233 8078 Sm
9261 8109 Sl
9261 8109 Sm
9289 8144 Sl
9289 8144 Sm
9316 8187 Sl
9316 8187 Sm
9344 8222 Sl
9344 8222 Sm
9372 8249 Sl
9372 8249 Sm
9400 8272 Sl
9400 8272 Sm
9428 8294 Sl
9428 8294 Sm
9456 8315 Sl
9456 8315 Sm
9484 8348 Sl
9484 8348 Sm
9512 8373 Sl
9512 8373 Sm
9540 8397 Sl
9540 8397 Sm
9568 8414 Sl
9568 8414 Sm
9596 8426 Sl
9596 8426 Sm
9624 8439 Sl
9624 8439 Sm
9651 8462 Sl
9651 8462 Sm
9679 8521 Sl
9679 8521 Sm
9707 8612 Sl
9707 8612 Sm
9735 8681 Sl
9735 8681 Sm
9763 8749 Sl
9763 8749 Sm
9791 8832 Sl
9791 8832 Sm
9819 8918 Sl
9819 8918 Sm
9847 9009 Sl
9847 9009 Sm
9875 9090 Sl
9875 9090 Sm
9903 9157 Sl
9903 9157 Sm
9931 9238 Sl
9931 9238 Sm
9959 9333 Sl
9959 9333 Sm
9986 9444 Sl
9986 9444 Sm
10014 9549 Sl
10014 9549 Sm
10042 9631 Sl
10042 9631 Sm
10070 9691 Sl
10070 9691 Sm
10098 9745 Sl
10098 9745 Sm
10126 9781 Sl
10126 9781 Sm
10154 9803 Sl
10154 9803 Sm
10182 9844 Sl
10182 9844 Sm
10210 9939 Sl
10210 9939 Sm
10238 10002 Sl
10238 10002 Sm
10266 10041 Sl
10266 10041 Sm
10294 10097 Sl
10294 10097 Sm
10321 10167 Sl
10321 10167 Sm
10349 10260 Sl
10349 10260 Sm
10377 10362 Sl
10377 10362 Sm
10405 10416 Sl
10405 10416 Sm
10433 10445 Sl
10433 10445 Sm
10461 10459 Sl
10461 10459 Sm
10489 10474 Sl
10489 10474 Sm
10517 10510 Sl
10517 10510 Sm
10545 10509 Sl
10545 10509 Sm
10573 10497 Sl
10573 10497 Sm
10601 10493 Sl
10601 10493 Sm
10629 10487 Sl
10629 10487 Sm
10656 10452 Sl
10656 10452 Sm
10684 10392 Sl
10684 10392 Sm
10712 10325 Sl
10712 10325 Sm
10740 10245 Sl
10740 10245 Sm
10768 10133 Sl
10768 10133 Sm
10796 10027 Sl
10796 10027 Sm
10824 9990 Sl
10824 9990 Sm
10852 9929 Sl
10852 9929 Sm
10880 9848 Sl
10880 9848 Sm
10908 9745 Sl
10908 9745 Sm
10936 9621 Sl
10936 9621 Sm
10964 9531 Sl
10964 9531 Sm
10991 9465 Sl
10991 9465 Sm
11019 9378 Sl
11019 9378 Sm
11047 9260 Sl
11047 9260 Sm
11075 9132 Sl
11075 9132 Sm
11103 9025 Sl
11103 9025 Sm
11131 8957 Sl
11131 8957 Sm
11159 8870 Sl
11159 8870 Sm
11187 8775 Sl
11187 8775 Sm
11215 8675 Sl
11215 8675 Sm
11243 8584 Sl
11243 8584 Sm
11271 8486 Sl
11271 8486 Sm
11299 8396 Sl
11299 8396 Sm
11326 8336 Sl
11326 8336 Sm
11354 8290 Sl
11354 8290 Sm
11382 8243 Sl
11382 8243 Sm
11410 8213 Sl
11410 8213 Sm
11438 8183 Sl
11438 8183 Sm
11466 8157 Sl
11466 8157 Sm
11494 8145 Sl
11494 8145 Sm
11522 8137 Sl
11522 8137 Sm
11550 8129 Sl
11550 8129 Sm
11578 8124 Sl
11578 8124 Sm
11606 8116 Sl
11606 8116 Sm
11634 8111 Sl
11634 8111 Sm
11661 8102 Sl
11661 8102 Sm
11689 8091 Sl
11689 8091 Sm
11717 8087 Sl
11717 8087 Sm
11745 8082 Sl
11745 8082 Sm
11773 8077 Sl
11773 8077 Sm
11801 8075 Sl
11801 8075 Sm
11829 8070 Sl
11829 8070 Sm
11857 8063 Sl
11857 8063 Sm
11885 8049 Sl
11885 8049 Sm
11913 8029 Sl
11913 8029 Sm
11941 8008 Sl
11941 8008 Sm
11969 7982 Sl
11969 7982 Sm
11996 7958 Sl
11996 7958 Sm
12024 7950 Sl
12024 7950 Sm
12052 7937 Sl
12052 7937 Sm
12080 7923 Sl
12080 7923 Sm
12108 7905 Sl
12108 7905 Sm
12136 7886 Sl
12136 7886 Sm
12164 7870 Sl
12164 7870 Sm
12192 7854 Sl
12192 7854 Sm
12220 7834 Sl
12220 7834 Sm
12248 7812 Sl
12248 7812 Sm
12276 7789 Sl
12276 7789 Sm
12304 7769 Sl
12304 7769 Sm
12331 7758 Sl
12331 7758 Sm
12359 7752 Sl
12359 7752 Sm
12387 7746 Sl
12387 7746 Sm
12415 7740 Sl
12415 7740 Sm
12443 7734 Sl
12443 7734 Sm
12471 7729 Sl
12471 7729 Sm
12499 7725 Sl
12499 7725 Sm
12527 7722 Sl
12527 7722 Sm
12555 7719 Sl
12555 7719 Sm
12583 7715 Sl
12583 7715 Sm
12611 7711 Sl
12611 7711 Sm
12639 7709 Sl
/Slw 0.490 def
/Slrgb {0.000 0.000 0.000} def
3138 15616 3138 21185 Sln
3138 16052 2863 16052 Sln
2520 16052 0
/Helvetica-0 findfont 687 yratio mul scalefont setfont
(0) stringwidth pop add
2 div xratio div
dup 4 3 roll exch 90.000 cos mul sub 3 1 roll 90.000 sin mul sub 2 copy
/fntsize {/Helvetica-0 findfont exch scalefont setfont } def
90.000 687
(0) Stxtl
(0) stringwidth pop xratio div
dup 4 3 roll exch 90.000 cos mul add 3 1 roll 90.000 sin mul add 2 copy
pop pop pop pop
3138 17140 2863 17140 Sln
2520 17140 0
/Helvetica-0 findfont 687 yratio mul scalefont setfont
(.2) stringwidth pop add
2 div xratio div
dup 4 3 roll exch 90.000 cos mul sub 3 1 roll 90.000 sin mul sub 2 copy
/fntsize {/Helvetica-0 findfont exch scalefont setfont } def
90.000 687
(.2) Stxtl
(.2) stringwidth pop xratio div
dup 4 3 roll exch 90.000 cos mul add 3 1 roll 90.000 sin mul add 2 copy
pop pop pop pop
3138 18229 2863 18229 Sln
2520 18229 0
/Helvetica-0 findfont 687 yratio mul scalefont setfont
(.4) stringwidth pop add
2 div xratio div
dup 4 3 roll exch 90.000 cos mul sub 3 1 roll 90.000 sin mul sub 2 copy
/fntsize {/Helvetica-0 findfont exch scalefont setfont } def
90.000 687
(.4) Stxtl
(.4) stringwidth pop xratio div
dup 4 3 roll exch 90.000 cos mul add 3 1 roll 90.000 sin mul add 2 copy
pop pop pop pop
3138 19318 2863 19318 Sln
2520 19318 0
/Helvetica-0 findfont 687 yratio mul scalefont setfont
(.6) stringwidth pop add
2 div xratio div
dup 4 3 roll exch 90.000 cos mul sub 3 1 roll 90.000 sin mul sub 2 copy
/fntsize {/Helvetica-0 findfont exch scalefont setfont } def
90.000 687
(.6) Stxtl
(.6) stringwidth pop xratio div
dup 4 3 roll exch 90.000 cos mul add 3 1 roll 90.000 sin mul add 2 copy
pop pop pop pop
3138 20407 2863 20407 Sln
2520 20407 0
/Helvetica-0 findfont 687 yratio mul scalefont setfont
(.8) stringwidth pop add
2 div xratio div
dup 4 3 roll exch 90.000 cos mul sub 3 1 roll 90.000 sin mul sub 2 copy
/fntsize {/Helvetica-0 findfont exch scalefont setfont } def
90.000 687
(.8) Stxtl
(.8) stringwidth pop xratio div
dup 4 3 roll exch 90.000 cos mul add 3 1 roll 90.000 sin mul add 2 copy
pop pop pop pop
3138 7260 3138 12829 Sln
3138 7695 2863 7695 Sln
2520 7695 0
/Helvetica-0 findfont 687 yratio mul scalefont setfont
(0) stringwidth pop add
2 div xratio div
dup 4 3 roll exch 90.000 cos mul sub 3 1 roll 90.000 sin mul sub 2 copy
/fntsize {/Helvetica-0 findfont exch scalefont setfont } def
90.000 687
(0) Stxtl
(0) stringwidth pop xratio div
dup 4 3 roll exch 90.000 cos mul add 3 1 roll 90.000 sin mul add 2 copy
pop pop pop pop
3138 8784 2863 8784 Sln
2520 8784 0
/Helvetica-0 findfont 687 yratio mul scalefont setfont
(.2) stringwidth pop add
2 div xratio div
dup 4 3 roll exch 90.000 cos mul sub 3 1 roll 90.000 sin mul sub 2 copy
/fntsize {/Helvetica-0 findfont exch scalefont setfont } def
90.000 687
(.2) Stxtl
(.2) stringwidth pop xratio div
dup 4 3 roll exch 90.000 cos mul add 3 1 roll 90.000 sin mul add 2 copy
pop pop pop pop
3138 9872 2863 9872 Sln
2520 9872 0
/Helvetica-0 findfont 687 yratio mul scalefont setfont
(.4) stringwidth pop add
2 div xratio div
dup 4 3 roll exch 90.000 cos mul sub 3 1 roll 90.000 sin mul sub 2 copy
/fntsize {/Helvetica-0 findfont exch scalefont setfont } def
90.000 687
(.4) Stxtl
(.4) stringwidth pop xratio div
dup 4 3 roll exch 90.000 cos mul add 3 1 roll 90.000 sin mul add 2 copy
pop pop pop pop
3138 10961 2863 10961 Sln
2520 10961 0
/Helvetica-0 findfont 687 yratio mul scalefont setfont
(.6) stringwidth pop add
2 div xratio div
dup 4 3 roll exch 90.000 cos mul sub 3 1 roll 90.000 sin mul sub 2 copy
/fntsize {/Helvetica-0 findfont exch scalefont setfont } def
90.000 687
(.6) Stxtl
(.6) stringwidth pop xratio div
dup 4 3 roll exch 90.000 cos mul add 3 1 roll 90.000 sin mul add 2 copy
pop pop pop pop
3138 12050 2863 12050 Sln
2520 12050 0
/Helvetica-0 findfont 687 yratio mul scalefont setfont
(.8) stringwidth pop add
2 div xratio div
dup 4 3 roll exch 90.000 cos mul sub 3 1 roll 90.000 sin mul sub 2 copy
/fntsize {/Helvetica-0 findfont exch scalefont setfont } def
90.000 687
(.8) Stxtl
(.8) stringwidth pop xratio div
dup 4 3 roll exch 90.000 cos mul add 3 1 roll 90.000 sin mul add 2 copy
pop pop pop pop
17301 15616 30905 15616 Sln
18351 15616 18351 15342 Sln
18351 14723 0
/Helvetica-0 findfont 687 yratio mul scalefont setfont
(0) stringwidth pop add
2 div xratio div
dup 4 3 roll exch 0.000 cos mul sub 3 1 roll 0.000 sin mul sub 2 copy
/fntsize {/Helvetica-0 findfont exch scalefont setfont } def
0.000 687
(0) Stxtl
(0) stringwidth pop xratio div
dup 4 3 roll exch 0.000 cos mul add 3 1 roll 0.000 sin mul add 2 copy
pop pop pop pop
22068 15616 22068 15342 Sln
22068 14723 0
/Helvetica-0 findfont 687 yratio mul scalefont setfont
(5) stringwidth pop add
2 div xratio div
dup 4 3 roll exch 0.000 cos mul sub 3 1 roll 0.000 sin mul sub 2 copy
/fntsize {/Helvetica-0 findfont exch scalefont setfont } def
0.000 687
(5) Stxtl
(5) stringwidth pop xratio div
dup 4 3 roll exch 0.000 cos mul add 3 1 roll 0.000 sin mul add 2 copy
pop pop pop pop
25786 15616 25786 15342 Sln
25786 14723 0
/Helvetica-0 findfont 687 yratio mul scalefont setfont
(10) stringwidth pop add
2 div xratio div
dup 4 3 roll exch 0.000 cos mul sub 3 1 roll 0.000 sin mul sub 2 copy
/fntsize {/Helvetica-0 findfont exch scalefont setfont } def
0.000 687
(10) Stxtl
(10) stringwidth pop xratio div
dup 4 3 roll exch 0.000 cos mul add 3 1 roll 0.000 sin mul add 2 copy
pop pop pop pop
29503 15616 29503 15342 Sln
29503 14723 0
/Helvetica-0 findfont 687 yratio mul scalefont setfont
(15) stringwidth pop add
2 div xratio div
dup 4 3 roll exch 0.000 cos mul sub 3 1 roll 0.000 sin mul sub 2 copy
/fntsize {/Helvetica-0 findfont exch scalefont setfont } def
0.000 687
(15) Stxtl
(15) stringwidth pop xratio div
dup 4 3 roll exch 0.000 cos mul add 3 1 roll 0.000 sin mul add 2 copy
pop pop pop pop
3138 7260 16742 7260 Sln
4188 7260 4188 6985 Sln
4188 6367 0
/Helvetica-0 findfont 687 yratio mul scalefont setfont
(0) stringwidth pop add
2 div xratio div
dup 4 3 roll exch 0.000 cos mul sub 3 1 roll 0.000 sin mul sub 2 copy
/fntsize {/Helvetica-0 findfont exch scalefont setfont } def
0.000 687
(0) Stxtl
(0) stringwidth pop xratio div
dup 4 3 roll exch 0.000 cos mul add 3 1 roll 0.000 sin mul add 2 copy
pop pop pop pop
7905 7260 7905 6985 Sln
7905 6367 0
/Helvetica-0 findfont 687 yratio mul scalefont setfont
(5) stringwidth pop add
2 div xratio div
dup 4 3 roll exch 0.000 cos mul sub 3 1 roll 0.000 sin mul sub 2 copy
/fntsize {/Helvetica-0 findfont exch scalefont setfont } def
0.000 687
(5) Stxtl
(5) stringwidth pop xratio div
dup 4 3 roll exch 0.000 cos mul add 3 1 roll 0.000 sin mul add 2 copy
pop pop pop pop
11623 7260 11623 6985 Sln
11623 6367 0
/Helvetica-0 findfont 687 yratio mul scalefont setfont
(10) stringwidth pop add
2 div xratio div
dup 4 3 roll exch 0.000 cos mul sub 3 1 roll 0.000 sin mul sub 2 copy
/fntsize {/Helvetica-0 findfont exch scalefont setfont } def
0.000 687
(10) Stxtl
(10) stringwidth pop xratio div
dup 4 3 roll exch 0.000 cos mul add 3 1 roll 0.000 sin mul add 2 copy
pop pop pop pop
15340 7260 15340 6985 Sln
15340 6367 0
/Helvetica-0 findfont 687 yratio mul scalefont setfont
(15) stringwidth pop add
2 div xratio div
dup 4 3 roll exch 0.000 cos mul sub 3 1 roll 0.000 sin mul sub 2 copy
/fntsize {/Helvetica-0 findfont exch scalefont setfont } def
0.000 687
(15) Stxtl
(15) stringwidth pop xratio div
dup 4 3 roll exch 0.000 cos mul add 3 1 roll 0.000 sin mul add 2 copy
pop pop pop pop
/Ssrgb {0.851 0.902 0.922} def
/Slrgb {0.851 0.902 0.922} def
3138 21185 16742 22178 1 Srect
9940 21531 0
/Helvetica-0 findfont 756 yratio mul scalefont setfont
(0) stringwidth pop add
2 div xratio div
dup 4 3 roll exch 0.000 cos mul sub 3 1 roll 0.000 sin mul sub 2 copy
/fntsize {/Helvetica-0 findfont exch scalefont setfont } def
0.000 756
(0) Stxtl
(0) stringwidth pop xratio div
dup 4 3 roll exch 0.000 cos mul add 3 1 roll 0.000 sin mul add 2 copy
pop pop pop pop
17301 21185 30905 22178 1 Srect
24103 21531 0
/Helvetica-0 findfont 756 yratio mul scalefont setfont
(1) stringwidth pop add
2 div xratio div
dup 4 3 roll exch 0.000 cos mul sub 3 1 roll 0.000 sin mul sub 2 copy
/fntsize {/Helvetica-0 findfont exch scalefont setfont } def
0.000 756
(1) Stxtl
(1) stringwidth pop xratio div
dup 4 3 roll exch 0.000 cos mul add 3 1 roll 0.000 sin mul add 2 copy
pop pop pop pop
3138 12829 16742 13822 1 Srect
9940 13174 0
/Helvetica-0 findfont 756 yratio mul scalefont setfont
(2) stringwidth pop add
2 div xratio div
dup 4 3 roll exch 0.000 cos mul sub 3 1 roll 0.000 sin mul sub 2 copy
/fntsize {/Helvetica-0 findfont exch scalefont setfont } def
0.000 756
(2) Stxtl
(2) stringwidth pop xratio div
dup 4 3 roll exch 0.000 cos mul add 3 1 roll 0.000 sin mul add 2 copy
pop pop pop pop
/Ssrgb {1.000 1.000 1.000} def
/Slw 0.576 def
/Slrgb {0.000 0.000 0.000} def
5144 2019 27663 4657 1 Srect
/Slw 0.864 def
/Slrgb {0.102 0.278 0.435} def
5493 3904 8518 3904 Sln
/Slrgb {0.565 0.208 0.231} def
15508 3904 18533 3904 Sln
/Slrgb {0.333 0.459 0.184} def
5493 2772 8518 2772 Sln
9003 3621 2 copy
/fntsize {/Helvetica-0 findfont exch scalefont setfont } def
0.000 808
(Agricult.) Stxtl
(Agricult.) stringwidth pop xratio div
dup 4 3 roll exch 0.000 cos mul add 3 1 roll 0.000 sin mul add 2 copy
pop pop pop pop
19018 3621 2 copy
/fntsize {/Helvetica-0 findfont exch scalefont setfont } def
0.000 808
(Employee \(non-agric.\)) Stxtl
(Employee \(non-agric.\)) stringwidth pop xratio div
dup 4 3 roll exch 0.000 cos mul add 3 1 roll 0.000 sin mul add 2 copy
pop pop pop pop
9003 2489 2 copy
/fntsize {/Helvetica-0 findfont exch scalefont setfont } def
0.000 808
(Self-employed) Stxtl
(Self-employed) stringwidth pop xratio div
dup 4 3 roll exch 0.000 cos mul add 3 1 roll 0.000 sin mul add 2 copy
pop pop pop pop
1381 14101 0
/Helvetica-0 findfont 808 yratio mul scalefont setfont
(kdensity lnincome_adj) stringwidth pop add
2 div xratio div
dup 4 3 roll exch 90.000 cos mul sub 3 1 roll 90.000 sin mul sub 2 copy
/fntsize {/Helvetica-0 findfont exch scalefont setfont } def
90.000 808
(kdensity lnincome_adj) Stxtl
(kdensity lnincome_adj) stringwidth pop xratio div
dup 4 3 roll exch 90.000 cos mul add 3 1 roll 90.000 sin mul add 2 copy
pop pop pop pop
16404 5178 0
/Helvetica-0 findfont 808 yratio mul scalefont setfont
(x) stringwidth pop add
2 div xratio div
dup 4 3 roll exch 0.000 cos mul sub 3 1 roll 0.000 sin mul sub 2 copy
/fntsize {/Helvetica-0 findfont exch scalefont setfont } def
0.000 808
(x) Stxtl
(x) stringwidth pop xratio div
dup 4 3 roll exch 0.000 cos mul add 3 1 roll 0.000 sin mul add 2 copy
pop pop pop pop
1762 1148 2 copy
/fntsize {/Helvetica-0 findfont exch scalefont setfont } def
0.000 646
(Graphs by t) Stxtl
(Graphs by t) stringwidth pop xratio div
dup 4 3 roll exch 0.000 cos mul add 3 1 roll 0.000 sin mul add 2 copy
pop pop pop pop
S showpage
%%EOF
