%!PS-Adobe-2.0 EPSF-2.0
%% This is a Stata generated postscript file
%%BoundingBox: 0 0 396 288
%%HiResBoundingBox: 0.000 0.000 396.000 288.000
%%DocumentNeededResources: font Helvetica
/xratio 0.012375 def
/yratio 0.012375 def
/Sbgfill {
	/y1 exch def
	/x1 exch def
	/y0 exch def
	/x0 exch def
	x0 y0 moveto
	x0 y1 lineto x1 y1 lineto x1 y0 lineto x0 y0 lineto
	fill
} def
/Spt {
	yratio mul
	/yp exch def
	xratio mul
	/xp exch def
	Slrgb setrgbcolor
	newpath
	xp yp moveto
	xp Slw add yp
	lineto
	currentlinecap
	1 setlinecap
	stroke
	setlinecap
} def
/Sln {
	yratio mul
	/y1p exch def
	xratio mul
	/x1p exch def
	yratio mul
	/y0p exch def
	xratio mul
	/x0p exch def
	Slw setlinewidth
	Slrgb setrgbcolor
	x0p y0p M x1p y1p lineto S
} def
/Scrv {
	yratio mul
	/y3p exch def
	xratio mul
	/x3p exch def
	yratio mul
	/y2p exch def
	xratio mul
	/x2p exch def
	yratio mul
	/y1p exch def
	xratio mul
	/x1p exch def
	Slw setlinewidth
	Slrgb setrgbcolor
	x1p y1p x2p y2p x3p y3p curveto
	stroke
} def
/Stxtl {
	/sp exch def
	yratio mul
	/sizep exch def
	dup
	/anglep exch def
	0 exch sub
	/angle2p exch def
	yratio mul
	/y0p exch def
	xratio mul
	/x0p exch def
	Strgb setrgbcolor
	x0p y0p M anglep rotate sizep fntsize sp show stroke angle2p rotate
} def
/Stxtc {
	/sp exch def
	yratio mul
	/sizep exch def
	dup
	/anglep exch def
	0 exch sub
	/angle2p exch def
	yratio mul
	/y0p exch def
	xratio mul
	/x0p exch def
	Strgb setrgbcolor
	x0p y0p M anglep rotate sizep fntsize sp stringwidth exch -2 div exch rm sp show stroke angle2p rotate
} def
/Stxtr {
	/sp exch def
	yratio mul
	/sizep exch def
	dup
	/anglep exch def
	0 exch sub
	/angle2p exch def
	yratio mul
	/y0p exch def
	xratio mul
	/x0p exch def
	Strgb setrgbcolor
	x0p y0p M anglep rotate sizep fntsize sp stringwidth 1 index -1 mul exch rm pop sp show stroke angle2p rotate
} def
/Srect {
	/sfill exch def
	yratio mul
	/y1 exch def
	xratio mul
	/x1 exch def
	yratio mul
	/y0 exch def
	xratio mul
	/x0 exch def
	sfill 1 eq {
		Ssrgb setrgbcolor
		x0 y0 moveto
		x0 y1 lineto x1 y1 lineto x1 y0 lineto x0 y0 lineto
		fill
	} if
	Slw setlinewidth
	Slrgb setrgbcolor
	x0 y0 moveto
	x0 y1 lineto x1 y1 lineto x1 y0 lineto x0 y0 lineto
	stroke
} def
/Sellipse {
	/sfill exch def
	yratio mul
	/yrad exch def
	xratio mul
	/xrad exch def
	yratio mul
	/y exch def
	xratio mul
	/x exch def
	sfill 1 eq {
		Ssrgb setrgbcolor
		/savematrix matrix currentmatrix def
		x y translate
		xrad yrad scale
		0 0 1 0 360 arc
		savematrix setmatrix
		fill
	} if
	Slw setlinewidth
	Slrgb setrgbcolor
		/savematrix matrix currentmatrix def
		x y translate
		xrad yrad scale
		0 0 1 0 360 arc
		savematrix setmatrix
	stroke
} def
/Stri {
	/sfill exch def
	xratio mul
	/r exch def
	yratio mul
	/y0 exch def
	xratio mul
	/x0 exch def
	/xcen x0 def
	y0 r add
	/ytop exch def
	r 2 div
	y0 exch sub
	/ybot exch def
	r 3 sqrt 2 div mul dup
	xcen exch sub
	/xleft exch def
	xcen add
	/xright exch def
	sfill 1 eq {
		Ssrgb setrgbcolor
		xcen ytop moveto xright ybot lineto xleft ybot lineto xcen ytop lineto fill
	} if
	Slw setlinewidth
	Slrgb setrgbcolor
	xcen ytop moveto xright ybot lineto xleft ybot lineto xcen ytop lineto stroke
} def
/Soldtri {
	/sfill exch def
	xratio mul
	/r exch def
	yratio mul
	/y0 exch def
	xratio mul
	/x0 exch def
	x0 r sub
	/x1 exch def
	y0 r sub
	/y1 exch def
	x0 r add
	/x2 exch def
	y0 r sub
	/y2 exch def
	/x3 x0 def
	y0 r add
	/y3 exch def
	sfill 1 eq {
		Ssrgb setrgbcolor
		x1 y1 moveto x2 y2 lineto x3 y3 lineto x1 y1 lineto fill
	} if
	Slw setlinewidth
	Slrgb setrgbcolor
	x1 y1 moveto x2 y2 lineto x3 y3 lineto x1 y1 lineto stroke
} def
/Sdia {
	/sfill exch def
	xratio mul
	/r exch def
	yratio mul
	/y exch def
	xratio mul
	/x exch def
	x r sub
	/x0 exch def
	/y0 y def
	/x1 x def
	y r sub
	/y1 exch def
	x r add
	/x2 exch def
	/y2 y def
	/x3 x def
	y r add
	/y3 exch def
	sfill 1 eq  {
		Ssrgb setrgbcolor
		x0 y0 moveto x1 y1 lineto x2 y2 lineto x3 y3 lineto x0 y0 lineto fill
	} if
	Slw setlinewidth
	Slrgb setrgbcolor
	x0 y0 moveto x1 y1 lineto x2 y2 lineto x3 y3 lineto x0 y0 lineto stroke
} def
/Scc {
	/sfill exch def
	xratio mul
	/r0 exch def
	yratio mul
	/y0 exch def
	xratio mul
	/x0 exch def
	sfill 1 eq {
		Ssrgb setrgbcolor
		x0 y0 r0 0 360 arc fill
	} if
	Slw setlinewidth
	Slrgb setrgbcolor
	x0 y0 r0 0 360 arc stroke
} def
/Spie {
	/sfill exch def
	/a1 exch def
	/a0 exch def
	xratio mul
	/r exch def
	yratio mul
	/y exch def
	xratio mul
	/x exch def
	sfill 1 eq {
		Ssrgb setrgbcolor
		newpath x y moveto x y r a0 a1 arc closepath
		fill
	} if
	Slw setlinewidth
	Slrgb setrgbcolor
	newpath x y moveto x y r a0 a1 arc closepath
	stroke
} def
/Splu {
	xratio mul
	/r exch def
	yratio mul
	/y exch def
	xratio mul
	/x exch def
	x r sub
	/x0 exch def
	x r add
	/x1 exch def
	x0 y M x1 y L
	y r sub
	/y0 exch def
	y r add
	/y1 exch def
	x y0 M x y1 L
} def
/Scro {
	xratio mul
	/r exch def
	yratio mul
	/y exch def
	xratio mul
	/x exch def
	x r sub
	/x0 exch def
	y r sub
	/y0 exch def
	x r add
	/x1 exch def
	y r add
	/y1 exch def
	x0 y0 M x1 y1 L
	x r add
	/x0 exch def
	y r sub
	/y0 exch def
	x r sub
	/x1 exch def
	y r add
	/y1 exch def
	x0 y0 M x1 y1 L
} def
/Sm {
	yratio mul
	/y exch def
	xratio mul
	/x exch def
	x y M
} def
/Sl {
	yratio mul
	/y exch def
	xratio mul
	/x exch def
	x y L
} def
/SPl {
	yratio mul
	/y exch def
	xratio mul
	/x exch def
	x y PL
} def
/Lcs {
	currentlinecap
	1 setlinecap
} def
/Lcr {
	setlinecap
} def
/Sbp {
	newpath
} def
/Sep {
	/sfill exch def
	closepath
	sfill 1 eq  {
		Ssrgb setrgbcolor
		gsave
		fill
		grestore
	} if
	Slw setlinewidth
	Slrgb setrgbcolor
	Lcs
	stroke
	Lcr
} def
/cp {currentpoint} def 
/M {moveto} def 
/rm {rmoveto} def 
/S {stroke} def 
/L {Slw setlinewidth Slrgb setrgbcolor lineto Lcs S Lcr} def 
/PL {Slw setlinewidth Slrgb setrgbcolor lineto} def 
/MF-Helvetica {
  /newfontname exch def
  /fontname exch def
  /fontdict fontname findfont def
  /newfont fontdict maxlength dict def
  fontdict {
  exch dup /FID eq {pop pop} {exch newfont 3 1 roll put} ifelse
  } forall
  newfont /FontName newfontname put
  newfont /Encoding ISOLatin1Encoding put
  newfontname newfont definefont pop
} def
/Helvetica /Helvetica-0 MF-Helvetica
/Slw 0.120 def
0.918 0.949 0.953 setrgbcolor
0 0 396.000 288.000 Sbgfill
/Slrgb {1.000 1.000 1.000} def
/Strgb {1.000 1.000 1.000} def
/Ssrgb {1.000 1.000 1.000} def
/Ssrgb {0.918 0.949 0.953} def
/Slw 0.576 def
/Slrgb {0.918 0.949 0.953} def
0 0 31999 23272 1 Srect
/Ssrgb {1.000 1.000 1.000} def
/Slw 0.490 def
/Slrgb {1.000 1.000 1.000} def
3138 15616 16742 21185 1 Srect
/Slrgb {0.000 0.000 0.000} def
/Strgb {0.000 0.000 0.000} def
/Slw 0.734 def
/Slrgb {0.918 0.949 0.953} def
3138 16052 16742 16052 Sln
/Slw 0.490 def
/Slrgb {0.000 0.000 0.000} def
/Slw 0.734 def
/Slrgb {0.918 0.949 0.953} def
3138 17226 16742 17226 Sln
/Slw 0.490 def
/Slrgb {0.000 0.000 0.000} def
/Slw 0.734 def
/Slrgb {0.918 0.949 0.953} def
3138 18401 16742 18401 Sln
/Slw 0.490 def
/Slrgb {0.000 0.000 0.000} def
/Slw 0.734 def
/Slrgb {0.918 0.949 0.953} def
3138 19575 16742 19575 Sln
/Slw 0.490 def
/Slrgb {0.000 0.000 0.000} def
/Slw 0.734 def
/Slrgb {0.918 0.949 0.953} def
3138 20750 16742 20750 Sln
/Slw 0.490 def
/Slrgb {0.000 0.000 0.000} def
/Slrgb {1.000 1.000 1.000} def
17301 15616 30905 21185 1 Srect
/Slrgb {0.000 0.000 0.000} def
/Slw 0.734 def
/Slrgb {0.918 0.949 0.953} def
17301 16052 30905 16052 Sln
/Slw 0.490 def
/Slrgb {0.000 0.000 0.000} def
/Slw 0.734 def
/Slrgb {0.918 0.949 0.953} def
17301 17226 30905 17226 Sln
/Slw 0.490 def
/Slrgb {0.000 0.000 0.000} def
/Slw 0.734 def
/Slrgb {0.918 0.949 0.953} def
17301 18401 30905 18401 Sln
/Slw 0.490 def
/Slrgb {0.000 0.000 0.000} def
/Slw 0.734 def
/Slrgb {0.918 0.949 0.953} def
17301 19575 30905 19575 Sln
/Slw 0.490 def
/Slrgb {0.000 0.000 0.000} def
/Slw 0.734 def
/Slrgb {0.918 0.949 0.953} def
17301 20750 30905 20750 Sln
/Slw 0.490 def
/Slrgb {0.000 0.000 0.000} def
/Slrgb {1.000 1.000 1.000} def
3138 7260 16742 12829 1 Srect
/Slrgb {0.000 0.000 0.000} def
/Slw 0.734 def
/Slrgb {0.918 0.949 0.953} def
3138 7695 16742 7695 Sln
/Slw 0.490 def
/Slrgb {0.000 0.000 0.000} def
/Slw 0.734 def
/Slrgb {0.918 0.949 0.953} def
3138 8869 16742 8869 Sln
/Slw 0.490 def
/Slrgb {0.000 0.000 0.000} def
/Slw 0.734 def
/Slrgb {0.918 0.949 0.953} def
3138 10044 16742 10044 Sln
/Slw 0.490 def
/Slrgb {0.000 0.000 0.000} def
/Slw 0.734 def
/Slrgb {0.918 0.949 0.953} def
3138 11219 16742 11219 Sln
/Slw 0.490 def
/Slrgb {0.000 0.000 0.000} def
/Slw 0.734 def
/Slrgb {0.918 0.949 0.953} def
3138 12393 16742 12393 Sln
/Slw 0.490 def
/Slrgb {0.000 0.000 0.000} def
/Slw 0.734 def
/Slrgb {0.102 0.278 0.435} def
3573 16563 Sm
3598 16578 Sl
3598 16578 Sm
3622 16593 Sl
3622 16593 Sm
3647 16608 Sl
3647 16608 Sm
3672 16621 Sl
3672 16621 Sm
3696 16634 Sl
3696 16634 Sm
3721 16645 Sl
3721 16645 Sm
3746 16656 Sl
3746 16656 Sm
3771 16669 Sl
3771 16669 Sm
3795 16685 Sl
3795 16685 Sm
3820 16700 Sl
3820 16700 Sm
3845 16715 Sl
3845 16715 Sm
3870 16732 Sl
3870 16732 Sm
3894 16749 Sl
3894 16749 Sm
3919 16765 Sl
3919 16765 Sm
3944 16779 Sl
3944 16779 Sm
3968 16792 Sl
3968 16792 Sm
3993 16804 Sl
3993 16804 Sm
4018 16820 Sl
4018 16820 Sm
4043 16839 Sl
4043 16839 Sm
4067 16856 Sl
4067 16856 Sm
4092 16873 Sl
4092 16873 Sm
4117 16888 Sl
4117 16888 Sm
4142 16902 Sl
4142 16902 Sm
4166 16914 Sl
4166 16914 Sm
4191 16933 Sl
4191 16933 Sm
4216 16951 Sl
4216 16951 Sm
4240 16969 Sl
4240 16969 Sm
4265 16986 Sl
4265 16986 Sm
4290 17005 Sl
4290 17005 Sm
4315 17022 Sl
4315 17022 Sm
4339 17038 Sl
4339 17038 Sm
4364 17051 Sl
4364 17051 Sm
4389 17064 Sl
4389 17064 Sm
4414 17074 Sl
4414 17074 Sm
4438 17083 Sl
4438 17083 Sm
4463 17090 Sl
4463 17090 Sm
4488 17096 Sl
4488 17096 Sm
4512 17106 Sl
4512 17106 Sm
4537 17120 Sl
4537 17120 Sm
4562 17131 Sl
4562 17131 Sm
4587 17142 Sl
4587 17142 Sm
4611 17154 Sl
4611 17154 Sm
4636 17170 Sl
4636 17170 Sm
4661 17185 Sl
4661 17185 Sm
4686 17199 Sl
4686 17199 Sm
4710 17211 Sl
4710 17211 Sm
4735 17221 Sl
4735 17221 Sm
4760 17231 Sl
4760 17231 Sm
4785 17242 Sl
4785 17242 Sm
4809 17251 Sl
4809 17251 Sm
4834 17259 Sl
4834 17259 Sm
4859 17271 Sl
4859 17271 Sm
4883 17280 Sl
4883 17280 Sm
4908 17288 Sl
4908 17288 Sm
4933 17293 Sl
4933 17293 Sm
4958 17297 Sl
4958 17297 Sm
4982 17301 Sl
4982 17301 Sm
5007 17310 Sl
5007 17310 Sm
5032 17323 Sl
5032 17323 Sm
5057 17335 Sl
5057 17335 Sm
5081 17346 Sl
5081 17346 Sm
5106 17357 Sl
5106 17357 Sm
5131 17368 Sl
5131 17368 Sm
5155 17378 Sl
5155 17378 Sm
5180 17390 Sl
5180 17390 Sm
5205 17402 Sl
5205 17402 Sm
5230 17411 Sl
5230 17411 Sm
5254 17421 Sl
5254 17421 Sm
5279 17430 Sl
5279 17430 Sm
5304 17444 Sl
5304 17444 Sm
5329 17457 Sl
5329 17457 Sm
5353 17469 Sl
5353 17469 Sm
5378 17480 Sl
5378 17480 Sm
5403 17488 Sl
5403 17488 Sm
5427 17506 Sl
5427 17506 Sm
5452 17527 Sl
5452 17527 Sm
5477 17548 Sl
5477 17548 Sm
5502 17580 Sl
5502 17580 Sm
5526 17617 Sl
5526 17617 Sm
5551 17650 Sl
5551 17650 Sm
5576 17681 Sl
5576 17681 Sm
5601 17709 Sl
5601 17709 Sm
5625 17734 Sl
5625 17734 Sm
5650 17756 Sl
5650 17756 Sm
5675 17778 Sl
5675 17778 Sm
5699 17797 Sl
5699 17797 Sm
5724 17812 Sl
5724 17812 Sm
5749 17825 Sl
5749 17825 Sm
5774 17835 Sl
5774 17835 Sm
5798 17842 Sl
5798 17842 Sm
5823 17851 Sl
5823 17851 Sm
5848 17865 Sl
5848 17865 Sm
5873 17883 Sl
5873 17883 Sm
5897 17898 Sl
5897 17898 Sm
5922 17910 Sl
5922 17910 Sm
5947 17922 Sl
5947 17922 Sm
5971 17932 Sl
5971 17932 Sm
5996 17951 Sl
5996 17951 Sm
6021 17971 Sl
6021 17971 Sm
6046 17988 Sl
6046 17988 Sm
6070 18001 Sl
6070 18001 Sm
6095 18012 Sl
6095 18012 Sm
6120 18027 Sl
6120 18027 Sm
6145 18040 Sl
6145 18040 Sm
6169 18050 Sl
6169 18050 Sm
6194 18056 Sl
6194 18056 Sm
6219 18059 Sl
6219 18059 Sm
6244 18065 Sl
6244 18065 Sm
6268 18071 Sl
6268 18071 Sm
6293 18081 Sl
6293 18081 Sm
6318 18088 Sl
6318 18088 Sm
6342 18091 Sl
6342 18091 Sm
6367 18096 Sl
6367 18096 Sm
6392 18099 Sl
6392 18099 Sm
6417 18098 Sl
6417 18098 Sm
6441 18094 Sl
6441 18094 Sm
6466 18087 Sl
6466 18087 Sm
6491 18136 Sl
6491 18136 Sm
6516 18197 Sl
6516 18197 Sm
6540 18252 Sl
6540 18252 Sm
6565 18305 Sl
6565 18305 Sm
6590 18353 Sl
6590 18353 Sm
6614 18409 Sl
6614 18409 Sm
6639 18460 Sl
6639 18460 Sm
6664 18513 Sl
6664 18513 Sm
6689 18565 Sl
6689 18565 Sm
6713 18613 Sl
6713 18613 Sm
6738 18658 Sl
6738 18658 Sm
6763 18700 Sl
6763 18700 Sm
6788 18736 Sl
6788 18736 Sm
6812 18768 Sl
6812 18768 Sm
6837 18796 Sl
6837 18796 Sm
6862 18823 Sl
6862 18823 Sm
6886 18845 Sl
6886 18845 Sm
6911 18864 Sl
6911 18864 Sm
6936 18882 Sl
6936 18882 Sm
6961 18898 Sl
6961 18898 Sm
6985 18918 Sl
6985 18918 Sm
7010 18934 Sl
7010 18934 Sm
7035 18945 Sl
7035 18945 Sm
7060 18952 Sl
7060 18952 Sm
7084 18956 Sl
7084 18956 Sm
7109 18967 Sl
7109 18967 Sm
7134 18975 Sl
7134 18975 Sm
7158 18978 Sl
7158 18978 Sm
7183 18978 Sl
7183 18978 Sm
7208 18975 Sl
7208 18975 Sm
7233 18968 Sl
7233 18968 Sm
7257 18958 Sl
7257 18958 Sm
7282 18947 Sl
7282 18947 Sm
7307 18931 Sl
7307 18931 Sm
7332 18912 Sl
7332 18912 Sm
7356 18891 Sl
7356 18891 Sm
7381 18866 Sl
7381 18866 Sm
7406 18836 Sl
7406 18836 Sm
7430 18805 Sl
7430 18805 Sm
7455 18770 Sl
7455 18770 Sm
7480 18741 Sl
7480 18741 Sm
7505 18715 Sl
7505 18715 Sm
7529 18693 Sl
7529 18693 Sm
7554 18667 Sl
7554 18667 Sm
7579 18640 Sl
7579 18640 Sm
7604 18626 Sl
7604 18626 Sm
7628 18610 Sl
7628 18610 Sm
7653 18589 Sl
7653 18589 Sm
7678 18566 Sl
7678 18566 Sm
7703 18539 Sl
7703 18539 Sm
7727 18510 Sl
7727 18510 Sm
7752 18479 Sl
7752 18479 Sm
7777 18446 Sl
7777 18446 Sm
7801 18410 Sl
7801 18410 Sm
7826 18370 Sl
7826 18370 Sm
7851 18326 Sl
7851 18326 Sm
7876 18279 Sl
7876 18279 Sm
7900 18229 Sl
7900 18229 Sm
7925 18187 Sl
7925 18187 Sm
7950 18144 Sl
7950 18144 Sm
7975 18098 Sl
7975 18098 Sm
7999 18048 Sl
7999 18048 Sm
8024 17996 Sl
8024 17996 Sm
8049 17940 Sl
8049 17940 Sm
8073 17884 Sl
8073 17884 Sm
8098 17839 Sl
8098 17839 Sm
8123 17790 Sl
8123 17790 Sm
8148 17739 Sl
8148 17739 Sm
8172 17685 Sl
8172 17685 Sm
8197 17628 Sl
8197 17628 Sm
8222 17568 Sl
8222 17568 Sm
8247 17506 Sl
8247 17506 Sm
8271 17441 Sl
8271 17441 Sm
8296 17381 Sl
8296 17381 Sm
8321 17323 Sl
8321 17323 Sm
8345 17268 Sl
8345 17268 Sm
8370 17209 Sl
8370 17209 Sm
8395 17148 Sl
8395 17148 Sm
8420 17084 Sl
8420 17084 Sm
8444 17017 Sl
8444 17017 Sm
8469 16949 Sl
8469 16949 Sm
8494 16879 Sl
8494 16879 Sm
8519 16805 Sl
8519 16805 Sm
8543 16729 Sl
8543 16729 Sm
8568 16671 Sl
8568 16671 Sm
8593 16666 Sl
8593 16666 Sm
8617 16659 Sl
8617 16659 Sm
8642 16652 Sl
8642 16652 Sm
8667 16645 Sl
8667 16645 Sm
8692 16638 Sl
8692 16638 Sm
8716 16629 Sl
8716 16629 Sm
8741 16624 Sl
8741 16624 Sm
8766 16621 Sl
8766 16621 Sm
8791 16616 Sl
8791 16616 Sm
8815 16611 Sl
8815 16611 Sm
8840 16607 Sl
8840 16607 Sm
8865 16603 Sl
8865 16603 Sm
8889 16600 Sl
8889 16600 Sm
8914 16595 Sl
8914 16595 Sm
8939 16590 Sl
8939 16590 Sm
8964 16586 Sl
8964 16586 Sm
8988 16581 Sl
8988 16581 Sm
9013 16575 Sl
9013 16575 Sm
9038 16568 Sl
9038 16568 Sm
9063 16564 Sl
9063 16564 Sm
9087 16564 Sl
9087 16564 Sm
9112 16565 Sl
9112 16565 Sm
9137 16566 Sl
9137 16566 Sm
9161 16566 Sl
9161 16566 Sm
9186 16566 Sl
9186 16566 Sm
9211 16564 Sl
9211 16564 Sm
9236 16562 Sl
9236 16562 Sm
9260 16559 Sl
9260 16559 Sm
9285 16556 Sl
9285 16556 Sm
9310 16551 Sl
9310 16551 Sm
9335 16546 Sl
9335 16546 Sm
9359 16540 Sl
9359 16540 Sm
9384 16533 Sl
9384 16533 Sm
9409 16525 Sl
9409 16525 Sm
9434 16516 Sl
9434 16516 Sm
9458 16507 Sl
9458 16507 Sm
9483 16496 Sl
9483 16496 Sm
9508 16485 Sl
9508 16485 Sm
9532 16474 Sl
9532 16474 Sm
9557 16466 Sl
9557 16466 Sm
9582 16464 Sl
9582 16464 Sm
9607 16462 Sl
9607 16462 Sm
9631 16459 Sl
9631 16459 Sm
9656 16455 Sl
9656 16455 Sm
9681 16451 Sl
9681 16451 Sm
9706 16447 Sl
9706 16447 Sm
9730 16442 Sl
9730 16442 Sm
9755 16436 Sl
9755 16436 Sm
9780 16430 Sl
9780 16430 Sm
9804 16424 Sl
9804 16424 Sm
9829 16419 Sl
9829 16419 Sm
9854 16414 Sl
9854 16414 Sm
9879 16408 Sl
9879 16408 Sm
9903 16402 Sl
9903 16402 Sm
9928 16396 Sl
9928 16396 Sm
9953 16391 Sl
9953 16391 Sm
9978 16385 Sl
9978 16385 Sm
10002 16379 Sl
10002 16379 Sm
10027 16372 Sl
10027 16372 Sm
10052 16365 Sl
10052 16365 Sm
10076 16357 Sl
10076 16357 Sm
10101 16349 Sl
10101 16349 Sm
10126 16340 Sl
10126 16340 Sm
10151 16331 Sl
10151 16331 Sm
10175 16321 Sl
10175 16321 Sm
10200 16310 Sl
10200 16310 Sm
10225 16299 Sl
10225 16299 Sm
10250 16287 Sl
10250 16287 Sm
10274 16275 Sl
10274 16275 Sm
10299 16263 Sl
10299 16263 Sm
10324 16249 Sl
10324 16249 Sm
10348 16236 Sl
10348 16236 Sm
10373 16224 Sl
10373 16224 Sm
10398 16221 Sl
10398 16221 Sm
10423 16217 Sl
10423 16217 Sm
10447 16213 Sl
10447 16213 Sm
10472 16209 Sl
10472 16209 Sm
10497 16205 Sl
10497 16205 Sm
10522 16201 Sl
10522 16201 Sm
10546 16197 Sl
10546 16197 Sm
10571 16194 Sl
10571 16194 Sm
10596 16191 Sl
10596 16191 Sm
10620 16188 Sl
10620 16188 Sm
10645 16185 Sl
10645 16185 Sm
10670 16181 Sl
10670 16181 Sm
10695 16177 Sl
10695 16177 Sm
10719 16173 Sl
10719 16173 Sm
10744 16169 Sl
10744 16169 Sm
10769 16165 Sl
10769 16165 Sm
10794 16160 Sl
10794 16160 Sm
10818 16155 Sl
10818 16155 Sm
10843 16150 Sl
10843 16150 Sm
10868 16145 Sl
10868 16145 Sm
10893 16139 Sl
10893 16139 Sm
10917 16133 Sl
10917 16133 Sm
10942 16127 Sl
10942 16127 Sm
10967 16123 Sl
/Slrgb {0.565 0.208 0.231} def
3573 16341 Sm
3600 16366 Sl
3600 16366 Sm
3628 16389 Sl
3628 16389 Sm
3655 16408 Sl
3655 16408 Sm
3683 16435 Sl
3683 16435 Sm
3710 16457 Sl
3710 16457 Sm
3738 16477 Sl
3738 16477 Sm
3765 16505 Sl
3765 16505 Sm
3793 16530 Sl
3793 16530 Sm
3820 16550 Sl
3820 16550 Sm
3848 16578 Sl
3848 16578 Sm
3875 16600 Sl
3875 16600 Sm
3903 16618 Sl
3903 16618 Sm
3930 16650 Sl
3930 16650 Sm
3957 16676 Sl
3957 16676 Sm
3985 16696 Sl
3985 16696 Sm
4012 16712 Sl
4012 16712 Sm
4040 16722 Sl
4040 16722 Sm
4067 16728 Sl
4067 16728 Sm
4095 16766 Sl
4095 16766 Sm
4122 16798 Sl
4122 16798 Sm
4150 16823 Sl
4150 16823 Sm
4177 16846 Sl
4177 16846 Sm
4205 16862 Sl
4205 16862 Sm
4232 16873 Sl
4232 16873 Sm
4260 16881 Sl
4260 16881 Sm
4287 16883 Sl
4287 16883 Sm
4315 16880 Sl
4315 16880 Sm
4342 16895 Sl
4342 16895 Sm
4370 16903 Sl
4370 16903 Sm
4397 16905 Sl
4397 16905 Sm
4425 16924 Sl
4425 16924 Sm
4452 16935 Sl
4452 16935 Sm
4480 16939 Sl
4480 16939 Sm
4507 16945 Sl
4507 16945 Sm
4534 16944 Sl
4534 16944 Sm
4562 16937 Sl
4562 16937 Sm
4589 16947 Sl
4589 16947 Sm
4617 16949 Sl
4617 16949 Sm
4644 16944 Sl
4644 16944 Sm
4672 16940 Sl
4672 16940 Sm
4699 16928 Sl
4699 16928 Sm
4727 16916 Sl
4727 16916 Sm
4754 16944 Sl
4754 16944 Sm
4782 16962 Sl
4782 16962 Sm
4809 16974 Sl
4809 16974 Sm
4837 16995 Sl
4837 16995 Sm
4864 17007 Sl
4864 17007 Sm
4892 17013 Sl
4892 17013 Sm
4919 17030 Sl
4919 17030 Sm
4947 17038 Sl
4947 17038 Sm
4974 17040 Sl
4974 17040 Sm
5002 17041 Sl
5002 17041 Sm
5029 17033 Sl
5029 17033 Sm
5057 17027 Sl
5057 17027 Sm
5084 17054 Sl
5084 17054 Sm
5111 17073 Sl
5111 17073 Sm
5139 17098 Sl
5139 17098 Sm
5166 17172 Sl
5166 17172 Sm
5194 17233 Sl
5194 17233 Sm
5221 17282 Sl
5221 17282 Sm
5249 17324 Sl
5249 17324 Sm
5276 17353 Sl
5276 17353 Sm
5304 17374 Sl
5304 17374 Sm
5331 17405 Sl
5331 17405 Sm
5359 17424 Sl
5359 17424 Sm
5386 17439 Sl
5386 17439 Sm
5414 17470 Sl
5414 17470 Sm
5441 17488 Sl
5441 17488 Sm
5469 17496 Sl
5469 17496 Sm
5496 17498 Sl
5496 17498 Sm
5524 17487 Sl
5524 17487 Sm
5551 17486 Sl
5551 17486 Sm
5579 17538 Sl
5579 17538 Sm
5606 17575 Sl
5606 17575 Sm
5634 17597 Sl
5634 17597 Sm
5661 17606 Sl
5661 17606 Sm
5688 17601 Sl
5688 17601 Sm
5716 17596 Sl
5716 17596 Sm
5743 17620 Sl
5743 17620 Sm
5771 17632 Sl
5771 17632 Sm
5798 17634 Sl
5798 17634 Sm
5826 17633 Sl
5826 17633 Sm
5853 17619 Sl
5853 17619 Sm
5881 17595 Sl
5881 17595 Sm
5908 17565 Sl
5908 17565 Sm
5936 17522 Sl
5936 17522 Sm
5963 17488 Sl
5963 17488 Sm
5991 17493 Sl
5991 17493 Sm
6018 17482 Sl
6018 17482 Sm
6046 17469 Sl
6046 17469 Sm
6073 17476 Sl
6073 17476 Sm
6101 17467 Sl
6101 17467 Sm
6128 17464 Sl
6128 17464 Sm
6156 17502 Sl
6156 17502 Sm
6183 17527 Sl
6183 17527 Sm
6211 17544 Sl
6211 17544 Sm
6238 17557 Sl
6238 17557 Sm
6265 17557 Sl
6265 17557 Sm
6293 17548 Sl
6293 17548 Sm
6320 17534 Sl
6320 17534 Sm
6348 17507 Sl
6348 17507 Sm
6375 17546 Sl
6375 17546 Sm
6403 17709 Sl
6403 17709 Sm
6430 17850 Sl
6430 17850 Sm
6458 17969 Sl
6458 17969 Sm
6485 18068 Sl
6485 18068 Sm
6513 18143 Sl
6513 18143 Sm
6540 18241 Sl
6540 18241 Sm
6568 18395 Sl
6568 18395 Sm
6595 18527 Sl
6595 18527 Sm
6623 18640 Sl
6623 18640 Sm
6650 18734 Sl
6650 18734 Sm
6678 18806 Sl
6678 18806 Sm
6705 18867 Sl
6705 18867 Sm
6733 18927 Sl
6733 18927 Sm
6760 18964 Sl
6760 18964 Sm
6788 19008 Sl
6788 19008 Sm
6815 19071 Sl
6815 19071 Sm
6842 19109 Sl
6842 19109 Sm
6870 19126 Sl
6870 19126 Sm
6897 19128 Sl
6897 19128 Sm
6925 19103 Sl
6925 19103 Sm
6952 19081 Sl
6952 19081 Sm
6980 19079 Sl
6980 19079 Sm
7007 19054 Sl
7007 19054 Sm
7035 19147 Sl
7035 19147 Sm
7062 19395 Sl
7062 19395 Sm
7090 19605 Sl
7090 19605 Sm
7117 19782 Sl
7117 19782 Sm
7145 19928 Sl
7145 19928 Sm
7172 20035 Sl
7172 20035 Sm
7200 20131 Sl
7200 20131 Sm
7227 20223 Sl
7227 20223 Sm
7255 20272 Sl
7255 20272 Sm
7282 20282 Sl
7282 20282 Sm
7310 20254 Sl
7310 20254 Sm
7337 20183 Sl
7337 20183 Sm
7365 20169 Sl
7365 20169 Sm
7392 20241 Sl
7392 20241 Sm
7419 20281 Sl
7419 20281 Sm
7447 20294 Sl
7447 20294 Sm
7474 20279 Sl
7474 20279 Sm
7502 20234 Sl
7502 20234 Sm
7529 20203 Sl
7529 20203 Sm
7557 20191 Sl
7557 20191 Sm
7584 20148 Sl
7584 20148 Sm
7612 20083 Sl
7612 20083 Sm
7639 19996 Sl
7639 19996 Sm
7667 19878 Sl
7667 19878 Sm
7694 19756 Sl
7694 19756 Sm
7722 19629 Sl
7722 19629 Sm
7749 19470 Sl
7749 19470 Sm
7777 19318 Sl
7777 19318 Sm
7804 19176 Sl
7804 19176 Sm
7832 19006 Sl
7832 19006 Sm
7859 18815 Sl
7859 18815 Sm
7887 18602 Sl
7887 18602 Sm
7914 18361 Sl
7914 18361 Sm
7942 18095 Sl
7942 18095 Sm
7969 17803 Sl
7969 17803 Sm
7996 17483 Sl
7996 17483 Sm
8024 17331 Sl
8024 17331 Sm
8051 17335 Sl
8051 17335 Sm
8079 17326 Sl
8079 17326 Sm
8106 17310 Sl
8106 17310 Sm
8134 17289 Sl
8134 17289 Sm
8161 17254 Sl
8161 17254 Sm
8189 17240 Sl
8189 17240 Sm
8216 17242 Sl
8216 17242 Sm
8244 17235 Sl
8244 17235 Sm
8271 17225 Sl
8271 17225 Sm
8299 17210 Sl
8299 17210 Sm
8326 17185 Sl
8326 17185 Sm
8354 17158 Sl
8354 17158 Sm
8381 17126 Sl
8381 17126 Sm
8409 17085 Sl
8409 17085 Sm
8436 17041 Sl
8436 17041 Sm
8464 16991 Sl
8464 16991 Sm
8491 16932 Sl
8491 16932 Sm
8519 16895 Sl
8519 16895 Sm
8546 16871 Sl
8546 16871 Sm
8574 16840 Sl
8574 16840 Sm
8601 16808 Sl
8601 16808 Sm
8628 16775 Sl
8628 16775 Sm
8656 16734 Sl
8656 16734 Sm
8683 16709 Sl
8683 16709 Sm
8711 16694 Sl
8711 16694 Sm
8738 16673 Sl
8738 16673 Sm
8766 16651 Sl
8766 16651 Sm
8793 16626 Sl
8793 16626 Sm
8821 16597 Sl
8821 16597 Sm
8848 16579 Sl
8848 16579 Sm
8876 16565 Sl
8876 16565 Sm
8903 16545 Sl
8903 16545 Sm
8931 16518 Sl
8931 16518 Sm
8958 16486 Sl
8958 16486 Sm
8986 16447 Sl
8986 16447 Sm
9013 16446 Sl
9013 16446 Sm
9041 16463 Sl
9041 16463 Sm
9068 16476 Sl
9068 16476 Sm
9096 16487 Sl
9096 16487 Sm
9123 16493 Sl
9123 16493 Sm
9151 16496 Sl
9151 16496 Sm
9178 16496 Sl
9178 16496 Sm
9205 16492 Sl
9205 16492 Sm
9233 16484 Sl
9233 16484 Sm
9260 16479 Sl
9260 16479 Sm
9288 16472 Sl
9288 16472 Sm
9315 16462 Sl
9315 16462 Sm
9343 16453 Sl
9343 16453 Sm
9370 16443 Sl
9370 16443 Sm
9398 16430 Sl
9398 16430 Sm
9425 16422 Sl
9425 16422 Sm
9453 16414 Sl
9453 16414 Sm
9480 16402 Sl
9480 16402 Sm
9508 16397 Sl
9508 16397 Sm
9535 16392 Sl
9535 16392 Sm
9563 16385 Sl
9563 16385 Sm
9590 16376 Sl
9590 16376 Sm
9618 16365 Sl
9618 16365 Sm
9645 16352 Sl
9645 16352 Sm
9673 16340 Sl
9673 16340 Sm
9700 16328 Sl
9700 16328 Sm
9728 16313 Sl
9728 16313 Sm
9755 16295 Sl
9755 16295 Sm
9782 16274 Sl
9782 16274 Sm
9810 16251 Sl
9810 16251 Sm
9837 16243 Sl
9837 16243 Sm
9865 16239 Sl
9865 16239 Sm
9892 16234 Sl
9892 16234 Sm
9920 16227 Sl
9920 16227 Sm
9947 16218 Sl
9947 16218 Sm
9975 16208 Sl
9975 16208 Sm
10002 16215 Sl
10002 16215 Sm
10030 16225 Sl
10030 16225 Sm
10057 16234 Sl
10057 16234 Sm
10085 16242 Sl
10085 16242 Sm
10112 16248 Sl
10112 16248 Sm
10140 16253 Sl
10140 16253 Sm
10167 16256 Sl
10167 16256 Sm
10195 16257 Sl
10195 16257 Sm
10222 16256 Sl
10222 16256 Sm
10250 16254 Sl
10250 16254 Sm
10277 16250 Sl
10277 16250 Sm
10305 16244 Sl
10305 16244 Sm
10332 16238 Sl
10332 16238 Sm
10359 16231 Sl
10359 16231 Sm
10387 16222 Sl
10387 16222 Sm
10414 16217 Sl
10414 16217 Sm
10442 16213 Sl
10442 16213 Sm
10469 16207 Sl
10469 16207 Sm
10497 16203 Sl
10497 16203 Sm
10524 16197 Sl
10524 16197 Sm
10552 16191 Sl
10552 16191 Sm
10579 16186 Sl
10579 16186 Sm
10607 16180 Sl
10607 16180 Sm
10634 16173 Sl
10634 16173 Sm
10662 16171 Sl
10662 16171 Sm
10689 16169 Sl
10689 16169 Sm
10717 16166 Sl
10717 16166 Sm
10744 16163 Sl
10744 16163 Sm
10772 16160 Sl
10772 16160 Sm
10799 16155 Sl
10799 16155 Sm
10827 16150 Sl
10827 16150 Sm
10854 16143 Sl
10854 16143 Sm
10882 16136 Sl
10882 16136 Sm
10909 16127 Sl
10909 16127 Sm
10936 16117 Sl
10936 16117 Sm
10964 16106 Sl
10964 16106 Sm
10991 16107 Sl
10991 16107 Sm
11019 16108 Sl
11019 16108 Sm
11046 16109 Sl
11046 16109 Sm
11074 16110 Sl
11074 16110 Sm
11101 16110 Sl
11101 16110 Sm
11129 16110 Sl
11129 16110 Sm
11156 16110 Sl
11156 16110 Sm
11184 16109 Sl
11184 16109 Sm
11211 16108 Sl
11211 16108 Sm
11239 16106 Sl
11239 16106 Sm
11266 16104 Sl
11266 16104 Sm
11294 16101 Sl
11294 16101 Sm
11321 16099 Sl
11321 16099 Sm
11349 16097 Sl
11349 16097 Sm
11376 16094 Sl
11376 16094 Sm
11404 16090 Sl
11404 16090 Sm
11431 16087 Sl
11431 16087 Sm
11459 16082 Sl
11459 16082 Sm
11486 16079 Sl
11486 16079 Sm
11513 16076 Sl
11513 16076 Sm
11541 16072 Sl
11541 16072 Sm
11568 16071 Sl
11568 16071 Sm
11596 16070 Sl
11596 16070 Sm
11623 16068 Sl
11623 16068 Sm
11651 16067 Sl
11651 16067 Sm
11678 16066 Sl
11678 16066 Sm
11706 16065 Sl
11706 16065 Sm
11733 16065 Sl
11733 16065 Sm
11761 16064 Sl
11761 16064 Sm
11788 16064 Sl
/Slrgb {0.333 0.459 0.184} def
3573 17346 Sm
3600 17395 Sl
3600 17395 Sm
3627 17441 Sl
3627 17441 Sm
3654 17485 Sl
3654 17485 Sm
3681 17526 Sl
3681 17526 Sm
3707 17564 Sl
3707 17564 Sm
3734 17600 Sl
3734 17600 Sm
3761 17641 Sl
3761 17641 Sm
3788 17681 Sl
3788 17681 Sm
3815 17718 Sl
3815 17718 Sm
3842 17762 Sl
3842 17762 Sm
3869 17803 Sl
3869 17803 Sm
3896 17842 Sl
3896 17842 Sm
3923 17879 Sl
3923 17879 Sm
3950 17913 Sl
3950 17913 Sm
3977 17944 Sl
3977 17944 Sm
4004 17972 Sl
4004 17972 Sm
4031 17996 Sl
4031 17996 Sm
4057 18017 Sl
4057 18017 Sm
4084 18040 Sl
4084 18040 Sm
4111 18062 Sl
4111 18062 Sm
4138 18079 Sl
4138 18079 Sm
4165 18093 Sl
4165 18093 Sm
4192 18104 Sl
4192 18104 Sm
4219 18110 Sl
4219 18110 Sm
4246 18122 Sl
4246 18122 Sm
4273 18137 Sl
4273 18137 Sm
4300 18147 Sl
4300 18147 Sm
4327 18160 Sl
4327 18160 Sm
4354 18175 Sl
4354 18175 Sm
4381 18185 Sl
4381 18185 Sm
4408 18190 Sl
4408 18190 Sm
4434 18192 Sl
4434 18192 Sm
4461 18190 Sl
4461 18190 Sm
4488 18183 Sl
4488 18183 Sm
4515 18172 Sl
4515 18172 Sm
4542 18156 Sl
4542 18156 Sm
4569 18145 Sl
4569 18145 Sm
4596 18142 Sl
4596 18142 Sm
4623 18134 Sl
4623 18134 Sm
4650 18125 Sl
4650 18125 Sm
4677 18119 Sl
4677 18119 Sm
4704 18108 Sl
4704 18108 Sm
4731 18094 Sl
4731 18094 Sm
4758 18083 Sl
4758 18083 Sm
4785 18067 Sl
4785 18067 Sm
4811 18049 Sl
4811 18049 Sm
4838 18036 Sl
4838 18036 Sm
4865 18019 Sl
4865 18019 Sm
4892 18001 Sl
4892 18001 Sm
4919 17991 Sl
4919 17991 Sm
4946 17977 Sl
4946 17977 Sm
4973 17960 Sl
4973 17960 Sm
5000 17948 Sl
5000 17948 Sm
5027 17932 Sl
5027 17932 Sm
5054 17915 Sl
5054 17915 Sm
5081 17921 Sl
5081 17921 Sm
5108 17922 Sl
5108 17922 Sm
5135 17920 Sl
5135 17920 Sm
5161 17917 Sl
5161 17917 Sm
5188 17910 Sl
5188 17910 Sm
5215 17899 Sl
5215 17899 Sm
5242 17897 Sl
5242 17897 Sm
5269 17893 Sl
5269 17893 Sm
5296 17884 Sl
5296 17884 Sm
5323 17875 Sl
5323 17875 Sm
5350 17863 Sl
5350 17863 Sm
5377 17847 Sl
5377 17847 Sm
5404 17842 Sl
5404 17842 Sm
5431 17835 Sl
5431 17835 Sm
5458 17825 Sl
5458 17825 Sm
5485 17822 Sl
5485 17822 Sm
5512 17817 Sl
5512 17817 Sm
5538 17808 Sl
5538 17808 Sm
5565 17807 Sl
5565 17807 Sm
5592 17805 Sl
5592 17805 Sm
5619 17800 Sl
5619 17800 Sm
5646 17790 Sl
5646 17790 Sm
5673 17777 Sl
5673 17777 Sm
5700 17760 Sl
5700 17760 Sm
5727 17748 Sl
5727 17748 Sm
5754 17736 Sl
5754 17736 Sm
5781 17720 Sl
5781 17720 Sm
5808 17708 Sl
5808 17708 Sm
5835 17697 Sl
5835 17697 Sm
5862 17683 Sl
5862 17683 Sm
5889 17676 Sl
5889 17676 Sm
5915 17671 Sl
5915 17671 Sm
5942 17663 Sl
5942 17663 Sm
5969 17652 Sl
5969 17652 Sm
5996 17639 Sl
5996 17639 Sm
6023 17621 Sl
6023 17621 Sm
6050 17611 Sl
6050 17611 Sm
6077 17609 Sl
6077 17609 Sm
6104 17603 Sl
6104 17603 Sm
6131 17594 Sl
6131 17594 Sm
6158 17581 Sl
6158 17581 Sm
6185 17564 Sl
6185 17564 Sm
6212 17550 Sl
6212 17550 Sm
6239 17543 Sl
6239 17543 Sm
6265 17533 Sl
6265 17533 Sm
6292 17524 Sl
6292 17524 Sm
6319 17523 Sl
6319 17523 Sm
6346 17519 Sl
6346 17519 Sm
6373 17512 Sl
6373 17512 Sm
6400 17503 Sl
6400 17503 Sm
6427 17492 Sl
6427 17492 Sm
6454 17477 Sl
6454 17477 Sm
6481 17461 Sl
6481 17461 Sm
6508 17441 Sl
6508 17441 Sm
6535 17425 Sl
6535 17425 Sm
6562 17434 Sl
6562 17434 Sm
6589 17440 Sl
6589 17440 Sm
6616 17444 Sl
6616 17444 Sm
6642 17456 Sl
6642 17456 Sm
6669 17465 Sl
6669 17465 Sm
6696 17472 Sl
6696 17472 Sm
6723 17483 Sl
6723 17483 Sm
6750 17490 Sl
6750 17490 Sm
6777 17494 Sl
6777 17494 Sm
6804 17496 Sl
6804 17496 Sm
6831 17495 Sl
6831 17495 Sm
6858 17490 Sl
6858 17490 Sm
6885 17492 Sl
6885 17492 Sm
6912 17491 Sl
6912 17491 Sm
6939 17488 Sl
6939 17488 Sm
6966 17481 Sl
6966 17481 Sm
6993 17471 Sl
6993 17471 Sm
7019 17458 Sl
7019 17458 Sm
7046 17462 Sl
7046 17462 Sm
7073 17466 Sl
7073 17466 Sm
7100 17468 Sl
7100 17468 Sm
7127 17467 Sl
7127 17467 Sm
7154 17464 Sl
7154 17464 Sm
7181 17458 Sl
7181 17458 Sm
7208 17461 Sl
7208 17461 Sm
7235 17464 Sl
7235 17464 Sm
7262 17464 Sl
7262 17464 Sm
7289 17462 Sl
7289 17462 Sm
7316 17457 Sl
7316 17457 Sm
7343 17450 Sl
7343 17450 Sm
7369 17441 Sl
7369 17441 Sm
7396 17430 Sl
7396 17430 Sm
7423 17416 Sl
7423 17416 Sm
7450 17405 Sl
7450 17405 Sm
7477 17397 Sl
7477 17397 Sm
7504 17386 Sl
7504 17386 Sm
7531 17384 Sl
7531 17384 Sm
7558 17389 Sl
7558 17389 Sm
7585 17392 Sl
7585 17392 Sm
7612 17391 Sl
7612 17391 Sm
7639 17387 Sl
7639 17387 Sm
7666 17380 Sl
7666 17380 Sm
7693 17372 Sl
7693 17372 Sm
7720 17362 Sl
7720 17362 Sm
7746 17349 Sl
7746 17349 Sm
7773 17335 Sl
7773 17335 Sm
7800 17321 Sl
7800 17321 Sm
7827 17303 Sl
7827 17303 Sm
7854 17289 Sl
7854 17289 Sm
7881 17283 Sl
7881 17283 Sm
7908 17274 Sl
7908 17274 Sm
7935 17263 Sl
7935 17263 Sm
7962 17250 Sl
7962 17250 Sm
7989 17234 Sl
7989 17234 Sm
8016 17219 Sl
8016 17219 Sm
8043 17213 Sl
8043 17213 Sm
8070 17205 Sl
8070 17205 Sm
8097 17196 Sl
8097 17196 Sm
8123 17184 Sl
8123 17184 Sm
8150 17170 Sl
8150 17170 Sm
8177 17153 Sl
8177 17153 Sm
8204 17136 Sl
8204 17136 Sm
8231 17116 Sl
8231 17116 Sm
8258 17094 Sl
8258 17094 Sm
8285 17073 Sl
8285 17073 Sm
8312 17049 Sl
8312 17049 Sm
8339 17025 Sl
8339 17025 Sm
8366 17013 Sl
8366 17013 Sm
8393 16999 Sl
8393 16999 Sm
8420 16982 Sl
8420 16982 Sm
8447 16963 Sl
8447 16963 Sm
8473 16941 Sl
8473 16941 Sm
8500 16917 Sl
8500 16917 Sm
8527 16916 Sl
8527 16916 Sm
8554 16914 Sl
8554 16914 Sm
8581 16911 Sl
8581 16911 Sm
8608 16909 Sl
8608 16909 Sm
8635 16905 Sl
8635 16905 Sm
8662 16899 Sl
8662 16899 Sm
8689 16898 Sl
8689 16898 Sm
8716 16897 Sl
8716 16897 Sm
8743 16894 Sl
8743 16894 Sm
8770 16890 Sl
8770 16890 Sm
8797 16885 Sl
8797 16885 Sm
8824 16878 Sl
8824 16878 Sm
8850 16871 Sl
8850 16871 Sm
8877 16862 Sl
8877 16862 Sm
8904 16852 Sl
8904 16852 Sm
8931 16842 Sl
8931 16842 Sm
8958 16831 Sl
8958 16831 Sm
8985 16818 Sl
8985 16818 Sm
9012 16806 Sl
9012 16806 Sm
9039 16794 Sl
9039 16794 Sm
9066 16780 Sl
9066 16780 Sm
9093 16765 Sl
9093 16765 Sm
9120 16749 Sl
9120 16749 Sm
9147 16732 Sl
9147 16732 Sm
9174 16720 Sl
9174 16720 Sm
9201 16714 Sl
9201 16714 Sm
9227 16706 Sl
9227 16706 Sm
9254 16697 Sl
9254 16697 Sm
9281 16687 Sl
9281 16687 Sm
9308 16675 Sl
9308 16675 Sm
9335 16663 Sl
9335 16663 Sm
9362 16650 Sl
9362 16650 Sm
9389 16636 Sl
9389 16636 Sm
9416 16621 Sl
9416 16621 Sm
9443 16604 Sl
9443 16604 Sm
9470 16587 Sl
9470 16587 Sm
9497 16574 Sl
9497 16574 Sm
9524 16574 Sl
9524 16574 Sm
9551 16573 Sl
9551 16573 Sm
9577 16571 Sl
9577 16571 Sm
9604 16568 Sl
9604 16568 Sm
9631 16564 Sl
9631 16564 Sm
9658 16559 Sl
9658 16559 Sm
9685 16553 Sl
9685 16553 Sm
9712 16546 Sl
9712 16546 Sm
9739 16539 Sl
9739 16539 Sm
9766 16534 Sl
9766 16534 Sm
9793 16529 Sl
9793 16529 Sm
9820 16522 Sl
9820 16522 Sm
9847 16518 Sl
9847 16518 Sm
9874 16513 Sl
9874 16513 Sm
9901 16506 Sl
9901 16506 Sm
9928 16499 Sl
9928 16499 Sm
9954 16491 Sl
9954 16491 Sm
9981 16482 Sl
9981 16482 Sm
10008 16473 Sl
10008 16473 Sm
10035 16463 Sl
10035 16463 Sm
10062 16452 Sl
10062 16452 Sm
10089 16443 Sl
10089 16443 Sm
10116 16432 Sl
10116 16432 Sm
10143 16421 Sl
10143 16421 Sm
10170 16409 Sl
10170 16409 Sm
10197 16396 Sl
10197 16396 Sm
10224 16382 Sl
10224 16382 Sm
10251 16367 Sl
10251 16367 Sm
10278 16352 Sl
10278 16352 Sm
10305 16335 Sl
10305 16335 Sm
10331 16330 Sl
10331 16330 Sm
10358 16328 Sl
10358 16328 Sm
10385 16325 Sl
10385 16325 Sm
10412 16322 Sl
10412 16322 Sm
10439 16318 Sl
10439 16318 Sm
10466 16314 Sl
10466 16314 Sm
10493 16311 Sl
10493 16311 Sm
10520 16309 Sl
10520 16309 Sm
10547 16306 Sl
10547 16306 Sm
10574 16303 Sl
10574 16303 Sm
10601 16300 Sl
10601 16300 Sm
10628 16297 Sl
10628 16297 Sm
10655 16293 Sl
10655 16293 Sm
10681 16290 Sl
10681 16290 Sm
10708 16286 Sl
10708 16286 Sm
10735 16281 Sl
10735 16281 Sm
10762 16277 Sl
10762 16277 Sm
10789 16272 Sl
10789 16272 Sm
10816 16267 Sl
10816 16267 Sm
10843 16261 Sl
10843 16261 Sm
10870 16254 Sl
10870 16254 Sm
10897 16249 Sl
10897 16249 Sm
10924 16244 Sl
10924 16244 Sm
10951 16238 Sl
10951 16238 Sm
10978 16233 Sl
10978 16233 Sm
11005 16228 Sl
11005 16228 Sm
11032 16223 Sl
11032 16223 Sm
11058 16217 Sl
11058 16217 Sm
11085 16211 Sl
11085 16211 Sm
11112 16205 Sl
11112 16205 Sm
11139 16199 Sl
11139 16199 Sm
11166 16194 Sl
11166 16194 Sm
11193 16188 Sl
11193 16188 Sm
11220 16182 Sl
11220 16182 Sm
11247 16176 Sl
11247 16176 Sm
11274 16169 Sl
11274 16169 Sm
11301 16162 Sl
11301 16162 Sm
11328 16155 Sl
11328 16155 Sm
11355 16147 Sl
11355 16147 Sm
11382 16139 Sl
11382 16139 Sm
11409 16131 Sl
11409 16131 Sm
11435 16123 Sl
11435 16123 Sm
11462 16115 Sl
11462 16115 Sm
11489 16113 Sl
11489 16113 Sm
11516 16111 Sl
11516 16111 Sm
11543 16109 Sl
11543 16109 Sm
11570 16107 Sl
11570 16107 Sm
11597 16105 Sl
11597 16105 Sm
11624 16103 Sl
/Slrgb {0.102 0.278 0.435} def
17736 17267 Sm
17762 17296 Sl
17762 17296 Sm
17788 17322 Sl
17788 17322 Sm
17814 17348 Sl
17814 17348 Sm
17840 17371 Sl
17840 17371 Sm
17866 17394 Sl
17866 17394 Sm
17892 17415 Sl
17892 17415 Sm
17918 17434 Sl
17918 17434 Sm
17944 17452 Sl
17944 17452 Sm
17971 17469 Sl
17971 17469 Sm
17997 17485 Sl
17997 17485 Sm
18023 17501 Sl
18023 17501 Sm
18049 17515 Sl
18049 17515 Sm
18075 17528 Sl
18075 17528 Sm
18101 17541 Sl
18101 17541 Sm
18127 17553 Sl
18127 17553 Sm
18153 17563 Sl
18153 17563 Sm
18179 17580 Sl
18179 17580 Sm
18205 17595 Sl
18205 17595 Sm
18232 17608 Sl
18232 17608 Sm
18258 17628 Sl
18258 17628 Sm
18284 17648 Sl
18284 17648 Sm
18310 17666 Sl
18310 17666 Sm
18336 17682 Sl
18336 17682 Sm
18362 17697 Sl
18362 17697 Sm
18388 17709 Sl
18388 17709 Sm
18414 17719 Sl
18414 17719 Sm
18440 17728 Sl
18440 17728 Sm
18466 17735 Sl
18466 17735 Sm
18493 17742 Sl
18493 17742 Sm
18519 17753 Sl
18519 17753 Sm
18545 17761 Sl
18545 17761 Sm
18571 17768 Sl
18571 17768 Sm
18597 17773 Sl
18597 17773 Sm
18623 17775 Sl
18623 17775 Sm
18649 17776 Sl
18649 17776 Sm
18675 17774 Sl
18675 17774 Sm
18701 17770 Sl
18701 17770 Sm
18728 17764 Sl
18728 17764 Sm
18754 17758 Sl
18754 17758 Sm
18780 17750 Sl
18780 17750 Sm
18806 17740 Sl
18806 17740 Sm
18832 17727 Sl
18832 17727 Sm
18858 17713 Sl
18858 17713 Sm
18884 17696 Sl
18884 17696 Sm
18910 17678 Sl
18910 17678 Sm
18936 17657 Sl
18936 17657 Sm
18962 17635 Sl
18962 17635 Sm
18989 17620 Sl
18989 17620 Sm
19015 17609 Sl
19015 17609 Sm
19041 17596 Sl
19041 17596 Sm
19067 17581 Sl
19067 17581 Sm
19093 17563 Sl
19093 17563 Sm
19119 17543 Sl
19119 17543 Sm
19145 17522 Sl
19145 17522 Sm
19171 17499 Sl
19171 17499 Sm
19197 17475 Sl
19197 17475 Sm
19223 17451 Sl
19223 17451 Sm
19250 17426 Sl
19250 17426 Sm
19276 17399 Sl
19276 17399 Sm
19302 17376 Sl
19302 17376 Sm
19328 17355 Sl
19328 17355 Sm
19354 17332 Sl
19354 17332 Sm
19380 17309 Sl
19380 17309 Sm
19406 17288 Sl
19406 17288 Sm
19432 17265 Sl
19432 17265 Sm
19458 17243 Sl
19458 17243 Sm
19484 17239 Sl
19484 17239 Sm
19511 17245 Sl
19511 17245 Sm
19537 17249 Sl
19537 17249 Sm
19563 17250 Sl
19563 17250 Sm
19589 17250 Sl
19589 17250 Sm
19615 17246 Sl
19615 17246 Sm
19641 17263 Sl
19641 17263 Sm
19667 17278 Sl
19667 17278 Sm
19693 17292 Sl
19693 17292 Sm
19719 17305 Sl
19719 17305 Sm
19746 17317 Sl
19746 17317 Sm
19772 17327 Sl
19772 17327 Sm
19798 17340 Sl
19798 17340 Sm
19824 17356 Sl
19824 17356 Sm
19850 17372 Sl
19850 17372 Sm
19876 17385 Sl
19876 17385 Sm
19902 17397 Sl
19902 17397 Sm
19928 17407 Sl
19928 17407 Sm
19954 17416 Sl
19954 17416 Sm
19980 17441 Sl
19980 17441 Sm
20007 17469 Sl
20007 17469 Sm
20033 17496 Sl
20033 17496 Sm
20059 17522 Sl
20059 17522 Sm
20085 17546 Sl
20085 17546 Sm
20111 17569 Sl
20111 17569 Sm
20137 17589 Sl
20137 17589 Sm
20163 17607 Sl
20163 17607 Sm
20189 17623 Sl
20189 17623 Sm
20215 17638 Sl
20215 17638 Sm
20241 17654 Sl
20241 17654 Sm
20268 17668 Sl
20268 17668 Sm
20294 17679 Sl
20294 17679 Sm
20320 17690 Sl
20320 17690 Sm
20346 17699 Sl
20346 17699 Sm
20372 17706 Sl
20372 17706 Sm
20398 17712 Sl
20398 17712 Sm
20424 17716 Sl
20424 17716 Sm
20450 17719 Sl
20450 17719 Sm
20476 17762 Sl
20476 17762 Sm
20502 17813 Sl
20502 17813 Sm
20529 17861 Sl
20529 17861 Sm
20555 17907 Sl
20555 17907 Sm
20581 17950 Sl
20581 17950 Sm
20607 17991 Sl
20607 17991 Sm
20633 18035 Sl
20633 18035 Sm
20659 18076 Sl
20659 18076 Sm
20685 18115 Sl
20685 18115 Sm
20711 18160 Sl
20711 18160 Sm
20737 18202 Sl
20737 18202 Sm
20764 18241 Sl
20764 18241 Sm
20790 18277 Sl
20790 18277 Sm
20816 18311 Sl
20816 18311 Sm
20842 18341 Sl
20842 18341 Sm
20868 18368 Sl
20868 18368 Sm
20894 18393 Sl
20894 18393 Sm
20920 18414 Sl
20920 18414 Sm
20946 18438 Sl
20946 18438 Sm
20972 18465 Sl
20972 18465 Sm
20998 18490 Sl
20998 18490 Sm
21025 18513 Sl
21025 18513 Sm
21051 18532 Sl
21051 18532 Sm
21077 18548 Sl
21077 18548 Sm
21103 18562 Sl
21103 18562 Sm
21129 18575 Sl
21129 18575 Sm
21155 18587 Sl
21155 18587 Sm
21181 18596 Sl
21181 18596 Sm
21207 18604 Sl
21207 18604 Sm
21233 18609 Sl
21233 18609 Sm
21259 18611 Sl
21259 18611 Sm
21286 18611 Sl
21286 18611 Sm
21312 18607 Sl
21312 18607 Sm
21338 18600 Sl
21338 18600 Sm
21364 18591 Sl
21364 18591 Sm
21390 18581 Sl
21390 18581 Sm
21416 18568 Sl
21416 18568 Sm
21442 18559 Sl
21442 18559 Sm
21468 18554 Sl
21468 18554 Sm
21494 18546 Sl
21494 18546 Sm
21520 18536 Sl
21520 18536 Sm
21547 18523 Sl
21547 18523 Sm
21573 18507 Sl
21573 18507 Sm
21599 18489 Sl
21599 18489 Sm
21625 18469 Sl
21625 18469 Sm
21651 18446 Sl
21651 18446 Sm
21677 18421 Sl
21677 18421 Sm
21703 18393 Sl
21703 18393 Sm
21729 18362 Sl
21729 18362 Sm
21755 18329 Sl
21755 18329 Sm
21782 18293 Sl
21782 18293 Sm
21808 18256 Sl
21808 18256 Sm
21834 18216 Sl
21834 18216 Sm
21860 18176 Sl
21860 18176 Sm
21886 18132 Sl
21886 18132 Sm
21912 18086 Sl
21912 18086 Sm
21938 18059 Sl
21938 18059 Sm
21964 18037 Sl
21964 18037 Sm
21990 18012 Sl
21990 18012 Sm
22016 17985 Sl
22016 17985 Sm
22043 17955 Sl
22043 17955 Sm
22069 17924 Sl
22069 17924 Sm
22095 17890 Sl
22095 17890 Sm
22121 17854 Sl
22121 17854 Sm
22147 17815 Sl
22147 17815 Sm
22173 17774 Sl
22173 17774 Sm
22199 17731 Sl
22199 17731 Sm
22225 17686 Sl
22225 17686 Sm
22251 17640 Sl
22251 17640 Sm
22277 17595 Sl
22277 17595 Sm
22304 17550 Sl
22304 17550 Sm
22330 17502 Sl
22330 17502 Sm
22356 17451 Sl
22356 17451 Sm
22382 17399 Sl
22382 17399 Sm
22408 17344 Sl
22408 17344 Sm
22434 17307 Sl
22434 17307 Sm
22460 17271 Sl
22460 17271 Sm
22486 17234 Sl
22486 17234 Sm
22512 17195 Sl
22512 17195 Sm
22538 17156 Sl
22538 17156 Sm
22565 17115 Sl
22565 17115 Sm
22591 17072 Sl
22591 17072 Sm
22617 17027 Sl
22617 17027 Sm
22643 16980 Sl
22643 16980 Sm
22669 16934 Sl
22669 16934 Sm
22695 16888 Sl
22695 16888 Sm
22721 16840 Sl
22721 16840 Sm
22747 16792 Sl
22747 16792 Sm
22773 16743 Sl
22773 16743 Sm
22800 16692 Sl
22800 16692 Sm
22826 16640 Sl
22826 16640 Sm
22852 16588 Sl
22852 16588 Sm
22878 16535 Sl
22878 16535 Sm
22904 16483 Sl
22904 16483 Sm
22930 16480 Sl
22930 16480 Sm
22956 16477 Sl
22956 16477 Sm
22982 16473 Sl
22982 16473 Sm
23008 16468 Sl
23008 16468 Sm
23034 16463 Sl
23034 16463 Sm
23061 16458 Sl
23061 16458 Sm
23087 16452 Sl
23087 16452 Sm
23113 16445 Sl
23113 16445 Sm
23139 16438 Sl
23139 16438 Sm
23165 16431 Sl
23165 16431 Sm
23191 16423 Sl
23191 16423 Sm
23217 16414 Sl
23217 16414 Sm
23243 16406 Sl
23243 16406 Sm
23269 16396 Sl
23269 16396 Sm
23295 16386 Sl
23295 16386 Sm
23322 16376 Sl
23322 16376 Sm
23348 16365 Sl
23348 16365 Sm
23374 16354 Sl
23374 16354 Sm
23400 16343 Sl
23400 16343 Sm
23426 16335 Sl
23426 16335 Sm
23452 16327 Sl
23452 16327 Sm
23478 16318 Sl
23478 16318 Sm
23504 16309 Sl
23504 16309 Sm
23530 16299 Sl
23530 16299 Sm
23556 16289 Sl
23556 16289 Sm
23583 16282 Sl
23583 16282 Sm
23609 16276 Sl
23609 16276 Sm
23635 16269 Sl
23635 16269 Sm
23661 16261 Sl
23661 16261 Sm
23687 16254 Sl
23687 16254 Sm
23713 16246 Sl
23713 16246 Sm
23739 16238 Sl
23739 16238 Sm
23765 16230 Sl
23765 16230 Sm
23791 16221 Sl
23791 16221 Sm
23818 16213 Sl
23818 16213 Sm
23844 16205 Sl
23844 16205 Sm
23870 16198 Sl
23870 16198 Sm
23896 16191 Sl
23896 16191 Sm
23922 16187 Sl
23922 16187 Sm
23948 16183 Sl
23948 16183 Sm
23974 16179 Sl
23974 16179 Sm
24000 16175 Sl
24000 16175 Sm
24026 16170 Sl
24026 16170 Sm
24052 16165 Sl
24052 16165 Sm
24079 16160 Sl
24079 16160 Sm
24105 16155 Sl
24105 16155 Sm
24131 16150 Sl
24131 16150 Sm
24157 16144 Sl
24157 16144 Sm
24183 16139 Sl
24183 16139 Sm
24209 16133 Sl
24209 16133 Sm
24235 16128 Sl
24235 16128 Sm
24261 16124 Sl
24261 16124 Sm
24287 16120 Sl
24287 16120 Sm
24313 16116 Sl
24313 16116 Sm
24340 16113 Sl
24340 16113 Sm
24366 16110 Sl
24366 16110 Sm
24392 16108 Sl
24392 16108 Sm
24418 16108 Sl
24418 16108 Sm
24444 16107 Sl
24444 16107 Sm
24470 16105 Sl
24470 16105 Sm
24496 16104 Sl
24496 16104 Sm
24522 16103 Sl
24522 16103 Sm
24548 16101 Sl
24548 16101 Sm
24574 16099 Sl
24574 16099 Sm
24601 16098 Sl
24601 16098 Sm
24627 16096 Sl
24627 16096 Sm
24653 16094 Sl
24653 16094 Sm
24679 16091 Sl
24679 16091 Sm
24705 16089 Sl
24705 16089 Sm
24731 16088 Sl
24731 16088 Sm
24757 16088 Sl
24757 16088 Sm
24783 16087 Sl
24783 16087 Sm
24809 16087 Sl
24809 16087 Sm
24836 16086 Sl
24836 16086 Sm
24862 16085 Sl
24862 16085 Sm
24888 16085 Sl
24888 16085 Sm
24914 16086 Sl
24914 16086 Sm
24940 16087 Sl
24940 16087 Sm
24966 16088 Sl
24966 16088 Sm
24992 16089 Sl
24992 16089 Sm
25018 16090 Sl
25018 16090 Sm
25044 16091 Sl
25044 16091 Sm
25070 16092 Sl
25070 16092 Sm
25097 16092 Sl
25097 16092 Sm
25123 16093 Sl
25123 16093 Sm
25149 16094 Sl
25149 16094 Sm
25175 16094 Sl
25175 16094 Sm
25201 16095 Sl
25201 16095 Sm
25227 16096 Sl
25227 16096 Sm
25253 16096 Sl
25253 16096 Sm
25279 16097 Sl
25279 16097 Sm
25305 16097 Sl
25305 16097 Sm
25331 16097 Sl
25331 16097 Sm
25358 16098 Sl
25358 16098 Sm
25384 16098 Sl
25384 16098 Sm
25410 16098 Sl
25410 16098 Sm
25436 16098 Sl
25436 16098 Sm
25462 16099 Sl
25462 16099 Sm
25488 16099 Sl
25488 16099 Sm
25514 16099 Sl
25514 16099 Sm
25540 16099 Sl
/Slrgb {0.565 0.208 0.231} def
17736 16260 Sm
17766 16286 Sl
17766 16286 Sm
17796 16315 Sl
17796 16315 Sm
17826 16342 Sl
17826 16342 Sm
17857 16371 Sl
17857 16371 Sm
17887 16398 Sl
17887 16398 Sm
17917 16422 Sl
17917 16422 Sm
17947 16484 Sl
17947 16484 Sm
17977 16539 Sl
17977 16539 Sm
18008 16592 Sl
18008 16592 Sm
18038 16649 Sl
18038 16649 Sm
18068 16698 Sl
18068 16698 Sm
18098 16751 Sl
18098 16751 Sm
18129 16803 Sl
18129 16803 Sm
18159 16847 Sl
18159 16847 Sm
18189 16884 Sl
18189 16884 Sm
18219 16914 Sl
18219 16914 Sm
18249 16945 Sl
18249 16945 Sm
18280 16985 Sl
18280 16985 Sm
18310 17017 Sl
18310 17017 Sm
18340 17041 Sl
18340 17041 Sm
18370 17055 Sl
18370 17055 Sm
18401 17065 Sl
18401 17065 Sm
18431 17073 Sl
18431 17073 Sm
18461 17075 Sl
18461 17075 Sm
18491 17071 Sl
18491 17071 Sm
18521 17082 Sl
18521 17082 Sm
18552 17083 Sl
18552 17083 Sm
18582 17079 Sl
18582 17079 Sm
18612 17071 Sl
18612 17071 Sm
18642 17060 Sl
18642 17060 Sm
18673 17042 Sl
18673 17042 Sm
18703 17014 Sl
18703 17014 Sm
18733 16986 Sl
18733 16986 Sm
18763 16959 Sl
18763 16959 Sm
18793 16923 Sl
18793 16923 Sm
18824 16884 Sl
18824 16884 Sm
18854 16835 Sl
18854 16835 Sm
18884 16797 Sl
18884 16797 Sm
18914 16793 Sl
18914 16793 Sm
18945 16812 Sl
18945 16812 Sm
18975 16832 Sl
18975 16832 Sm
19005 16850 Sl
19005 16850 Sm
19035 16861 Sl
19035 16861 Sm
19065 16881 Sl
19065 16881 Sm
19096 16894 Sl
19096 16894 Sm
19126 16899 Sl
19126 16899 Sm
19156 16896 Sl
19156 16896 Sm
19186 16886 Sl
19186 16886 Sm
19217 16881 Sl
19217 16881 Sm
19247 16897 Sl
19247 16897 Sm
19277 16922 Sl
19277 16922 Sm
19307 16938 Sl
19307 16938 Sm
19337 16994 Sl
19337 16994 Sm
19368 17050 Sl
19368 17050 Sm
19398 17101 Sl
19398 17101 Sm
19428 17140 Sl
19428 17140 Sm
19458 17177 Sl
19458 17177 Sm
19489 17216 Sl
19489 17216 Sm
19519 17246 Sl
19519 17246 Sm
19549 17272 Sl
19549 17272 Sm
19579 17299 Sl
19579 17299 Sm
19610 17319 Sl
19610 17319 Sm
19640 17326 Sl
19640 17326 Sm
19670 17321 Sl
19670 17321 Sm
19700 17306 Sl
19700 17306 Sm
19730 17304 Sl
19730 17304 Sm
19761 17357 Sl
19761 17357 Sm
19791 17392 Sl
19791 17392 Sm
19821 17409 Sl
19821 17409 Sm
19851 17407 Sl
19851 17407 Sm
19882 17437 Sl
19882 17437 Sm
19912 17469 Sl
19912 17469 Sm
19942 17489 Sl
19942 17489 Sm
19972 17501 Sl
19972 17501 Sm
20002 17505 Sl
20002 17505 Sm
20033 17494 Sl
20033 17494 Sm
20063 17471 Sl
20063 17471 Sm
20093 17436 Sl
20093 17436 Sm
20123 17388 Sl
20123 17388 Sm
20154 17370 Sl
20154 17370 Sm
20184 17364 Sl
20184 17364 Sm
20214 17378 Sl
20214 17378 Sm
20244 17418 Sl
20244 17418 Sm
20274 17461 Sl
20274 17461 Sm
20305 17532 Sl
20305 17532 Sm
20335 17586 Sl
20335 17586 Sm
20365 17623 Sl
20365 17623 Sm
20395 17646 Sl
20395 17646 Sm
20426 17655 Sl
20426 17655 Sm
20456 17651 Sl
20456 17651 Sm
20486 17631 Sl
20486 17631 Sm
20516 17597 Sl
20516 17597 Sm
20546 17567 Sl
20546 17567 Sm
20577 17745 Sl
20577 17745 Sm
20607 17894 Sl
20607 17894 Sm
20637 18012 Sl
20637 18012 Sm
20667 18098 Sl
20667 18098 Sm
20698 18219 Sl
20698 18219 Sm
20728 18378 Sl
20728 18378 Sm
20758 18536 Sl
20758 18536 Sm
20788 18664 Sl
20788 18664 Sm
20818 18769 Sl
20818 18769 Sm
20849 18850 Sl
20849 18850 Sm
20879 18913 Sl
20879 18913 Sm
20909 18957 Sl
20909 18957 Sm
20939 18974 Sl
20939 18974 Sm
20970 18996 Sl
20970 18996 Sm
21000 19025 Sl
21000 19025 Sm
21030 19026 Sl
21030 19026 Sm
21060 19002 Sl
21060 19002 Sm
21090 18957 Sl
21090 18957 Sm
21121 18950 Sl
21121 18950 Sm
21151 18920 Sl
21151 18920 Sm
21181 18879 Sl
21181 18879 Sm
21211 18954 Sl
21211 18954 Sm
21242 19281 Sl
21242 19281 Sm
21272 19556 Sl
21272 19556 Sm
21302 19783 Sl
21302 19783 Sm
21332 19961 Sl
21332 19961 Sm
21362 20091 Sl
21362 20091 Sm
21393 20224 Sl
21393 20224 Sm
21423 20312 Sl
21423 20312 Sm
21453 20343 Sl
21453 20343 Sm
21483 20321 Sl
21483 20321 Sm
21514 20368 Sl
21514 20368 Sm
21544 20492 Sl
21544 20492 Sm
21574 20583 Sl
21574 20583 Sm
21604 20630 Sl
21604 20630 Sm
21635 20635 Sl
21635 20635 Sm
21665 20603 Sl
21665 20603 Sm
21695 20589 Sl
21695 20589 Sm
21725 20559 Sl
21725 20559 Sm
21755 20492 Sl
21755 20492 Sm
21786 20392 Sl
21786 20392 Sm
21816 20259 Sl
21816 20259 Sm
21846 20092 Sl
21846 20092 Sm
21876 19922 Sl
21876 19922 Sm
21907 19737 Sl
21907 19737 Sm
21937 19575 Sl
21937 19575 Sm
21967 19379 Sl
21967 19379 Sm
21997 19144 Sl
21997 19144 Sm
22027 18879 Sl
22027 18879 Sm
22058 18575 Sl
22058 18575 Sm
22088 18234 Sl
22088 18234 Sm
22118 17857 Sl
22118 17857 Sm
22148 17440 Sl
22148 17440 Sm
22179 17313 Sl
22179 17313 Sm
22209 17311 Sl
22209 17311 Sm
22239 17318 Sl
22239 17318 Sm
22269 17317 Sl
22269 17317 Sm
22299 17299 Sl
22299 17299 Sm
22330 17287 Sl
22330 17287 Sm
22360 17308 Sl
22360 17308 Sm
22390 17317 Sl
22390 17317 Sm
22420 17316 Sl
22420 17316 Sm
22451 17308 Sl
22451 17308 Sm
22481 17292 Sl
22481 17292 Sm
22511 17279 Sl
22511 17279 Sm
22541 17261 Sl
22541 17261 Sm
22571 17231 Sl
22571 17231 Sm
22602 17190 Sl
22602 17190 Sm
22632 17140 Sl
22632 17140 Sm
22662 17089 Sl
22662 17089 Sm
22692 17043 Sl
22692 17043 Sm
22723 16992 Sl
22723 16992 Sm
22753 16939 Sl
22753 16939 Sm
22783 16878 Sl
22783 16878 Sm
22813 16807 Sl
22813 16807 Sm
22843 16790 Sl
22843 16790 Sm
22874 16768 Sl
22874 16768 Sm
22904 16739 Sl
22904 16739 Sm
22934 16704 Sl
22934 16704 Sm
22964 16663 Sl
22964 16663 Sm
22995 16615 Sl
22995 16615 Sm
23025 16573 Sl
23025 16573 Sm
23055 16536 Sl
23055 16536 Sm
23085 16491 Sl
23085 16491 Sm
23115 16437 Sl
23115 16437 Sm
23146 16388 Sl
23146 16388 Sm
23176 16398 Sl
23176 16398 Sm
23206 16419 Sl
23206 16419 Sm
23236 16435 Sl
23236 16435 Sm
23267 16447 Sl
23267 16447 Sm
23297 16454 Sl
23297 16454 Sm
23327 16458 Sl
23327 16458 Sm
23357 16460 Sl
23357 16460 Sm
23388 16457 Sl
23388 16457 Sm
23418 16459 Sl
23418 16459 Sm
23448 16458 Sl
23448 16458 Sm
23478 16454 Sl
23478 16454 Sm
23508 16451 Sl
23508 16451 Sm
23539 16444 Sl
23539 16444 Sm
23569 16435 Sl
23569 16435 Sm
23599 16426 Sl
23599 16426 Sm
23629 16417 Sl
23629 16417 Sm
23660 16413 Sl
23660 16413 Sm
23690 16408 Sl
23690 16408 Sm
23720 16399 Sl
23720 16399 Sm
23750 16387 Sl
23750 16387 Sm
23780 16371 Sl
23780 16371 Sm
23811 16353 Sl
23811 16353 Sm
23841 16334 Sl
23841 16334 Sm
23871 16317 Sl
23871 16317 Sm
23901 16296 Sl
23901 16296 Sm
23932 16273 Sl
23932 16273 Sm
23962 16245 Sl
23962 16245 Sm
23992 16240 Sl
23992 16240 Sm
24022 16233 Sl
24022 16233 Sm
24052 16224 Sl
24052 16224 Sm
24083 16214 Sl
24083 16214 Sm
24113 16200 Sl
24113 16200 Sm
24143 16194 Sl
24143 16194 Sm
24173 16198 Sl
24173 16198 Sm
24204 16206 Sl
24204 16206 Sm
24234 16213 Sl
24234 16213 Sm
24264 16218 Sl
24264 16218 Sm
24294 16221 Sl
24294 16221 Sm
24324 16224 Sl
24324 16224 Sm
24355 16225 Sl
24355 16225 Sm
24385 16225 Sl
24385 16225 Sm
24415 16223 Sl
24415 16223 Sm
24445 16219 Sl
24445 16219 Sm
24476 16214 Sl
24476 16214 Sm
24506 16208 Sl
24506 16208 Sm
24536 16199 Sl
24536 16199 Sm
24566 16195 Sl
24566 16195 Sm
24596 16190 Sl
24596 16190 Sm
24627 16184 Sl
24627 16184 Sm
24657 16178 Sl
24657 16178 Sm
24687 16172 Sl
24687 16172 Sm
24717 16165 Sl
24717 16165 Sm
24748 16157 Sl
24748 16157 Sm
24778 16148 Sl
24778 16148 Sm
24808 16143 Sl
24808 16143 Sm
24838 16140 Sl
24838 16140 Sm
24868 16136 Sl
24868 16136 Sm
24899 16131 Sl
24899 16131 Sm
24929 16126 Sl
24929 16126 Sm
24959 16120 Sl
24959 16120 Sm
24989 16113 Sl
24989 16113 Sm
25020 16108 Sl
25020 16108 Sm
25050 16101 Sl
25050 16101 Sm
25080 16096 Sl
25080 16096 Sm
25110 16090 Sl
25110 16090 Sm
25140 16094 Sl
25140 16094 Sm
25171 16098 Sl
25171 16098 Sm
25201 16103 Sl
25201 16103 Sm
25231 16107 Sl
25231 16107 Sm
25261 16111 Sl
25261 16111 Sm
25292 16114 Sl
25292 16114 Sm
25322 16116 Sl
25322 16116 Sm
25352 16118 Sl
25352 16118 Sm
25382 16119 Sl
25382 16119 Sm
25413 16119 Sl
25413 16119 Sm
25443 16119 Sl
25443 16119 Sm
25473 16118 Sl
25473 16118 Sm
25503 16117 Sl
25503 16117 Sm
25533 16115 Sl
25533 16115 Sm
25564 16112 Sl
25564 16112 Sm
25594 16109 Sl
25594 16109 Sm
25624 16106 Sl
25624 16106 Sm
25654 16104 Sl
25654 16104 Sm
25685 16100 Sl
25685 16100 Sm
25715 16098 Sl
25715 16098 Sm
25745 16095 Sl
25745 16095 Sm
25775 16092 Sl
25775 16092 Sm
25805 16089 Sl
25805 16089 Sm
25836 16085 Sl
25836 16085 Sm
25866 16081 Sl
25866 16081 Sm
25896 16076 Sl
25896 16076 Sm
25926 16070 Sl
25926 16070 Sm
25957 16067 Sl
25957 16067 Sm
25987 16063 Sl
25987 16063 Sm
26017 16059 Sl
26017 16059 Sm
26047 16059 Sl
26047 16059 Sm
26077 16058 Sl
26077 16058 Sm
26108 16058 Sl
26108 16058 Sm
26138 16058 Sl
26138 16058 Sm
26168 16058 Sl
26168 16058 Sm
26198 16058 Sl
26198 16058 Sm
26229 16058 Sl
26229 16058 Sm
26259 16058 Sl
26259 16058 Sm
26289 16058 Sl
26289 16058 Sm
26319 16058 Sl
26319 16058 Sm
26349 16059 Sl
26349 16059 Sm
26380 16059 Sl
26380 16059 Sm
26410 16060 Sl
26410 16060 Sm
26440 16060 Sl
26440 16060 Sm
26470 16060 Sl
26470 16060 Sm
26501 16060 Sl
26501 16060 Sm
26531 16060 Sl
26531 16060 Sm
26561 16060 Sl
26561 16060 Sm
26591 16059 Sl
26591 16059 Sm
26621 16059 Sl
26621 16059 Sm
26652 16058 Sl
26652 16058 Sm
26682 16058 Sl
26682 16058 Sm
26712 16058 Sl
26712 16058 Sm
26742 16058 Sl
26742 16058 Sm
26773 16058 Sl
/Slrgb {0.333 0.459 0.184} def
17736 17237 Sm
17775 17303 Sl
17775 17303 Sm
17815 17373 Sl
17815 17373 Sm
17854 17446 Sl
17854 17446 Sm
17894 17516 Sl
17894 17516 Sm
17933 17586 Sl
17933 17586 Sm
17973 17653 Sl
17973 17653 Sm
18013 17718 Sl
18013 17718 Sm
18052 17777 Sl
18052 17777 Sm
18092 17833 Sl
18092 17833 Sm
18131 17884 Sl
18131 17884 Sm
18171 17937 Sl
18171 17937 Sm
18210 17984 Sl
18210 17984 Sm
18250 18024 Sl
18250 18024 Sm
18290 18061 Sl
18290 18061 Sm
18329 18108 Sl
18329 18108 Sm
18369 18149 Sl
18369 18149 Sm
18408 18195 Sl
18408 18195 Sm
18448 18235 Sl
18448 18235 Sm
18487 18268 Sl
18487 18268 Sm
18527 18294 Sl
18527 18294 Sm
18567 18313 Sl
18567 18313 Sm
18606 18325 Sl
18606 18325 Sm
18646 18337 Sl
18646 18337 Sm
18685 18343 Sl
18685 18343 Sm
18725 18349 Sl
18725 18349 Sm
18764 18349 Sl
18764 18349 Sm
18804 18342 Sl
18804 18342 Sm
18843 18328 Sl
18843 18328 Sm
18883 18310 Sl
18883 18310 Sm
18923 18284 Sl
18923 18284 Sm
18962 18257 Sl
18962 18257 Sm
19002 18229 Sl
19002 18229 Sm
19041 18197 Sl
19041 18197 Sm
19081 18159 Sl
19081 18159 Sm
19120 18124 Sl
19120 18124 Sm
19160 18092 Sl
19160 18092 Sm
19200 18061 Sl
19200 18061 Sm
19239 18022 Sl
19239 18022 Sm
19279 17987 Sl
19279 17987 Sm
19318 17946 Sl
19318 17946 Sm
19358 17913 Sl
19358 17913 Sm
19397 17875 Sl
19397 17875 Sm
19437 17841 Sl
19437 17841 Sm
19477 17802 Sl
19477 17802 Sm
19516 17766 Sl
19516 17766 Sm
19556 17741 Sl
19556 17741 Sm
19595 17714 Sl
19595 17714 Sm
19635 17692 Sl
19635 17692 Sm
19674 17679 Sl
19674 17679 Sm
19714 17669 Sl
19714 17669 Sm
19753 17653 Sl
19753 17653 Sm
19793 17631 Sl
19793 17631 Sm
19833 17610 Sl
19833 17610 Sm
19872 17590 Sl
19872 17590 Sm
19912 17565 Sl
19912 17565 Sm
19951 17545 Sl
19951 17545 Sm
19991 17532 Sl
19991 17532 Sm
20030 17524 Sl
20030 17524 Sm
20070 17513 Sl
20070 17513 Sm
20110 17508 Sl
20110 17508 Sm
20149 17509 Sl
20149 17509 Sm
20189 17509 Sl
20189 17509 Sm
20228 17503 Sl
20228 17503 Sm
20268 17493 Sl
20268 17493 Sm
20307 17477 Sl
20307 17477 Sm
20347 17466 Sl
20347 17466 Sm
20387 17452 Sl
20387 17452 Sm
20426 17433 Sl
20426 17433 Sm
20466 17411 Sl
20466 17411 Sm
20505 17400 Sl
20505 17400 Sm
20545 17386 Sl
20545 17386 Sm
20584 17378 Sl
20584 17378 Sm
20624 17394 Sl
20624 17394 Sm
20663 17407 Sl
20663 17407 Sm
20703 17420 Sl
20703 17420 Sm
20743 17428 Sl
20743 17428 Sm
20782 17439 Sl
20782 17439 Sm
20822 17451 Sl
20822 17451 Sm
20861 17463 Sl
20861 17463 Sm
20901 17473 Sl
20901 17473 Sm
20940 17486 Sl
20940 17486 Sm
20980 17496 Sl
20980 17496 Sm
21020 17501 Sl
21020 17501 Sm
21059 17501 Sl
21059 17501 Sm
21099 17499 Sl
21099 17499 Sm
21138 17496 Sl
21138 17496 Sm
21178 17497 Sl
21178 17497 Sm
21217 17493 Sl
21217 17493 Sm
21257 17487 Sl
21257 17487 Sm
21297 17484 Sl
21297 17484 Sm
21336 17492 Sl
21336 17492 Sm
21376 17495 Sl
21376 17495 Sm
21415 17493 Sl
21415 17493 Sm
21455 17487 Sl
21455 17487 Sm
21494 17478 Sl
21494 17478 Sm
21534 17464 Sl
21534 17464 Sm
21574 17447 Sl
21574 17447 Sm
21613 17440 Sl
21613 17440 Sm
21653 17428 Sl
21653 17428 Sm
21692 17410 Sl
21692 17410 Sm
21732 17397 Sl
21732 17397 Sm
21771 17384 Sl
21771 17384 Sm
21811 17374 Sl
21811 17374 Sm
21850 17365 Sl
21850 17365 Sm
21890 17352 Sl
21890 17352 Sm
21930 17335 Sl
21930 17335 Sm
21969 17314 Sl
21969 17314 Sm
22009 17289 Sl
22009 17289 Sm
22048 17259 Sl
22048 17259 Sm
22088 17226 Sl
22088 17226 Sm
22127 17195 Sl
22127 17195 Sm
22167 17172 Sl
22167 17172 Sm
22207 17145 Sl
22207 17145 Sm
22246 17114 Sl
22246 17114 Sm
22286 17083 Sl
22286 17083 Sm
22325 17063 Sl
22325 17063 Sm
22365 17039 Sl
22365 17039 Sm
22404 17015 Sl
22404 17015 Sm
22444 16999 Sl
22444 16999 Sm
22484 16979 Sl
22484 16979 Sm
22523 16955 Sl
22523 16955 Sm
22563 16931 Sl
22563 16931 Sm
22602 16905 Sl
22602 16905 Sm
22642 16876 Sl
22642 16876 Sm
22681 16845 Sl
22681 16845 Sm
22721 16809 Sl
22721 16809 Sm
22760 16770 Sl
22760 16770 Sm
22800 16747 Sl
22800 16747 Sm
22840 16730 Sl
22840 16730 Sm
22879 16713 Sl
22879 16713 Sm
22919 16696 Sl
22919 16696 Sm
22958 16683 Sl
22958 16683 Sm
22998 16673 Sl
22998 16673 Sm
23037 16662 Sl
23037 16662 Sm
23077 16649 Sl
23077 16649 Sm
23117 16636 Sl
23117 16636 Sm
23156 16624 Sl
23156 16624 Sm
23196 16610 Sl
23196 16610 Sm
23235 16596 Sl
23235 16596 Sm
23275 16583 Sl
23275 16583 Sm
23314 16571 Sl
23314 16571 Sm
23354 16557 Sl
23354 16557 Sm
23394 16542 Sl
23394 16542 Sm
23433 16526 Sl
23433 16526 Sm
23473 16518 Sl
23473 16518 Sm
23512 16509 Sl
23512 16509 Sm
23552 16501 Sl
23552 16501 Sm
23591 16503 Sl
23591 16503 Sm
23631 16503 Sl
23631 16503 Sm
23671 16500 Sl
23671 16500 Sm
23710 16495 Sl
23710 16495 Sm
23750 16488 Sl
23750 16488 Sm
23789 16491 Sl
23789 16491 Sm
23829 16496 Sl
23829 16496 Sm
23868 16499 Sl
23868 16499 Sm
23908 16501 Sl
23908 16501 Sm
23947 16501 Sl
23947 16501 Sm
23987 16501 Sl
23987 16501 Sm
24027 16501 Sl
24027 16501 Sm
24066 16503 Sl
24066 16503 Sm
24106 16504 Sl
24106 16504 Sm
24145 16505 Sl
24145 16505 Sm
24185 16505 Sl
24185 16505 Sm
24224 16503 Sl
24224 16503 Sm
24264 16500 Sl
24264 16500 Sm
24304 16495 Sl
24304 16495 Sm
24343 16489 Sl
24343 16489 Sm
24383 16481 Sl
24383 16481 Sm
24422 16472 Sl
24422 16472 Sm
24462 16465 Sl
24462 16465 Sm
24501 16461 Sl
24501 16461 Sm
24541 16455 Sl
24541 16455 Sm
24581 16447 Sl
24581 16447 Sm
24620 16453 Sl
24620 16453 Sm
24660 16457 Sl
24660 16457 Sm
24699 16460 Sl
24699 16460 Sm
24739 16461 Sl
24739 16461 Sm
24778 16462 Sl
24778 16462 Sm
24818 16462 Sl
24818 16462 Sm
24857 16460 Sl
24857 16460 Sm
24897 16458 Sl
24897 16458 Sm
24937 16454 Sl
24937 16454 Sm
24976 16449 Sl
24976 16449 Sm
25016 16443 Sl
25016 16443 Sm
25055 16436 Sl
25055 16436 Sm
25095 16428 Sl
25095 16428 Sm
25134 16418 Sl
25134 16418 Sm
25174 16409 Sl
25174 16409 Sm
25214 16399 Sl
25214 16399 Sm
25253 16389 Sl
25253 16389 Sm
25293 16378 Sl
25293 16378 Sm
25332 16365 Sl
25332 16365 Sm
25372 16352 Sl
25372 16352 Sm
25411 16338 Sl
25411 16338 Sm
25451 16326 Sl
25451 16326 Sm
25491 16314 Sl
25491 16314 Sm
25530 16300 Sl
25530 16300 Sm
25570 16285 Sl
25570 16285 Sm
25609 16269 Sl
25609 16269 Sm
25649 16252 Sl
25649 16252 Sm
25688 16236 Sl
25688 16236 Sm
25728 16218 Sl
25728 16218 Sm
25768 16213 Sl
25768 16213 Sm
25807 16208 Sl
25807 16208 Sm
25847 16202 Sl
25847 16202 Sm
25886 16197 Sl
25886 16197 Sm
25926 16191 Sl
25926 16191 Sm
25965 16184 Sl
25965 16184 Sm
26005 16177 Sl
26005 16177 Sm
26044 16170 Sl
26044 16170 Sm
26084 16162 Sl
26084 16162 Sm
26124 16154 Sl
26124 16154 Sm
26163 16146 Sl
26163 16146 Sm
26203 16138 Sl
26203 16138 Sm
26242 16130 Sl
26242 16130 Sm
26282 16123 Sl
26282 16123 Sm
26321 16117 Sl
26321 16117 Sm
26361 16111 Sl
26361 16111 Sm
26401 16105 Sl
26401 16105 Sm
26440 16098 Sl
26440 16098 Sm
26480 16092 Sl
26480 16092 Sm
26519 16085 Sl
26519 16085 Sm
26559 16077 Sl
26559 16077 Sm
26598 16070 Sl
26598 16070 Sm
26638 16064 Sl
26638 16064 Sm
26678 16064 Sl
26678 16064 Sm
26717 16063 Sl
26717 16063 Sm
26757 16063 Sl
26757 16063 Sm
26796 16063 Sl
26796 16063 Sm
26836 16062 Sl
26836 16062 Sm
26875 16062 Sl
26875 16062 Sm
26915 16061 Sl
26915 16061 Sm
26954 16061 Sl
26954 16061 Sm
26994 16060 Sl
26994 16060 Sm
27034 16060 Sl
27034 16060 Sm
27073 16059 Sl
27073 16059 Sm
27113 16059 Sl
27113 16059 Sm
27152 16059 Sl
27152 16059 Sm
27192 16059 Sl
27192 16059 Sm
27231 16059 Sl
27231 16059 Sm
27271 16059 Sl
27271 16059 Sm
27311 16058 Sl
27311 16058 Sm
27350 16058 Sl
27350 16058 Sm
27390 16058 Sl
27390 16058 Sm
27429 16058 Sl
27429 16058 Sm
27469 16057 Sl
27469 16057 Sm
27508 16057 Sl
27508 16057 Sm
27548 16057 Sl
27548 16057 Sm
27588 16056 Sl
27588 16056 Sm
27627 16056 Sl
27627 16056 Sm
27667 16056 Sl
27667 16056 Sm
27706 16055 Sl
27706 16055 Sm
27746 16055 Sl
27746 16055 Sm
27785 16054 Sl
27785 16054 Sm
27825 16054 Sl
27825 16054 Sm
27864 16053 Sl
27864 16053 Sm
27904 16053 Sl
27904 16053 Sm
27944 16052 Sl
27944 16052 Sm
27983 16052 Sl
27983 16052 Sm
28023 16051 Sl
28023 16051 Sm
28062 16051 Sl
28062 16051 Sm
28102 16051 Sl
28102 16051 Sm
28141 16051 Sl
28141 16051 Sm
28181 16052 Sl
28181 16052 Sm
28221 16052 Sl
28221 16052 Sm
28260 16053 Sl
28260 16053 Sm
28300 16053 Sl
28300 16053 Sm
28339 16054 Sl
28339 16054 Sm
28379 16054 Sl
28379 16054 Sm
28418 16055 Sl
28418 16055 Sm
28458 16055 Sl
28458 16055 Sm
28498 16056 Sl
28498 16056 Sm
28537 16057 Sl
28537 16057 Sm
28577 16058 Sl
28577 16058 Sm
28616 16059 Sl
28616 16059 Sm
28656 16060 Sl
28656 16060 Sm
28695 16060 Sl
28695 16060 Sm
28735 16061 Sl
28735 16061 Sm
28775 16062 Sl
28775 16062 Sm
28814 16063 Sl
28814 16063 Sm
28854 16063 Sl
28854 16063 Sm
28893 16064 Sl
28893 16064 Sm
28933 16064 Sl
28933 16064 Sm
28972 16065 Sl
28972 16065 Sm
29012 16065 Sl
29012 16065 Sm
29051 16066 Sl
29051 16066 Sm
29091 16066 Sl
29091 16066 Sm
29131 16066 Sl
29131 16066 Sm
29170 16067 Sl
29170 16067 Sm
29210 16067 Sl
29210 16067 Sm
29249 16067 Sl
29249 16067 Sm
29289 16067 Sl
29289 16067 Sm
29328 16067 Sl
29328 16067 Sm
29368 16067 Sl
29368 16067 Sm
29408 16067 Sl
29408 16067 Sm
29447 16067 Sl
29447 16067 Sm
29487 16067 Sl
29487 16067 Sm
29526 16067 Sl
29526 16067 Sm
29566 16067 Sl
/Slrgb {0.102 0.278 0.435} def
3573 8207 Sm
3596 8224 Sl
3596 8224 Sm
3620 8241 Sl
3620 8241 Sm
3643 8257 Sl
3643 8257 Sm
3666 8274 Sl
3666 8274 Sm
3690 8291 Sl
3690 8291 Sm
3713 8306 Sl
3713 8306 Sm
3736 8325 Sl
3736 8325 Sm
3760 8343 Sl
3760 8343 Sm
3783 8359 Sl
3783 8359 Sm
3806 8380 Sl
3806 8380 Sm
3830 8405 Sl
3830 8405 Sm
3853 8429 Sl
3853 8429 Sm
3876 8452 Sl
3876 8452 Sm
3900 8474 Sl
3900 8474 Sm
3923 8494 Sl
3923 8494 Sm
3946 8514 Sl
3946 8514 Sm
3970 8535 Sl
3970 8535 Sm
3993 8559 Sl
3993 8559 Sm
4017 8581 Sl
4017 8581 Sm
4040 8602 Sl
4040 8602 Sm
4063 8622 Sl
4063 8622 Sm
4087 8640 Sl
4087 8640 Sm
4110 8658 Sl
4110 8658 Sm
4133 8676 Sl
4133 8676 Sm
4157 8697 Sl
4157 8697 Sm
4180 8717 Sl
4180 8717 Sm
4203 8735 Sl
4203 8735 Sm
4227 8754 Sl
4227 8754 Sm
4250 8771 Sl
4250 8771 Sm
4273 8787 Sl
4273 8787 Sm
4297 8802 Sl
4297 8802 Sm
4320 8816 Sl
4320 8816 Sm
4344 8828 Sl
4344 8828 Sm
4367 8839 Sl
4367 8839 Sm
4390 8848 Sl
4390 8848 Sm
4414 8856 Sl
4414 8856 Sm
4437 8862 Sl
4437 8862 Sm
4460 8872 Sl
4460 8872 Sm
4484 8887 Sl
4484 8887 Sm
4507 8901 Sl
4507 8901 Sm
4530 8914 Sl
4530 8914 Sm
4554 8928 Sl
4554 8928 Sm
4577 8941 Sl
4577 8941 Sm
4600 8952 Sl
4600 8952 Sm
4624 8962 Sl
4624 8962 Sm
4647 8972 Sl
4647 8972 Sm
4670 8981 Sl
4670 8981 Sm
4694 8989 Sl
4694 8989 Sm
4717 8997 Sl
4717 8997 Sm
4741 9004 Sl
4741 9004 Sm
4764 9012 Sl
4764 9012 Sm
4787 9021 Sl
4787 9021 Sm
4811 9033 Sl
4811 9033 Sm
4834 9043 Sl
4834 9043 Sm
4857 9051 Sl
4857 9051 Sm
4881 9058 Sl
4881 9058 Sm
4904 9062 Sl
4904 9062 Sm
4927 9066 Sl
4927 9066 Sm
4951 9072 Sl
4951 9072 Sm
4974 9087 Sl
4974 9087 Sm
4997 9100 Sl
4997 9100 Sm
5021 9111 Sl
5021 9111 Sm
5044 9120 Sl
5044 9120 Sm
5068 9127 Sl
5068 9127 Sm
5091 9135 Sl
5091 9135 Sm
5114 9143 Sl
5114 9143 Sm
5138 9156 Sl
5138 9156 Sm
5161 9166 Sl
5161 9166 Sm
5184 9177 Sl
5184 9177 Sm
5208 9185 Sl
5208 9185 Sm
5231 9192 Sl
5231 9192 Sm
5254 9198 Sl
5254 9198 Sm
5278 9205 Sl
5278 9205 Sm
5301 9211 Sl
5301 9211 Sm
5324 9216 Sl
5324 9216 Sm
5348 9224 Sl
5348 9224 Sm
5371 9235 Sl
5371 9235 Sm
5394 9247 Sl
5394 9247 Sm
5418 9257 Sl
5418 9257 Sm
5441 9266 Sl
5441 9266 Sm
5465 9282 Sl
5465 9282 Sm
5488 9295 Sl
5488 9295 Sm
5511 9309 Sl
5511 9309 Sm
5535 9319 Sl
5535 9319 Sm
5558 9328 Sl
5558 9328 Sm
5581 9334 Sl
5581 9334 Sm
5605 9338 Sl
5605 9338 Sm
5628 9340 Sl
5628 9340 Sm
5651 9340 Sl
5651 9340 Sm
5675 9345 Sl
5675 9345 Sm
5698 9348 Sl
5698 9348 Sm
5721 9349 Sl
5721 9349 Sm
5745 9348 Sl
5745 9348 Sm
5768 9347 Sl
5768 9347 Sm
5792 9373 Sl
5792 9373 Sm
5815 9397 Sl
5815 9397 Sm
5838 9420 Sl
5838 9420 Sm
5862 9441 Sl
5862 9441 Sm
5885 9460 Sl
5885 9460 Sm
5908 9479 Sl
5908 9479 Sm
5932 9497 Sl
5932 9497 Sm
5955 9526 Sl
5955 9526 Sm
5978 9552 Sl
5978 9552 Sm
6002 9585 Sl
6002 9585 Sm
6025 9615 Sl
6025 9615 Sm
6048 9643 Sl
6048 9643 Sm
6072 9667 Sl
6072 9667 Sm
6095 9689 Sl
6095 9689 Sm
6118 9711 Sl
6118 9711 Sm
6142 9729 Sl
6142 9729 Sm
6165 9750 Sl
6165 9750 Sm
6189 9770 Sl
6189 9770 Sm
6212 9788 Sl
6212 9788 Sm
6235 9804 Sl
6235 9804 Sm
6259 9817 Sl
6259 9817 Sm
6282 9830 Sl
6282 9830 Sm
6305 9841 Sl
6305 9841 Sm
6329 9855 Sl
6329 9855 Sm
6352 9867 Sl
6352 9867 Sm
6375 9876 Sl
6375 9876 Sm
6399 9883 Sl
6399 9883 Sm
6422 9889 Sl
6422 9889 Sm
6445 9927 Sl
6445 9927 Sm
6469 9966 Sl
6469 9966 Sm
6492 10002 Sl
6492 10002 Sm
6516 10035 Sl
6516 10035 Sm
6539 10065 Sl
6539 10065 Sm
6562 10092 Sl
6562 10092 Sm
6586 10116 Sl
6586 10116 Sm
6609 10137 Sl
6609 10137 Sm
6632 10156 Sl
6632 10156 Sm
6656 10180 Sl
6656 10180 Sm
6679 10204 Sl
6679 10204 Sm
6702 10224 Sl
6702 10224 Sm
6726 10242 Sl
6726 10242 Sm
6749 10259 Sl
6749 10259 Sm
6772 10275 Sl
6772 10275 Sm
6796 10288 Sl
6796 10288 Sm
6819 10300 Sl
6819 10300 Sm
6842 10308 Sl
6842 10308 Sm
6866 10313 Sl
6866 10313 Sm
6889 10316 Sl
6889 10316 Sm
6913 10316 Sl
6913 10316 Sm
6936 10322 Sl
6936 10322 Sm
6959 10326 Sl
6959 10326 Sm
6983 10331 Sl
6983 10331 Sm
7006 10334 Sl
7006 10334 Sm
7029 10334 Sl
7029 10334 Sm
7053 10331 Sl
7053 10331 Sm
7076 10324 Sl
7076 10324 Sm
7099 10325 Sl
7099 10325 Sm
7123 10326 Sl
7123 10326 Sm
7146 10333 Sl
7146 10333 Sm
7169 10340 Sl
7169 10340 Sm
7193 10345 Sl
7193 10345 Sm
7216 10346 Sl
7216 10346 Sm
7240 10344 Sl
7240 10344 Sm
7263 10338 Sl
7263 10338 Sm
7286 10329 Sl
7286 10329 Sm
7310 10323 Sl
7310 10323 Sm
7333 10316 Sl
7333 10316 Sm
7356 10305 Sl
7356 10305 Sm
7380 10292 Sl
7380 10292 Sm
7403 10275 Sl
7403 10275 Sm
7426 10261 Sl
7426 10261 Sm
7450 10246 Sl
7450 10246 Sm
7473 10229 Sl
7473 10229 Sm
7496 10210 Sl
7496 10210 Sm
7520 10187 Sl
7520 10187 Sm
7543 10162 Sl
7543 10162 Sm
7566 10141 Sl
7566 10141 Sm
7590 10117 Sl
7590 10117 Sm
7613 10089 Sl
7613 10089 Sm
7637 10065 Sl
7637 10065 Sm
7660 10042 Sl
7660 10042 Sm
7683 10016 Sl
7683 10016 Sm
7707 9987 Sl
7707 9987 Sm
7730 9955 Sl
7730 9955 Sm
7753 9921 Sl
7753 9921 Sm
7777 9886 Sl
7777 9886 Sm
7800 9847 Sl
7800 9847 Sm
7823 9806 Sl
7823 9806 Sm
7847 9764 Sl
7847 9764 Sm
7870 9718 Sl
7870 9718 Sm
7893 9670 Sl
7893 9670 Sm
7917 9619 Sl
7917 9619 Sm
7940 9565 Sl
7940 9565 Sm
7964 9525 Sl
7964 9525 Sm
7987 9498 Sl
7987 9498 Sm
8010 9468 Sl
8010 9468 Sm
8034 9436 Sl
8034 9436 Sm
8057 9404 Sl
8057 9404 Sm
8080 9370 Sl
8080 9370 Sm
8104 9333 Sl
8104 9333 Sm
8127 9302 Sl
8127 9302 Sm
8150 9275 Sl
8150 9275 Sm
8174 9246 Sl
8174 9246 Sm
8197 9216 Sl
8197 9216 Sm
8220 9183 Sl
8220 9183 Sm
8244 9151 Sl
8244 9151 Sm
8267 9118 Sl
8267 9118 Sm
8290 9085 Sl
8290 9085 Sm
8314 9050 Sl
8314 9050 Sm
8337 9014 Sl
8337 9014 Sm
8361 8976 Sl
8361 8976 Sm
8384 8937 Sl
8384 8937 Sm
8407 8899 Sl
8407 8899 Sm
8431 8861 Sl
8431 8861 Sm
8454 8822 Sl
8454 8822 Sm
8477 8784 Sl
8477 8784 Sm
8501 8744 Sl
8501 8744 Sm
8524 8702 Sl
8524 8702 Sm
8547 8658 Sl
8547 8658 Sm
8571 8612 Sl
8571 8612 Sm
8594 8564 Sl
8594 8564 Sm
8617 8531 Sl
8617 8531 Sm
8641 8520 Sl
8641 8520 Sm
8664 8508 Sl
8664 8508 Sm
8688 8495 Sl
8688 8495 Sm
8711 8483 Sl
8711 8483 Sm
8734 8469 Sl
8734 8469 Sm
8758 8455 Sl
8758 8455 Sm
8781 8441 Sl
8781 8441 Sm
8804 8427 Sl
8804 8427 Sm
8828 8411 Sl
8828 8411 Sm
8851 8395 Sl
8851 8395 Sm
8874 8378 Sl
8874 8378 Sm
8898 8361 Sl
8898 8361 Sm
8921 8344 Sl
8921 8344 Sm
8944 8326 Sl
8944 8326 Sm
8968 8309 Sl
8968 8309 Sm
8991 8291 Sl
8991 8291 Sm
9014 8272 Sl
9014 8272 Sm
9038 8252 Sl
9038 8252 Sm
9061 8231 Sl
9061 8231 Sm
9085 8208 Sl
9085 8208 Sm
9108 8188 Sl
9108 8188 Sm
9131 8175 Sl
9131 8175 Sm
9155 8160 Sl
9155 8160 Sm
9178 8144 Sl
9178 8144 Sm
9201 8128 Sl
9201 8128 Sm
9225 8111 Sl
9225 8111 Sm
9248 8094 Sl
9248 8094 Sm
9271 8079 Sl
9271 8079 Sm
9295 8074 Sl
9295 8074 Sm
9318 8068 Sl
9318 8068 Sm
9341 8062 Sl
9341 8062 Sm
9365 8056 Sl
9365 8056 Sm
9388 8049 Sl
9388 8049 Sm
9412 8044 Sl
9412 8044 Sm
9435 8038 Sl
9435 8038 Sm
9458 8032 Sl
9458 8032 Sm
9482 8026 Sl
9482 8026 Sm
9505 8021 Sl
9505 8021 Sm
9528 8015 Sl
9528 8015 Sm
9552 8008 Sl
9552 8008 Sm
9575 8001 Sl
9575 8001 Sm
9598 7994 Sl
9598 7994 Sm
9622 7994 Sl
9622 7994 Sm
9645 7994 Sl
9645 7994 Sm
9668 7993 Sl
9668 7993 Sm
9692 7991 Sl
9692 7991 Sm
9715 7990 Sl
9715 7990 Sm
9738 7987 Sl
9738 7987 Sm
9762 7985 Sl
9762 7985 Sm
9785 7982 Sl
9785 7982 Sm
9809 7979 Sl
9809 7979 Sm
9832 7975 Sl
9832 7975 Sm
9855 7971 Sl
9855 7971 Sm
9879 7967 Sl
9879 7967 Sm
9902 7962 Sl
9902 7962 Sm
9925 7957 Sl
9925 7957 Sm
9949 7953 Sl
9949 7953 Sm
9972 7949 Sl
9972 7949 Sm
9995 7945 Sl
9995 7945 Sm
10019 7942 Sl
10019 7942 Sm
10042 7939 Sl
10042 7939 Sm
10065 7936 Sl
10065 7936 Sm
10089 7932 Sl
10089 7932 Sm
10112 7928 Sl
10112 7928 Sm
10136 7924 Sl
10136 7924 Sm
10159 7920 Sl
10159 7920 Sm
10182 7915 Sl
10182 7915 Sm
10206 7910 Sl
10206 7910 Sm
10229 7905 Sl
10229 7905 Sm
10252 7899 Sl
10252 7899 Sm
10276 7893 Sl
10276 7893 Sm
10299 7887 Sl
10299 7887 Sm
10322 7881 Sl
10322 7881 Sm
10346 7874 Sl
10346 7874 Sm
10369 7867 Sl
10369 7867 Sm
10392 7860 Sl
10392 7860 Sm
10416 7852 Sl
10416 7852 Sm
10439 7848 Sl
10439 7848 Sm
10462 7844 Sl
10462 7844 Sm
10486 7840 Sl
10486 7840 Sm
10509 7835 Sl
10509 7835 Sm
10533 7830 Sl
10533 7830 Sm
10556 7825 Sl
/Slrgb {0.565 0.208 0.231} def
3573 7914 Sm
3615 7942 Sl
3615 7942 Sm
3658 7986 Sl
3658 7986 Sm
3701 8024 Sl
3701 8024 Sm
3743 8060 Sl
3743 8060 Sm
3786 8101 Sl
3786 8101 Sm
3828 8165 Sl
3828 8165 Sm
3871 8221 Sl
3871 8221 Sm
3914 8273 Sl
3914 8273 Sm
3956 8322 Sl
3956 8322 Sm
3999 8369 Sl
3999 8369 Sm
4041 8405 Sl
4041 8405 Sm
4084 8437 Sl
4084 8437 Sm
4126 8472 Sl
4126 8472 Sm
4169 8508 Sl
4169 8508 Sm
4212 8531 Sl
4212 8531 Sm
4254 8539 Sl
4254 8539 Sm
4297 8544 Sl
4297 8544 Sm
4339 8539 Sl
4339 8539 Sm
4382 8549 Sl
4382 8549 Sm
4425 8549 Sl
4425 8549 Sm
4467 8547 Sl
4467 8547 Sm
4510 8530 Sl
4510 8530 Sm
4552 8511 Sl
4552 8511 Sm
4595 8480 Sl
4595 8480 Sm
4638 8463 Sl
4638 8463 Sm
4680 8426 Sl
4680 8426 Sm
4723 8412 Sl
4723 8412 Sm
4765 8402 Sl
4765 8402 Sm
4808 8478 Sl
4808 8478 Sm
4850 8533 Sl
4850 8533 Sm
4893 8605 Sl
4893 8605 Sm
4936 8654 Sl
4936 8654 Sm
4978 8686 Sl
4978 8686 Sm
5021 8698 Sl
5021 8698 Sm
5063 8715 Sl
5063 8715 Sm
5106 8737 Sl
5106 8737 Sm
5149 8773 Sl
5149 8773 Sm
5191 8842 Sl
5191 8842 Sm
5234 8947 Sl
5234 8947 Sm
5276 9030 Sl
5276 9030 Sm
5319 9107 Sl
5319 9107 Sm
5362 9162 Sl
5362 9162 Sm
5404 9194 Sl
5404 9194 Sm
5447 9211 Sl
5447 9211 Sm
5489 9201 Sl
5489 9201 Sm
5532 9173 Sl
5532 9173 Sm
5574 9124 Sl
5574 9124 Sm
5617 9172 Sl
5617 9172 Sm
5660 9197 Sl
5660 9197 Sm
5702 9251 Sl
5702 9251 Sm
5745 9299 Sl
5745 9299 Sm
5787 9345 Sl
5787 9345 Sm
5830 9358 Sl
5830 9358 Sm
5873 9347 Sl
5873 9347 Sm
5915 9300 Sl
5915 9300 Sm
5958 9223 Sl
5958 9223 Sm
6000 9131 Sl
6000 9131 Sm
6043 9152 Sl
6043 9152 Sm
6086 9160 Sl
6086 9160 Sm
6128 9301 Sl
6128 9301 Sm
6171 9402 Sl
6171 9402 Sm
6213 9468 Sl
6213 9468 Sm
6256 9496 Sl
6256 9496 Sm
6298 9495 Sl
6298 9495 Sm
6341 9460 Sl
6341 9460 Sm
6384 9404 Sl
6384 9404 Sm
6426 9510 Sl
6426 9510 Sm
6469 9712 Sl
6469 9712 Sm
6511 9908 Sl
6511 9908 Sm
6554 10135 Sl
6554 10135 Sm
6597 10351 Sl
6597 10351 Sm
6639 10522 Sl
6639 10522 Sm
6682 10642 Sl
6682 10642 Sm
6724 10707 Sl
6724 10707 Sm
6767 10734 Sl
6767 10734 Sm
6810 10703 Sl
6810 10703 Sm
6852 10730 Sl
6852 10730 Sm
6895 10693 Sl
6895 10693 Sm
6937 10694 Sl
6937 10694 Sm
6980 10653 Sl
6980 10653 Sm
7022 10626 Sl
7022 10626 Sm
7065 10621 Sl
7065 10621 Sm
7108 11023 Sl
7108 11023 Sm
7150 11315 Sl
7150 11315 Sm
7193 11521 Sl
7193 11521 Sm
7235 11642 Sl
7235 11642 Sm
7278 11731 Sl
7278 11731 Sm
7321 11741 Sl
7321 11741 Sm
7363 11977 Sl
7363 11977 Sm
7406 12126 Sl
7406 12126 Sm
7448 12191 Sl
7448 12191 Sm
7491 12184 Sl
7491 12184 Sm
7534 12143 Sl
7534 12143 Sm
7576 12054 Sl
7576 12054 Sm
7619 11909 Sl
7619 11909 Sm
7661 11697 Sl
7661 11697 Sm
7704 11417 Sl
7704 11417 Sm
7746 11137 Sl
7746 11137 Sm
7789 10857 Sl
7789 10857 Sm
7832 10512 Sl
7832 10512 Sm
7874 10098 Sl
7874 10098 Sm
7917 9612 Sl
7917 9612 Sm
7959 9049 Sl
7959 9049 Sm
8002 8812 Sl
8002 8812 Sm
8045 8720 Sl
8045 8720 Sm
8087 8706 Sl
8087 8706 Sm
8130 8666 Sl
8130 8666 Sm
8172 8699 Sl
8172 8699 Sm
8215 8728 Sl
8215 8728 Sm
8258 8738 Sl
8258 8738 Sm
8300 8727 Sl
8300 8727 Sm
8343 8713 Sl
8343 8713 Sm
8385 8677 Sl
8385 8677 Sm
8428 8622 Sl
8428 8622 Sm
8470 8551 Sl
8470 8551 Sm
8513 8523 Sl
8513 8523 Sm
8556 8486 Sl
8556 8486 Sm
8598 8457 Sl
8598 8457 Sm
8641 8421 Sl
8641 8421 Sm
8683 8398 Sl
8683 8398 Sm
8726 8364 Sl
8726 8364 Sm
8769 8321 Sl
8769 8321 Sm
8811 8265 Sl
8811 8265 Sm
8854 8198 Sl
8854 8198 Sm
8896 8143 Sl
8896 8143 Sm
8939 8084 Sl
8939 8084 Sm
8982 8060 Sl
8982 8060 Sm
9024 8070 Sl
9024 8070 Sm
9067 8110 Sl
9067 8110 Sm
9109 8147 Sl
9109 8147 Sm
9152 8173 Sl
9152 8173 Sm
9194 8186 Sl
9194 8186 Sm
9237 8199 Sl
9237 8199 Sm
9280 8204 Sl
9280 8204 Sm
9322 8206 Sl
9322 8206 Sm
9365 8199 Sl
9365 8199 Sm
9407 8189 Sl
9407 8189 Sm
9450 8170 Sl
9450 8170 Sm
9493 8162 Sl
9493 8162 Sm
9535 8146 Sl
9535 8146 Sm
9578 8129 Sl
9578 8129 Sm
9620 8102 Sl
9620 8102 Sm
9663 8073 Sl
9663 8073 Sm
9706 8037 Sl
9706 8037 Sm
9748 7994 Sl
9748 7994 Sm
9791 7951 Sl
9791 7951 Sm
9833 7929 Sl
9833 7929 Sm
9876 7900 Sl
9876 7900 Sm
9918 7864 Sl
9918 7864 Sm
9961 7840 Sl
9961 7840 Sm
10004 7839 Sl
10004 7839 Sm
10046 7851 Sl
10046 7851 Sm
10089 7866 Sl
10089 7866 Sm
10131 7877 Sl
10131 7877 Sm
10174 7883 Sl
10174 7883 Sm
10217 7886 Sl
10217 7886 Sm
10259 7885 Sl
10259 7885 Sm
10302 7881 Sl
10302 7881 Sm
10344 7874 Sl
10344 7874 Sm
10387 7869 Sl
10387 7869 Sm
10430 7862 Sl
10430 7862 Sm
10472 7857 Sl
10472 7857 Sm
10515 7850 Sl
10515 7850 Sm
10557 7845 Sl
10557 7845 Sm
10600 7836 Sl
10600 7836 Sm
10642 7830 Sl
10642 7830 Sm
10685 7822 Sl
10685 7822 Sm
10728 7814 Sl
10728 7814 Sm
10770 7803 Sl
10770 7803 Sm
10813 7790 Sl
10813 7790 Sm
10855 7774 Sl
10855 7774 Sm
10898 7755 Sl
10898 7755 Sm
10941 7740 Sl
10941 7740 Sm
10983 7741 Sl
10983 7741 Sm
11026 7743 Sl
11026 7743 Sm
11068 7743 Sl
11068 7743 Sm
11111 7743 Sl
11111 7743 Sm
11154 7742 Sl
11154 7742 Sm
11196 7741 Sl
11196 7741 Sm
11239 7739 Sl
11239 7739 Sm
11281 7737 Sl
11281 7737 Sm
11324 7734 Sl
11324 7734 Sm
11366 7730 Sl
11366 7730 Sm
11409 7726 Sl
11409 7726 Sm
11452 7723 Sl
11452 7723 Sm
11494 7721 Sl
11494 7721 Sm
11537 7718 Sl
11537 7718 Sm
11579 7715 Sl
11579 7715 Sm
11622 7713 Sl
11622 7713 Sm
11665 7711 Sl
11665 7711 Sm
11707 7708 Sl
11707 7708 Sm
11750 7706 Sl
11750 7706 Sm
11792 7703 Sl
11792 7703 Sm
11835 7701 Sl
11835 7701 Sm
11878 7701 Sl
11878 7701 Sm
11920 7700 Sl
11920 7700 Sm
11963 7700 Sl
11963 7700 Sm
12005 7700 Sl
12005 7700 Sm
12048 7700 Sl
12048 7700 Sm
12090 7699 Sl
12090 7699 Sm
12133 7700 Sl
12133 7700 Sm
12176 7700 Sl
12176 7700 Sm
12218 7700 Sl
12218 7700 Sm
12261 7700 Sl
12261 7700 Sm
12303 7700 Sl
12303 7700 Sm
12346 7701 Sl
12346 7701 Sm
12389 7702 Sl
12389 7702 Sm
12431 7702 Sl
12431 7702 Sm
12474 7703 Sl
12474 7703 Sm
12516 7703 Sl
12516 7703 Sm
12559 7703 Sl
12559 7703 Sm
12602 7703 Sl
12602 7703 Sm
12644 7702 Sl
12644 7702 Sm
12687 7701 Sl
12687 7701 Sm
12729 7700 Sl
12729 7700 Sm
12772 7700 Sl
12772 7700 Sm
12814 7700 Sl
12814 7700 Sm
12857 7700 Sl
12857 7700 Sm
12900 7700 Sl
12900 7700 Sm
12942 7701 Sl
12942 7701 Sm
12985 7701 Sl
12985 7701 Sm
13027 7702 Sl
13027 7702 Sm
13070 7702 Sl
13070 7702 Sm
13113 7701 Sl
13113 7701 Sm
13155 7701 Sl
13155 7701 Sm
13198 7701 Sl
13198 7701 Sm
13240 7700 Sl
13240 7700 Sm
13283 7700 Sl
13283 7700 Sm
13326 7700 Sl
13326 7700 Sm
13368 7700 Sl
13368 7700 Sm
13411 7700 Sl
13411 7700 Sm
13453 7700 Sl
13453 7700 Sm
13496 7700 Sl
13496 7700 Sm
13538 7701 Sl
13538 7701 Sm
13581 7701 Sl
13581 7701 Sm
13624 7702 Sl
13624 7702 Sm
13666 7702 Sl
13666 7702 Sm
13709 7701 Sl
13709 7701 Sm
13751 7701 Sl
13751 7701 Sm
13794 7700 Sl
13794 7700 Sm
13837 7700 Sl
13837 7700 Sm
13879 7700 Sl
13879 7700 Sm
13922 7700 Sl
13922 7700 Sm
13964 7700 Sl
13964 7700 Sm
14007 7701 Sl
14007 7701 Sm
14050 7702 Sl
14050 7702 Sm
14092 7702 Sl
14092 7702 Sm
14135 7703 Sl
14135 7703 Sm
14177 7703 Sl
14177 7703 Sm
14220 7703 Sl
14220 7703 Sm
14262 7702 Sl
14262 7702 Sm
14305 7702 Sl
14305 7702 Sm
14348 7701 Sl
14348 7701 Sm
14390 7700 Sl
14390 7700 Sm
14433 7700 Sl
14433 7700 Sm
14475 7700 Sl
14475 7700 Sm
14518 7700 Sl
14518 7700 Sm
14561 7700 Sl
14561 7700 Sm
14603 7699 Sl
14603 7699 Sm
14646 7699 Sl
14646 7699 Sm
14688 7698 Sl
14688 7698 Sm
14731 7697 Sl
14731 7697 Sm
14774 7697 Sl
14774 7697 Sm
14816 7696 Sl
14816 7696 Sm
14859 7695 Sl
14859 7695 Sm
14901 7694 Sl
14901 7694 Sm
14944 7694 Sl
14944 7694 Sm
14986 7694 Sl
14986 7694 Sm
15029 7694 Sl
15029 7694 Sm
15072 7694 Sl
15072 7694 Sm
15114 7694 Sl
15114 7694 Sm
15157 7694 Sl
15157 7694 Sm
15199 7694 Sl
15199 7694 Sm
15242 7694 Sl
15242 7694 Sm
15285 7694 Sl
15285 7694 Sm
15327 7694 Sl
15327 7694 Sm
15370 7694 Sl
15370 7694 Sm
15412 7694 Sl
15412 7694 Sm
15455 7694 Sl
15455 7694 Sm
15498 7694 Sl
15498 7694 Sm
15540 7694 Sl
15540 7694 Sm
15583 7694 Sl
15583 7694 Sm
15625 7694 Sl
15625 7694 Sm
15668 7694 Sl
15668 7694 Sm
15710 7694 Sl
15710 7694 Sm
15753 7694 Sl
15753 7694 Sm
15796 7694 Sl
15796 7694 Sm
15838 7694 Sl
15838 7694 Sm
15881 7695 Sl
15881 7695 Sm
15923 7696 Sl
15923 7696 Sm
15966 7697 Sl
15966 7697 Sm
16009 7698 Sl
16009 7698 Sm
16051 7698 Sl
16051 7698 Sm
16094 7699 Sl
16094 7699 Sm
16136 7699 Sl
16136 7699 Sm
16179 7700 Sl
16179 7700 Sm
16222 7700 Sl
16222 7700 Sm
16264 7700 Sl
16264 7700 Sm
16307 7700 Sl
/Slrgb {0.333 0.459 0.184} def
3573 8731 Sm
3602 8778 Sl
3602 8778 Sm
3631 8823 Sl
3631 8823 Sm
3659 8866 Sl
3659 8866 Sm
3688 8907 Sl
3688 8907 Sm
3717 8945 Sl
3717 8945 Sm
3746 8984 Sl
3746 8984 Sm
3775 9029 Sl
3775 9029 Sm
3804 9071 Sl
3804 9071 Sm
3832 9115 Sl
3832 9115 Sm
3861 9160 Sl
3861 9160 Sm
3890 9202 Sl
3890 9202 Sm
3919 9244 Sl
3919 9244 Sm
3948 9283 Sl
3948 9283 Sm
3977 9318 Sl
3977 9318 Sm
4006 9350 Sl
4006 9350 Sm
4034 9379 Sl
4034 9379 Sm
4063 9405 Sl
4063 9405 Sm
4092 9433 Sl
4092 9433 Sm
4121 9458 Sl
4121 9458 Sm
4150 9480 Sl
4150 9480 Sm
4179 9497 Sl
4179 9497 Sm
4208 9511 Sl
4208 9511 Sm
4236 9525 Sl
4236 9525 Sm
4265 9551 Sl
4265 9551 Sm
4294 9572 Sl
4294 9572 Sm
4323 9593 Sl
4323 9593 Sm
4352 9616 Sl
4352 9616 Sm
4381 9635 Sl
4381 9635 Sm
4409 9649 Sl
4409 9649 Sm
4438 9659 Sl
4438 9659 Sm
4467 9663 Sl
4467 9663 Sm
4496 9664 Sl
4496 9664 Sm
4525 9659 Sl
4525 9659 Sm
4554 9650 Sl
4554 9650 Sm
4583 9654 Sl
4583 9654 Sm
4611 9657 Sl
4611 9657 Sm
4640 9655 Sl
4640 9655 Sm
4669 9661 Sl
4669 9661 Sm
4698 9661 Sl
4698 9661 Sm
4727 9657 Sl
4727 9657 Sm
4756 9652 Sl
4756 9652 Sm
4785 9642 Sl
4785 9642 Sm
4813 9629 Sl
4813 9629 Sm
4842 9616 Sl
4842 9616 Sm
4871 9599 Sl
4871 9599 Sm
4900 9583 Sl
4900 9583 Sm
4929 9572 Sl
4929 9572 Sm
4958 9556 Sl
4958 9556 Sm
4986 9541 Sl
4986 9541 Sm
5015 9525 Sl
5015 9525 Sm
5044 9505 Sl
5044 9505 Sm
5073 9508 Sl
5073 9508 Sm
5102 9516 Sl
5102 9516 Sm
5131 9519 Sl
5131 9519 Sm
5160 9522 Sl
5160 9522 Sm
5188 9522 Sl
5188 9522 Sm
5217 9517 Sl
5217 9517 Sm
5246 9520 Sl
5246 9520 Sm
5275 9519 Sl
5275 9519 Sm
5304 9512 Sl
5304 9512 Sm
5333 9504 Sl
5333 9504 Sm
5362 9490 Sl
5362 9490 Sm
5390 9478 Sl
5390 9478 Sm
5419 9472 Sl
5419 9472 Sm
5448 9463 Sl
5448 9463 Sm
5477 9459 Sl
5477 9459 Sm
5506 9459 Sl
5506 9459 Sm
5535 9455 Sl
5535 9455 Sm
5563 9459 Sl
5563 9459 Sm
5592 9466 Sl
5592 9466 Sm
5621 9468 Sl
5621 9468 Sm
5650 9467 Sl
5650 9467 Sm
5679 9463 Sl
5679 9463 Sm
5708 9453 Sl
5708 9453 Sm
5737 9452 Sl
5737 9452 Sm
5765 9447 Sl
5765 9447 Sm
5794 9438 Sl
5794 9438 Sm
5823 9436 Sl
5823 9436 Sm
5852 9430 Sl
5852 9430 Sm
5881 9426 Sl
5881 9426 Sm
5910 9436 Sl
5910 9436 Sm
5939 9440 Sl
5939 9440 Sm
5967 9441 Sl
5967 9441 Sm
5996 9438 Sl
5996 9438 Sm
6025 9431 Sl
6025 9431 Sm
6054 9429 Sl
6054 9429 Sm
6083 9431 Sl
6083 9431 Sm
6112 9427 Sl
6112 9427 Sm
6140 9420 Sl
6140 9420 Sm
6169 9407 Sl
6169 9407 Sm
6198 9390 Sl
6198 9390 Sm
6227 9386 Sl
6227 9386 Sm
6256 9381 Sl
6256 9381 Sm
6285 9372 Sl
6285 9372 Sm
6314 9373 Sl
6314 9373 Sm
6342 9371 Sl
6342 9371 Sm
6371 9364 Sl
6371 9364 Sm
6400 9355 Sl
6400 9355 Sm
6429 9341 Sl
6429 9341 Sm
6458 9325 Sl
6458 9325 Sm
6487 9305 Sl
6487 9305 Sm
6516 9282 Sl
6516 9282 Sm
6544 9272 Sl
6544 9272 Sm
6573 9276 Sl
6573 9276 Sm
6602 9275 Sl
6602 9275 Sm
6631 9279 Sl
6631 9279 Sm
6660 9283 Sl
6660 9283 Sm
6689 9283 Sl
6689 9283 Sm
6717 9287 Sl
6717 9287 Sm
6746 9287 Sl
6746 9287 Sm
6775 9284 Sl
6775 9284 Sm
6804 9277 Sl
6804 9277 Sm
6833 9267 Sl
6833 9267 Sm
6862 9253 Sl
6862 9253 Sm
6891 9243 Sl
6891 9243 Sm
6919 9229 Sl
6919 9229 Sm
6948 9212 Sl
6948 9212 Sm
6977 9190 Sl
6977 9190 Sm
7006 9165 Sl
7006 9165 Sm
7035 9148 Sl
7035 9148 Sm
7064 9147 Sl
7064 9147 Sm
7093 9142 Sl
7093 9142 Sm
7121 9135 Sl
7121 9135 Sm
7150 9125 Sl
7150 9125 Sm
7179 9111 Sl
7179 9111 Sm
7208 9103 Sl
7208 9103 Sm
7237 9096 Sl
7237 9096 Sm
7266 9085 Sl
7266 9085 Sm
7294 9072 Sl
7294 9072 Sm
7323 9055 Sl
7323 9055 Sm
7352 9034 Sl
7352 9034 Sm
7381 9010 Sl
7381 9010 Sm
7410 8983 Sl
7410 8983 Sm
7439 8954 Sl
7439 8954 Sm
7468 8938 Sl
7468 8938 Sm
7496 8918 Sl
7496 8918 Sm
7525 8905 Sl
7525 8905 Sm
7554 8908 Sl
7554 8908 Sm
7583 8907 Sl
7583 8907 Sm
7612 8904 Sl
7612 8904 Sm
7641 8898 Sl
7641 8898 Sm
7670 8890 Sl
7670 8890 Sm
7698 8879 Sl
7698 8879 Sm
7727 8865 Sl
7727 8865 Sm
7756 8849 Sl
7756 8849 Sm
7785 8833 Sl
7785 8833 Sm
7814 8815 Sl
7814 8815 Sm
7843 8794 Sl
7843 8794 Sm
7871 8789 Sl
7871 8789 Sm
7900 8783 Sl
7900 8783 Sm
7929 8774 Sl
7929 8774 Sm
7958 8765 Sl
7958 8765 Sm
7987 8752 Sl
7987 8752 Sm
8016 8740 Sl
8016 8740 Sm
8045 8735 Sl
8045 8735 Sm
8073 8728 Sl
8073 8728 Sm
8102 8719 Sl
8102 8719 Sm
8131 8707 Sl
8131 8707 Sm
8160 8692 Sl
8160 8692 Sm
8189 8676 Sl
8189 8676 Sm
8218 8658 Sl
8218 8658 Sm
8247 8638 Sl
8247 8638 Sm
8275 8617 Sl
8275 8617 Sm
8304 8595 Sl
8304 8595 Sm
8333 8571 Sl
8333 8571 Sm
8362 8559 Sl
8362 8559 Sm
8391 8548 Sl
8391 8548 Sm
8420 8533 Sl
8420 8533 Sm
8448 8517 Sl
8448 8517 Sm
8477 8498 Sl
8477 8498 Sm
8506 8480 Sl
8506 8480 Sm
8535 8488 Sl
8535 8488 Sm
8564 8493 Sl
8564 8493 Sm
8593 8497 Sl
8593 8497 Sm
8622 8501 Sl
8622 8501 Sm
8650 8502 Sl
8650 8502 Sm
8679 8505 Sl
8679 8505 Sm
8708 8511 Sl
8708 8511 Sm
8737 8515 Sl
8737 8515 Sm
8766 8518 Sl
8766 8518 Sm
8795 8519 Sl
8795 8519 Sm
8824 8518 Sl
8824 8518 Sm
8852 8516 Sl
8852 8516 Sm
8881 8513 Sl
8881 8513 Sm
8910 8508 Sl
8910 8508 Sm
8939 8505 Sl
8939 8505 Sm
8968 8499 Sl
8968 8499 Sm
8997 8492 Sl
8997 8492 Sm
9025 8488 Sl
9025 8488 Sm
9054 8482 Sl
9054 8482 Sm
9083 8475 Sl
9083 8475 Sm
9112 8465 Sl
9112 8465 Sm
9141 8454 Sl
9141 8454 Sm
9170 8445 Sl
9170 8445 Sm
9199 8441 Sl
9199 8441 Sm
9227 8437 Sl
9227 8437 Sm
9256 8431 Sl
9256 8431 Sm
9285 8423 Sl
9285 8423 Sm
9314 8414 Sl
9314 8414 Sm
9343 8404 Sl
9343 8404 Sm
9372 8391 Sl
9372 8391 Sm
9401 8377 Sl
9401 8377 Sm
9429 8361 Sl
9429 8361 Sm
9458 8343 Sl
9458 8343 Sm
9487 8323 Sl
9487 8323 Sm
9516 8327 Sl
9516 8327 Sm
9545 8331 Sl
9545 8331 Sm
9574 8332 Sl
9574 8332 Sm
9602 8333 Sl
9602 8333 Sm
9631 8333 Sl
9631 8333 Sm
9660 8331 Sl
9660 8331 Sm
9689 8328 Sl
9689 8328 Sm
9718 8324 Sl
9718 8324 Sm
9747 8321 Sl
9747 8321 Sm
9776 8318 Sl
9776 8318 Sm
9804 8314 Sl
9804 8314 Sm
9833 8309 Sl
9833 8309 Sm
9862 8303 Sl
9862 8303 Sm
9891 8295 Sl
9891 8295 Sm
9920 8287 Sl
9920 8287 Sm
9949 8277 Sl
9949 8277 Sm
9978 8267 Sl
9978 8267 Sm
10006 8258 Sl
10006 8258 Sm
10035 8248 Sl
10035 8248 Sm
10064 8237 Sl
10064 8237 Sm
10093 8227 Sl
10093 8227 Sm
10122 8216 Sl
10122 8216 Sm
10151 8204 Sl
10151 8204 Sm
10179 8191 Sl
10179 8191 Sm
10208 8177 Sl
10208 8177 Sm
10237 8161 Sl
10237 8161 Sm
10266 8143 Sl
10266 8143 Sm
10295 8124 Sl
10295 8124 Sm
10324 8112 Sl
10324 8112 Sm
10353 8109 Sl
10353 8109 Sm
10381 8105 Sl
10381 8105 Sm
10410 8101 Sl
10410 8101 Sm
10439 8096 Sl
10439 8096 Sm
10468 8090 Sl
10468 8090 Sm
10497 8089 Sl
10497 8089 Sm
10526 8089 Sl
10526 8089 Sm
10555 8088 Sl
10555 8088 Sm
10583 8086 Sl
10583 8086 Sm
10612 8084 Sl
10612 8084 Sm
10641 8081 Sl
10641 8081 Sm
10670 8077 Sl
10670 8077 Sm
10699 8072 Sl
10699 8072 Sm
10728 8066 Sl
10728 8066 Sm
10756 8060 Sl
10756 8060 Sm
10785 8053 Sl
10785 8053 Sm
10814 8045 Sl
10814 8045 Sm
10843 8036 Sl
10843 8036 Sm
10872 8027 Sl
10872 8027 Sm
10901 8019 Sl
10901 8019 Sm
10930 8012 Sl
10930 8012 Sm
10958 8003 Sl
10958 8003 Sm
10987 7996 Sl
10987 7996 Sm
11016 7988 Sl
11016 7988 Sm
11045 7980 Sl
11045 7980 Sm
11074 7971 Sl
11074 7971 Sm
11103 7962 Sl
11103 7962 Sm
11132 7951 Sl
11132 7951 Sm
11160 7943 Sl
11160 7943 Sm
11189 7934 Sl
11189 7934 Sm
11218 7925 Sl
11218 7925 Sm
11247 7916 Sl
11247 7916 Sm
11276 7906 Sl
11276 7906 Sm
11305 7896 Sl
11305 7896 Sm
11333 7885 Sl
11333 7885 Sm
11362 7874 Sl
11362 7874 Sm
11391 7862 Sl
11391 7862 Sm
11420 7849 Sl
11420 7849 Sm
11449 7836 Sl
11449 7836 Sm
11478 7828 Sl
11478 7828 Sm
11507 7824 Sl
11507 7824 Sm
11535 7819 Sl
11535 7819 Sm
11564 7815 Sl
11564 7815 Sm
11593 7810 Sl
11593 7810 Sm
11622 7805 Sl
11622 7805 Sm
11651 7800 Sl
11651 7800 Sm
11680 7795 Sl
11680 7795 Sm
11709 7790 Sl
11709 7790 Sm
11737 7785 Sl
11737 7785 Sm
11766 7780 Sl
11766 7780 Sm
11795 7774 Sl
11795 7774 Sm
11824 7769 Sl
11824 7769 Sm
11853 7763 Sl
11853 7763 Sm
11882 7757 Sl
11882 7757 Sm
11911 7750 Sl
11911 7750 Sm
11939 7744 Sl
11939 7744 Sm
11968 7738 Sl
11968 7738 Sm
11997 7733 Sl
11997 7733 Sm
12026 7728 Sl
12026 7728 Sm
12055 7725 Sl
12055 7725 Sm
12084 7723 Sl
12084 7723 Sm
12112 7721 Sl
12112 7721 Sm
12141 7719 Sl
12141 7719 Sm
12170 7717 Sl
12170 7717 Sm
12199 7715 Sl
/Slw 0.490 def
/Slrgb {0.000 0.000 0.000} def
3138 15616 3138 21185 Sln
3138 16052 2863 16052 Sln
2520 16052 0
/Helvetica-0 findfont 687 yratio mul scalefont setfont
(0) stringwidth pop add
2 div xratio div
dup 4 3 roll exch 90.000 cos mul sub 3 1 roll 90.000 sin mul sub 2 copy
/fntsize {/Helvetica-0 findfont exch scalefont setfont } def
90.000 687
(0) Stxtl
(0) stringwidth pop xratio div
dup 4 3 roll exch 90.000 cos mul add 3 1 roll 90.000 sin mul add 2 copy
pop pop pop pop
3138 17226 2863 17226 Sln
2520 17226 0
/Helvetica-0 findfont 687 yratio mul scalefont setfont
(.01) stringwidth pop add
2 div xratio div
dup 4 3 roll exch 90.000 cos mul sub 3 1 roll 90.000 sin mul sub 2 copy
/fntsize {/Helvetica-0 findfont exch scalefont setfont } def
90.000 687
(.01) Stxtl
(.01) stringwidth pop xratio div
dup 4 3 roll exch 90.000 cos mul add 3 1 roll 90.000 sin mul add 2 copy
pop pop pop pop
3138 18401 2863 18401 Sln
2520 18401 0
/Helvetica-0 findfont 687 yratio mul scalefont setfont
(.02) stringwidth pop add
2 div xratio div
dup 4 3 roll exch 90.000 cos mul sub 3 1 roll 90.000 sin mul sub 2 copy
/fntsize {/Helvetica-0 findfont exch scalefont setfont } def
90.000 687
(.02) Stxtl
(.02) stringwidth pop xratio div
dup 4 3 roll exch 90.000 cos mul add 3 1 roll 90.000 sin mul add 2 copy
pop pop pop pop
3138 19575 2863 19575 Sln
2520 19575 0
/Helvetica-0 findfont 687 yratio mul scalefont setfont
(.03) stringwidth pop add
2 div xratio div
dup 4 3 roll exch 90.000 cos mul sub 3 1 roll 90.000 sin mul sub 2 copy
/fntsize {/Helvetica-0 findfont exch scalefont setfont } def
90.000 687
(.03) Stxtl
(.03) stringwidth pop xratio div
dup 4 3 roll exch 90.000 cos mul add 3 1 roll 90.000 sin mul add 2 copy
pop pop pop pop
3138 20750 2863 20750 Sln
2520 20750 0
/Helvetica-0 findfont 687 yratio mul scalefont setfont
(.04) stringwidth pop add
2 div xratio div
dup 4 3 roll exch 90.000 cos mul sub 3 1 roll 90.000 sin mul sub 2 copy
/fntsize {/Helvetica-0 findfont exch scalefont setfont } def
90.000 687
(.04) Stxtl
(.04) stringwidth pop xratio div
dup 4 3 roll exch 90.000 cos mul add 3 1 roll 90.000 sin mul add 2 copy
pop pop pop pop
3138 7260 3138 12829 Sln
3138 7695 2863 7695 Sln
2520 7695 0
/Helvetica-0 findfont 687 yratio mul scalefont setfont
(0) stringwidth pop add
2 div xratio div
dup 4 3 roll exch 90.000 cos mul sub 3 1 roll 90.000 sin mul sub 2 copy
/fntsize {/Helvetica-0 findfont exch scalefont setfont } def
90.000 687
(0) Stxtl
(0) stringwidth pop xratio div
dup 4 3 roll exch 90.000 cos mul add 3 1 roll 90.000 sin mul add 2 copy
pop pop pop pop
3138 8869 2863 8869 Sln
2520 8869 0
/Helvetica-0 findfont 687 yratio mul scalefont setfont
(.01) stringwidth pop add
2 div xratio div
dup 4 3 roll exch 90.000 cos mul sub 3 1 roll 90.000 sin mul sub 2 copy
/fntsize {/Helvetica-0 findfont exch scalefont setfont } def
90.000 687
(.01) Stxtl
(.01) stringwidth pop xratio div
dup 4 3 roll exch 90.000 cos mul add 3 1 roll 90.000 sin mul add 2 copy
pop pop pop pop
3138 10044 2863 10044 Sln
2520 10044 0
/Helvetica-0 findfont 687 yratio mul scalefont setfont
(.02) stringwidth pop add
2 div xratio div
dup 4 3 roll exch 90.000 cos mul sub 3 1 roll 90.000 sin mul sub 2 copy
/fntsize {/Helvetica-0 findfont exch scalefont setfont } def
90.000 687
(.02) Stxtl
(.02) stringwidth pop xratio div
dup 4 3 roll exch 90.000 cos mul add 3 1 roll 90.000 sin mul add 2 copy
pop pop pop pop
3138 11219 2863 11219 Sln
2520 11219 0
/Helvetica-0 findfont 687 yratio mul scalefont setfont
(.03) stringwidth pop add
2 div xratio div
dup 4 3 roll exch 90.000 cos mul sub 3 1 roll 90.000 sin mul sub 2 copy
/fntsize {/Helvetica-0 findfont exch scalefont setfont } def
90.000 687
(.03) Stxtl
(.03) stringwidth pop xratio div
dup 4 3 roll exch 90.000 cos mul add 3 1 roll 90.000 sin mul add 2 copy
pop pop pop pop
3138 12393 2863 12393 Sln
2520 12393 0
/Helvetica-0 findfont 687 yratio mul scalefont setfont
(.04) stringwidth pop add
2 div xratio div
dup 4 3 roll exch 90.000 cos mul sub 3 1 roll 90.000 sin mul sub 2 copy
/fntsize {/Helvetica-0 findfont exch scalefont setfont } def
90.000 687
(.04) Stxtl
(.04) stringwidth pop xratio div
dup 4 3 roll exch 90.000 cos mul add 3 1 roll 90.000 sin mul add 2 copy
pop pop pop pop
17301 15616 30905 15616 Sln
17736 15616 17736 15342 Sln
17736 14723 0
/Helvetica-0 findfont 687 yratio mul scalefont setfont
(0) stringwidth pop add
2 div xratio div
dup 4 3 roll exch 0.000 cos mul sub 3 1 roll 0.000 sin mul sub 2 copy
/fntsize {/Helvetica-0 findfont exch scalefont setfont } def
0.000 687
(0) Stxtl
(0) stringwidth pop xratio div
dup 4 3 roll exch 0.000 cos mul add 3 1 roll 0.000 sin mul add 2 copy
pop pop pop pop
21844 15616 21844 15342 Sln
21844 14723 0
/Helvetica-0 findfont 687 yratio mul scalefont setfont
(50) stringwidth pop add
2 div xratio div
dup 4 3 roll exch 0.000 cos mul sub 3 1 roll 0.000 sin mul sub 2 copy
/fntsize {/Helvetica-0 findfont exch scalefont setfont } def
0.000 687
(50) Stxtl
(50) stringwidth pop xratio div
dup 4 3 roll exch 0.000 cos mul add 3 1 roll 0.000 sin mul add 2 copy
pop pop pop pop
25952 15616 25952 15342 Sln
25952 14723 0
/Helvetica-0 findfont 687 yratio mul scalefont setfont
(100) stringwidth pop add
2 div xratio div
dup 4 3 roll exch 0.000 cos mul sub 3 1 roll 0.000 sin mul sub 2 copy
/fntsize {/Helvetica-0 findfont exch scalefont setfont } def
0.000 687
(100) Stxtl
(100) stringwidth pop xratio div
dup 4 3 roll exch 0.000 cos mul add 3 1 roll 0.000 sin mul add 2 copy
pop pop pop pop
30059 15616 30059 15342 Sln
30059 14723 0
/Helvetica-0 findfont 687 yratio mul scalefont setfont
(150) stringwidth pop add
2 div xratio div
dup 4 3 roll exch 0.000 cos mul sub 3 1 roll 0.000 sin mul sub 2 copy
/fntsize {/Helvetica-0 findfont exch scalefont setfont } def
0.000 687
(150) Stxtl
(150) stringwidth pop xratio div
dup 4 3 roll exch 0.000 cos mul add 3 1 roll 0.000 sin mul add 2 copy
pop pop pop pop
3138 7260 16742 7260 Sln
3573 7260 3573 6985 Sln
3573 6367 0
/Helvetica-0 findfont 687 yratio mul scalefont setfont
(0) stringwidth pop add
2 div xratio div
dup 4 3 roll exch 0.000 cos mul sub 3 1 roll 0.000 sin mul sub 2 copy
/fntsize {/Helvetica-0 findfont exch scalefont setfont } def
0.000 687
(0) Stxtl
(0) stringwidth pop xratio div
dup 4 3 roll exch 0.000 cos mul add 3 1 roll 0.000 sin mul add 2 copy
pop pop pop pop
7681 7260 7681 6985 Sln
7681 6367 0
/Helvetica-0 findfont 687 yratio mul scalefont setfont
(50) stringwidth pop add
2 div xratio div
dup 4 3 roll exch 0.000 cos mul sub 3 1 roll 0.000 sin mul sub 2 copy
/fntsize {/Helvetica-0 findfont exch scalefont setfont } def
0.000 687
(50) Stxtl
(50) stringwidth pop xratio div
dup 4 3 roll exch 0.000 cos mul add 3 1 roll 0.000 sin mul add 2 copy
pop pop pop pop
11789 7260 11789 6985 Sln
11789 6367 0
/Helvetica-0 findfont 687 yratio mul scalefont setfont
(100) stringwidth pop add
2 div xratio div
dup 4 3 roll exch 0.000 cos mul sub 3 1 roll 0.000 sin mul sub 2 copy
/fntsize {/Helvetica-0 findfont exch scalefont setfont } def
0.000 687
(100) Stxtl
(100) stringwidth pop xratio div
dup 4 3 roll exch 0.000 cos mul add 3 1 roll 0.000 sin mul add 2 copy
pop pop pop pop
15896 7260 15896 6985 Sln
15896 6367 0
/Helvetica-0 findfont 687 yratio mul scalefont setfont
(150) stringwidth pop add
2 div xratio div
dup 4 3 roll exch 0.000 cos mul sub 3 1 roll 0.000 sin mul sub 2 copy
/fntsize {/Helvetica-0 findfont exch scalefont setfont } def
0.000 687
(150) Stxtl
(150) stringwidth pop xratio div
dup 4 3 roll exch 0.000 cos mul add 3 1 roll 0.000 sin mul add 2 copy
pop pop pop pop
/Ssrgb {0.851 0.902 0.922} def
/Slrgb {0.851 0.902 0.922} def
3138 21185 16742 22178 1 Srect
9940 21531 0
/Helvetica-0 findfont 756 yratio mul scalefont setfont
(0) stringwidth pop add
2 div xratio div
dup 4 3 roll exch 0.000 cos mul sub 3 1 roll 0.000 sin mul sub 2 copy
/fntsize {/Helvetica-0 findfont exch scalefont setfont } def
0.000 756
(0) Stxtl
(0) stringwidth pop xratio div
dup 4 3 roll exch 0.000 cos mul add 3 1 roll 0.000 sin mul add 2 copy
pop pop pop pop
17301 21185 30905 22178 1 Srect
24103 21531 0
/Helvetica-0 findfont 756 yratio mul scalefont setfont
(1) stringwidth pop add
2 div xratio div
dup 4 3 roll exch 0.000 cos mul sub 3 1 roll 0.000 sin mul sub 2 copy
/fntsize {/Helvetica-0 findfont exch scalefont setfont } def
0.000 756
(1) Stxtl
(1) stringwidth pop xratio div
dup 4 3 roll exch 0.000 cos mul add 3 1 roll 0.000 sin mul add 2 copy
pop pop pop pop
3138 12829 16742 13822 1 Srect
9940 13174 0
/Helvetica-0 findfont 756 yratio mul scalefont setfont
(2) stringwidth pop add
2 div xratio div
dup 4 3 roll exch 0.000 cos mul sub 3 1 roll 0.000 sin mul sub 2 copy
/fntsize {/Helvetica-0 findfont exch scalefont setfont } def
0.000 756
(2) Stxtl
(2) stringwidth pop xratio div
dup 4 3 roll exch 0.000 cos mul add 3 1 roll 0.000 sin mul add 2 copy
pop pop pop pop
/Ssrgb {1.000 1.000 1.000} def
/Slw 0.576 def
/Slrgb {0.000 0.000 0.000} def
5144 2019 27663 4657 1 Srect
/Slw 0.864 def
/Slrgb {0.102 0.278 0.435} def
5493 3904 8518 3904 Sln
/Slrgb {0.565 0.208 0.231} def
15508 3904 18533 3904 Sln
/Slrgb {0.333 0.459 0.184} def
5493 2772 8518 2772 Sln
9003 3621 2 copy
/fntsize {/Helvetica-0 findfont exch scalefont setfont } def
0.000 808
(Agricult.) Stxtl
(Agricult.) stringwidth pop xratio div
dup 4 3 roll exch 0.000 cos mul add 3 1 roll 0.000 sin mul add 2 copy
pop pop pop pop
19018 3621 2 copy
/fntsize {/Helvetica-0 findfont exch scalefont setfont } def
0.000 808
(Employee \(non-agric.\)) Stxtl
(Employee \(non-agric.\)) stringwidth pop xratio div
dup 4 3 roll exch 0.000 cos mul add 3 1 roll 0.000 sin mul add 2 copy
pop pop pop pop
9003 2489 2 copy
/fntsize {/Helvetica-0 findfont exch scalefont setfont } def
0.000 808
(Self-employed) Stxtl
(Self-employed) stringwidth pop xratio div
dup 4 3 roll exch 0.000 cos mul add 3 1 roll 0.000 sin mul add 2 copy
pop pop pop pop
1381 14101 0
/Helvetica-0 findfont 808 yratio mul scalefont setfont
(kdensity workhrs_normal) stringwidth pop add
2 div xratio div
dup 4 3 roll exch 90.000 cos mul sub 3 1 roll 90.000 sin mul sub 2 copy
/fntsize {/Helvetica-0 findfont exch scalefont setfont } def
90.000 808
(kdensity workhrs_normal) Stxtl
(kdensity workhrs_normal) stringwidth pop xratio div
dup 4 3 roll exch 90.000 cos mul add 3 1 roll 90.000 sin mul add 2 copy
pop pop pop pop
16404 5178 0
/Helvetica-0 findfont 808 yratio mul scalefont setfont
(x) stringwidth pop add
2 div xratio div
dup 4 3 roll exch 0.000 cos mul sub 3 1 roll 0.000 sin mul sub 2 copy
/fntsize {/Helvetica-0 findfont exch scalefont setfont } def
0.000 808
(x) Stxtl
(x) stringwidth pop xratio div
dup 4 3 roll exch 0.000 cos mul add 3 1 roll 0.000 sin mul add 2 copy
pop pop pop pop
1762 1148 2 copy
/fntsize {/Helvetica-0 findfont exch scalefont setfont } def
0.000 646
(Graphs by t) Stxtl
(Graphs by t) stringwidth pop xratio div
dup 4 3 roll exch 0.000 cos mul add 3 1 roll 0.000 sin mul add 2 copy
pop pop pop pop
S showpage
%%EOF
