%!PS-Adobe-2.0 EPSF-2.0
%% This is a Stata generated postscript file
%%BoundingBox: 0 0 396 288
%%HiResBoundingBox: 0.000 0.000 396.000 288.000
%%DocumentNeededResources: font Helvetica
/xratio 0.012375 def
/yratio 0.012375 def
/Sbgfill {
	/y1 exch def
	/x1 exch def
	/y0 exch def
	/x0 exch def
	x0 y0 moveto
	x0 y1 lineto x1 y1 lineto x1 y0 lineto x0 y0 lineto
	fill
} def
/Spt {
	yratio mul
	/yp exch def
	xratio mul
	/xp exch def
	Slrgb setrgbcolor
	newpath
	xp yp moveto
	xp Slw add yp
	lineto
	currentlinecap
	1 setlinecap
	stroke
	setlinecap
} def
/Sln {
	yratio mul
	/y1p exch def
	xratio mul
	/x1p exch def
	yratio mul
	/y0p exch def
	xratio mul
	/x0p exch def
	Slw setlinewidth
	Slrgb setrgbcolor
	x0p y0p M x1p y1p lineto S
} def
/Scrv {
	yratio mul
	/y3p exch def
	xratio mul
	/x3p exch def
	yratio mul
	/y2p exch def
	xratio mul
	/x2p exch def
	yratio mul
	/y1p exch def
	xratio mul
	/x1p exch def
	Slw setlinewidth
	Slrgb setrgbcolor
	x1p y1p x2p y2p x3p y3p curveto
	stroke
} def
/Stxtl {
	/sp exch def
	yratio mul
	/sizep exch def
	dup
	/anglep exch def
	0 exch sub
	/angle2p exch def
	yratio mul
	/y0p exch def
	xratio mul
	/x0p exch def
	Strgb setrgbcolor
	x0p y0p M anglep rotate sizep fntsize sp show stroke angle2p rotate
} def
/Stxtc {
	/sp exch def
	yratio mul
	/sizep exch def
	dup
	/anglep exch def
	0 exch sub
	/angle2p exch def
	yratio mul
	/y0p exch def
	xratio mul
	/x0p exch def
	Strgb setrgbcolor
	x0p y0p M anglep rotate sizep fntsize sp stringwidth exch -2 div exch rm sp show stroke angle2p rotate
} def
/Stxtr {
	/sp exch def
	yratio mul
	/sizep exch def
	dup
	/anglep exch def
	0 exch sub
	/angle2p exch def
	yratio mul
	/y0p exch def
	xratio mul
	/x0p exch def
	Strgb setrgbcolor
	x0p y0p M anglep rotate sizep fntsize sp stringwidth 1 index -1 mul exch rm pop sp show stroke angle2p rotate
} def
/Srect {
	/sfill exch def
	yratio mul
	/y1 exch def
	xratio mul
	/x1 exch def
	yratio mul
	/y0 exch def
	xratio mul
	/x0 exch def
	sfill 1 eq {
		Ssrgb setrgbcolor
		x0 y0 moveto
		x0 y1 lineto x1 y1 lineto x1 y0 lineto x0 y0 lineto
		fill
	} if
	Slw setlinewidth
	Slrgb setrgbcolor
	x0 y0 moveto
	x0 y1 lineto x1 y1 lineto x1 y0 lineto x0 y0 lineto
	stroke
} def
/Sellipse {
	/sfill exch def
	yratio mul
	/yrad exch def
	xratio mul
	/xrad exch def
	yratio mul
	/y exch def
	xratio mul
	/x exch def
	sfill 1 eq {
		Ssrgb setrgbcolor
		/savematrix matrix currentmatrix def
		x y translate
		xrad yrad scale
		0 0 1 0 360 arc
		savematrix setmatrix
		fill
	} if
	Slw setlinewidth
	Slrgb setrgbcolor
		/savematrix matrix currentmatrix def
		x y translate
		xrad yrad scale
		0 0 1 0 360 arc
		savematrix setmatrix
	stroke
} def
/Stri {
	/sfill exch def
	xratio mul
	/r exch def
	yratio mul
	/y0 exch def
	xratio mul
	/x0 exch def
	/xcen x0 def
	y0 r add
	/ytop exch def
	r 2 div
	y0 exch sub
	/ybot exch def
	r 3 sqrt 2 div mul dup
	xcen exch sub
	/xleft exch def
	xcen add
	/xright exch def
	sfill 1 eq {
		Ssrgb setrgbcolor
		xcen ytop moveto xright ybot lineto xleft ybot lineto xcen ytop lineto fill
	} if
	Slw setlinewidth
	Slrgb setrgbcolor
	xcen ytop moveto xright ybot lineto xleft ybot lineto xcen ytop lineto stroke
} def
/Soldtri {
	/sfill exch def
	xratio mul
	/r exch def
	yratio mul
	/y0 exch def
	xratio mul
	/x0 exch def
	x0 r sub
	/x1 exch def
	y0 r sub
	/y1 exch def
	x0 r add
	/x2 exch def
	y0 r sub
	/y2 exch def
	/x3 x0 def
	y0 r add
	/y3 exch def
	sfill 1 eq {
		Ssrgb setrgbcolor
		x1 y1 moveto x2 y2 lineto x3 y3 lineto x1 y1 lineto fill
	} if
	Slw setlinewidth
	Slrgb setrgbcolor
	x1 y1 moveto x2 y2 lineto x3 y3 lineto x1 y1 lineto stroke
} def
/Sdia {
	/sfill exch def
	xratio mul
	/r exch def
	yratio mul
	/y exch def
	xratio mul
	/x exch def
	x r sub
	/x0 exch def
	/y0 y def
	/x1 x def
	y r sub
	/y1 exch def
	x r add
	/x2 exch def
	/y2 y def
	/x3 x def
	y r add
	/y3 exch def
	sfill 1 eq  {
		Ssrgb setrgbcolor
		x0 y0 moveto x1 y1 lineto x2 y2 lineto x3 y3 lineto x0 y0 lineto fill
	} if
	Slw setlinewidth
	Slrgb setrgbcolor
	x0 y0 moveto x1 y1 lineto x2 y2 lineto x3 y3 lineto x0 y0 lineto stroke
} def
/Scc {
	/sfill exch def
	xratio mul
	/r0 exch def
	yratio mul
	/y0 exch def
	xratio mul
	/x0 exch def
	sfill 1 eq {
		Ssrgb setrgbcolor
		x0 y0 r0 0 360 arc fill
	} if
	Slw setlinewidth
	Slrgb setrgbcolor
	x0 y0 r0 0 360 arc stroke
} def
/Spie {
	/sfill exch def
	/a1 exch def
	/a0 exch def
	xratio mul
	/r exch def
	yratio mul
	/y exch def
	xratio mul
	/x exch def
	sfill 1 eq {
		Ssrgb setrgbcolor
		newpath x y moveto x y r a0 a1 arc closepath
		fill
	} if
	Slw setlinewidth
	Slrgb setrgbcolor
	newpath x y moveto x y r a0 a1 arc closepath
	stroke
} def
/Splu {
	xratio mul
	/r exch def
	yratio mul
	/y exch def
	xratio mul
	/x exch def
	x r sub
	/x0 exch def
	x r add
	/x1 exch def
	x0 y M x1 y L
	y r sub
	/y0 exch def
	y r add
	/y1 exch def
	x y0 M x y1 L
} def
/Scro {
	xratio mul
	/r exch def
	yratio mul
	/y exch def
	xratio mul
	/x exch def
	x r sub
	/x0 exch def
	y r sub
	/y0 exch def
	x r add
	/x1 exch def
	y r add
	/y1 exch def
	x0 y0 M x1 y1 L
	x r add
	/x0 exch def
	y r sub
	/y0 exch def
	x r sub
	/x1 exch def
	y r add
	/y1 exch def
	x0 y0 M x1 y1 L
} def
/Sm {
	yratio mul
	/y exch def
	xratio mul
	/x exch def
	x y M
} def
/Sl {
	yratio mul
	/y exch def
	xratio mul
	/x exch def
	x y L
} def
/SPl {
	yratio mul
	/y exch def
	xratio mul
	/x exch def
	x y PL
} def
/Lcs {
	currentlinecap
	1 setlinecap
} def
/Lcr {
	setlinecap
} def
/Sbp {
	newpath
} def
/Sep {
	/sfill exch def
	closepath
	sfill 1 eq  {
		Ssrgb setrgbcolor
		gsave
		fill
		grestore
	} if
	Slw setlinewidth
	Slrgb setrgbcolor
	Lcs
	stroke
	Lcr
} def
/cp {currentpoint} def 
/M {moveto} def 
/rm {rmoveto} def 
/S {stroke} def 
/L {Slw setlinewidth Slrgb setrgbcolor lineto Lcs S Lcr} def 
/PL {Slw setlinewidth Slrgb setrgbcolor lineto} def 
/MF-Helvetica {
  /newfontname exch def
  /fontname exch def
  /fontdict fontname findfont def
  /newfont fontdict maxlength dict def
  fontdict {
  exch dup /FID eq {pop pop} {exch newfont 3 1 roll put} ifelse
  } forall
  newfont /FontName newfontname put
  newfont /Encoding ISOLatin1Encoding put
  newfontname newfont definefont pop
} def
/Helvetica /Helvetica-0 MF-Helvetica
/Slw 0.120 def
0.918 0.949 0.953 setrgbcolor
0 0 396.000 288.000 Sbgfill
/Slrgb {1.000 1.000 1.000} def
/Strgb {1.000 1.000 1.000} def
/Ssrgb {1.000 1.000 1.000} def
/Ssrgb {0.918 0.949 0.953} def
/Slw 0.576 def
/Slrgb {0.918 0.949 0.953} def
0 0 31999 23272 1 Srect
/Ssrgb {1.000 1.000 1.000} def
/Slw 0.490 def
/Slrgb {1.000 1.000 1.000} def
3138 15616 16742 21185 1 Srect
/Slrgb {0.000 0.000 0.000} def
/Strgb {0.000 0.000 0.000} def
/Slw 0.734 def
/Slrgb {0.918 0.949 0.953} def
3138 16052 16742 16052 Sln
/Slw 0.490 def
/Slrgb {0.000 0.000 0.000} def
/Slw 0.734 def
/Slrgb {0.918 0.949 0.953} def
3138 17156 16742 17156 Sln
/Slw 0.490 def
/Slrgb {0.000 0.000 0.000} def
/Slw 0.734 def
/Slrgb {0.918 0.949 0.953} def
3138 18260 16742 18260 Sln
/Slw 0.490 def
/Slrgb {0.000 0.000 0.000} def
/Slw 0.734 def
/Slrgb {0.918 0.949 0.953} def
3138 19364 16742 19364 Sln
/Slw 0.490 def
/Slrgb {0.000 0.000 0.000} def
/Slw 0.734 def
/Slrgb {0.918 0.949 0.953} def
3138 20469 16742 20469 Sln
/Slw 0.490 def
/Slrgb {0.000 0.000 0.000} def
/Slrgb {1.000 1.000 1.000} def
17301 15616 30905 21185 1 Srect
/Slrgb {0.000 0.000 0.000} def
/Slw 0.734 def
/Slrgb {0.918 0.949 0.953} def
17301 16052 30905 16052 Sln
/Slw 0.490 def
/Slrgb {0.000 0.000 0.000} def
/Slw 0.734 def
/Slrgb {0.918 0.949 0.953} def
17301 17156 30905 17156 Sln
/Slw 0.490 def
/Slrgb {0.000 0.000 0.000} def
/Slw 0.734 def
/Slrgb {0.918 0.949 0.953} def
17301 18260 30905 18260 Sln
/Slw 0.490 def
/Slrgb {0.000 0.000 0.000} def
/Slw 0.734 def
/Slrgb {0.918 0.949 0.953} def
17301 19364 30905 19364 Sln
/Slw 0.490 def
/Slrgb {0.000 0.000 0.000} def
/Slw 0.734 def
/Slrgb {0.918 0.949 0.953} def
17301 20469 30905 20469 Sln
/Slw 0.490 def
/Slrgb {0.000 0.000 0.000} def
/Slrgb {1.000 1.000 1.000} def
3138 7260 16742 12829 1 Srect
/Slrgb {0.000 0.000 0.000} def
/Slw 0.734 def
/Slrgb {0.918 0.949 0.953} def
3138 7695 16742 7695 Sln
/Slw 0.490 def
/Slrgb {0.000 0.000 0.000} def
/Slw 0.734 def
/Slrgb {0.918 0.949 0.953} def
3138 8799 16742 8799 Sln
/Slw 0.490 def
/Slrgb {0.000 0.000 0.000} def
/Slw 0.734 def
/Slrgb {0.918 0.949 0.953} def
3138 9903 16742 9903 Sln
/Slw 0.490 def
/Slrgb {0.000 0.000 0.000} def
/Slw 0.734 def
/Slrgb {0.918 0.949 0.953} def
3138 11008 16742 11008 Sln
/Slw 0.490 def
/Slrgb {0.000 0.000 0.000} def
/Slw 0.734 def
/Slrgb {0.918 0.949 0.953} def
3138 12112 16742 12112 Sln
/Slw 0.490 def
/Slrgb {0.000 0.000 0.000} def
/Slw 0.734 def
/Slrgb {0.102 0.278 0.435} def
3573 16175 Sm
3609 16183 Sl
3609 16183 Sm
3646 16190 Sl
3646 16190 Sm
3682 16200 Sl
3682 16200 Sm
3719 16208 Sl
3719 16208 Sm
3755 16215 Sl
3755 16215 Sm
3792 16219 Sl
3792 16219 Sm
3828 16228 Sl
3828 16228 Sm
3865 16238 Sl
3865 16238 Sm
3901 16244 Sl
3901 16244 Sm
3938 16244 Sl
3938 16244 Sm
3974 16260 Sl
3974 16260 Sm
4011 16281 Sl
4011 16281 Sm
4047 16297 Sl
4047 16297 Sm
4084 16308 Sl
4084 16308 Sm
4120 16315 Sl
4120 16315 Sm
4157 16322 Sl
4157 16322 Sm
4193 16323 Sl
4193 16323 Sm
4230 16319 Sl
4230 16319 Sm
4266 16311 Sl
4266 16311 Sm
4303 16304 Sl
4303 16304 Sm
4339 16293 Sl
4339 16293 Sm
4376 16291 Sl
4376 16291 Sm
4412 16285 Sl
4412 16285 Sm
4449 16285 Sl
4449 16285 Sm
4485 16281 Sl
4485 16281 Sm
4522 16273 Sl
4522 16273 Sm
4558 16263 Sl
4558 16263 Sm
4595 16275 Sl
4595 16275 Sm
4631 16285 Sl
4631 16285 Sm
4668 16292 Sl
4668 16292 Sm
4704 16293 Sl
4704 16293 Sm
4741 16313 Sl
4741 16313 Sm
4777 16335 Sl
4777 16335 Sm
4814 16358 Sl
4814 16358 Sm
4850 16379 Sl
4850 16379 Sm
4887 16399 Sl
4887 16399 Sm
4923 16412 Sl
4923 16412 Sm
4960 16417 Sl
4960 16417 Sm
4996 16413 Sl
4996 16413 Sm
5033 16416 Sl
5033 16416 Sm
5069 16435 Sl
5069 16435 Sm
5106 16455 Sl
5106 16455 Sm
5142 16482 Sl
5142 16482 Sm
5179 16502 Sl
5179 16502 Sm
5215 16513 Sl
5215 16513 Sm
5252 16512 Sl
5252 16512 Sm
5289 16505 Sl
5289 16505 Sm
5325 16496 Sl
5325 16496 Sm
5362 16501 Sl
5362 16501 Sm
5398 16495 Sl
5398 16495 Sm
5435 16477 Sl
5435 16477 Sm
5471 16456 Sl
5471 16456 Sm
5508 16499 Sl
5508 16499 Sm
5544 16541 Sl
5544 16541 Sm
5581 16582 Sl
5581 16582 Sm
5617 16609 Sl
5617 16609 Sm
5654 16628 Sl
5654 16628 Sm
5690 16634 Sl
5690 16634 Sm
5727 16624 Sl
5727 16624 Sm
5763 16600 Sl
5763 16600 Sm
5800 16599 Sl
5800 16599 Sm
5836 16586 Sl
5836 16586 Sm
5873 16598 Sl
5873 16598 Sm
5909 16618 Sl
5909 16618 Sm
5946 16653 Sl
5946 16653 Sm
5982 16716 Sl
5982 16716 Sm
6019 16762 Sl
6019 16762 Sm
6055 16786 Sl
6055 16786 Sm
6092 16801 Sl
6092 16801 Sm
6128 16804 Sl
6128 16804 Sm
6165 16786 Sl
6165 16786 Sm
6201 16749 Sl
6201 16749 Sm
6238 16741 Sl
6238 16741 Sm
6274 16854 Sl
6274 16854 Sm
6311 16944 Sl
6311 16944 Sm
6347 17009 Sl
6347 17009 Sm
6384 17052 Sl
6384 17052 Sm
6420 17144 Sl
6420 17144 Sm
6457 17209 Sl
6457 17209 Sm
6493 17244 Sl
6493 17244 Sm
6530 17247 Sl
6530 17247 Sm
6566 17228 Sl
6566 17228 Sm
6603 17186 Sl
6603 17186 Sm
6639 17169 Sl
6639 17169 Sm
6676 17140 Sl
6676 17140 Sm
6712 17155 Sl
6712 17155 Sm
6749 17146 Sl
6749 17146 Sm
6785 17112 Sl
6785 17112 Sm
6822 17052 Sl
6822 17052 Sm
6858 17183 Sl
6858 17183 Sm
6895 17491 Sl
6895 17491 Sm
6931 17738 Sl
6931 17738 Sm
6968 17925 Sl
6968 17925 Sm
7004 18159 Sl
7004 18159 Sm
7041 18386 Sl
7041 18386 Sm
7077 18551 Sl
7077 18551 Sm
7114 18652 Sl
7114 18652 Sm
7150 18743 Sl
7150 18743 Sm
7187 18809 Sl
7187 18809 Sm
7223 18818 Sl
7223 18818 Sm
7260 18771 Sl
7260 18771 Sm
7296 18671 Sl
7296 18671 Sm
7333 18552 Sl
7333 18552 Sm
7369 18389 Sl
7369 18389 Sm
7406 18193 Sl
7406 18193 Sm
7442 17942 Sl
7442 17942 Sm
7479 17670 Sl
7479 17670 Sm
7515 17344 Sl
7515 17344 Sm
7552 16959 Sl
7552 16959 Sm
7588 16603 Sl
7588 16603 Sm
7625 16585 Sl
7625 16585 Sm
7661 16553 Sl
7661 16553 Sm
7698 16525 Sl
7698 16525 Sm
7734 16485 Sl
7734 16485 Sm
7771 16529 Sl
7771 16529 Sm
7807 16596 Sl
7807 16596 Sm
7844 16647 Sl
7844 16647 Sm
7880 16681 Sl
7880 16681 Sm
7917 16705 Sl
7917 16705 Sm
7953 16715 Sl
7953 16715 Sm
7990 16714 Sl
7990 16714 Sm
8026 16707 Sl
8026 16707 Sm
8063 16709 Sl
8063 16709 Sm
8099 16707 Sl
8099 16707 Sm
8136 16692 Sl
8136 16692 Sm
8172 16668 Sl
8172 16668 Sm
8209 16653 Sl
8209 16653 Sm
8245 16651 Sl
8245 16651 Sm
8282 16635 Sl
8282 16635 Sm
8318 16606 Sl
8318 16606 Sm
8355 16564 Sl
8355 16564 Sm
8391 16509 Sl
8391 16509 Sm
8428 16440 Sl
8428 16440 Sm
8464 16359 Sl
8464 16359 Sm
8501 16288 Sl
8501 16288 Sm
8537 16309 Sl
8537 16309 Sm
8574 16330 Sl
8574 16330 Sm
8610 16343 Sl
8610 16343 Sm
8647 16347 Sl
8647 16347 Sm
8683 16363 Sl
8683 16363 Sm
8720 16380 Sl
8720 16380 Sm
8756 16405 Sl
8756 16405 Sm
8793 16421 Sl
8793 16421 Sm
8829 16434 Sl
8829 16434 Sm
8866 16437 Sl
8866 16437 Sm
8902 16438 Sl
8902 16438 Sm
8939 16431 Sl
8939 16431 Sm
8975 16426 Sl
8975 16426 Sm
9012 16416 Sl
9012 16416 Sm
9048 16399 Sl
9048 16399 Sm
9085 16380 Sl
9085 16380 Sm
9121 16353 Sl
9121 16353 Sm
9158 16322 Sl
9158 16322 Sm
9194 16283 Sl
9194 16283 Sm
9231 16235 Sl
9231 16235 Sm
9267 16202 Sl
9267 16202 Sm
9304 16197 Sl
9304 16197 Sm
9340 16186 Sl
9340 16186 Sm
9377 16171 Sl
9377 16171 Sm
9413 16162 Sl
9413 16162 Sm
9450 16171 Sl
9450 16171 Sm
9486 16178 Sl
9486 16178 Sm
9523 16184 Sl
9523 16184 Sm
9560 16188 Sl
9560 16188 Sm
9596 16199 Sl
9596 16199 Sm
9633 16210 Sl
9633 16210 Sm
9669 16217 Sl
9669 16217 Sm
9706 16220 Sl
9706 16220 Sm
9742 16220 Sl
9742 16220 Sm
9779 16214 Sl
9779 16214 Sm
9815 16211 Sl
9815 16211 Sm
9852 16204 Sl
9852 16204 Sm
9888 16198 Sl
9888 16198 Sm
9925 16190 Sl
9925 16190 Sm
9961 16178 Sl
9961 16178 Sm
9998 16164 Sl
9998 16164 Sm
10034 16157 Sl
10034 16157 Sm
10071 16158 Sl
10071 16158 Sm
10107 16157 Sl
10107 16157 Sm
10144 16154 Sl
10144 16154 Sm
10180 16149 Sl
10180 16149 Sm
10217 16144 Sl
10217 16144 Sm
10253 16136 Sl
10253 16136 Sm
10290 16125 Sl
10290 16125 Sm
10326 16119 Sl
10326 16119 Sm
10363 16120 Sl
10363 16120 Sm
10399 16120 Sl
10399 16120 Sm
10436 16119 Sl
10436 16119 Sm
10472 16117 Sl
10472 16117 Sm
10509 16125 Sl
10509 16125 Sm
10545 16132 Sl
10545 16132 Sm
10582 16137 Sl
10582 16137 Sm
10618 16139 Sl
10618 16139 Sm
10655 16140 Sl
10655 16140 Sm
10691 16139 Sl
10691 16139 Sm
10728 16135 Sl
10728 16135 Sm
10764 16128 Sl
10764 16128 Sm
10801 16129 Sl
10801 16129 Sm
10837 16129 Sl
10837 16129 Sm
10874 16128 Sl
10874 16128 Sm
10910 16126 Sl
10910 16126 Sm
10947 16124 Sl
10947 16124 Sm
10983 16123 Sl
10983 16123 Sm
11020 16120 Sl
11020 16120 Sm
11056 16115 Sl
11056 16115 Sm
11093 16109 Sl
11093 16109 Sm
11129 16100 Sl
11129 16100 Sm
11166 16090 Sl
11166 16090 Sm
11202 16078 Sl
11202 16078 Sm
11239 16072 Sl
11239 16072 Sm
11275 16071 Sl
11275 16071 Sm
11312 16071 Sl
11312 16071 Sm
11348 16069 Sl
11348 16069 Sm
11385 16068 Sl
11385 16068 Sm
11421 16070 Sl
11421 16070 Sm
11458 16072 Sl
11458 16072 Sm
11494 16073 Sl
11494 16073 Sm
11531 16073 Sl
11531 16073 Sm
11567 16073 Sl
11567 16073 Sm
11604 16072 Sl
11604 16072 Sm
11640 16070 Sl
11640 16070 Sm
11677 16068 Sl
11677 16068 Sm
11713 16069 Sl
11713 16069 Sm
11750 16070 Sl
11750 16070 Sm
11786 16071 Sl
11786 16071 Sm
11823 16072 Sl
11823 16072 Sm
11859 16072 Sl
11859 16072 Sm
11896 16071 Sl
11896 16071 Sm
11932 16070 Sl
11932 16070 Sm
11969 16069 Sl
11969 16069 Sm
12005 16067 Sl
12005 16067 Sm
12042 16064 Sl
12042 16064 Sm
12078 16061 Sl
12078 16061 Sm
12115 16058 Sl
12115 16058 Sm
12151 16057 Sl
12151 16057 Sm
12188 16057 Sl
12188 16057 Sm
12224 16058 Sl
12224 16058 Sm
12261 16058 Sl
12261 16058 Sm
12297 16058 Sl
12297 16058 Sm
12334 16058 Sl
12334 16058 Sm
12370 16058 Sl
12370 16058 Sm
12407 16057 Sl
12407 16057 Sm
12443 16057 Sl
12443 16057 Sm
12480 16057 Sl
12480 16057 Sm
12516 16057 Sl
12516 16057 Sm
12553 16057 Sl
12553 16057 Sm
12589 16057 Sl
12589 16057 Sm
12626 16057 Sl
12626 16057 Sm
12662 16058 Sl
12662 16058 Sm
12699 16058 Sl
12699 16058 Sm
12735 16058 Sl
12735 16058 Sm
12772 16058 Sl
12772 16058 Sm
12808 16058 Sl
12808 16058 Sm
12845 16058 Sl
12845 16058 Sm
12881 16057 Sl
12881 16057 Sm
12918 16057 Sl
12918 16057 Sm
12954 16057 Sl
12954 16057 Sm
12991 16057 Sl
12991 16057 Sm
13027 16057 Sl
13027 16057 Sm
13064 16057 Sl
13064 16057 Sm
13100 16056 Sl
13100 16056 Sm
13137 16056 Sl
13137 16056 Sm
13173 16055 Sl
13173 16055 Sm
13210 16055 Sl
13210 16055 Sm
13246 16055 Sl
13246 16055 Sm
13283 16055 Sl
13283 16055 Sm
13319 16055 Sl
13319 16055 Sm
13356 16055 Sl
13356 16055 Sm
13392 16055 Sl
13392 16055 Sm
13429 16056 Sl
13429 16056 Sm
13465 16056 Sl
13465 16056 Sm
13502 16057 Sl
13502 16057 Sm
13538 16058 Sl
13538 16058 Sm
13575 16059 Sl
13575 16059 Sm
13611 16060 Sl
13611 16060 Sm
13648 16060 Sl
13648 16060 Sm
13684 16061 Sl
13684 16061 Sm
13721 16061 Sl
13721 16061 Sm
13758 16061 Sl
13758 16061 Sm
13794 16061 Sl
13794 16061 Sm
13831 16060 Sl
13831 16060 Sm
13867 16059 Sl
13867 16059 Sm
13904 16058 Sl
13904 16058 Sm
13940 16057 Sl
13940 16057 Sm
13977 16057 Sl
13977 16057 Sm
14013 16056 Sl
14013 16056 Sm
14050 16056 Sl
14050 16056 Sm
14086 16055 Sl
14086 16055 Sm
14123 16055 Sl
14123 16055 Sm
14159 16055 Sl
14159 16055 Sm
14196 16055 Sl
14196 16055 Sm
14232 16055 Sl
14232 16055 Sm
14269 16055 Sl
14269 16055 Sm
14305 16056 Sl
14305 16056 Sm
14342 16056 Sl
14342 16056 Sm
14378 16056 Sl
14378 16056 Sm
14415 16057 Sl
14415 16057 Sm
14451 16057 Sl
14451 16057 Sm
14488 16057 Sl
/Slrgb {0.565 0.208 0.231} def
3573 16285 Sm
3607 16287 Sl
3607 16287 Sm
3641 16281 Sl
3641 16281 Sm
3675 16263 Sl
3675 16263 Sm
3709 16241 Sl
3709 16241 Sm
3743 16202 Sl
3743 16202 Sm
3777 16159 Sl
3777 16159 Sm
3811 16163 Sl
3811 16163 Sm
3845 16180 Sl
3845 16180 Sm
3879 16198 Sl
3879 16198 Sm
3912 16216 Sl
3912 16216 Sm
3946 16230 Sl
3946 16230 Sm
3980 16243 Sl
3980 16243 Sm
4014 16272 Sl
4014 16272 Sm
4048 16290 Sl
4048 16290 Sm
4082 16308 Sl
4082 16308 Sm
4116 16321 Sl
4116 16321 Sm
4150 16341 Sl
4150 16341 Sm
4184 16356 Sl
4184 16356 Sm
4218 16355 Sl
4218 16355 Sm
4252 16346 Sl
4252 16346 Sm
4286 16342 Sl
4286 16342 Sm
4320 16346 Sl
4320 16346 Sm
4354 16337 Sl
4354 16337 Sm
4388 16309 Sl
4388 16309 Sm
4422 16300 Sl
4422 16300 Sm
4456 16280 Sl
4456 16280 Sm
4490 16259 Sl
4490 16259 Sm
4524 16246 Sl
4524 16246 Sm
4558 16245 Sl
4558 16245 Sm
4592 16256 Sl
4592 16256 Sm
4626 16270 Sl
4626 16270 Sm
4660 16269 Sl
4660 16269 Sm
4694 16260 Sl
4694 16260 Sm
4728 16273 Sl
4728 16273 Sm
4762 16304 Sl
4762 16304 Sm
4796 16321 Sl
4796 16321 Sm
4830 16321 Sl
4830 16321 Sm
4864 16307 Sl
4864 16307 Sm
4898 16317 Sl
4898 16317 Sm
4932 16354 Sl
4932 16354 Sm
4966 16386 Sl
4966 16386 Sm
5000 16405 Sl
5000 16405 Sm
5033 16424 Sl
5033 16424 Sm
5067 16427 Sl
5067 16427 Sm
5101 16413 Sl
5101 16413 Sm
5135 16382 Sl
5135 16382 Sm
5169 16356 Sl
5169 16356 Sm
5203 16352 Sl
5203 16352 Sm
5237 16349 Sl
5237 16349 Sm
5271 16358 Sl
5271 16358 Sm
5305 16435 Sl
5305 16435 Sm
5339 16534 Sl
5339 16534 Sm
5373 16601 Sl
5373 16601 Sm
5407 16645 Sl
5407 16645 Sm
5441 16662 Sl
5441 16662 Sm
5475 16652 Sl
5475 16652 Sm
5509 16626 Sl
5509 16626 Sm
5543 16578 Sl
5543 16578 Sm
5577 16495 Sl
5577 16495 Sm
5611 16395 Sl
5611 16395 Sm
5645 16328 Sl
5645 16328 Sm
5679 16356 Sl
5679 16356 Sm
5713 16459 Sl
5713 16459 Sm
5747 16529 Sl
5747 16529 Sm
5781 16572 Sl
5781 16572 Sm
5815 16598 Sl
5815 16598 Sm
5849 16604 Sl
5849 16604 Sm
5883 16582 Sl
5883 16582 Sm
5917 16541 Sl
5917 16541 Sm
5951 16491 Sl
5951 16491 Sm
5985 16417 Sl
5985 16417 Sm
6019 16315 Sl
6019 16315 Sm
6053 16305 Sl
6053 16305 Sm
6087 16397 Sl
6087 16397 Sm
6121 16512 Sl
6121 16512 Sm
6154 16602 Sl
6154 16602 Sm
6188 16656 Sl
6188 16656 Sm
6222 16685 Sl
6222 16685 Sm
6256 16694 Sl
6256 16694 Sm
6290 16681 Sl
6290 16681 Sm
6324 16634 Sl
6324 16634 Sm
6358 16558 Sl
6358 16558 Sm
6392 16453 Sl
6392 16453 Sm
6426 16760 Sl
6426 16760 Sm
6460 17137 Sl
6460 17137 Sm
6494 17435 Sl
6494 17435 Sm
6528 17662 Sl
6528 17662 Sm
6562 17867 Sl
6562 17867 Sm
6596 18039 Sl
6596 18039 Sm
6630 18094 Sl
6630 18094 Sm
6664 18035 Sl
6664 18035 Sm
6698 17874 Sl
6698 17874 Sm
6732 17657 Sl
6732 17657 Sm
6766 17324 Sl
6766 17324 Sm
6800 17010 Sl
6800 17010 Sm
6834 16985 Sl
6834 16985 Sm
6868 17099 Sl
6868 17099 Sm
6902 17156 Sl
6902 17156 Sm
6936 17141 Sl
6936 17141 Sm
6970 17084 Sl
6970 17084 Sm
7004 17072 Sl
7004 17072 Sm
7038 18131 Sl
7038 18131 Sm
7072 18937 Sl
7072 18937 Sm
7106 19506 Sl
7106 19506 Sm
7140 19875 Sl
7140 19875 Sm
7174 20122 Sl
7174 20122 Sm
7208 20299 Sl
7208 20299 Sm
7241 20341 Sl
7241 20341 Sm
7275 20152 Sl
7275 20152 Sm
7309 19741 Sl
7309 19741 Sm
7343 19100 Sl
7343 19100 Sm
7377 18227 Sl
7377 18227 Sm
7411 17114 Sl
7411 17114 Sm
7445 16788 Sl
7445 16788 Sm
7479 16740 Sl
7479 16740 Sm
7513 16691 Sl
7513 16691 Sm
7547 16615 Sl
7547 16615 Sm
7581 16575 Sl
7581 16575 Sm
7615 16651 Sl
7615 16651 Sm
7649 16778 Sl
7649 16778 Sm
7683 16864 Sl
7683 16864 Sm
7717 16908 Sl
7717 16908 Sm
7751 16917 Sl
7751 16917 Sm
7785 16886 Sl
7785 16886 Sm
7819 16810 Sl
7819 16810 Sm
7853 16685 Sl
7853 16685 Sm
7887 16558 Sl
7887 16558 Sm
7921 16523 Sl
7921 16523 Sm
7955 16628 Sl
7955 16628 Sm
7989 16712 Sl
7989 16712 Sm
8023 16737 Sl
8023 16737 Sm
8057 16815 Sl
8057 16815 Sm
8091 16856 Sl
8091 16856 Sm
8125 16862 Sl
8125 16862 Sm
8159 16841 Sl
8159 16841 Sm
8193 16792 Sl
8193 16792 Sm
8227 16709 Sl
8227 16709 Sm
8261 16588 Sl
8261 16588 Sm
8295 16420 Sl
8295 16420 Sm
8329 16220 Sl
8329 16220 Sm
8362 16232 Sl
8362 16232 Sm
8396 16260 Sl
8396 16260 Sm
8430 16281 Sl
8430 16281 Sm
8464 16287 Sl
8464 16287 Sm
8498 16280 Sl
8498 16280 Sm
8532 16263 Sl
8532 16263 Sm
8566 16246 Sl
8566 16246 Sm
8600 16234 Sl
8600 16234 Sm
8634 16212 Sl
8634 16212 Sm
8668 16194 Sl
8668 16194 Sm
8702 16248 Sl
8702 16248 Sm
8736 16298 Sl
8736 16298 Sm
8770 16328 Sl
8770 16328 Sm
8804 16357 Sl
8804 16357 Sm
8838 16422 Sl
8838 16422 Sm
8872 16508 Sl
8872 16508 Sm
8906 16562 Sl
8906 16562 Sm
8940 16585 Sl
8940 16585 Sm
8974 16584 Sl
8974 16584 Sm
9008 16550 Sl
9008 16550 Sm
9042 16484 Sl
9042 16484 Sm
9076 16389 Sl
9076 16389 Sm
9110 16333 Sl
9110 16333 Sm
9144 16292 Sl
9144 16292 Sm
9178 16236 Sl
9178 16236 Sm
9212 16169 Sl
9212 16169 Sm
9246 16120 Sl
9246 16120 Sm
9280 16136 Sl
9280 16136 Sm
9314 16156 Sl
9314 16156 Sm
9348 16173 Sl
9348 16173 Sm
9382 16183 Sl
9382 16183 Sm
9416 16185 Sl
9416 16185 Sm
9449 16193 Sl
9449 16193 Sm
9483 16202 Sl
9483 16202 Sm
9517 16202 Sl
9517 16202 Sm
9551 16193 Sl
9551 16193 Sm
9585 16179 Sl
9585 16179 Sm
9619 16157 Sl
9619 16157 Sm
9653 16149 Sl
9653 16149 Sm
9687 16136 Sl
9687 16136 Sm
9721 16129 Sl
9721 16129 Sm
9755 16165 Sl
9755 16165 Sm
9789 16210 Sl
9789 16210 Sm
9823 16237 Sl
9823 16237 Sm
9857 16258 Sl
9857 16258 Sm
9891 16280 Sl
9891 16280 Sm
9925 16289 Sl
9925 16289 Sm
9959 16287 Sl
9959 16287 Sm
9993 16273 Sl
9993 16273 Sm
10027 16247 Sl
10027 16247 Sm
10061 16210 Sl
10061 16210 Sm
10095 16162 Sl
10095 16162 Sm
10129 16103 Sl
10129 16103 Sm
10163 16065 Sl
10163 16065 Sm
10197 16068 Sl
10197 16068 Sm
10231 16077 Sl
10231 16077 Sm
10265 16083 Sl
10265 16083 Sm
10299 16092 Sl
10299 16092 Sm
10333 16099 Sl
10333 16099 Sm
10367 16104 Sl
10367 16104 Sm
10401 16108 Sl
10401 16108 Sm
10435 16110 Sl
10435 16110 Sm
10469 16110 Sl
10469 16110 Sm
10503 16108 Sl
10503 16108 Sm
10537 16103 Sl
10537 16103 Sm
10570 16094 Sl
10570 16094 Sm
10604 16081 Sl
10604 16081 Sm
10638 16076 Sl
10638 16076 Sm
10672 16074 Sl
10672 16074 Sm
10706 16076 Sl
10706 16076 Sm
10740 16077 Sl
10740 16077 Sm
10774 16077 Sl
10774 16077 Sm
10808 16076 Sl
10808 16076 Sm
10842 16075 Sl
10842 16075 Sm
10876 16073 Sl
10876 16073 Sm
10910 16071 Sl
10910 16071 Sm
10944 16068 Sl
10944 16068 Sm
10978 16066 Sl
10978 16066 Sm
11012 16063 Sl
11012 16063 Sm
11046 16059 Sl
11046 16059 Sm
11080 16058 Sl
11080 16058 Sm
11114 16060 Sl
11114 16060 Sm
11148 16061 Sl
11148 16061 Sm
11182 16062 Sl
11182 16062 Sm
11216 16062 Sl
11216 16062 Sm
11250 16062 Sl
11250 16062 Sm
11284 16064 Sl
11284 16064 Sm
11318 16064 Sl
11318 16064 Sm
11352 16064 Sl
11352 16064 Sm
11386 16063 Sl
11386 16063 Sm
11420 16063 Sl
11420 16063 Sm
11454 16062 Sl
11454 16062 Sm
11488 16061 Sl
11488 16061 Sm
11522 16061 Sl
11522 16061 Sm
11556 16060 Sl
11556 16060 Sm
11590 16060 Sl
11590 16060 Sm
11624 16059 Sl
11624 16059 Sm
11657 16057 Sl
11657 16057 Sm
11691 16057 Sl
11691 16057 Sm
11725 16057 Sl
11725 16057 Sm
11759 16057 Sl
11759 16057 Sm
11793 16056 Sl
11793 16056 Sm
11827 16055 Sl
11827 16055 Sm
11861 16054 Sl
11861 16054 Sm
11895 16053 Sl
11895 16053 Sm
11929 16052 Sl
11929 16052 Sm
11963 16051 Sl
11963 16051 Sm
11997 16051 Sl
11997 16051 Sm
12031 16051 Sl
12031 16051 Sm
12065 16051 Sl
12065 16051 Sm
12099 16051 Sl
12099 16051 Sm
12133 16051 Sl
12133 16051 Sm
12167 16051 Sl
12167 16051 Sm
12201 16051 Sl
12201 16051 Sm
12235 16051 Sl
12235 16051 Sm
12269 16051 Sl
12269 16051 Sm
12303 16051 Sl
12303 16051 Sm
12337 16051 Sl
12337 16051 Sm
12371 16051 Sl
12371 16051 Sm
12405 16051 Sl
12405 16051 Sm
12439 16051 Sl
12439 16051 Sm
12473 16052 Sl
12473 16052 Sm
12507 16053 Sl
12507 16053 Sm
12541 16055 Sl
12541 16055 Sm
12575 16056 Sl
12575 16056 Sm
12609 16057 Sl
12609 16057 Sm
12643 16057 Sl
12643 16057 Sm
12677 16057 Sl
12677 16057 Sm
12711 16057 Sl
12711 16057 Sm
12745 16056 Sl
12745 16056 Sm
12778 16056 Sl
12778 16056 Sm
12812 16054 Sl
12812 16054 Sm
12846 16053 Sl
12846 16053 Sm
12880 16051 Sl
12880 16051 Sm
12914 16051 Sl
12914 16051 Sm
12948 16051 Sl
12948 16051 Sm
12982 16051 Sl
12982 16051 Sm
13016 16051 Sl
13016 16051 Sm
13050 16051 Sl
13050 16051 Sm
13084 16051 Sl
13084 16051 Sm
13118 16051 Sl
13118 16051 Sm
13152 16051 Sl
13152 16051 Sm
13186 16051 Sl
13186 16051 Sm
13220 16051 Sl
13220 16051 Sm
13254 16051 Sl
13254 16051 Sm
13288 16051 Sl
13288 16051 Sm
13322 16051 Sl
13322 16051 Sm
13356 16051 Sl
13356 16051 Sm
13390 16051 Sl
13390 16051 Sm
13424 16051 Sl
13424 16051 Sm
13458 16051 Sl
13458 16051 Sm
13492 16051 Sl
13492 16051 Sm
13526 16051 Sl
13526 16051 Sm
13560 16052 Sl
13560 16052 Sm
13594 16053 Sl
13594 16053 Sm
13628 16053 Sl
13628 16053 Sm
13662 16054 Sl
13662 16054 Sm
13696 16054 Sl
13696 16054 Sm
13730 16054 Sl
/Slrgb {0.333 0.459 0.184} def
3573 16430 Sm
3604 16455 Sl
3604 16455 Sm
3636 16477 Sl
3636 16477 Sm
3668 16498 Sl
3668 16498 Sm
3700 16516 Sl
3700 16516 Sm
3731 16534 Sl
3731 16534 Sm
3763 16553 Sl
3763 16553 Sm
3795 16570 Sl
3795 16570 Sm
3826 16585 Sl
3826 16585 Sm
3858 16597 Sl
3858 16597 Sm
3890 16610 Sl
3890 16610 Sm
3921 16622 Sl
3921 16622 Sm
3953 16632 Sl
3953 16632 Sm
3985 16645 Sl
3985 16645 Sm
4016 16656 Sl
4016 16656 Sm
4048 16665 Sl
4048 16665 Sm
4080 16671 Sl
4080 16671 Sm
4111 16675 Sl
4111 16675 Sm
4143 16676 Sl
4143 16676 Sm
4175 16675 Sl
4175 16675 Sm
4207 16673 Sl
4207 16673 Sm
4238 16669 Sl
4238 16669 Sm
4270 16661 Sl
4270 16661 Sm
4302 16651 Sl
4302 16651 Sm
4333 16639 Sl
4333 16639 Sm
4365 16642 Sl
4365 16642 Sm
4397 16642 Sl
4397 16642 Sm
4428 16643 Sl
4428 16643 Sm
4460 16643 Sl
4460 16643 Sm
4492 16640 Sl
4492 16640 Sm
4523 16638 Sl
4523 16638 Sm
4555 16633 Sl
4555 16633 Sm
4587 16629 Sl
4587 16629 Sm
4619 16623 Sl
4619 16623 Sm
4650 16619 Sl
4650 16619 Sm
4682 16618 Sl
4682 16618 Sm
4714 16615 Sl
4714 16615 Sm
4745 16619 Sl
4745 16619 Sm
4777 16620 Sl
4777 16620 Sm
4809 16621 Sl
4809 16621 Sm
4840 16621 Sl
4840 16621 Sm
4872 16618 Sl
4872 16618 Sm
4904 16614 Sl
4904 16614 Sm
4935 16607 Sl
4935 16607 Sm
4967 16608 Sl
4967 16608 Sm
4999 16607 Sl
4999 16607 Sm
5030 16604 Sl
5030 16604 Sm
5062 16599 Sl
5062 16599 Sm
5094 16596 Sl
5094 16596 Sm
5126 16611 Sl
5126 16611 Sm
5157 16623 Sl
5157 16623 Sm
5189 16632 Sl
5189 16632 Sm
5221 16638 Sl
5221 16638 Sm
5252 16643 Sl
5252 16643 Sm
5284 16649 Sl
5284 16649 Sm
5316 16652 Sl
5316 16652 Sm
5347 16653 Sl
5347 16653 Sm
5379 16651 Sl
5379 16651 Sm
5411 16648 Sl
5411 16648 Sm
5442 16645 Sl
5442 16645 Sm
5474 16643 Sl
5474 16643 Sm
5506 16650 Sl
5506 16650 Sm
5537 16653 Sl
5537 16653 Sm
5569 16662 Sl
5569 16662 Sm
5601 16670 Sl
5601 16670 Sm
5633 16674 Sl
5633 16674 Sm
5664 16675 Sl
5664 16675 Sm
5696 16674 Sl
5696 16674 Sm
5728 16673 Sl
5728 16673 Sm
5759 16669 Sl
5759 16669 Sm
5791 16662 Sl
5791 16662 Sm
5823 16652 Sl
5823 16652 Sm
5854 16647 Sl
5854 16647 Sm
5886 16664 Sl
5886 16664 Sm
5918 16677 Sl
5918 16677 Sm
5949 16691 Sl
5949 16691 Sm
5981 16703 Sl
5981 16703 Sm
6013 16718 Sl
6013 16718 Sm
6044 16734 Sl
6044 16734 Sm
6076 16747 Sl
6076 16747 Sm
6108 16756 Sl
6108 16756 Sm
6140 16761 Sl
6140 16761 Sm
6171 16769 Sl
6171 16769 Sm
6203 16776 Sl
6203 16776 Sm
6235 16782 Sl
6235 16782 Sm
6266 16794 Sl
6266 16794 Sm
6298 16802 Sl
6298 16802 Sm
6330 16807 Sl
6330 16807 Sm
6361 16810 Sl
6361 16810 Sm
6393 16809 Sl
6393 16809 Sm
6425 16804 Sl
6425 16804 Sm
6456 16803 Sl
6456 16803 Sm
6488 16841 Sl
6488 16841 Sm
6520 16873 Sl
6520 16873 Sm
6551 16901 Sl
6551 16901 Sm
6583 16925 Sl
6583 16925 Sm
6615 16953 Sl
6615 16953 Sm
6647 16997 Sl
6647 16997 Sm
6678 17035 Sl
6678 17035 Sm
6710 17069 Sl
6710 17069 Sm
6742 17098 Sl
6742 17098 Sm
6773 17123 Sl
6773 17123 Sm
6805 17145 Sl
6805 17145 Sm
6837 17161 Sl
6837 17161 Sm
6868 17173 Sl
6868 17173 Sm
6900 17179 Sl
6900 17179 Sm
6932 17184 Sl
6932 17184 Sm
6963 17186 Sl
6963 17186 Sm
6995 17185 Sl
6995 17185 Sm
7027 17187 Sl
7027 17187 Sm
7058 17184 Sl
7058 17184 Sm
7090 17194 Sl
7090 17194 Sm
7122 17199 Sl
7122 17199 Sm
7154 17199 Sl
7154 17199 Sm
7185 17193 Sl
7185 17193 Sm
7217 17183 Sl
7217 17183 Sm
7249 17170 Sl
7249 17170 Sm
7280 17151 Sl
7280 17151 Sm
7312 17127 Sl
7312 17127 Sm
7344 17098 Sl
7344 17098 Sm
7375 17080 Sl
7375 17080 Sm
7407 17082 Sl
7407 17082 Sm
7439 17078 Sl
7439 17078 Sm
7470 17071 Sl
7470 17071 Sm
7502 17058 Sl
7502 17058 Sm
7534 17047 Sl
7534 17047 Sm
7565 17037 Sl
7565 17037 Sm
7597 17022 Sl
7597 17022 Sm
7629 17005 Sl
7629 17005 Sm
7661 16984 Sl
7661 16984 Sm
7692 16961 Sl
7692 16961 Sm
7724 16934 Sl
7724 16934 Sm
7756 16905 Sl
7756 16905 Sm
7787 16876 Sl
7787 16876 Sm
7819 16842 Sl
7819 16842 Sm
7851 16806 Sl
7851 16806 Sm
7882 16766 Sl
7882 16766 Sm
7914 16722 Sl
7914 16722 Sm
7946 16673 Sl
7946 16673 Sm
7977 16629 Sl
7977 16629 Sm
8009 16618 Sl
8009 16618 Sm
8041 16604 Sl
8041 16604 Sm
8072 16590 Sl
8072 16590 Sm
8104 16573 Sl
8104 16573 Sm
8136 16568 Sl
8136 16568 Sm
8168 16575 Sl
8168 16575 Sm
8199 16579 Sl
8199 16579 Sm
8231 16582 Sl
8231 16582 Sm
8263 16581 Sl
8263 16581 Sm
8294 16582 Sl
8294 16582 Sm
8326 16582 Sl
8326 16582 Sm
8358 16579 Sl
8358 16579 Sm
8389 16574 Sl
8389 16574 Sm
8421 16566 Sl
8421 16566 Sm
8453 16560 Sl
8453 16560 Sm
8484 16551 Sl
8484 16551 Sm
8516 16542 Sl
8516 16542 Sm
8548 16531 Sl
8548 16531 Sm
8579 16519 Sl
8579 16519 Sm
8611 16513 Sl
8611 16513 Sm
8643 16506 Sl
8643 16506 Sm
8675 16497 Sl
8675 16497 Sm
8706 16488 Sl
8706 16488 Sm
8738 16477 Sl
8738 16477 Sm
8770 16466 Sl
8770 16466 Sm
8801 16453 Sl
8801 16453 Sm
8833 16438 Sl
8833 16438 Sm
8865 16421 Sl
8865 16421 Sm
8896 16413 Sl
8896 16413 Sm
8928 16412 Sl
8928 16412 Sm
8960 16410 Sl
8960 16410 Sm
8991 16406 Sl
8991 16406 Sm
9023 16400 Sl
9023 16400 Sm
9055 16394 Sl
9055 16394 Sm
9086 16387 Sl
9086 16387 Sm
9118 16379 Sl
9118 16379 Sm
9150 16372 Sl
9150 16372 Sm
9182 16363 Sl
9182 16363 Sm
9213 16361 Sl
9213 16361 Sm
9245 16357 Sl
9245 16357 Sm
9277 16352 Sl
9277 16352 Sm
9308 16347 Sl
9308 16347 Sm
9340 16340 Sl
9340 16340 Sm
9372 16333 Sl
9372 16333 Sm
9403 16325 Sl
9403 16325 Sm
9435 16316 Sl
9435 16316 Sm
9467 16305 Sl
9467 16305 Sm
9498 16293 Sl
9498 16293 Sm
9530 16281 Sl
9530 16281 Sm
9562 16266 Sl
9562 16266 Sm
9593 16251 Sl
9593 16251 Sm
9625 16234 Sl
9625 16234 Sm
9657 16226 Sl
9657 16226 Sm
9689 16224 Sl
9689 16224 Sm
9720 16221 Sl
9720 16221 Sm
9752 16219 Sl
9752 16219 Sm
9784 16216 Sl
9784 16216 Sm
9815 16216 Sl
9815 16216 Sm
9847 16216 Sl
9847 16216 Sm
9879 16216 Sl
9879 16216 Sm
9910 16215 Sl
9910 16215 Sm
9942 16213 Sl
9942 16213 Sm
9974 16211 Sl
9974 16211 Sm
10005 16208 Sl
10005 16208 Sm
10037 16204 Sl
10037 16204 Sm
10069 16200 Sl
10069 16200 Sm
10100 16196 Sl
10100 16196 Sm
10132 16190 Sl
10132 16190 Sm
10164 16184 Sl
10164 16184 Sm
10196 16179 Sl
10196 16179 Sm
10227 16173 Sl
10227 16173 Sm
10259 16168 Sl
10259 16168 Sm
10291 16164 Sl
10291 16164 Sm
10322 16159 Sl
10322 16159 Sm
10354 16154 Sl
10354 16154 Sm
10386 16149 Sl
10386 16149 Sm
10417 16144 Sl
10417 16144 Sm
10449 16140 Sl
10449 16140 Sm
10481 16135 Sl
10481 16135 Sm
10512 16131 Sl
10512 16131 Sm
10544 16125 Sl
10544 16125 Sm
10576 16120 Sl
10576 16120 Sm
10607 16115 Sl
10607 16115 Sm
10639 16109 Sl
10639 16109 Sm
10671 16102 Sl
10671 16102 Sm
10703 16096 Sl
10703 16096 Sm
10734 16095 Sl
10734 16095 Sm
10766 16093 Sl
10766 16093 Sm
10798 16092 Sl
10798 16092 Sm
10829 16090 Sl
10829 16090 Sm
10861 16089 Sl
10861 16089 Sm
10893 16087 Sl
10893 16087 Sm
10924 16085 Sl
10924 16085 Sm
10956 16083 Sl
10956 16083 Sm
10988 16080 Sl
10988 16080 Sm
11019 16078 Sl
11019 16078 Sm
11051 16076 Sl
11051 16076 Sm
11083 16073 Sl
11083 16073 Sm
11114 16070 Sl
11114 16070 Sm
11146 16068 Sl
11146 16068 Sm
11178 16066 Sl
11178 16066 Sm
11210 16064 Sl
11210 16064 Sm
11241 16063 Sl
11241 16063 Sm
11273 16062 Sl
11273 16062 Sm
11305 16062 Sl
11305 16062 Sm
11336 16063 Sl
11336 16063 Sm
11368 16063 Sl
11368 16063 Sm
11400 16064 Sl
11400 16064 Sm
11431 16064 Sl
11431 16064 Sm
11463 16064 Sl
11463 16064 Sm
11495 16064 Sl
11495 16064 Sm
11526 16064 Sl
11526 16064 Sm
11558 16064 Sl
11558 16064 Sm
11590 16064 Sl
11590 16064 Sm
11621 16064 Sl
11621 16064 Sm
11653 16064 Sl
11653 16064 Sm
11685 16064 Sl
11685 16064 Sm
11717 16064 Sl
11717 16064 Sm
11748 16063 Sl
11748 16063 Sm
11780 16063 Sl
11780 16063 Sm
11812 16063 Sl
11812 16063 Sm
11843 16063 Sl
11843 16063 Sm
11875 16062 Sl
11875 16062 Sm
11907 16062 Sl
11907 16062 Sm
11938 16062 Sl
11938 16062 Sm
11970 16062 Sl
11970 16062 Sm
12002 16062 Sl
12002 16062 Sm
12033 16061 Sl
12033 16061 Sm
12065 16061 Sl
12065 16061 Sm
12097 16061 Sl
12097 16061 Sm
12128 16061 Sl
12128 16061 Sm
12160 16061 Sl
12160 16061 Sm
12192 16061 Sl
12192 16061 Sm
12224 16060 Sl
12224 16060 Sm
12255 16060 Sl
12255 16060 Sm
12287 16060 Sl
12287 16060 Sm
12319 16060 Sl
12319 16060 Sm
12350 16060 Sl
12350 16060 Sm
12382 16060 Sl
12382 16060 Sm
12414 16060 Sl
12414 16060 Sm
12445 16060 Sl
12445 16060 Sm
12477 16060 Sl
12477 16060 Sm
12509 16060 Sl
12509 16060 Sm
12540 16059 Sl
12540 16059 Sm
12572 16059 Sl
12572 16059 Sm
12604 16059 Sl
12604 16059 Sm
12636 16058 Sl
12636 16058 Sm
12667 16058 Sl
12667 16058 Sm
12699 16058 Sl
12699 16058 Sm
12731 16058 Sl
12731 16058 Sm
12762 16057 Sl
12762 16057 Sm
12794 16057 Sl
12794 16057 Sm
12826 16057 Sl
12826 16057 Sm
12857 16057 Sl
12857 16057 Sm
12889 16057 Sl
12889 16057 Sm
12921 16057 Sl
12921 16057 Sm
12952 16057 Sl
12952 16057 Sm
12984 16057 Sl
12984 16057 Sm
13016 16057 Sl
13016 16057 Sm
13047 16057 Sl
/Slrgb {0.102 0.278 0.435} def
17736 16168 Sm
17778 16183 Sl
17778 16183 Sm
17821 16211 Sl
17821 16211 Sm
17863 16241 Sl
17863 16241 Sm
17906 16280 Sl
17906 16280 Sm
17949 16314 Sl
17949 16314 Sm
17991 16340 Sl
17991 16340 Sm
18034 16411 Sl
18034 16411 Sm
18076 16475 Sl
18076 16475 Sm
18119 16557 Sl
18119 16557 Sm
18162 16627 Sl
18162 16627 Sm
18204 16697 Sl
18204 16697 Sm
18247 16743 Sl
18247 16743 Sm
18289 16765 Sl
18289 16765 Sm
18332 16776 Sl
18332 16776 Sm
18374 16767 Sl
18374 16767 Sm
18417 16739 Sl
18417 16739 Sm
18460 16690 Sl
18460 16690 Sm
18502 16646 Sl
18502 16646 Sm
18545 16589 Sl
18545 16589 Sm
18587 16537 Sl
18587 16537 Sm
18630 16470 Sl
18630 16470 Sm
18673 16387 Sl
18673 16387 Sm
18715 16339 Sl
18715 16339 Sm
18758 16299 Sl
18758 16299 Sm
18800 16274 Sl
18800 16274 Sm
18843 16245 Sl
18843 16245 Sm
18886 16236 Sl
18886 16236 Sm
18928 16231 Sl
18928 16231 Sm
18971 16233 Sl
18971 16233 Sm
19013 16247 Sl
19013 16247 Sm
19056 16264 Sl
19056 16264 Sm
19098 16275 Sl
19098 16275 Sm
19141 16277 Sl
19141 16277 Sm
19184 16280 Sl
19184 16280 Sm
19226 16287 Sl
19226 16287 Sm
19269 16314 Sl
19269 16314 Sm
19311 16337 Sl
19311 16337 Sm
19354 16356 Sl
19354 16356 Sm
19397 16363 Sl
19397 16363 Sm
19439 16357 Sl
19439 16357 Sm
19482 16353 Sl
19482 16353 Sm
19524 16341 Sl
19524 16341 Sm
19567 16327 Sl
19567 16327 Sm
19610 16310 Sl
19610 16310 Sm
19652 16299 Sl
19652 16299 Sm
19695 16346 Sl
19695 16346 Sm
19737 16413 Sl
19737 16413 Sm
19780 16463 Sl
19780 16463 Sm
19822 16496 Sl
19822 16496 Sm
19865 16521 Sl
19865 16521 Sm
19908 16531 Sl
19908 16531 Sm
19950 16546 Sl
19950 16546 Sm
19993 16549 Sl
19993 16549 Sm
20035 16543 Sl
20035 16543 Sm
20078 16559 Sl
20078 16559 Sm
20121 16565 Sl
20121 16565 Sm
20163 16649 Sl
20163 16649 Sm
20206 16703 Sl
20206 16703 Sm
20248 16737 Sl
20248 16737 Sm
20291 16741 Sl
20291 16741 Sm
20334 16717 Sl
20334 16717 Sm
20376 16717 Sl
20376 16717 Sm
20419 16736 Sl
20419 16736 Sm
20461 16926 Sl
20461 16926 Sm
20504 17100 Sl
20504 17100 Sm
20546 17237 Sl
20546 17237 Sm
20589 17356 Sl
20589 17356 Sm
20632 17495 Sl
20632 17495 Sm
20674 17569 Sl
20674 17569 Sm
20717 17577 Sl
20717 17577 Sm
20759 17557 Sl
20759 17557 Sm
20802 17495 Sl
20802 17495 Sm
20845 17516 Sl
20845 17516 Sm
20887 17501 Sl
20887 17501 Sm
20930 17449 Sl
20930 17449 Sm
20972 17348 Sl
20972 17348 Sm
21015 17203 Sl
21015 17203 Sm
21058 17367 Sl
21058 17367 Sm
21100 17646 Sl
21100 17646 Sm
21143 18003 Sl
21143 18003 Sm
21185 18319 Sl
21185 18319 Sm
21228 18593 Sl
21228 18593 Sm
21270 18780 Sl
21270 18780 Sm
21313 18958 Sl
21313 18958 Sm
21356 19044 Sl
21356 19044 Sm
21398 19039 Sl
21398 19039 Sm
21441 18937 Sl
21441 18937 Sm
21483 18736 Sl
21483 18736 Sm
21526 18517 Sl
21526 18517 Sm
21569 18212 Sl
21569 18212 Sm
21611 17836 Sl
21611 17836 Sm
21654 17398 Sl
21654 17398 Sm
21696 16916 Sl
21696 16916 Sm
21739 16662 Sl
21739 16662 Sm
21782 16660 Sl
21782 16660 Sm
21824 16646 Sl
21824 16646 Sm
21867 16610 Sl
21867 16610 Sm
21909 16618 Sl
21909 16618 Sm
21952 16638 Sl
21952 16638 Sm
21994 16716 Sl
21994 16716 Sm
22037 16765 Sl
22037 16765 Sm
22080 16790 Sl
22080 16790 Sm
22122 16784 Sl
22122 16784 Sm
22165 16748 Sl
22165 16748 Sm
22207 16722 Sl
22207 16722 Sm
22250 16675 Sl
22250 16675 Sm
22293 16611 Sl
22293 16611 Sm
22335 16548 Sl
22335 16548 Sm
22378 16533 Sl
22378 16533 Sm
22420 16505 Sl
22420 16505 Sm
22463 16462 Sl
22463 16462 Sm
22506 16404 Sl
22506 16404 Sm
22548 16329 Sl
22548 16329 Sm
22591 16241 Sl
22591 16241 Sm
22633 16154 Sl
22633 16154 Sm
22676 16154 Sl
22676 16154 Sm
22718 16166 Sl
22718 16166 Sm
22761 16192 Sl
22761 16192 Sm
22804 16210 Sl
22804 16210 Sm
22846 16220 Sl
22846 16220 Sm
22889 16248 Sl
22889 16248 Sm
22931 16269 Sl
22931 16269 Sm
22974 16282 Sl
22974 16282 Sm
23017 16288 Sl
23017 16288 Sm
23059 16290 Sl
23059 16290 Sm
23102 16288 Sl
23102 16288 Sm
23144 16283 Sl
23144 16283 Sm
23187 16272 Sl
23187 16272 Sm
23230 16253 Sl
23230 16253 Sm
23272 16232 Sl
23272 16232 Sm
23315 16205 Sl
23315 16205 Sm
23357 16175 Sl
23357 16175 Sm
23400 16149 Sl
23400 16149 Sm
23442 16142 Sl
23442 16142 Sm
23485 16134 Sl
23485 16134 Sm
23528 16122 Sl
23528 16122 Sm
23570 16124 Sl
23570 16124 Sm
23613 16128 Sl
23613 16128 Sm
23655 16130 Sl
23655 16130 Sm
23698 16129 Sl
23698 16129 Sm
23741 16127 Sl
23741 16127 Sm
23783 16130 Sl
23783 16130 Sm
23826 16135 Sl
23826 16135 Sm
23868 16139 Sl
23868 16139 Sm
23911 16140 Sl
23911 16140 Sm
23954 16139 Sl
23954 16139 Sm
23996 16136 Sl
23996 16136 Sm
24039 16138 Sl
24039 16138 Sm
24081 16136 Sl
24081 16136 Sm
24124 16133 Sl
24124 16133 Sm
24166 16129 Sl
24166 16129 Sm
24209 16125 Sl
24209 16125 Sm
24252 16122 Sl
24252 16122 Sm
24294 16115 Sl
24294 16115 Sm
24337 16109 Sl
24337 16109 Sm
24379 16099 Sl
24379 16099 Sm
24422 16088 Sl
24422 16088 Sm
24465 16082 Sl
24465 16082 Sm
24507 16082 Sl
24507 16082 Sm
24550 16082 Sl
24550 16082 Sm
24592 16081 Sl
24592 16081 Sm
24635 16088 Sl
24635 16088 Sm
24678 16093 Sl
24678 16093 Sm
24720 16102 Sl
24720 16102 Sm
24763 16108 Sl
24763 16108 Sm
24805 16112 Sl
24805 16112 Sm
24848 16114 Sl
24848 16114 Sm
24890 16114 Sl
24890 16114 Sm
24933 16113 Sl
24933 16113 Sm
24976 16112 Sl
24976 16112 Sm
25018 16112 Sl
25018 16112 Sm
25061 16110 Sl
25061 16110 Sm
25103 16106 Sl
25103 16106 Sm
25146 16100 Sl
25146 16100 Sm
25189 16093 Sl
25189 16093 Sm
25231 16084 Sl
25231 16084 Sm
25274 16072 Sl
25274 16072 Sm
25316 16068 Sl
25316 16068 Sm
25359 16063 Sl
25359 16063 Sm
25402 16063 Sl
25402 16063 Sm
25444 16062 Sl
25444 16062 Sm
25487 16060 Sl
25487 16060 Sm
25529 16059 Sl
25529 16059 Sm
25572 16057 Sl
25572 16057 Sm
25614 16054 Sl
25614 16054 Sm
25657 16051 Sl
25657 16051 Sm
25700 16051 Sl
25700 16051 Sm
25742 16051 Sl
25742 16051 Sm
25785 16051 Sl
25785 16051 Sm
25827 16051 Sl
25827 16051 Sm
25870 16051 Sl
25870 16051 Sm
25913 16051 Sl
25913 16051 Sm
25955 16051 Sl
25955 16051 Sm
25998 16051 Sl
25998 16051 Sm
26040 16051 Sl
26040 16051 Sm
26083 16051 Sl
26083 16051 Sm
26126 16051 Sl
26126 16051 Sm
26168 16051 Sl
26168 16051 Sm
26211 16051 Sl
26211 16051 Sm
26253 16051 Sl
26253 16051 Sm
26296 16051 Sl
26296 16051 Sm
26338 16051 Sl
26338 16051 Sm
26381 16051 Sl
26381 16051 Sm
26424 16051 Sl
26424 16051 Sm
26466 16051 Sl
26466 16051 Sm
26509 16051 Sl
26509 16051 Sm
26551 16051 Sl
26551 16051 Sm
26594 16051 Sl
26594 16051 Sm
26637 16051 Sl
26637 16051 Sm
26679 16051 Sl
26679 16051 Sm
26722 16051 Sl
26722 16051 Sm
26764 16053 Sl
26764 16053 Sm
26807 16054 Sl
26807 16054 Sm
26850 16055 Sl
26850 16055 Sm
26892 16056 Sl
26892 16056 Sm
26935 16056 Sl
26935 16056 Sm
26977 16057 Sl
26977 16057 Sm
27020 16057 Sl
27020 16057 Sm
27062 16057 Sl
27062 16057 Sm
27105 16057 Sl
27105 16057 Sm
27148 16057 Sl
27148 16057 Sm
27190 16056 Sl
27190 16056 Sm
27233 16056 Sl
27233 16056 Sm
27275 16055 Sl
27275 16055 Sm
27318 16054 Sl
27318 16054 Sm
27361 16052 Sl
27361 16052 Sm
27403 16051 Sl
27403 16051 Sm
27446 16051 Sl
27446 16051 Sm
27488 16051 Sl
27488 16051 Sm
27531 16051 Sl
27531 16051 Sm
27574 16051 Sl
27574 16051 Sm
27616 16051 Sl
27616 16051 Sm
27659 16051 Sl
27659 16051 Sm
27701 16051 Sl
27701 16051 Sm
27744 16051 Sl
27744 16051 Sm
27786 16051 Sl
27786 16051 Sm
27829 16051 Sl
27829 16051 Sm
27872 16051 Sl
27872 16051 Sm
27914 16051 Sl
27914 16051 Sm
27957 16051 Sl
27957 16051 Sm
27999 16051 Sl
27999 16051 Sm
28042 16052 Sl
28042 16052 Sm
28085 16054 Sl
28085 16054 Sm
28127 16055 Sl
28127 16055 Sm
28170 16056 Sl
28170 16056 Sm
28212 16056 Sl
28212 16056 Sm
28255 16057 Sl
28255 16057 Sm
28298 16057 Sl
28298 16057 Sm
28340 16057 Sl
28340 16057 Sm
28383 16057 Sl
28383 16057 Sm
28425 16057 Sl
28425 16057 Sm
28468 16057 Sl
28468 16057 Sm
28510 16056 Sl
28510 16056 Sm
28553 16055 Sl
28553 16055 Sm
28596 16054 Sl
28596 16054 Sm
28638 16053 Sl
28638 16053 Sm
28681 16051 Sl
28681 16051 Sm
28723 16051 Sl
28723 16051 Sm
28766 16051 Sl
28766 16051 Sm
28809 16051 Sl
28809 16051 Sm
28851 16051 Sl
28851 16051 Sm
28894 16051 Sl
28894 16051 Sm
28936 16051 Sl
28936 16051 Sm
28979 16051 Sl
28979 16051 Sm
29022 16051 Sl
29022 16051 Sm
29064 16051 Sl
29064 16051 Sm
29107 16051 Sl
29107 16051 Sm
29149 16051 Sl
29149 16051 Sm
29192 16051 Sl
29192 16051 Sm
29234 16051 Sl
29234 16051 Sm
29277 16051 Sl
29277 16051 Sm
29320 16051 Sl
29320 16051 Sm
29362 16051 Sl
29362 16051 Sm
29405 16051 Sl
29405 16051 Sm
29447 16051 Sl
29447 16051 Sm
29490 16051 Sl
29490 16051 Sm
29533 16051 Sl
29533 16051 Sm
29575 16051 Sl
29575 16051 Sm
29618 16051 Sl
29618 16051 Sm
29660 16051 Sl
29660 16051 Sm
29703 16051 Sl
29703 16051 Sm
29746 16051 Sl
29746 16051 Sm
29788 16051 Sl
29788 16051 Sm
29831 16051 Sl
29831 16051 Sm
29873 16051 Sl
29873 16051 Sm
29916 16051 Sl
29916 16051 Sm
29958 16051 Sl
29958 16051 Sm
30001 16051 Sl
30001 16051 Sm
30044 16051 Sl
30044 16051 Sm
30086 16051 Sl
30086 16051 Sm
30129 16051 Sl
30129 16051 Sm
30171 16053 Sl
30171 16053 Sm
30214 16054 Sl
30214 16054 Sm
30257 16055 Sl
30257 16055 Sm
30299 16056 Sl
30299 16056 Sm
30342 16056 Sl
30342 16056 Sm
30384 16057 Sl
30384 16057 Sm
30427 16057 Sl
30427 16057 Sm
30470 16057 Sl
/Slrgb {0.565 0.208 0.231} def
17736 16176 Sm
17775 16182 Sl
17775 16182 Sm
17815 16181 Sl
17815 16181 Sm
17854 16173 Sl
17854 16173 Sm
17894 16159 Sl
17894 16159 Sm
17933 16139 Sl
17933 16139 Sm
17973 16154 Sl
17973 16154 Sm
18012 16178 Sl
18012 16178 Sm
18052 16205 Sl
18052 16205 Sm
18092 16227 Sl
18092 16227 Sm
18131 16245 Sl
18131 16245 Sm
18171 16333 Sl
18171 16333 Sm
18210 16418 Sl
18210 16418 Sm
18250 16503 Sl
18250 16503 Sm
18289 16556 Sl
18289 16556 Sm
18329 16618 Sl
18329 16618 Sm
18368 16641 Sl
18368 16641 Sm
18408 16627 Sl
18408 16627 Sm
18447 16583 Sl
18447 16583 Sm
18487 16536 Sl
18487 16536 Sm
18527 16440 Sl
18527 16440 Sm
18566 16369 Sl
18566 16369 Sm
18606 16319 Sl
18606 16319 Sm
18645 16287 Sl
18645 16287 Sm
18685 16257 Sl
18685 16257 Sm
18724 16273 Sl
18724 16273 Sm
18764 16287 Sl
18764 16287 Sm
18803 16292 Sl
18803 16292 Sm
18843 16271 Sl
18843 16271 Sm
18882 16271 Sl
18882 16271 Sm
18922 16267 Sl
18922 16267 Sm
18962 16254 Sl
18962 16254 Sm
19001 16221 Sl
19001 16221 Sm
19041 16190 Sl
19041 16190 Sm
19080 16215 Sl
19080 16215 Sm
19120 16272 Sl
19120 16272 Sm
19159 16319 Sl
19159 16319 Sm
19199 16356 Sl
19199 16356 Sm
19238 16372 Sl
19238 16372 Sm
19278 16361 Sl
19278 16361 Sm
19317 16336 Sl
19317 16336 Sm
19357 16303 Sl
19357 16303 Sm
19397 16312 Sl
19397 16312 Sm
19436 16298 Sl
19436 16298 Sm
19476 16383 Sl
19476 16383 Sm
19515 16464 Sl
19515 16464 Sm
19555 16517 Sl
19555 16517 Sm
19594 16537 Sl
19594 16537 Sm
19634 16527 Sl
19634 16527 Sm
19673 16490 Sl
19673 16490 Sm
19713 16430 Sl
19713 16430 Sm
19752 16326 Sl
19752 16326 Sm
19792 16258 Sl
19792 16258 Sm
19832 16282 Sl
19832 16282 Sm
19871 16447 Sl
19871 16447 Sm
19911 16562 Sl
19911 16562 Sm
19950 16630 Sl
19950 16630 Sm
19990 16668 Sl
19990 16668 Sm
20029 16666 Sl
20029 16666 Sm
20069 16627 Sl
20069 16627 Sm
20108 16560 Sl
20108 16560 Sm
20148 16450 Sl
20148 16450 Sm
20187 16291 Sl
20187 16291 Sm
20227 16331 Sl
20227 16331 Sm
20267 16453 Sl
20267 16453 Sm
20306 16620 Sl
20306 16620 Sm
20346 16721 Sl
20346 16721 Sm
20385 16774 Sl
20385 16774 Sm
20425 16782 Sl
20425 16782 Sm
20464 16749 Sl
20464 16749 Sm
20504 16660 Sl
20504 16660 Sm
20543 16518 Sl
20543 16518 Sm
20583 16568 Sl
20583 16568 Sm
20622 16994 Sl
20622 16994 Sm
20662 17299 Sl
20662 17299 Sm
20702 17564 Sl
20702 17564 Sm
20741 17798 Sl
20741 17798 Sm
20781 17941 Sl
20781 17941 Sm
20820 17934 Sl
20820 17934 Sm
20860 17783 Sl
20860 17783 Sm
20899 17505 Sl
20899 17505 Sm
20939 17068 Sl
20939 17068 Sm
20978 16800 Sl
20978 16800 Sm
21018 16919 Sl
21018 16919 Sm
21058 16984 Sl
21058 16984 Sm
21097 16954 Sl
21097 16954 Sm
21137 16909 Sl
21137 16909 Sm
21176 17006 Sl
21176 17006 Sm
21216 18401 Sl
21216 18401 Sm
21255 19413 Sl
21255 19413 Sm
21295 20088 Sl
21295 20088 Sm
21334 20452 Sl
21334 20452 Sm
21374 20750 Sl
21374 20750 Sm
21413 20726 Sl
21413 20726 Sm
21453 20352 Sl
21453 20352 Sm
21493 19624 Sl
21493 19624 Sm
21532 18547 Sl
21532 18547 Sm
21572 17073 Sl
21572 17073 Sm
21611 16887 Sl
21611 16887 Sm
21651 16804 Sl
21651 16804 Sm
21690 16708 Sl
21690 16708 Sm
21730 16573 Sl
21730 16573 Sm
21769 16618 Sl
21769 16618 Sm
21809 16759 Sl
21809 16759 Sm
21848 16879 Sl
21848 16879 Sm
21888 16929 Sl
21888 16929 Sm
21928 16951 Sl
21928 16951 Sm
21967 16914 Sl
21967 16914 Sm
22007 16807 Sl
22007 16807 Sm
22046 16673 Sl
22046 16673 Sm
22086 16565 Sl
22086 16565 Sm
22125 16686 Sl
22125 16686 Sm
22165 16724 Sl
22165 16724 Sm
22204 16790 Sl
22204 16790 Sm
22244 16874 Sl
22244 16874 Sm
22283 16900 Sl
22283 16900 Sm
22323 16870 Sl
22323 16870 Sm
22363 16807 Sl
22363 16807 Sm
22402 16681 Sl
22402 16681 Sm
22442 16493 Sl
22442 16493 Sm
22481 16241 Sl
22481 16241 Sm
22521 16243 Sl
22521 16243 Sm
22560 16275 Sl
22560 16275 Sm
22600 16305 Sl
22600 16305 Sm
22639 16311 Sl
22639 16311 Sm
22679 16301 Sl
22679 16301 Sm
22718 16281 Sl
22718 16281 Sm
22758 16273 Sl
22758 16273 Sm
22798 16247 Sl
22798 16247 Sm
22837 16214 Sl
22837 16214 Sm
22877 16263 Sl
22877 16263 Sm
22916 16302 Sl
22916 16302 Sm
22956 16328 Sl
22956 16328 Sm
22995 16363 Sl
22995 16363 Sm
23035 16482 Sl
23035 16482 Sm
23074 16552 Sl
23074 16552 Sm
23114 16580 Sl
23114 16580 Sm
23153 16569 Sl
23153 16569 Sm
23193 16514 Sl
23193 16514 Sm
23233 16412 Sl
23233 16412 Sm
23272 16353 Sl
23272 16353 Sm
23312 16295 Sl
23312 16295 Sm
23351 16212 Sl
23351 16212 Sm
23391 16107 Sl
23391 16107 Sm
23430 16109 Sl
23430 16109 Sm
23470 16120 Sl
23470 16120 Sm
23509 16127 Sl
23509 16127 Sm
23549 16127 Sl
23549 16127 Sm
23588 16126 Sl
23588 16126 Sm
23628 16141 Sl
23628 16141 Sm
23668 16154 Sl
23668 16154 Sm
23707 16158 Sl
23707 16158 Sm
23747 16156 Sl
23747 16156 Sm
23786 16153 Sl
23786 16153 Sm
23826 16148 Sl
23826 16148 Sm
23865 16138 Sl
23865 16138 Sm
23905 16129 Sl
23905 16129 Sm
23944 16161 Sl
23944 16161 Sm
23984 16174 Sl
23984 16174 Sm
24023 16193 Sl
24023 16193 Sm
24063 16211 Sl
24063 16211 Sm
24103 16218 Sl
24103 16218 Sm
24142 16211 Sl
24142 16211 Sm
24182 16195 Sl
24182 16195 Sm
24221 16167 Sl
24221 16167 Sm
24261 16127 Sl
24261 16127 Sm
24300 16074 Sl
24300 16074 Sm
24340 16065 Sl
24340 16065 Sm
24379 16068 Sl
24379 16068 Sm
24419 16080 Sl
24419 16080 Sm
24458 16090 Sl
24458 16090 Sm
24498 16101 Sl
24498 16101 Sm
24538 16107 Sl
24538 16107 Sm
24577 16108 Sl
24577 16108 Sm
24617 16106 Sl
24617 16106 Sm
24656 16100 Sl
24656 16100 Sm
24696 16097 Sl
24696 16097 Sm
24735 16088 Sl
24735 16088 Sm
24775 16106 Sl
24775 16106 Sm
24814 16125 Sl
24814 16125 Sm
24854 16142 Sl
24854 16142 Sm
24893 16153 Sl
24893 16153 Sm
24933 16155 Sl
24933 16155 Sm
24973 16148 Sl
24973 16148 Sm
25012 16134 Sl
25012 16134 Sm
25052 16112 Sl
25052 16112 Sm
25091 16089 Sl
25091 16089 Sm
25131 16063 Sl
25131 16063 Sm
25170 16055 Sl
25170 16055 Sm
25210 16051 Sl
25210 16051 Sm
25249 16051 Sl
25249 16051 Sm
25289 16051 Sl
25289 16051 Sm
25329 16051 Sl
25329 16051 Sm
25368 16052 Sl
25368 16052 Sm
25408 16053 Sl
25408 16053 Sm
25447 16054 Sl
25447 16054 Sm
25487 16055 Sl
25487 16055 Sm
25526 16056 Sl
25526 16056 Sm
25566 16056 Sl
25566 16056 Sm
25605 16056 Sl
25605 16056 Sm
25645 16056 Sl
25645 16056 Sm
25684 16055 Sl
25684 16055 Sm
25724 16054 Sl
25724 16054 Sm
25764 16052 Sl
25764 16052 Sm
25803 16051 Sl
25803 16051 Sm
25843 16051 Sl
25843 16051 Sm
25882 16051 Sl
25882 16051 Sm
25922 16052 Sl
25922 16052 Sm
25961 16053 Sl
25961 16053 Sm
26001 16053 Sl
26001 16053 Sm
26040 16054 Sl
26040 16054 Sm
26080 16055 Sl
26080 16055 Sm
26119 16056 Sl
26119 16056 Sm
26159 16057 Sl
26159 16057 Sm
26199 16057 Sl
26199 16057 Sm
26238 16057 Sl
26238 16057 Sm
26278 16056 Sl
26278 16056 Sm
26317 16056 Sl
26317 16056 Sm
26357 16055 Sl
26357 16055 Sm
26396 16054 Sl
26396 16054 Sm
26436 16053 Sl
26436 16053 Sm
26475 16052 Sl
26475 16052 Sm
26515 16051 Sl
26515 16051 Sm
26554 16051 Sl
26554 16051 Sm
26594 16051 Sl
26594 16051 Sm
26634 16051 Sl
26634 16051 Sm
26673 16051 Sl
26673 16051 Sm
26713 16051 Sl
26713 16051 Sm
26752 16051 Sl
26752 16051 Sm
26792 16051 Sl
26792 16051 Sm
26831 16051 Sl
26831 16051 Sm
26871 16051 Sl
26871 16051 Sm
26910 16051 Sl
26910 16051 Sm
26950 16051 Sl
26950 16051 Sm
26989 16051 Sl
26989 16051 Sm
27029 16051 Sl
27029 16051 Sm
27069 16051 Sl
27069 16051 Sm
27108 16052 Sl
27108 16052 Sm
27148 16052 Sl
27148 16052 Sm
27187 16053 Sl
27187 16053 Sm
27227 16054 Sl
27227 16054 Sm
27266 16054 Sl
27266 16054 Sm
27306 16054 Sl
27306 16054 Sm
27345 16054 Sl
27345 16054 Sm
27385 16053 Sl
27385 16053 Sm
27424 16052 Sl
27424 16052 Sm
27464 16052 Sl
27464 16052 Sm
27504 16051 Sl
27504 16051 Sm
27543 16051 Sl
27543 16051 Sm
27583 16051 Sl
27583 16051 Sm
27622 16051 Sl
27622 16051 Sm
27662 16051 Sl
27662 16051 Sm
27701 16051 Sl
27701 16051 Sm
27741 16051 Sl
27741 16051 Sm
27780 16051 Sl
27780 16051 Sm
27820 16051 Sl
27820 16051 Sm
27859 16051 Sl
27859 16051 Sm
27899 16051 Sl
27899 16051 Sm
27939 16051 Sl
27939 16051 Sm
27978 16051 Sl
27978 16051 Sm
28018 16051 Sl
28018 16051 Sm
28057 16051 Sl
28057 16051 Sm
28097 16051 Sl
28097 16051 Sm
28136 16051 Sl
28136 16051 Sm
28176 16051 Sl
28176 16051 Sm
28215 16051 Sl
28215 16051 Sm
28255 16051 Sl
28255 16051 Sm
28294 16051 Sl
28294 16051 Sm
28334 16051 Sl
28334 16051 Sm
28374 16051 Sl
28374 16051 Sm
28413 16051 Sl
28413 16051 Sm
28453 16051 Sl
28453 16051 Sm
28492 16051 Sl
28492 16051 Sm
28532 16051 Sl
28532 16051 Sm
28571 16051 Sl
28571 16051 Sm
28611 16051 Sl
28611 16051 Sm
28650 16051 Sl
28650 16051 Sm
28690 16051 Sl
28690 16051 Sm
28729 16051 Sl
28729 16051 Sm
28769 16051 Sl
28769 16051 Sm
28809 16051 Sl
28809 16051 Sm
28848 16051 Sl
28848 16051 Sm
28888 16051 Sl
28888 16051 Sm
28927 16051 Sl
28927 16051 Sm
28967 16051 Sl
28967 16051 Sm
29006 16051 Sl
29006 16051 Sm
29046 16051 Sl
29046 16051 Sm
29085 16051 Sl
29085 16051 Sm
29125 16051 Sl
29125 16051 Sm
29165 16051 Sl
29165 16051 Sm
29204 16051 Sl
29204 16051 Sm
29244 16051 Sl
29244 16051 Sm
29283 16051 Sl
29283 16051 Sm
29323 16051 Sl
29323 16051 Sm
29362 16051 Sl
29362 16051 Sm
29402 16052 Sl
29402 16052 Sm
29441 16053 Sl
29441 16053 Sm
29481 16053 Sl
29481 16053 Sm
29520 16054 Sl
29520 16054 Sm
29560 16054 Sl
/Slrgb {0.333 0.459 0.184} def
17736 16404 Sm
17772 16434 Sl
17772 16434 Sm
17809 16462 Sl
17809 16462 Sm
17845 16489 Sl
17845 16489 Sm
17882 16518 Sl
17882 16518 Sm
17918 16544 Sl
17918 16544 Sm
17955 16568 Sl
17955 16568 Sm
17991 16590 Sl
17991 16590 Sm
18028 16614 Sl
18028 16614 Sm
18064 16635 Sl
18064 16635 Sm
18101 16658 Sl
18101 16658 Sm
18137 16678 Sl
18137 16678 Sm
18174 16696 Sl
18174 16696 Sm
18210 16712 Sl
18210 16712 Sm
18247 16724 Sl
18247 16724 Sm
18283 16734 Sl
18283 16734 Sm
18320 16742 Sl
18320 16742 Sm
18356 16748 Sl
18356 16748 Sm
18393 16750 Sl
18393 16750 Sm
18429 16749 Sl
18429 16749 Sm
18466 16750 Sl
18466 16750 Sm
18502 16749 Sl
18502 16749 Sm
18539 16749 Sl
18539 16749 Sm
18575 16750 Sl
18575 16750 Sm
18612 16749 Sl
18612 16749 Sm
18648 16744 Sl
18648 16744 Sm
18685 16735 Sl
18685 16735 Sm
18721 16725 Sl
18721 16725 Sm
18758 16714 Sl
18758 16714 Sm
18794 16704 Sl
18794 16704 Sm
18831 16693 Sl
18831 16693 Sm
18867 16685 Sl
18867 16685 Sm
18904 16674 Sl
18904 16674 Sm
18940 16662 Sl
18940 16662 Sm
18977 16649 Sl
18977 16649 Sm
19013 16636 Sl
19013 16636 Sm
19050 16623 Sl
19050 16623 Sm
19086 16613 Sl
19086 16613 Sm
19123 16603 Sl
19123 16603 Sm
19159 16591 Sl
19159 16591 Sm
19196 16583 Sl
19196 16583 Sm
19232 16581 Sl
19232 16581 Sm
19269 16581 Sl
19269 16581 Sm
19305 16578 Sl
19305 16578 Sm
19342 16581 Sl
19342 16581 Sm
19378 16582 Sl
19378 16582 Sm
19415 16582 Sl
19415 16582 Sm
19451 16578 Sl
19451 16578 Sm
19488 16577 Sl
19488 16577 Sm
19524 16574 Sl
19524 16574 Sm
19561 16568 Sl
19561 16568 Sm
19597 16564 Sl
19597 16564 Sm
19634 16567 Sl
19634 16567 Sm
19670 16571 Sl
19670 16571 Sm
19707 16579 Sl
19707 16579 Sm
19743 16585 Sl
19743 16585 Sm
19780 16590 Sl
19780 16590 Sm
19816 16592 Sl
19816 16592 Sm
19853 16592 Sl
19853 16592 Sm
19889 16589 Sl
19889 16589 Sm
19926 16585 Sl
19926 16585 Sm
19962 16583 Sl
19962 16583 Sm
19999 16597 Sl
19999 16597 Sm
20035 16608 Sl
20035 16608 Sm
20072 16617 Sl
20072 16617 Sm
20108 16628 Sl
20108 16628 Sm
20145 16647 Sl
20145 16647 Sm
20181 16667 Sl
20181 16667 Sm
20218 16684 Sl
20218 16684 Sm
20254 16698 Sl
20254 16698 Sm
20291 16709 Sl
20291 16709 Sm
20327 16716 Sl
20327 16716 Sm
20364 16724 Sl
20364 16724 Sm
20400 16735 Sl
20400 16735 Sm
20437 16745 Sl
20437 16745 Sm
20473 16756 Sl
20473 16756 Sm
20510 16764 Sl
20510 16764 Sm
20546 16769 Sl
20546 16769 Sm
20583 16790 Sl
20583 16790 Sm
20619 16829 Sl
20619 16829 Sm
20656 16864 Sl
20656 16864 Sm
20692 16898 Sl
20692 16898 Sm
20729 16933 Sl
20729 16933 Sm
20765 16969 Sl
20765 16969 Sm
20802 17000 Sl
20802 17000 Sm
20838 17031 Sl
20838 17031 Sm
20875 17062 Sl
20875 17062 Sm
20911 17090 Sl
20911 17090 Sm
20948 17112 Sl
20948 17112 Sm
20984 17130 Sl
20984 17130 Sm
21021 17144 Sl
21021 17144 Sm
21058 17157 Sl
21058 17157 Sm
21094 17164 Sl
21094 17164 Sm
21131 17166 Sl
21131 17166 Sm
21167 17162 Sl
21167 17162 Sm
21204 17164 Sl
21204 17164 Sm
21240 17170 Sl
21240 17170 Sm
21277 17170 Sl
21277 17170 Sm
21313 17172 Sl
21313 17172 Sm
21350 17168 Sl
21350 17168 Sm
21386 17159 Sl
21386 17159 Sm
21423 17144 Sl
21423 17144 Sm
21459 17124 Sl
21459 17124 Sm
21496 17109 Sl
21496 17109 Sm
21532 17096 Sl
21532 17096 Sm
21569 17076 Sl
21569 17076 Sm
21605 17068 Sl
21605 17068 Sm
21642 17060 Sl
21642 17060 Sm
21678 17047 Sl
21678 17047 Sm
21715 17028 Sl
21715 17028 Sm
21751 17012 Sl
21751 17012 Sm
21788 16996 Sl
21788 16996 Sm
21824 16975 Sl
21824 16975 Sm
21861 16949 Sl
21861 16949 Sm
21897 16920 Sl
21897 16920 Sm
21934 16885 Sl
21934 16885 Sm
21970 16850 Sl
21970 16850 Sm
22007 16813 Sl
22007 16813 Sm
22043 16773 Sl
22043 16773 Sm
22080 16729 Sl
22080 16729 Sm
22116 16682 Sl
22116 16682 Sm
22153 16629 Sl
22153 16629 Sm
22189 16580 Sl
22189 16580 Sm
22226 16562 Sl
22226 16562 Sm
22262 16554 Sl
22262 16554 Sm
22299 16548 Sl
22299 16548 Sm
22335 16540 Sl
22335 16540 Sm
22372 16540 Sl
22372 16540 Sm
22408 16542 Sl
22408 16542 Sm
22445 16542 Sl
22445 16542 Sm
22481 16540 Sl
22481 16540 Sm
22518 16537 Sl
22518 16537 Sm
22554 16532 Sl
22554 16532 Sm
22591 16525 Sl
22591 16525 Sm
22627 16515 Sl
22627 16515 Sm
22664 16505 Sl
22664 16505 Sm
22700 16494 Sl
22700 16494 Sm
22737 16481 Sl
22737 16481 Sm
22773 16466 Sl
22773 16466 Sm
22810 16457 Sl
22810 16457 Sm
22846 16449 Sl
22846 16449 Sm
22883 16441 Sl
22883 16441 Sm
22919 16430 Sl
22919 16430 Sm
22956 16418 Sl
22956 16418 Sm
22992 16404 Sl
22992 16404 Sm
23029 16392 Sl
23029 16392 Sm
23065 16377 Sl
23065 16377 Sm
23102 16365 Sl
23102 16365 Sm
23138 16366 Sl
23138 16366 Sm
23175 16366 Sl
23175 16366 Sm
23211 16364 Sl
23211 16364 Sm
23248 16360 Sl
23248 16360 Sm
23284 16356 Sl
23284 16356 Sm
23321 16356 Sl
23321 16356 Sm
23357 16358 Sl
23357 16358 Sm
23394 16358 Sl
23394 16358 Sm
23430 16357 Sl
23430 16357 Sm
23467 16354 Sl
23467 16354 Sm
23503 16350 Sl
23503 16350 Sm
23540 16345 Sl
23540 16345 Sm
23576 16338 Sl
23576 16338 Sm
23613 16330 Sl
23613 16330 Sm
23649 16321 Sl
23649 16321 Sm
23686 16310 Sl
23686 16310 Sm
23722 16299 Sl
23722 16299 Sm
23759 16286 Sl
23759 16286 Sm
23795 16274 Sl
23795 16274 Sm
23832 16260 Sl
23832 16260 Sm
23868 16253 Sl
23868 16253 Sm
23905 16251 Sl
23905 16251 Sm
23941 16249 Sl
23941 16249 Sm
23978 16246 Sl
23978 16246 Sm
24014 16244 Sl
24014 16244 Sm
24051 16244 Sl
24051 16244 Sm
24087 16244 Sl
24087 16244 Sm
24124 16244 Sl
24124 16244 Sm
24160 16246 Sl
24160 16246 Sm
24197 16247 Sl
24197 16247 Sm
24233 16248 Sl
24233 16248 Sm
24270 16248 Sl
24270 16248 Sm
24306 16246 Sl
24306 16246 Sm
24343 16244 Sl
24343 16244 Sm
24379 16240 Sl
24379 16240 Sm
24416 16237 Sl
24416 16237 Sm
24452 16233 Sl
24452 16233 Sm
24489 16229 Sl
24489 16229 Sm
24525 16223 Sl
24525 16223 Sm
24562 16217 Sl
24562 16217 Sm
24598 16210 Sl
24598 16210 Sm
24635 16204 Sl
24635 16204 Sm
24671 16199 Sl
24671 16199 Sm
24708 16194 Sl
24708 16194 Sm
24744 16188 Sl
24744 16188 Sm
24781 16181 Sl
24781 16181 Sm
24817 16173 Sl
24817 16173 Sm
24854 16165 Sl
24854 16165 Sm
24890 16157 Sl
24890 16157 Sm
24927 16150 Sl
24927 16150 Sm
24963 16148 Sl
24963 16148 Sm
25000 16146 Sl
25000 16146 Sm
25036 16143 Sl
25036 16143 Sm
25073 16140 Sl
25073 16140 Sm
25109 16136 Sl
25109 16136 Sm
25146 16132 Sl
25146 16132 Sm
25182 16128 Sl
25182 16128 Sm
25219 16123 Sl
25219 16123 Sm
25256 16118 Sl
25256 16118 Sm
25292 16112 Sl
25292 16112 Sm
25329 16106 Sl
25329 16106 Sm
25365 16100 Sl
25365 16100 Sm
25402 16096 Sl
25402 16096 Sm
25438 16092 Sl
25438 16092 Sm
25475 16089 Sl
25475 16089 Sm
25511 16085 Sl
25511 16085 Sm
25548 16082 Sl
25548 16082 Sm
25584 16078 Sl
25584 16078 Sm
25621 16074 Sl
25621 16074 Sm
25657 16070 Sl
25657 16070 Sm
25694 16065 Sl
25694 16065 Sm
25730 16061 Sl
25730 16061 Sm
25767 16059 Sl
25767 16059 Sm
25803 16059 Sl
25803 16059 Sm
25840 16058 Sl
25840 16058 Sm
25876 16058 Sl
25876 16058 Sm
25913 16058 Sl
25913 16058 Sm
25949 16058 Sl
25949 16058 Sm
25986 16057 Sl
25986 16057 Sm
26022 16057 Sl
26022 16057 Sm
26059 16057 Sl
26059 16057 Sm
26095 16057 Sl
26095 16057 Sm
26132 16056 Sl
26132 16056 Sm
26168 16056 Sl
26168 16056 Sm
26205 16056 Sl
26205 16056 Sm
26241 16056 Sl
26241 16056 Sm
26278 16056 Sl
26278 16056 Sm
26314 16056 Sl
26314 16056 Sm
26351 16057 Sl
26351 16057 Sm
26387 16057 Sl
26387 16057 Sm
26424 16057 Sl
26424 16057 Sm
26460 16058 Sl
26460 16058 Sm
26497 16058 Sl
26497 16058 Sm
26533 16058 Sl
26533 16058 Sm
26570 16058 Sl
26570 16058 Sm
26606 16058 Sl
26606 16058 Sm
26643 16059 Sl
26643 16059 Sm
26679 16059 Sl
26679 16059 Sm
26716 16059 Sl
26716 16059 Sm
26752 16059 Sl
26752 16059 Sm
26789 16059 Sl
26789 16059 Sm
26825 16059 Sl
26825 16059 Sm
26862 16058 Sl
26862 16058 Sm
26898 16058 Sl
26898 16058 Sm
26935 16058 Sl
26935 16058 Sm
26971 16058 Sl
26971 16058 Sm
27008 16057 Sl
27008 16057 Sm
27044 16057 Sl
27044 16057 Sm
27081 16057 Sl
27081 16057 Sm
27117 16057 Sl
27117 16057 Sm
27154 16057 Sl
27154 16057 Sm
27190 16057 Sl
27190 16057 Sm
27227 16057 Sl
27227 16057 Sm
27263 16057 Sl
27263 16057 Sm
27300 16057 Sl
27300 16057 Sm
27336 16056 Sl
27336 16056 Sm
27373 16056 Sl
27373 16056 Sm
27409 16056 Sl
27409 16056 Sm
27446 16056 Sl
27446 16056 Sm
27482 16055 Sl
27482 16055 Sm
27519 16055 Sl
27519 16055 Sm
27555 16055 Sl
27555 16055 Sm
27592 16055 Sl
27592 16055 Sm
27628 16054 Sl
27628 16054 Sm
27665 16054 Sl
27665 16054 Sm
27701 16054 Sl
27701 16054 Sm
27738 16054 Sl
27738 16054 Sm
27774 16054 Sl
27774 16054 Sm
27811 16054 Sl
27811 16054 Sm
27847 16054 Sl
27847 16054 Sm
27884 16054 Sl
27884 16054 Sm
27920 16054 Sl
27920 16054 Sm
27957 16054 Sl
27957 16054 Sm
27993 16054 Sl
27993 16054 Sm
28030 16054 Sl
28030 16054 Sm
28066 16054 Sl
28066 16054 Sm
28103 16054 Sl
28103 16054 Sm
28139 16054 Sl
28139 16054 Sm
28176 16054 Sl
28176 16054 Sm
28212 16055 Sl
28212 16055 Sm
28249 16055 Sl
28249 16055 Sm
28285 16055 Sl
28285 16055 Sm
28322 16055 Sl
28322 16055 Sm
28358 16055 Sl
28358 16055 Sm
28395 16055 Sl
28395 16055 Sm
28431 16055 Sl
28431 16055 Sm
28468 16055 Sl
28468 16055 Sm
28504 16055 Sl
28504 16055 Sm
28541 16055 Sl
28541 16055 Sm
28577 16055 Sl
28577 16055 Sm
28614 16055 Sl
28614 16055 Sm
28650 16055 Sl
/Slrgb {0.102 0.278 0.435} def
3573 7775 Sm
3603 7783 Sl
3603 7783 Sm
3634 7790 Sl
3634 7790 Sm
3664 7802 Sl
3664 7802 Sm
3694 7813 Sl
3694 7813 Sm
3725 7827 Sl
3725 7827 Sm
3755 7846 Sl
3755 7846 Sm
3786 7862 Sl
3786 7862 Sm
3816 7878 Sl
3816 7878 Sm
3847 7891 Sl
3847 7891 Sm
3877 7906 Sl
3877 7906 Sm
3907 7922 Sl
3907 7922 Sm
3938 7935 Sl
3938 7935 Sm
3968 7945 Sl
3968 7945 Sm
3999 7953 Sl
3999 7953 Sm
4029 7960 Sl
4029 7960 Sm
4060 7972 Sl
4060 7972 Sm
4090 7982 Sl
4090 7982 Sm
4120 7990 Sl
4120 7990 Sm
4151 7996 Sl
4151 7996 Sm
4181 8001 Sl
4181 8001 Sm
4212 8005 Sl
4212 8005 Sm
4242 8005 Sl
4242 8005 Sm
4272 8010 Sl
4272 8010 Sm
4303 8011 Sl
4303 8011 Sm
4333 8012 Sl
4333 8012 Sm
4364 8013 Sl
4364 8013 Sm
4394 8011 Sl
4394 8011 Sm
4425 8005 Sl
4425 8005 Sm
4455 8000 Sl
4455 8000 Sm
4485 7994 Sl
4485 7994 Sm
4516 7991 Sl
4516 7991 Sm
4546 7985 Sl
4546 7985 Sm
4577 7976 Sl
4577 7976 Sm
4607 7969 Sl
4607 7969 Sm
4638 7970 Sl
4638 7970 Sm
4668 7986 Sl
4668 7986 Sm
4698 8001 Sl
4698 8001 Sm
4729 8017 Sl
4729 8017 Sm
4759 8030 Sl
4759 8030 Sm
4790 8039 Sl
4790 8039 Sm
4820 8050 Sl
4820 8050 Sm
4850 8058 Sl
4850 8058 Sm
4881 8063 Sl
4881 8063 Sm
4911 8064 Sl
4911 8064 Sm
4942 8074 Sl
4942 8074 Sm
4972 8098 Sl
4972 8098 Sm
5003 8119 Sl
5003 8119 Sm
5033 8146 Sl
5033 8146 Sm
5063 8168 Sl
5063 8168 Sm
5094 8184 Sl
5094 8184 Sm
5124 8198 Sl
5124 8198 Sm
5155 8205 Sl
5155 8205 Sm
5185 8212 Sl
5185 8212 Sm
5215 8219 Sl
5215 8219 Sm
5246 8226 Sl
5246 8226 Sm
5276 8238 Sl
5276 8238 Sm
5307 8245 Sl
5307 8245 Sm
5337 8247 Sl
5337 8247 Sm
5368 8243 Sl
5368 8243 Sm
5398 8263 Sl
5398 8263 Sm
5428 8305 Sl
5428 8305 Sm
5459 8338 Sl
5459 8338 Sm
5489 8362 Sl
5489 8362 Sm
5520 8377 Sl
5520 8377 Sm
5550 8387 Sl
5550 8387 Sm
5581 8412 Sl
5581 8412 Sm
5611 8432 Sl
5611 8432 Sm
5641 8445 Sl
5641 8445 Sm
5672 8454 Sl
5672 8454 Sm
5702 8455 Sl
5702 8455 Sm
5733 8449 Sl
5733 8449 Sm
5763 8437 Sl
5763 8437 Sm
5793 8431 Sl
5793 8431 Sm
5824 8417 Sl
5824 8417 Sm
5854 8412 Sl
5854 8412 Sm
5885 8431 Sl
5885 8431 Sm
5915 8445 Sl
5915 8445 Sm
5946 8454 Sl
5946 8454 Sm
5976 8463 Sl
5976 8463 Sm
6006 8464 Sl
6006 8464 Sm
6037 8457 Sl
6037 8457 Sm
6067 8442 Sl
6067 8442 Sm
6098 8420 Sl
6098 8420 Sm
6128 8391 Sl
6128 8391 Sm
6159 8411 Sl
6159 8411 Sm
6189 8458 Sl
6189 8458 Sm
6219 8494 Sl
6219 8494 Sm
6250 8519 Sl
6250 8519 Sm
6280 8531 Sl
6280 8531 Sm
6311 8557 Sl
6311 8557 Sm
6341 8632 Sl
6341 8632 Sm
6371 8700 Sl
6371 8700 Sm
6402 8756 Sl
6402 8756 Sm
6432 8799 Sl
6432 8799 Sm
6463 8834 Sl
6463 8834 Sm
6493 8868 Sl
6493 8868 Sm
6524 8893 Sl
6524 8893 Sm
6554 8920 Sl
6554 8920 Sm
6584 8934 Sl
6584 8934 Sm
6615 8936 Sl
6615 8936 Sm
6645 8926 Sl
6645 8926 Sm
6676 8902 Sl
6676 8902 Sm
6706 8874 Sl
6706 8874 Sm
6737 8842 Sl
6737 8842 Sm
6767 8952 Sl
6767 8952 Sm
6797 9128 Sl
6797 9128 Sm
6828 9281 Sl
6828 9281 Sm
6858 9418 Sl
6858 9418 Sm
6889 9530 Sl
6889 9530 Sm
6919 9635 Sl
6919 9635 Sm
6949 9721 Sl
6949 9721 Sm
6980 9780 Sl
6980 9780 Sm
7010 9814 Sl
7010 9814 Sm
7041 9820 Sl
7041 9820 Sm
7071 9805 Sl
7071 9805 Sm
7102 9853 Sl
7102 9853 Sm
7132 9879 Sl
7132 9879 Sm
7162 9885 Sl
7162 9885 Sm
7193 9869 Sl
7193 9869 Sm
7223 9849 Sl
7223 9849 Sm
7254 9853 Sl
7254 9853 Sm
7284 9836 Sl
7284 9836 Sm
7314 9802 Sl
7314 9802 Sm
7345 9747 Sl
7345 9747 Sm
7375 9699 Sl
7375 9699 Sm
7406 9643 Sl
7406 9643 Sm
7436 9564 Sl
7436 9564 Sm
7467 9473 Sl
7467 9473 Sm
7497 9369 Sl
7497 9369 Sm
7527 9244 Sl
7527 9244 Sm
7558 9100 Sl
7558 9100 Sm
7588 8935 Sl
7588 8935 Sm
7619 8748 Sl
7619 8748 Sm
7649 8541 Sl
7649 8541 Sm
7680 8357 Sl
7680 8357 Sm
7710 8366 Sl
7710 8366 Sm
7740 8366 Sl
7740 8366 Sm
7771 8364 Sl
7771 8364 Sm
7801 8358 Sl
7801 8358 Sm
7832 8345 Sl
7832 8345 Sm
7862 8348 Sl
7862 8348 Sm
7892 8347 Sl
7892 8347 Sm
7923 8342 Sl
7923 8342 Sm
7953 8330 Sl
7953 8330 Sm
7984 8313 Sl
7984 8313 Sm
8014 8295 Sl
8014 8295 Sm
8045 8271 Sl
8045 8271 Sm
8075 8241 Sl
8075 8241 Sm
8105 8205 Sl
8105 8205 Sm
8136 8167 Sl
8136 8167 Sm
8166 8142 Sl
8166 8142 Sm
8197 8112 Sl
8197 8112 Sm
8227 8079 Sl
8227 8079 Sm
8258 8040 Sl
8258 8040 Sm
8288 8002 Sl
8288 8002 Sm
8318 7991 Sl
8318 7991 Sm
8349 7977 Sl
8349 7977 Sm
8379 7961 Sl
8379 7961 Sm
8410 7942 Sl
8410 7942 Sm
8440 7935 Sl
8440 7935 Sm
8470 7926 Sl
8470 7926 Sm
8501 7913 Sl
8501 7913 Sm
8531 7896 Sl
8531 7896 Sm
8562 7875 Sl
8562 7875 Sm
8592 7864 Sl
8592 7864 Sm
8623 7880 Sl
8623 7880 Sm
8653 7893 Sl
8653 7893 Sm
8683 7904 Sl
8683 7904 Sm
8714 7914 Sl
8714 7914 Sm
8744 7922 Sl
8744 7922 Sm
8775 7928 Sl
8775 7928 Sm
8805 7932 Sl
8805 7932 Sm
8836 7936 Sl
8836 7936 Sm
8866 7939 Sl
8866 7939 Sm
8896 7940 Sl
8896 7940 Sm
8927 7940 Sl
8927 7940 Sm
8957 7938 Sl
8957 7938 Sm
8988 7935 Sl
8988 7935 Sm
9018 7930 Sl
9018 7930 Sm
9048 7928 Sl
9048 7928 Sm
9079 7925 Sl
9079 7925 Sm
9109 7920 Sl
9109 7920 Sm
9140 7913 Sl
9140 7913 Sm
9170 7903 Sl
9170 7903 Sm
9201 7894 Sl
9201 7894 Sm
9231 7884 Sl
9231 7884 Sm
9261 7870 Sl
9261 7870 Sm
9292 7856 Sl
9292 7856 Sm
9322 7838 Sl
9322 7838 Sm
9353 7824 Sl
9353 7824 Sm
9383 7820 Sl
9383 7820 Sm
9413 7815 Sl
9413 7815 Sm
9444 7809 Sl
9444 7809 Sm
9474 7801 Sl
9474 7801 Sm
9505 7800 Sl
9505 7800 Sm
9535 7806 Sl
9535 7806 Sm
9566 7810 Sl
9566 7810 Sm
9596 7813 Sl
9596 7813 Sm
9626 7815 Sl
9626 7815 Sm
9657 7816 Sl
9657 7816 Sm
9687 7817 Sl
9687 7817 Sm
9718 7816 Sl
9718 7816 Sm
9748 7815 Sl
9748 7815 Sm
9779 7813 Sl
9779 7813 Sm
9809 7810 Sl
9809 7810 Sm
9839 7805 Sl
9839 7805 Sm
9870 7800 Sl
9870 7800 Sm
9900 7795 Sl
9900 7795 Sm
9931 7789 Sl
9931 7789 Sm
9961 7784 Sl
9961 7784 Sm
9991 7781 Sl
9991 7781 Sm
10022 7777 Sl
10022 7777 Sm
10052 7772 Sl
10052 7772 Sm
10083 7766 Sl
10083 7766 Sm
10113 7761 Sl
10113 7761 Sm
10144 7757 Sl
10144 7757 Sm
10174 7752 Sl
10174 7752 Sm
10204 7748 Sl
10204 7748 Sm
10235 7744 Sl
10235 7744 Sm
10265 7740 Sl
10265 7740 Sm
10296 7735 Sl
10296 7735 Sm
10326 7731 Sl
10326 7731 Sm
10357 7727 Sl
10357 7727 Sm
10387 7721 Sl
10387 7721 Sm
10417 7720 Sl
10417 7720 Sm
10448 7722 Sl
10448 7722 Sm
10478 7724 Sl
10478 7724 Sm
10509 7726 Sl
10509 7726 Sm
10539 7727 Sl
10539 7727 Sm
10569 7728 Sl
10569 7728 Sm
10600 7729 Sl
10600 7729 Sm
10630 7730 Sl
10630 7730 Sm
10661 7730 Sl
10661 7730 Sm
10691 7730 Sl
10691 7730 Sm
10722 7731 Sl
10722 7731 Sm
10752 7732 Sl
10752 7732 Sm
10782 7732 Sl
10782 7732 Sm
10813 7731 Sl
10813 7731 Sm
10843 7731 Sl
10843 7731 Sm
10874 7731 Sl
10874 7731 Sm
10904 7731 Sl
10904 7731 Sm
10935 7731 Sl
10935 7731 Sm
10965 7731 Sl
10965 7731 Sm
10995 7730 Sl
10995 7730 Sm
11026 7729 Sl
11026 7729 Sm
11056 7727 Sl
11056 7727 Sm
11087 7726 Sl
11087 7726 Sm
11117 7725 Sl
11117 7725 Sm
11147 7723 Sl
11147 7723 Sm
11178 7721 Sl
11178 7721 Sm
11208 7719 Sl
11208 7719 Sm
11239 7718 Sl
11239 7718 Sm
11269 7717 Sl
11269 7717 Sm
11300 7716 Sl
11300 7716 Sm
11330 7715 Sl
11330 7715 Sm
11360 7716 Sl
11360 7716 Sm
11391 7716 Sl
11391 7716 Sm
11421 7716 Sl
11421 7716 Sm
11452 7715 Sl
11452 7715 Sm
11482 7715 Sl
11482 7715 Sm
11512 7714 Sl
11512 7714 Sm
11543 7713 Sl
11543 7713 Sm
11573 7711 Sl
11573 7711 Sm
11604 7710 Sl
11604 7710 Sm
11634 7709 Sl
11634 7709 Sm
11665 7708 Sl
11665 7708 Sm
11695 7708 Sl
11695 7708 Sm
11725 7707 Sl
11725 7707 Sm
11756 7706 Sl
11756 7706 Sm
11786 7706 Sl
11786 7706 Sm
11817 7705 Sl
11817 7705 Sm
11847 7704 Sl
11847 7704 Sm
11878 7704 Sl
11878 7704 Sm
11908 7703 Sl
11908 7703 Sm
11938 7702 Sl
11938 7702 Sm
11969 7701 Sl
11969 7701 Sm
11999 7700 Sl
11999 7700 Sm
12030 7699 Sl
12030 7699 Sm
12060 7698 Sl
12060 7698 Sm
12090 7697 Sl
12090 7697 Sm
12121 7697 Sl
12121 7697 Sm
12151 7696 Sl
12151 7696 Sm
12182 7695 Sl
12182 7695 Sm
12212 7695 Sl
12212 7695 Sm
12243 7695 Sl
12243 7695 Sm
12273 7696 Sl
12273 7696 Sm
12303 7696 Sl
12303 7696 Sm
12334 7696 Sl
12334 7696 Sm
12364 7697 Sl
12364 7697 Sm
12395 7697 Sl
12395 7697 Sm
12425 7697 Sl
12425 7697 Sm
12456 7698 Sl
12456 7698 Sm
12486 7698 Sl
12486 7698 Sm
12516 7698 Sl
12516 7698 Sm
12547 7698 Sl
12547 7698 Sm
12577 7698 Sl
12577 7698 Sm
12608 7698 Sl
12608 7698 Sm
12638 7699 Sl
12638 7699 Sm
12668 7699 Sl
/Slrgb {0.565 0.208 0.231} def
3573 7857 Sm
3612 7860 Sl
3612 7860 Sm
3651 7855 Sl
3651 7855 Sm
3691 7836 Sl
3691 7836 Sm
3730 7809 Sl
3730 7809 Sm
3769 7774 Sl
3769 7774 Sm
3809 7787 Sl
3809 7787 Sm
3848 7802 Sl
3848 7802 Sm
3887 7832 Sl
3887 7832 Sm
3926 7855 Sl
3926 7855 Sm
3966 7874 Sl
3966 7874 Sm
4005 7911 Sl
4005 7911 Sm
4044 7962 Sl
4044 7962 Sm
4084 8002 Sl
4084 8002 Sm
4123 8027 Sl
4123 8027 Sm
4162 8056 Sl
4162 8056 Sm
4201 8074 Sl
4201 8074 Sm
4241 8073 Sl
4241 8073 Sm
4280 8051 Sl
4280 8051 Sm
4319 8031 Sl
4319 8031 Sm
4359 7985 Sl
4359 7985 Sm
4398 7956 Sl
4398 7956 Sm
4437 7923 Sl
4437 7923 Sm
4477 7903 Sl
4477 7903 Sm
4516 7866 Sl
4516 7866 Sm
4555 7897 Sl
4555 7897 Sm
4594 7913 Sl
4594 7913 Sm
4634 7931 Sl
4634 7931 Sm
4673 7920 Sl
4673 7920 Sm
4712 7924 Sl
4712 7924 Sm
4752 7916 Sl
4752 7916 Sm
4791 7923 Sl
4791 7923 Sm
4830 7905 Sl
4830 7905 Sm
4869 7880 Sl
4869 7880 Sm
4909 7882 Sl
4909 7882 Sm
4948 7983 Sl
4948 7983 Sm
4987 8054 Sl
4987 8054 Sm
5027 8112 Sl
5027 8112 Sm
5066 8134 Sl
5066 8134 Sm
5105 8120 Sl
5105 8120 Sm
5145 8080 Sl
5145 8080 Sm
5184 8031 Sl
5184 8031 Sm
5223 8003 Sl
5223 8003 Sm
5262 7960 Sl
5262 7960 Sm
5302 8025 Sl
5302 8025 Sm
5341 8145 Sl
5341 8145 Sm
5380 8225 Sl
5380 8225 Sm
5420 8263 Sl
5420 8263 Sm
5459 8263 Sl
5459 8263 Sm
5498 8217 Sl
5498 8217 Sm
5537 8151 Sl
5537 8151 Sm
5577 8033 Sl
5577 8033 Sm
5616 7943 Sl
5616 7943 Sm
5655 7841 Sl
5655 7841 Sm
5695 8030 Sl
5695 8030 Sm
5734 8180 Sl
5734 8180 Sm
5773 8277 Sl
5773 8277 Sm
5812 8324 Sl
5812 8324 Sm
5852 8353 Sl
5852 8353 Sm
5891 8325 Sl
5891 8325 Sm
5930 8280 Sl
5930 8280 Sm
5970 8177 Sl
5970 8177 Sm
6009 8020 Sl
6009 8020 Sm
6048 7922 Sl
6048 7922 Sm
6088 8056 Sl
6088 8056 Sm
6127 8202 Sl
6127 8202 Sm
6166 8349 Sl
6166 8349 Sm
6205 8438 Sl
6205 8438 Sm
6245 8484 Sl
6245 8484 Sm
6284 8475 Sl
6284 8475 Sm
6323 8411 Sl
6323 8411 Sm
6363 8282 Sl
6363 8282 Sm
6402 8086 Sl
6402 8086 Sm
6441 8458 Sl
6441 8458 Sm
6480 8910 Sl
6480 8910 Sm
6520 9276 Sl
6520 9276 Sm
6559 9527 Sl
6559 9527 Sm
6598 9748 Sl
6598 9748 Sm
6638 9794 Sl
6638 9794 Sm
6677 9672 Sl
6677 9672 Sm
6716 9362 Sl
6716 9362 Sm
6756 8921 Sl
6756 8921 Sm
6795 8303 Sl
6795 8303 Sm
6834 8485 Sl
6834 8485 Sm
6873 8622 Sl
6873 8622 Sm
6913 8704 Sl
6913 8704 Sm
6952 8679 Sl
6952 8679 Sm
6991 8705 Sl
6991 8705 Sm
7031 9114 Sl
7031 9114 Sm
7070 10268 Sl
7070 10268 Sm
7109 11050 Sl
7109 11050 Sm
7148 11511 Sl
7148 11511 Sm
7188 11808 Sl
7188 11808 Sm
7227 12082 Sl
7227 12082 Sm
7266 11976 Sl
7266 11976 Sm
7306 11514 Sl
7306 11514 Sm
7345 10682 Sl
7345 10682 Sm
7384 9465 Sl
7384 9465 Sm
7424 8656 Sl
7424 8656 Sm
7463 8496 Sl
7463 8496 Sm
7502 8388 Sl
7502 8388 Sm
7541 8225 Sl
7541 8225 Sm
7581 8239 Sl
7581 8239 Sm
7620 8322 Sl
7620 8322 Sm
7659 8464 Sl
7659 8464 Sm
7699 8536 Sl
7699 8536 Sm
7738 8564 Sl
7738 8564 Sm
7777 8518 Sl
7777 8518 Sm
7816 8412 Sl
7816 8412 Sm
7856 8221 Sl
7856 8221 Sm
7895 8125 Sl
7895 8125 Sm
7934 8052 Sl
7934 8052 Sm
7974 8288 Sl
7974 8288 Sm
8013 8420 Sl
8013 8420 Sm
8052 8592 Sl
8052 8592 Sm
8091 8682 Sl
8091 8682 Sm
8131 8701 Sl
8131 8701 Sm
8170 8647 Sl
8170 8647 Sm
8209 8535 Sl
8209 8535 Sm
8249 8343 Sl
8249 8343 Sm
8288 8075 Sl
8288 8075 Sm
8327 7860 Sl
8327 7860 Sm
8367 7867 Sl
8367 7867 Sm
8406 7889 Sl
8406 7889 Sm
8445 7910 Sl
8445 7910 Sm
8484 7915 Sl
8484 7915 Sm
8524 7905 Sl
8524 7905 Sm
8563 7902 Sl
8563 7902 Sm
8602 7895 Sl
8602 7895 Sm
8642 7880 Sl
8642 7880 Sm
8681 7855 Sl
8681 7855 Sm
8720 7928 Sl
8720 7928 Sm
8759 7979 Sl
8759 7979 Sm
8799 8029 Sl
8799 8029 Sm
8838 8059 Sl
8838 8059 Sm
8877 8197 Sl
8877 8197 Sm
8917 8273 Sl
8917 8273 Sm
8956 8309 Sl
8956 8309 Sm
8995 8287 Sl
8995 8287 Sm
9035 8212 Sl
9035 8212 Sm
9074 8086 Sl
9074 8086 Sm
9113 8051 Sl
9113 8051 Sm
9152 7981 Sl
9152 7981 Sm
9192 7879 Sl
9192 7879 Sm
9231 7776 Sl
9231 7776 Sm
9270 7790 Sl
9270 7790 Sm
9310 7800 Sl
9310 7800 Sm
9349 7809 Sl
9349 7809 Sm
9388 7809 Sl
9388 7809 Sm
9427 7801 Sl
9427 7801 Sm
9467 7806 Sl
9467 7806 Sm
9506 7819 Sl
9506 7819 Sm
9545 7821 Sl
9545 7821 Sm
9585 7812 Sl
9585 7812 Sm
9624 7803 Sl
9624 7803 Sm
9663 7791 Sl
9663 7791 Sm
9702 7780 Sl
9702 7780 Sm
9742 7765 Sl
9742 7765 Sm
9781 7800 Sl
9781 7800 Sm
9820 7822 Sl
9820 7822 Sm
9860 7852 Sl
9860 7852 Sm
9899 7874 Sl
9899 7874 Sm
9938 7883 Sl
9938 7883 Sm
9978 7876 Sl
9978 7876 Sm
10017 7856 Sl
10017 7856 Sm
10056 7821 Sl
10056 7821 Sm
10095 7773 Sl
10095 7773 Sm
10135 7713 Sl
10135 7713 Sm
10174 7711 Sl
10174 7711 Sm
10213 7718 Sl
10213 7718 Sm
10253 7744 Sl
10253 7744 Sm
10292 7764 Sl
10292 7764 Sm
10331 7782 Sl
10331 7782 Sm
10370 7795 Sl
10370 7795 Sm
10410 7803 Sl
10410 7803 Sm
10449 7802 Sl
10449 7802 Sm
10488 7795 Sl
10488 7795 Sm
10528 7780 Sl
10528 7780 Sm
10567 7756 Sl
10567 7756 Sm
10606 7749 Sl
10606 7749 Sm
10646 7756 Sl
10646 7756 Sm
10685 7763 Sl
10685 7763 Sm
10724 7765 Sl
10724 7765 Sm
10763 7765 Sl
10763 7765 Sm
10803 7762 Sl
10803 7762 Sm
10842 7755 Sl
10842 7755 Sm
10881 7744 Sl
10881 7744 Sm
10921 7730 Sl
10921 7730 Sm
10960 7713 Sl
10960 7713 Sm
10999 7708 Sl
10999 7708 Sm
11038 7704 Sl
11038 7704 Sm
11078 7705 Sl
11078 7705 Sm
11117 7706 Sl
11117 7706 Sm
11156 7707 Sl
11156 7707 Sm
11196 7707 Sl
11196 7707 Sm
11235 7707 Sl
11235 7707 Sm
11274 7706 Sl
11274 7706 Sm
11313 7705 Sl
11313 7705 Sm
11353 7704 Sl
11353 7704 Sm
11392 7705 Sl
11392 7705 Sm
11431 7706 Sl
11431 7706 Sm
11471 7707 Sl
11471 7707 Sm
11510 7707 Sl
11510 7707 Sm
11549 7707 Sl
11549 7707 Sm
11589 7706 Sl
11589 7706 Sm
11628 7705 Sl
11628 7705 Sm
11667 7703 Sl
11667 7703 Sm
11706 7701 Sl
11706 7701 Sm
11746 7699 Sl
11746 7699 Sm
11785 7697 Sl
11785 7697 Sm
11824 7696 Sl
11824 7696 Sm
11864 7696 Sl
11864 7696 Sm
11903 7697 Sl
11903 7697 Sm
11942 7697 Sl
11942 7697 Sm
11981 7698 Sl
11981 7698 Sm
12021 7699 Sl
12021 7699 Sm
12060 7699 Sl
12060 7699 Sm
12099 7699 Sl
12099 7699 Sm
12139 7698 Sl
12139 7698 Sm
12178 7697 Sl
12178 7697 Sm
12217 7696 Sl
12217 7696 Sm
12257 7694 Sl
12257 7694 Sm
12296 7694 Sl
12296 7694 Sm
12335 7694 Sl
12335 7694 Sm
12374 7694 Sl
12374 7694 Sm
12414 7695 Sl
12414 7695 Sm
12453 7697 Sl
12453 7697 Sm
12492 7699 Sl
12492 7699 Sm
12532 7701 Sl
12532 7701 Sm
12571 7702 Sl
12571 7702 Sm
12610 7703 Sl
12610 7703 Sm
12649 7703 Sl
12649 7703 Sm
12689 7703 Sl
12689 7703 Sm
12728 7701 Sl
12728 7701 Sm
12767 7699 Sl
12767 7699 Sm
12807 7697 Sl
12807 7697 Sm
12846 7695 Sl
12846 7695 Sm
12885 7694 Sl
12885 7694 Sm
12924 7694 Sl
12924 7694 Sm
12964 7695 Sl
12964 7695 Sm
13003 7696 Sl
13003 7696 Sm
13042 7696 Sl
13042 7696 Sm
13082 7697 Sl
13082 7697 Sm
13121 7697 Sl
13121 7697 Sm
13160 7697 Sl
13160 7697 Sm
13200 7696 Sl
13200 7696 Sm
13239 7696 Sl
13239 7696 Sm
13278 7696 Sl
13278 7696 Sm
13317 7696 Sl
13317 7696 Sm
13357 7696 Sl
13357 7696 Sm
13396 7697 Sl
13396 7697 Sm
13435 7698 Sl
13435 7698 Sm
13475 7698 Sl
13475 7698 Sm
13514 7698 Sl
13514 7698 Sm
13553 7698 Sl
13553 7698 Sm
13592 7697 Sl
13592 7697 Sm
13632 7696 Sl
13632 7696 Sm
13671 7696 Sl
13671 7696 Sm
13710 7696 Sl
13710 7696 Sm
13750 7695 Sl
13750 7695 Sm
13789 7694 Sl
13789 7694 Sm
13828 7694 Sl
13828 7694 Sm
13868 7695 Sl
13868 7695 Sm
13907 7696 Sl
13907 7696 Sm
13946 7696 Sl
13946 7696 Sm
13985 7697 Sl
13985 7697 Sm
14025 7697 Sl
14025 7697 Sm
14064 7698 Sl
14064 7698 Sm
14103 7698 Sl
14103 7698 Sm
14143 7698 Sl
14143 7698 Sm
14182 7698 Sl
14182 7698 Sm
14221 7697 Sl
14221 7697 Sm
14260 7696 Sl
14260 7696 Sm
14300 7696 Sl
14300 7696 Sm
14339 7695 Sl
14339 7695 Sm
14378 7694 Sl
14378 7694 Sm
14418 7694 Sl
14418 7694 Sm
14457 7694 Sl
14457 7694 Sm
14496 7694 Sl
14496 7694 Sm
14535 7694 Sl
14535 7694 Sm
14575 7694 Sl
14575 7694 Sm
14614 7694 Sl
14614 7694 Sm
14653 7694 Sl
14653 7694 Sm
14693 7694 Sl
14693 7694 Sm
14732 7694 Sl
14732 7694 Sm
14771 7694 Sl
14771 7694 Sm
14811 7694 Sl
14811 7694 Sm
14850 7694 Sl
14850 7694 Sm
14889 7694 Sl
14889 7694 Sm
14928 7695 Sl
14928 7695 Sm
14968 7696 Sl
14968 7696 Sm
15007 7696 Sl
15007 7696 Sm
15046 7697 Sl
15046 7697 Sm
15086 7697 Sl
15086 7697 Sm
15125 7697 Sl
15125 7697 Sm
15164 7697 Sl
15164 7697 Sm
15203 7697 Sl
15203 7697 Sm
15243 7697 Sl
15243 7697 Sm
15282 7697 Sl
15282 7697 Sm
15321 7697 Sl
/Slrgb {0.333 0.459 0.184} def
3573 8019 Sm
3613 8045 Sl
3613 8045 Sm
3654 8075 Sl
3654 8075 Sm
3694 8101 Sl
3694 8101 Sm
3735 8125 Sl
3735 8125 Sm
3776 8148 Sl
3776 8148 Sm
3816 8171 Sl
3816 8171 Sm
3857 8190 Sl
3857 8190 Sm
3897 8205 Sl
3897 8205 Sm
3938 8223 Sl
3938 8223 Sm
3978 8238 Sl
3978 8238 Sm
4019 8255 Sl
4019 8255 Sm
4060 8267 Sl
4060 8267 Sm
4100 8278 Sl
4100 8278 Sm
4141 8284 Sl
4141 8284 Sm
4181 8286 Sl
4181 8286 Sm
4222 8285 Sl
4222 8285 Sm
4262 8282 Sl
4262 8282 Sm
4303 8275 Sl
4303 8275 Sm
4343 8272 Sl
4343 8272 Sm
4384 8276 Sl
4384 8276 Sm
4425 8282 Sl
4425 8282 Sm
4465 8287 Sl
4465 8287 Sm
4506 8290 Sl
4506 8290 Sm
4546 8288 Sl
4546 8288 Sm
4587 8284 Sl
4587 8284 Sm
4627 8277 Sl
4627 8277 Sm
4668 8270 Sl
4668 8270 Sm
4708 8267 Sl
4708 8267 Sm
4749 8263 Sl
4749 8263 Sm
4790 8264 Sl
4790 8264 Sm
4830 8261 Sl
4830 8261 Sm
4871 8257 Sl
4871 8257 Sm
4911 8249 Sl
4911 8249 Sm
4952 8245 Sl
4952 8245 Sm
4992 8242 Sl
4992 8242 Sm
5033 8236 Sl
5033 8236 Sm
5074 8229 Sl
5074 8229 Sm
5114 8225 Sl
5114 8225 Sm
5155 8240 Sl
5155 8240 Sm
5195 8251 Sl
5195 8251 Sm
5236 8259 Sl
5236 8259 Sm
5276 8266 Sl
5276 8266 Sm
5317 8272 Sl
5317 8272 Sm
5357 8273 Sl
5357 8273 Sm
5398 8274 Sl
5398 8274 Sm
5439 8272 Sl
5439 8272 Sm
5479 8271 Sl
5479 8271 Sm
5520 8276 Sl
5520 8276 Sm
5560 8285 Sl
5560 8285 Sm
5601 8297 Sl
5601 8297 Sm
5641 8307 Sl
5641 8307 Sm
5682 8313 Sl
5682 8313 Sm
5723 8317 Sl
5723 8317 Sm
5763 8317 Sl
5763 8317 Sm
5804 8310 Sl
5804 8310 Sm
5844 8309 Sl
5844 8309 Sm
5885 8318 Sl
5885 8318 Sm
5925 8349 Sl
5925 8349 Sm
5966 8377 Sl
5966 8377 Sm
6006 8398 Sl
6006 8398 Sm
6047 8420 Sl
6047 8420 Sm
6088 8441 Sl
6088 8441 Sm
6128 8457 Sl
6128 8457 Sm
6169 8471 Sl
6169 8471 Sm
6209 8483 Sl
6209 8483 Sm
6250 8495 Sl
6250 8495 Sm
6290 8508 Sl
6290 8508 Sm
6331 8515 Sl
6331 8515 Sm
6371 8517 Sl
6371 8517 Sm
6412 8512 Sl
6412 8512 Sm
6453 8505 Sl
6453 8505 Sm
6493 8512 Sl
6493 8512 Sm
6534 8548 Sl
6534 8548 Sm
6574 8576 Sl
6574 8576 Sm
6615 8619 Sl
6615 8619 Sm
6655 8667 Sl
6655 8667 Sm
6696 8714 Sl
6696 8714 Sm
6737 8753 Sl
6737 8753 Sm
6777 8785 Sl
6777 8785 Sm
6818 8809 Sl
6818 8809 Sm
6858 8824 Sl
6858 8824 Sm
6899 8831 Sl
6899 8831 Sm
6939 8829 Sl
6939 8829 Sm
6980 8833 Sl
6980 8833 Sm
7020 8834 Sl
7020 8834 Sm
7061 8837 Sl
7061 8837 Sm
7102 8838 Sl
7102 8838 Sm
7142 8837 Sl
7142 8837 Sm
7183 8826 Sl
7183 8826 Sm
7223 8808 Sl
7223 8808 Sm
7264 8781 Sl
7264 8781 Sm
7304 8745 Sl
7304 8745 Sm
7345 8708 Sl
7345 8708 Sm
7385 8688 Sl
7385 8688 Sm
7426 8688 Sl
7426 8688 Sm
7467 8683 Sl
7467 8683 Sm
7507 8675 Sl
7507 8675 Sm
7548 8666 Sl
7548 8666 Sm
7588 8649 Sl
7588 8649 Sm
7629 8626 Sl
7629 8626 Sm
7669 8598 Sl
7669 8598 Sm
7710 8563 Sl
7710 8563 Sm
7751 8529 Sl
7751 8529 Sm
7791 8489 Sl
7791 8489 Sm
7832 8443 Sl
7832 8443 Sm
7872 8391 Sl
7872 8391 Sm
7913 8332 Sl
7913 8332 Sm
7953 8281 Sl
7953 8281 Sm
7994 8266 Sl
7994 8266 Sm
8034 8248 Sl
8034 8248 Sm
8075 8227 Sl
8075 8227 Sm
8116 8213 Sl
8116 8213 Sm
8156 8210 Sl
8156 8210 Sm
8197 8219 Sl
8197 8219 Sm
8237 8224 Sl
8237 8224 Sm
8278 8226 Sl
8278 8226 Sm
8318 8227 Sl
8318 8227 Sm
8359 8227 Sl
8359 8227 Sm
8399 8224 Sl
8399 8224 Sm
8440 8222 Sl
8440 8222 Sm
8481 8217 Sl
8481 8217 Sm
8521 8208 Sl
8521 8208 Sm
8562 8198 Sl
8562 8198 Sm
8602 8191 Sl
8602 8191 Sm
8643 8179 Sl
8643 8179 Sm
8683 8164 Sl
8683 8164 Sm
8724 8147 Sl
8724 8147 Sm
8765 8126 Sl
8765 8126 Sm
8805 8102 Sl
8805 8102 Sm
8846 8073 Sl
8846 8073 Sm
8886 8066 Sl
8886 8066 Sm
8927 8064 Sl
8927 8064 Sm
8967 8061 Sl
8967 8061 Sm
9008 8055 Sl
9008 8055 Sm
9048 8047 Sl
9048 8047 Sm
9089 8038 Sl
9089 8038 Sm
9130 8029 Sl
9130 8029 Sm
9170 8018 Sl
9170 8018 Sm
9211 8006 Sl
9211 8006 Sm
9251 8003 Sl
9251 8003 Sm
9292 7998 Sl
9292 7998 Sm
9332 7992 Sl
9332 7992 Sm
9373 7984 Sl
9373 7984 Sm
9413 7974 Sl
9413 7974 Sm
9454 7960 Sl
9454 7960 Sm
9495 7945 Sl
9495 7945 Sm
9535 7928 Sl
9535 7928 Sm
9576 7908 Sl
9576 7908 Sm
9616 7889 Sl
9616 7889 Sm
9657 7886 Sl
9657 7886 Sm
9697 7884 Sl
9697 7884 Sm
9738 7880 Sl
9738 7880 Sm
9779 7880 Sl
9779 7880 Sm
9819 7883 Sl
9819 7883 Sm
9860 7886 Sl
9860 7886 Sm
9900 7887 Sl
9900 7887 Sm
9941 7886 Sl
9941 7886 Sm
9981 7885 Sl
9981 7885 Sm
10022 7883 Sl
10022 7883 Sm
10062 7880 Sl
10062 7880 Sm
10103 7876 Sl
10103 7876 Sm
10144 7871 Sl
10144 7871 Sm
10184 7867 Sl
10184 7867 Sm
10225 7862 Sl
10225 7862 Sm
10265 7856 Sl
10265 7856 Sm
10306 7850 Sl
10306 7850 Sm
10346 7842 Sl
10346 7842 Sm
10387 7834 Sl
10387 7834 Sm
10427 7828 Sl
10427 7828 Sm
10468 7820 Sl
10468 7820 Sm
10509 7812 Sl
10509 7812 Sm
10549 7803 Sl
10549 7803 Sm
10590 7792 Sl
10590 7792 Sm
10630 7781 Sl
10630 7781 Sm
10671 7768 Sl
10671 7768 Sm
10711 7766 Sl
10711 7766 Sm
10752 7763 Sl
10752 7763 Sm
10793 7760 Sl
10793 7760 Sm
10833 7757 Sl
10833 7757 Sm
10874 7754 Sl
10874 7754 Sm
10914 7751 Sl
10914 7751 Sm
10955 7747 Sl
10955 7747 Sm
10995 7743 Sl
10995 7743 Sm
11036 7738 Sl
11036 7738 Sm
11076 7733 Sl
11076 7733 Sm
11117 7728 Sl
11117 7728 Sm
11158 7724 Sl
11158 7724 Sm
11198 7720 Sl
11198 7720 Sm
11239 7718 Sl
11239 7718 Sm
11279 7716 Sl
11279 7716 Sm
11320 7714 Sl
11320 7714 Sm
11360 7711 Sl
11360 7711 Sm
11401 7709 Sl
11401 7709 Sm
11442 7707 Sl
11442 7707 Sm
11482 7704 Sl
11482 7704 Sm
11523 7703 Sl
11523 7703 Sm
11563 7702 Sl
11563 7702 Sm
11604 7701 Sl
11604 7701 Sm
11644 7700 Sl
11644 7700 Sm
11685 7699 Sl
11685 7699 Sm
11725 7699 Sl
11725 7699 Sm
11766 7698 Sl
11766 7698 Sm
11807 7698 Sl
11807 7698 Sm
11847 7697 Sl
11847 7697 Sm
11888 7697 Sl
11888 7697 Sm
11928 7697 Sl
11928 7697 Sm
11969 7697 Sl
11969 7697 Sm
12009 7697 Sl
12009 7697 Sm
12050 7697 Sl
12050 7697 Sm
12090 7697 Sl
12090 7697 Sm
12131 7697 Sl
12131 7697 Sm
12172 7697 Sl
12172 7697 Sm
12212 7696 Sl
12212 7696 Sm
12253 7696 Sl
12253 7696 Sm
12293 7697 Sl
12293 7697 Sm
12334 7697 Sl
12334 7697 Sm
12374 7697 Sl
12374 7697 Sm
12415 7697 Sl
12415 7697 Sm
12456 7697 Sl
12456 7697 Sm
12496 7697 Sl
12496 7697 Sm
12537 7698 Sl
12537 7698 Sm
12577 7698 Sl
12577 7698 Sm
12618 7698 Sl
12618 7698 Sm
12658 7698 Sl
12658 7698 Sm
12699 7698 Sl
12699 7698 Sm
12739 7698 Sl
12739 7698 Sm
12780 7699 Sl
12780 7699 Sm
12821 7699 Sl
12821 7699 Sm
12861 7699 Sl
12861 7699 Sm
12902 7699 Sl
12902 7699 Sm
12942 7699 Sl
12942 7699 Sm
12983 7699 Sl
12983 7699 Sm
13023 7699 Sl
13023 7699 Sm
13064 7699 Sl
13064 7699 Sm
13104 7699 Sl
13104 7699 Sm
13145 7698 Sl
13145 7698 Sm
13186 7698 Sl
13186 7698 Sm
13226 7698 Sl
13226 7698 Sm
13267 7698 Sl
13267 7698 Sm
13307 7698 Sl
13307 7698 Sm
13348 7697 Sl
13348 7697 Sm
13388 7697 Sl
13388 7697 Sm
13429 7697 Sl
13429 7697 Sm
13470 7696 Sl
13470 7696 Sm
13510 7696 Sl
13510 7696 Sm
13551 7696 Sl
13551 7696 Sm
13591 7696 Sl
13591 7696 Sm
13632 7696 Sl
13632 7696 Sm
13672 7696 Sl
13672 7696 Sm
13713 7696 Sl
13713 7696 Sm
13753 7696 Sl
13753 7696 Sm
13794 7695 Sl
13794 7695 Sm
13835 7695 Sl
13835 7695 Sm
13875 7695 Sl
13875 7695 Sm
13916 7695 Sl
13916 7695 Sm
13956 7695 Sl
13956 7695 Sm
13997 7695 Sl
13997 7695 Sm
14037 7695 Sl
14037 7695 Sm
14078 7694 Sl
14078 7694 Sm
14118 7694 Sl
14118 7694 Sm
14159 7694 Sl
14159 7694 Sm
14200 7694 Sl
14200 7694 Sm
14240 7694 Sl
14240 7694 Sm
14281 7694 Sl
14281 7694 Sm
14321 7694 Sl
14321 7694 Sm
14362 7694 Sl
14362 7694 Sm
14402 7694 Sl
14402 7694 Sm
14443 7694 Sl
14443 7694 Sm
14484 7694 Sl
14484 7694 Sm
14524 7694 Sl
14524 7694 Sm
14565 7694 Sl
14565 7694 Sm
14605 7694 Sl
14605 7694 Sm
14646 7694 Sl
14646 7694 Sm
14686 7694 Sl
14686 7694 Sm
14727 7694 Sl
14727 7694 Sm
14767 7694 Sl
14767 7694 Sm
14808 7694 Sl
14808 7694 Sm
14849 7694 Sl
14849 7694 Sm
14889 7694 Sl
14889 7694 Sm
14930 7694 Sl
14930 7694 Sm
14970 7694 Sl
14970 7694 Sm
15011 7695 Sl
15011 7695 Sm
15051 7695 Sl
15051 7695 Sm
15092 7695 Sl
15092 7695 Sm
15132 7695 Sl
15132 7695 Sm
15173 7695 Sl
15173 7695 Sm
15214 7695 Sl
15214 7695 Sm
15254 7695 Sl
15254 7695 Sm
15295 7696 Sl
15295 7696 Sm
15335 7696 Sl
15335 7696 Sm
15376 7696 Sl
15376 7696 Sm
15416 7696 Sl
15416 7696 Sm
15457 7696 Sl
15457 7696 Sm
15498 7696 Sl
15498 7696 Sm
15538 7696 Sl
15538 7696 Sm
15579 7696 Sl
15579 7696 Sm
15619 7696 Sl
15619 7696 Sm
15660 7696 Sl
15660 7696 Sm
15700 7696 Sl
/Slw 0.490 def
/Slrgb {0.000 0.000 0.000} def
3138 15616 3138 21185 Sln
3138 16052 2863 16052 Sln
2520 16052 0
/Helvetica-0 findfont 687 yratio mul scalefont setfont
(0) stringwidth pop add
2 div xratio div
dup 4 3 roll exch 90.000 cos mul sub 3 1 roll 90.000 sin mul sub 2 copy
/fntsize {/Helvetica-0 findfont exch scalefont setfont } def
90.000 687
(0) Stxtl
(0) stringwidth pop xratio div
dup 4 3 roll exch 90.000 cos mul add 3 1 roll 90.000 sin mul add 2 copy
pop pop pop pop
3138 17156 2863 17156 Sln
2520 17156 0
/Helvetica-0 findfont 687 yratio mul scalefont setfont
(.02) stringwidth pop add
2 div xratio div
dup 4 3 roll exch 90.000 cos mul sub 3 1 roll 90.000 sin mul sub 2 copy
/fntsize {/Helvetica-0 findfont exch scalefont setfont } def
90.000 687
(.02) Stxtl
(.02) stringwidth pop xratio div
dup 4 3 roll exch 90.000 cos mul add 3 1 roll 90.000 sin mul add 2 copy
pop pop pop pop
3138 18260 2863 18260 Sln
2520 18260 0
/Helvetica-0 findfont 687 yratio mul scalefont setfont
(.04) stringwidth pop add
2 div xratio div
dup 4 3 roll exch 90.000 cos mul sub 3 1 roll 90.000 sin mul sub 2 copy
/fntsize {/Helvetica-0 findfont exch scalefont setfont } def
90.000 687
(.04) Stxtl
(.04) stringwidth pop xratio div
dup 4 3 roll exch 90.000 cos mul add 3 1 roll 90.000 sin mul add 2 copy
pop pop pop pop
3138 19364 2863 19364 Sln
2520 19364 0
/Helvetica-0 findfont 687 yratio mul scalefont setfont
(.06) stringwidth pop add
2 div xratio div
dup 4 3 roll exch 90.000 cos mul sub 3 1 roll 90.000 sin mul sub 2 copy
/fntsize {/Helvetica-0 findfont exch scalefont setfont } def
90.000 687
(.06) Stxtl
(.06) stringwidth pop xratio div
dup 4 3 roll exch 90.000 cos mul add 3 1 roll 90.000 sin mul add 2 copy
pop pop pop pop
3138 20469 2863 20469 Sln
2520 20469 0
/Helvetica-0 findfont 687 yratio mul scalefont setfont
(.08) stringwidth pop add
2 div xratio div
dup 4 3 roll exch 90.000 cos mul sub 3 1 roll 90.000 sin mul sub 2 copy
/fntsize {/Helvetica-0 findfont exch scalefont setfont } def
90.000 687
(.08) Stxtl
(.08) stringwidth pop xratio div
dup 4 3 roll exch 90.000 cos mul add 3 1 roll 90.000 sin mul add 2 copy
pop pop pop pop
3138 7260 3138 12829 Sln
3138 7695 2863 7695 Sln
2520 7695 0
/Helvetica-0 findfont 687 yratio mul scalefont setfont
(0) stringwidth pop add
2 div xratio div
dup 4 3 roll exch 90.000 cos mul sub 3 1 roll 90.000 sin mul sub 2 copy
/fntsize {/Helvetica-0 findfont exch scalefont setfont } def
90.000 687
(0) Stxtl
(0) stringwidth pop xratio div
dup 4 3 roll exch 90.000 cos mul add 3 1 roll 90.000 sin mul add 2 copy
pop pop pop pop
3138 8799 2863 8799 Sln
2520 8799 0
/Helvetica-0 findfont 687 yratio mul scalefont setfont
(.02) stringwidth pop add
2 div xratio div
dup 4 3 roll exch 90.000 cos mul sub 3 1 roll 90.000 sin mul sub 2 copy
/fntsize {/Helvetica-0 findfont exch scalefont setfont } def
90.000 687
(.02) Stxtl
(.02) stringwidth pop xratio div
dup 4 3 roll exch 90.000 cos mul add 3 1 roll 90.000 sin mul add 2 copy
pop pop pop pop
3138 9903 2863 9903 Sln
2520 9903 0
/Helvetica-0 findfont 687 yratio mul scalefont setfont
(.04) stringwidth pop add
2 div xratio div
dup 4 3 roll exch 90.000 cos mul sub 3 1 roll 90.000 sin mul sub 2 copy
/fntsize {/Helvetica-0 findfont exch scalefont setfont } def
90.000 687
(.04) Stxtl
(.04) stringwidth pop xratio div
dup 4 3 roll exch 90.000 cos mul add 3 1 roll 90.000 sin mul add 2 copy
pop pop pop pop
3138 11008 2863 11008 Sln
2520 11008 0
/Helvetica-0 findfont 687 yratio mul scalefont setfont
(.06) stringwidth pop add
2 div xratio div
dup 4 3 roll exch 90.000 cos mul sub 3 1 roll 90.000 sin mul sub 2 copy
/fntsize {/Helvetica-0 findfont exch scalefont setfont } def
90.000 687
(.06) Stxtl
(.06) stringwidth pop xratio div
dup 4 3 roll exch 90.000 cos mul add 3 1 roll 90.000 sin mul add 2 copy
pop pop pop pop
3138 12112 2863 12112 Sln
2520 12112 0
/Helvetica-0 findfont 687 yratio mul scalefont setfont
(.08) stringwidth pop add
2 div xratio div
dup 4 3 roll exch 90.000 cos mul sub 3 1 roll 90.000 sin mul sub 2 copy
/fntsize {/Helvetica-0 findfont exch scalefont setfont } def
90.000 687
(.08) Stxtl
(.08) stringwidth pop xratio div
dup 4 3 roll exch 90.000 cos mul add 3 1 roll 90.000 sin mul add 2 copy
pop pop pop pop
17301 15616 30905 15616 Sln
17736 15616 17736 15342 Sln
17736 14723 0
/Helvetica-0 findfont 687 yratio mul scalefont setfont
(0) stringwidth pop add
2 div xratio div
dup 4 3 roll exch 0.000 cos mul sub 3 1 roll 0.000 sin mul sub 2 copy
/fntsize {/Helvetica-0 findfont exch scalefont setfont } def
0.000 687
(0) Stxtl
(0) stringwidth pop xratio div
dup 4 3 roll exch 0.000 cos mul add 3 1 roll 0.000 sin mul add 2 copy
pop pop pop pop
21526 15616 21526 15342 Sln
21526 14723 0
/Helvetica-0 findfont 687 yratio mul scalefont setfont
(50) stringwidth pop add
2 div xratio div
dup 4 3 roll exch 0.000 cos mul sub 3 1 roll 0.000 sin mul sub 2 copy
/fntsize {/Helvetica-0 findfont exch scalefont setfont } def
0.000 687
(50) Stxtl
(50) stringwidth pop xratio div
dup 4 3 roll exch 0.000 cos mul add 3 1 roll 0.000 sin mul add 2 copy
pop pop pop pop
25316 15616 25316 15342 Sln
25316 14723 0
/Helvetica-0 findfont 687 yratio mul scalefont setfont
(100) stringwidth pop add
2 div xratio div
dup 4 3 roll exch 0.000 cos mul sub 3 1 roll 0.000 sin mul sub 2 copy
/fntsize {/Helvetica-0 findfont exch scalefont setfont } def
0.000 687
(100) Stxtl
(100) stringwidth pop xratio div
dup 4 3 roll exch 0.000 cos mul add 3 1 roll 0.000 sin mul add 2 copy
pop pop pop pop
29106 15616 29106 15342 Sln
29106 14723 0
/Helvetica-0 findfont 687 yratio mul scalefont setfont
(150) stringwidth pop add
2 div xratio div
dup 4 3 roll exch 0.000 cos mul sub 3 1 roll 0.000 sin mul sub 2 copy
/fntsize {/Helvetica-0 findfont exch scalefont setfont } def
0.000 687
(150) Stxtl
(150) stringwidth pop xratio div
dup 4 3 roll exch 0.000 cos mul add 3 1 roll 0.000 sin mul add 2 copy
pop pop pop pop
3138 7260 16742 7260 Sln
3573 7260 3573 6985 Sln
3573 6367 0
/Helvetica-0 findfont 687 yratio mul scalefont setfont
(0) stringwidth pop add
2 div xratio div
dup 4 3 roll exch 0.000 cos mul sub 3 1 roll 0.000 sin mul sub 2 copy
/fntsize {/Helvetica-0 findfont exch scalefont setfont } def
0.000 687
(0) Stxtl
(0) stringwidth pop xratio div
dup 4 3 roll exch 0.000 cos mul add 3 1 roll 0.000 sin mul add 2 copy
pop pop pop pop
7363 7260 7363 6985 Sln
7363 6367 0
/Helvetica-0 findfont 687 yratio mul scalefont setfont
(50) stringwidth pop add
2 div xratio div
dup 4 3 roll exch 0.000 cos mul sub 3 1 roll 0.000 sin mul sub 2 copy
/fntsize {/Helvetica-0 findfont exch scalefont setfont } def
0.000 687
(50) Stxtl
(50) stringwidth pop xratio div
dup 4 3 roll exch 0.000 cos mul add 3 1 roll 0.000 sin mul add 2 copy
pop pop pop pop
11153 7260 11153 6985 Sln
11153 6367 0
/Helvetica-0 findfont 687 yratio mul scalefont setfont
(100) stringwidth pop add
2 div xratio div
dup 4 3 roll exch 0.000 cos mul sub 3 1 roll 0.000 sin mul sub 2 copy
/fntsize {/Helvetica-0 findfont exch scalefont setfont } def
0.000 687
(100) Stxtl
(100) stringwidth pop xratio div
dup 4 3 roll exch 0.000 cos mul add 3 1 roll 0.000 sin mul add 2 copy
pop pop pop pop
14943 7260 14943 6985 Sln
14943 6367 0
/Helvetica-0 findfont 687 yratio mul scalefont setfont
(150) stringwidth pop add
2 div xratio div
dup 4 3 roll exch 0.000 cos mul sub 3 1 roll 0.000 sin mul sub 2 copy
/fntsize {/Helvetica-0 findfont exch scalefont setfont } def
0.000 687
(150) Stxtl
(150) stringwidth pop xratio div
dup 4 3 roll exch 0.000 cos mul add 3 1 roll 0.000 sin mul add 2 copy
pop pop pop pop
/Ssrgb {0.851 0.902 0.922} def
/Slrgb {0.851 0.902 0.922} def
3138 21185 16742 22178 1 Srect
9940 21531 0
/Helvetica-0 findfont 756 yratio mul scalefont setfont
(2002) stringwidth pop add
2 div xratio div
dup 4 3 roll exch 0.000 cos mul sub 3 1 roll 0.000 sin mul sub 2 copy
/fntsize {/Helvetica-0 findfont exch scalefont setfont } def
0.000 756
(2002) Stxtl
(2002) stringwidth pop xratio div
dup 4 3 roll exch 0.000 cos mul add 3 1 roll 0.000 sin mul add 2 copy
pop pop pop pop
17301 21185 30905 22178 1 Srect
24103 21531 0
/Helvetica-0 findfont 756 yratio mul scalefont setfont
(2005) stringwidth pop add
2 div xratio div
dup 4 3 roll exch 0.000 cos mul sub 3 1 roll 0.000 sin mul sub 2 copy
/fntsize {/Helvetica-0 findfont exch scalefont setfont } def
0.000 756
(2005) Stxtl
(2005) stringwidth pop xratio div
dup 4 3 roll exch 0.000 cos mul add 3 1 roll 0.000 sin mul add 2 copy
pop pop pop pop
3138 12829 16742 13822 1 Srect
9940 13174 0
/Helvetica-0 findfont 756 yratio mul scalefont setfont
(2009) stringwidth pop add
2 div xratio div
dup 4 3 roll exch 0.000 cos mul sub 3 1 roll 0.000 sin mul sub 2 copy
/fntsize {/Helvetica-0 findfont exch scalefont setfont } def
0.000 756
(2009) Stxtl
(2009) stringwidth pop xratio div
dup 4 3 roll exch 0.000 cos mul add 3 1 roll 0.000 sin mul add 2 copy
pop pop pop pop
/Ssrgb {1.000 1.000 1.000} def
/Slw 0.576 def
/Slrgb {0.000 0.000 0.000} def
5144 2019 27663 4657 1 Srect
/Slw 0.864 def
/Slrgb {0.102 0.278 0.435} def
5493 3904 8518 3904 Sln
/Slrgb {0.565 0.208 0.231} def
15508 3904 18533 3904 Sln
/Slrgb {0.333 0.459 0.184} def
5493 2772 8518 2772 Sln
9003 3621 2 copy
/fntsize {/Helvetica-0 findfont exch scalefont setfont } def
0.000 808
(Agricult.) Stxtl
(Agricult.) stringwidth pop xratio div
dup 4 3 roll exch 0.000 cos mul add 3 1 roll 0.000 sin mul add 2 copy
pop pop pop pop
19018 3621 2 copy
/fntsize {/Helvetica-0 findfont exch scalefont setfont } def
0.000 808
(Employee \(non-agric.\)) Stxtl
(Employee \(non-agric.\)) stringwidth pop xratio div
dup 4 3 roll exch 0.000 cos mul add 3 1 roll 0.000 sin mul add 2 copy
pop pop pop pop
9003 2489 2 copy
/fntsize {/Helvetica-0 findfont exch scalefont setfont } def
0.000 808
(Self-employed) Stxtl
(Self-employed) stringwidth pop xratio div
dup 4 3 roll exch 0.000 cos mul add 3 1 roll 0.000 sin mul add 2 copy
pop pop pop pop
1381 14101 0
/Helvetica-0 findfont 808 yratio mul scalefont setfont
(kdensity workhrs_normal) stringwidth pop add
2 div xratio div
dup 4 3 roll exch 90.000 cos mul sub 3 1 roll 90.000 sin mul sub 2 copy
/fntsize {/Helvetica-0 findfont exch scalefont setfont } def
90.000 808
(kdensity workhrs_normal) Stxtl
(kdensity workhrs_normal) stringwidth pop xratio div
dup 4 3 roll exch 90.000 cos mul add 3 1 roll 90.000 sin mul add 2 copy
pop pop pop pop
16404 5178 0
/Helvetica-0 findfont 808 yratio mul scalefont setfont
(weekly usual workhours) stringwidth pop add
2 div xratio div
dup 4 3 roll exch 0.000 cos mul sub 3 1 roll 0.000 sin mul sub 2 copy
/fntsize {/Helvetica-0 findfont exch scalefont setfont } def
0.000 808
(weekly usual workhours) Stxtl
(weekly usual workhours) stringwidth pop xratio div
dup 4 3 roll exch 0.000 cos mul add 3 1 roll 0.000 sin mul add 2 copy
pop pop pop pop
1762 1148 2 copy
/fntsize {/Helvetica-0 findfont exch scalefont setfont } def
0.000 646
(Graphs by t) Stxtl
(Graphs by t) stringwidth pop xratio div
dup 4 3 roll exch 0.000 cos mul add 3 1 roll 0.000 sin mul add 2 copy
pop pop pop pop
S showpage
%%EOF
