%!PS-Adobe-2.0 EPSF-2.0
%% This is a Stata generated postscript file
%%BoundingBox: 0 0 396 288
%%HiResBoundingBox: 0.000 0.000 396.000 288.000
%%DocumentNeededResources: font Helvetica
/xratio 0.012375 def
/yratio 0.012375 def
/Sbgfill {
	/y1 exch def
	/x1 exch def
	/y0 exch def
	/x0 exch def
	x0 y0 moveto
	x0 y1 lineto x1 y1 lineto x1 y0 lineto x0 y0 lineto
	fill
} def
/Spt {
	yratio mul
	/yp exch def
	xratio mul
	/xp exch def
	Slrgb setrgbcolor
	newpath
	xp yp moveto
	xp Slw add yp
	lineto
	currentlinecap
	1 setlinecap
	stroke
	setlinecap
} def
/Sln {
	yratio mul
	/y1p exch def
	xratio mul
	/x1p exch def
	yratio mul
	/y0p exch def
	xratio mul
	/x0p exch def
	Slw setlinewidth
	Slrgb setrgbcolor
	x0p y0p M x1p y1p lineto S
} def
/Scrv {
	yratio mul
	/y3p exch def
	xratio mul
	/x3p exch def
	yratio mul
	/y2p exch def
	xratio mul
	/x2p exch def
	yratio mul
	/y1p exch def
	xratio mul
	/x1p exch def
	Slw setlinewidth
	Slrgb setrgbcolor
	x1p y1p x2p y2p x3p y3p curveto
	stroke
} def
/Stxtl {
	/sp exch def
	yratio mul
	/sizep exch def
	dup
	/anglep exch def
	0 exch sub
	/angle2p exch def
	yratio mul
	/y0p exch def
	xratio mul
	/x0p exch def
	Strgb setrgbcolor
	x0p y0p M anglep rotate sizep fntsize sp show stroke angle2p rotate
} def
/Stxtc {
	/sp exch def
	yratio mul
	/sizep exch def
	dup
	/anglep exch def
	0 exch sub
	/angle2p exch def
	yratio mul
	/y0p exch def
	xratio mul
	/x0p exch def
	Strgb setrgbcolor
	x0p y0p M anglep rotate sizep fntsize sp stringwidth exch -2 div exch rm sp show stroke angle2p rotate
} def
/Stxtr {
	/sp exch def
	yratio mul
	/sizep exch def
	dup
	/anglep exch def
	0 exch sub
	/angle2p exch def
	yratio mul
	/y0p exch def
	xratio mul
	/x0p exch def
	Strgb setrgbcolor
	x0p y0p M anglep rotate sizep fntsize sp stringwidth 1 index -1 mul exch rm pop sp show stroke angle2p rotate
} def
/Srect {
	/sfill exch def
	yratio mul
	/y1 exch def
	xratio mul
	/x1 exch def
	yratio mul
	/y0 exch def
	xratio mul
	/x0 exch def
	sfill 1 eq {
		Ssrgb setrgbcolor
		x0 y0 moveto
		x0 y1 lineto x1 y1 lineto x1 y0 lineto x0 y0 lineto
		fill
	} if
	Slw setlinewidth
	Slrgb setrgbcolor
	x0 y0 moveto
	x0 y1 lineto x1 y1 lineto x1 y0 lineto x0 y0 lineto
	stroke
} def
/Sellipse {
	/sfill exch def
	yratio mul
	/yrad exch def
	xratio mul
	/xrad exch def
	yratio mul
	/y exch def
	xratio mul
	/x exch def
	sfill 1 eq {
		Ssrgb setrgbcolor
		/savematrix matrix currentmatrix def
		x y translate
		xrad yrad scale
		0 0 1 0 360 arc
		savematrix setmatrix
		fill
	} if
	Slw setlinewidth
	Slrgb setrgbcolor
		/savematrix matrix currentmatrix def
		x y translate
		xrad yrad scale
		0 0 1 0 360 arc
		savematrix setmatrix
	stroke
} def
/Stri {
	/sfill exch def
	xratio mul
	/r exch def
	yratio mul
	/y0 exch def
	xratio mul
	/x0 exch def
	/xcen x0 def
	y0 r add
	/ytop exch def
	r 2 div
	y0 exch sub
	/ybot exch def
	r 3 sqrt 2 div mul dup
	xcen exch sub
	/xleft exch def
	xcen add
	/xright exch def
	sfill 1 eq {
		Ssrgb setrgbcolor
		xcen ytop moveto xright ybot lineto xleft ybot lineto xcen ytop lineto fill
	} if
	Slw setlinewidth
	Slrgb setrgbcolor
	xcen ytop moveto xright ybot lineto xleft ybot lineto xcen ytop lineto stroke
} def
/Soldtri {
	/sfill exch def
	xratio mul
	/r exch def
	yratio mul
	/y0 exch def
	xratio mul
	/x0 exch def
	x0 r sub
	/x1 exch def
	y0 r sub
	/y1 exch def
	x0 r add
	/x2 exch def
	y0 r sub
	/y2 exch def
	/x3 x0 def
	y0 r add
	/y3 exch def
	sfill 1 eq {
		Ssrgb setrgbcolor
		x1 y1 moveto x2 y2 lineto x3 y3 lineto x1 y1 lineto fill
	} if
	Slw setlinewidth
	Slrgb setrgbcolor
	x1 y1 moveto x2 y2 lineto x3 y3 lineto x1 y1 lineto stroke
} def
/Sdia {
	/sfill exch def
	xratio mul
	/r exch def
	yratio mul
	/y exch def
	xratio mul
	/x exch def
	x r sub
	/x0 exch def
	/y0 y def
	/x1 x def
	y r sub
	/y1 exch def
	x r add
	/x2 exch def
	/y2 y def
	/x3 x def
	y r add
	/y3 exch def
	sfill 1 eq  {
		Ssrgb setrgbcolor
		x0 y0 moveto x1 y1 lineto x2 y2 lineto x3 y3 lineto x0 y0 lineto fill
	} if
	Slw setlinewidth
	Slrgb setrgbcolor
	x0 y0 moveto x1 y1 lineto x2 y2 lineto x3 y3 lineto x0 y0 lineto stroke
} def
/Scc {
	/sfill exch def
	xratio mul
	/r0 exch def
	yratio mul
	/y0 exch def
	xratio mul
	/x0 exch def
	sfill 1 eq {
		Ssrgb setrgbcolor
		x0 y0 r0 0 360 arc fill
	} if
	Slw setlinewidth
	Slrgb setrgbcolor
	x0 y0 r0 0 360 arc stroke
} def
/Spie {
	/sfill exch def
	/a1 exch def
	/a0 exch def
	xratio mul
	/r exch def
	yratio mul
	/y exch def
	xratio mul
	/x exch def
	sfill 1 eq {
		Ssrgb setrgbcolor
		newpath x y moveto x y r a0 a1 arc closepath
		fill
	} if
	Slw setlinewidth
	Slrgb setrgbcolor
	newpath x y moveto x y r a0 a1 arc closepath
	stroke
} def
/Splu {
	xratio mul
	/r exch def
	yratio mul
	/y exch def
	xratio mul
	/x exch def
	x r sub
	/x0 exch def
	x r add
	/x1 exch def
	x0 y M x1 y L
	y r sub
	/y0 exch def
	y r add
	/y1 exch def
	x y0 M x y1 L
} def
/Scro {
	xratio mul
	/r exch def
	yratio mul
	/y exch def
	xratio mul
	/x exch def
	x r sub
	/x0 exch def
	y r sub
	/y0 exch def
	x r add
	/x1 exch def
	y r add
	/y1 exch def
	x0 y0 M x1 y1 L
	x r add
	/x0 exch def
	y r sub
	/y0 exch def
	x r sub
	/x1 exch def
	y r add
	/y1 exch def
	x0 y0 M x1 y1 L
} def
/Sm {
	yratio mul
	/y exch def
	xratio mul
	/x exch def
	x y M
} def
/Sl {
	yratio mul
	/y exch def
	xratio mul
	/x exch def
	x y L
} def
/SPl {
	yratio mul
	/y exch def
	xratio mul
	/x exch def
	x y PL
} def
/Lcs {
	currentlinecap
	1 setlinecap
} def
/Lcr {
	setlinecap
} def
/Sbp {
	newpath
} def
/Sep {
	/sfill exch def
	closepath
	sfill 1 eq  {
		Ssrgb setrgbcolor
		gsave
		fill
		grestore
	} if
	Slw setlinewidth
	Slrgb setrgbcolor
	Lcs
	stroke
	Lcr
} def
/cp {currentpoint} def 
/M {moveto} def 
/rm {rmoveto} def 
/S {stroke} def 
/L {Slw setlinewidth Slrgb setrgbcolor lineto Lcs S Lcr} def 
/PL {Slw setlinewidth Slrgb setrgbcolor lineto} def 
/MF-Helvetica {
  /newfontname exch def
  /fontname exch def
  /fontdict fontname findfont def
  /newfont fontdict maxlength dict def
  fontdict {
  exch dup /FID eq {pop pop} {exch newfont 3 1 roll put} ifelse
  } forall
  newfont /FontName newfontname put
  newfont /Encoding ISOLatin1Encoding put
  newfontname newfont definefont pop
} def
/Helvetica /Helvetica-0 MF-Helvetica
/Slw 0.120 def
0.918 0.949 0.953 setrgbcolor
0 0 396.000 288.000 Sbgfill
/Slrgb {1.000 1.000 1.000} def
/Strgb {1.000 1.000 1.000} def
/Ssrgb {1.000 1.000 1.000} def
/Ssrgb {0.918 0.949 0.953} def
/Slw 0.576 def
/Slrgb {0.918 0.949 0.953} def
0 0 31999 23272 1 Srect
/Ssrgb {1.000 1.000 1.000} def
/Slw 0.490 def
/Slrgb {1.000 1.000 1.000} def
3138 15616 16742 21185 1 Srect
/Slrgb {0.000 0.000 0.000} def
/Strgb {0.000 0.000 0.000} def
/Slw 0.734 def
/Slrgb {0.918 0.949 0.953} def
3138 16052 16742 16052 Sln
/Slw 0.490 def
/Slrgb {0.000 0.000 0.000} def
/Slw 0.734 def
/Slrgb {0.918 0.949 0.953} def
3138 17226 16742 17226 Sln
/Slw 0.490 def
/Slrgb {0.000 0.000 0.000} def
/Slw 0.734 def
/Slrgb {0.918 0.949 0.953} def
3138 18401 16742 18401 Sln
/Slw 0.490 def
/Slrgb {0.000 0.000 0.000} def
/Slw 0.734 def
/Slrgb {0.918 0.949 0.953} def
3138 19575 16742 19575 Sln
/Slw 0.490 def
/Slrgb {0.000 0.000 0.000} def
/Slw 0.734 def
/Slrgb {0.918 0.949 0.953} def
3138 20750 16742 20750 Sln
/Slw 0.490 def
/Slrgb {0.000 0.000 0.000} def
/Slrgb {1.000 1.000 1.000} def
17301 15616 30905 21185 1 Srect
/Slrgb {0.000 0.000 0.000} def
/Slw 0.734 def
/Slrgb {0.918 0.949 0.953} def
17301 16052 30905 16052 Sln
/Slw 0.490 def
/Slrgb {0.000 0.000 0.000} def
/Slw 0.734 def
/Slrgb {0.918 0.949 0.953} def
17301 17226 30905 17226 Sln
/Slw 0.490 def
/Slrgb {0.000 0.000 0.000} def
/Slw 0.734 def
/Slrgb {0.918 0.949 0.953} def
17301 18401 30905 18401 Sln
/Slw 0.490 def
/Slrgb {0.000 0.000 0.000} def
/Slw 0.734 def
/Slrgb {0.918 0.949 0.953} def
17301 19575 30905 19575 Sln
/Slw 0.490 def
/Slrgb {0.000 0.000 0.000} def
/Slw 0.734 def
/Slrgb {0.918 0.949 0.953} def
17301 20750 30905 20750 Sln
/Slw 0.490 def
/Slrgb {0.000 0.000 0.000} def
/Slrgb {1.000 1.000 1.000} def
3138 7260 16742 12829 1 Srect
/Slrgb {0.000 0.000 0.000} def
/Slw 0.734 def
/Slrgb {0.918 0.949 0.953} def
3138 7695 16742 7695 Sln
/Slw 0.490 def
/Slrgb {0.000 0.000 0.000} def
/Slw 0.734 def
/Slrgb {0.918 0.949 0.953} def
3138 8869 16742 8869 Sln
/Slw 0.490 def
/Slrgb {0.000 0.000 0.000} def
/Slw 0.734 def
/Slrgb {0.918 0.949 0.953} def
3138 10044 16742 10044 Sln
/Slw 0.490 def
/Slrgb {0.000 0.000 0.000} def
/Slw 0.734 def
/Slrgb {0.918 0.949 0.953} def
3138 11219 16742 11219 Sln
/Slw 0.490 def
/Slrgb {0.000 0.000 0.000} def
/Slw 0.734 def
/Slrgb {0.918 0.949 0.953} def
3138 12393 16742 12393 Sln
/Slw 0.490 def
/Slrgb {0.000 0.000 0.000} def
/Slw 0.734 def
/Slrgb {0.102 0.278 0.435} def
3573 16167 Sm
3609 16176 Sl
3609 16176 Sm
3646 16185 Sl
3646 16185 Sm
3682 16194 Sl
3682 16194 Sm
3719 16202 Sl
3719 16202 Sm
3755 16209 Sl
3755 16209 Sm
3792 16222 Sl
3792 16222 Sm
3828 16231 Sl
3828 16231 Sm
3865 16239 Sl
3865 16239 Sm
3901 16243 Sl
3901 16243 Sm
3938 16249 Sl
3938 16249 Sm
3974 16250 Sl
3974 16250 Sm
4011 16250 Sl
4011 16250 Sm
4047 16259 Sl
4047 16259 Sm
4084 16271 Sl
4084 16271 Sm
4120 16280 Sl
4120 16280 Sm
4157 16286 Sl
4157 16286 Sm
4193 16289 Sl
4193 16289 Sm
4230 16291 Sl
4230 16291 Sm
4266 16291 Sl
4266 16291 Sm
4303 16291 Sl
4303 16291 Sm
4339 16290 Sl
4339 16290 Sm
4376 16289 Sl
4376 16289 Sm
4412 16289 Sl
4412 16289 Sm
4449 16284 Sl
4449 16284 Sm
4485 16279 Sl
4485 16279 Sm
4522 16277 Sl
4522 16277 Sm
4558 16280 Sl
4558 16280 Sm
4595 16280 Sl
4595 16280 Sm
4631 16281 Sl
4631 16281 Sm
4668 16287 Sl
4668 16287 Sm
4704 16302 Sl
4704 16302 Sm
4741 16315 Sl
4741 16315 Sm
4777 16334 Sl
4777 16334 Sm
4814 16351 Sl
4814 16351 Sm
4850 16364 Sl
4850 16364 Sm
4887 16371 Sl
4887 16371 Sm
4923 16373 Sl
4923 16373 Sm
4960 16376 Sl
4960 16376 Sm
4996 16399 Sl
4996 16399 Sm
5033 16416 Sl
5033 16416 Sm
5069 16439 Sl
5069 16439 Sm
5106 16460 Sl
5106 16460 Sm
5142 16472 Sl
5142 16472 Sm
5179 16482 Sl
5179 16482 Sm
5215 16488 Sl
5215 16488 Sm
5252 16492 Sl
5252 16492 Sm
5289 16495 Sl
5289 16495 Sm
5325 16493 Sl
5325 16493 Sm
5362 16483 Sl
5362 16483 Sm
5398 16475 Sl
5398 16475 Sm
5435 16493 Sl
5435 16493 Sm
5471 16524 Sl
5471 16524 Sm
5508 16544 Sl
5508 16544 Sm
5544 16566 Sl
5544 16566 Sm
5581 16585 Sl
5581 16585 Sm
5617 16603 Sl
5617 16603 Sm
5654 16616 Sl
5654 16616 Sm
5690 16620 Sl
5690 16620 Sm
5727 16614 Sl
5727 16614 Sm
5763 16600 Sl
5763 16600 Sm
5800 16579 Sl
5800 16579 Sm
5836 16579 Sl
5836 16579 Sm
5873 16591 Sl
5873 16591 Sm
5909 16649 Sl
5909 16649 Sm
5946 16704 Sl
5946 16704 Sm
5982 16744 Sl
5982 16744 Sm
6019 16770 Sl
6019 16770 Sm
6055 16785 Sl
6055 16785 Sm
6092 16789 Sl
6092 16789 Sm
6128 16780 Sl
6128 16780 Sm
6165 16767 Sl
6165 16767 Sm
6201 16816 Sl
6201 16816 Sm
6238 16867 Sl
6238 16867 Sm
6274 16895 Sl
6274 16895 Sm
6311 16952 Sl
6311 16952 Sm
6347 17034 Sl
6347 17034 Sm
6384 17119 Sl
6384 17119 Sm
6420 17184 Sl
6420 17184 Sm
6457 17230 Sl
6457 17230 Sm
6493 17261 Sl
6493 17261 Sm
6530 17275 Sl
6530 17275 Sm
6566 17278 Sl
6566 17278 Sm
6603 17274 Sl
6603 17274 Sm
6639 17247 Sl
6639 17247 Sm
6676 17212 Sl
6676 17212 Sm
6712 17167 Sl
6712 17167 Sm
6749 17126 Sl
6749 17126 Sm
6785 17162 Sl
6785 17162 Sm
6822 17462 Sl
6822 17462 Sm
6858 17716 Sl
6858 17716 Sm
6895 17935 Sl
6895 17935 Sm
6931 18110 Sl
6931 18110 Sm
6968 18272 Sl
6968 18272 Sm
7004 18384 Sl
7004 18384 Sm
7041 18455 Sl
7041 18455 Sm
7077 18569 Sl
7077 18569 Sm
7114 18644 Sl
7114 18644 Sm
7150 18677 Sl
7150 18677 Sm
7187 18665 Sl
7187 18665 Sm
7223 18668 Sl
7223 18668 Sm
7260 18652 Sl
7260 18652 Sm
7296 18602 Sl
7296 18602 Sm
7333 18514 Sl
7333 18514 Sm
7369 18392 Sl
7369 18392 Sm
7406 18251 Sl
7406 18251 Sm
7442 18104 Sl
7442 18104 Sm
7479 17924 Sl
7479 17924 Sm
7515 17705 Sl
7515 17705 Sm
7552 17445 Sl
7552 17445 Sm
7588 17145 Sl
7588 17145 Sm
7625 16803 Sl
7625 16803 Sm
7661 16606 Sl
7661 16606 Sm
7698 16593 Sl
7698 16593 Sm
7734 16625 Sl
7734 16625 Sm
7771 16650 Sl
7771 16650 Sm
7807 16673 Sl
7807 16673 Sm
7844 16709 Sl
7844 16709 Sm
7880 16735 Sl
7880 16735 Sm
7917 16749 Sl
7917 16749 Sm
7953 16768 Sl
7953 16768 Sm
7990 16778 Sl
7990 16778 Sm
8026 16780 Sl
8026 16780 Sm
8063 16768 Sl
8063 16768 Sm
8099 16748 Sl
8099 16748 Sm
8136 16740 Sl
8136 16740 Sm
8172 16727 Sl
8172 16727 Sm
8209 16705 Sl
8209 16705 Sm
8245 16670 Sl
8245 16670 Sm
8282 16655 Sl
8282 16655 Sm
8318 16634 Sl
8318 16634 Sm
8355 16605 Sl
8355 16605 Sm
8391 16567 Sl
8391 16567 Sm
8428 16518 Sl
8428 16518 Sm
8464 16476 Sl
8464 16476 Sm
8501 16439 Sl
8501 16439 Sm
8537 16391 Sl
8537 16391 Sm
8574 16374 Sl
8574 16374 Sm
8610 16389 Sl
8610 16389 Sm
8647 16412 Sl
8647 16412 Sm
8683 16427 Sl
8683 16427 Sm
8720 16436 Sl
8720 16436 Sm
8756 16438 Sl
8756 16438 Sm
8793 16437 Sl
8793 16437 Sm
8829 16440 Sl
8829 16440 Sm
8866 16437 Sl
8866 16437 Sm
8902 16432 Sl
8902 16432 Sm
8939 16422 Sl
8939 16422 Sm
8975 16412 Sl
8975 16412 Sm
9012 16402 Sl
9012 16402 Sm
9048 16395 Sl
9048 16395 Sm
9085 16384 Sl
9085 16384 Sm
9121 16368 Sl
9121 16368 Sm
9158 16347 Sl
9158 16347 Sm
9194 16321 Sl
9194 16321 Sm
9231 16295 Sl
9231 16295 Sm
9267 16265 Sl
9267 16265 Sm
9304 16229 Sl
9304 16229 Sm
9340 16215 Sl
9340 16215 Sm
9377 16204 Sl
9377 16204 Sm
9413 16192 Sl
9413 16192 Sm
9450 16175 Sl
9450 16175 Sm
9486 16173 Sl
9486 16173 Sm
9523 16182 Sl
9523 16182 Sm
9560 16198 Sl
9560 16198 Sm
9596 16210 Sl
9596 16210 Sm
9633 16220 Sl
9633 16220 Sm
9669 16227 Sl
9669 16227 Sm
9706 16230 Sl
9706 16230 Sm
9742 16230 Sl
9742 16230 Sm
9779 16227 Sl
9779 16227 Sm
9815 16222 Sl
9815 16222 Sm
9852 16216 Sl
9852 16216 Sm
9888 16210 Sl
9888 16210 Sm
9925 16202 Sl
9925 16202 Sm
9961 16193 Sl
9961 16193 Sm
9998 16190 Sl
9998 16190 Sm
10034 16184 Sl
10034 16184 Sm
10071 16177 Sl
10071 16177 Sm
10107 16175 Sl
10107 16175 Sm
10144 16172 Sl
10144 16172 Sm
10180 16167 Sl
10180 16167 Sm
10217 16160 Sl
10217 16160 Sm
10253 16153 Sl
10253 16153 Sm
10290 16144 Sl
10290 16144 Sm
10326 16133 Sl
10326 16133 Sm
10363 16120 Sl
10363 16120 Sm
10399 16117 Sl
10399 16117 Sm
10436 16121 Sl
10436 16121 Sm
10472 16131 Sl
10472 16131 Sm
10509 16138 Sl
10509 16138 Sm
10545 16144 Sl
10545 16144 Sm
10582 16149 Sl
10582 16149 Sm
10618 16151 Sl
10618 16151 Sm
10655 16152 Sl
10655 16152 Sm
10691 16151 Sl
10691 16151 Sm
10728 16149 Sl
10728 16149 Sm
10764 16145 Sl
10764 16145 Sm
10801 16139 Sl
10801 16139 Sm
10837 16133 Sl
10837 16133 Sm
10874 16132 Sl
10874 16132 Sm
10910 16132 Sl
10910 16132 Sm
10947 16132 Sl
10947 16132 Sm
10983 16130 Sl
10983 16130 Sm
11020 16128 Sl
11020 16128 Sm
11056 16124 Sl
11056 16124 Sm
11093 16120 Sl
11093 16120 Sm
11129 16113 Sl
11129 16113 Sm
11166 16106 Sl
11166 16106 Sm
11202 16097 Sl
11202 16097 Sm
11239 16086 Sl
11239 16086 Sm
11275 16075 Sl
11275 16075 Sm
11312 16072 Sl
11312 16072 Sm
11348 16073 Sl
11348 16073 Sm
11385 16074 Sl
11385 16074 Sm
11421 16075 Sl
11421 16075 Sm
11458 16076 Sl
11458 16076 Sm
11494 16077 Sl
11494 16077 Sm
11531 16077 Sl
11531 16077 Sm
11567 16077 Sl
11567 16077 Sm
11604 16076 Sl
11604 16076 Sm
11640 16075 Sl
11640 16075 Sm
11677 16074 Sl
11677 16074 Sm
11713 16073 Sl
11713 16073 Sm
11750 16072 Sl
11750 16072 Sm
11786 16072 Sl
11786 16072 Sm
11823 16073 Sl
11823 16073 Sm
11859 16073 Sl
11859 16073 Sm
11896 16072 Sl
11896 16072 Sm
11932 16072 Sl
11932 16072 Sm
11969 16070 Sl
11969 16070 Sm
12005 16069 Sl
12005 16069 Sm
12042 16067 Sl
12042 16067 Sm
12078 16065 Sl
12078 16065 Sm
12115 16064 Sl
12115 16064 Sm
12151 16062 Sl
12151 16062 Sm
12188 16059 Sl
12188 16059 Sm
12224 16059 Sl
12224 16059 Sm
12261 16060 Sl
12261 16060 Sm
12297 16060 Sl
12297 16060 Sm
12334 16060 Sl
12334 16060 Sm
12370 16059 Sl
12370 16059 Sm
12407 16059 Sl
12407 16059 Sm
12443 16058 Sl
12443 16058 Sm
12480 16057 Sl
12480 16057 Sm
12516 16057 Sl
12516 16057 Sm
12553 16057 Sl
12553 16057 Sm
12589 16058 Sl
12589 16058 Sm
12626 16059 Sl
12626 16059 Sm
12662 16059 Sl
12662 16059 Sm
12699 16060 Sl
12699 16060 Sm
12735 16060 Sl
12735 16060 Sm
12772 16060 Sl
12772 16060 Sm
12808 16059 Sl
12808 16059 Sm
12845 16059 Sl
12845 16059 Sm
12881 16058 Sl
12881 16058 Sm
12918 16058 Sl
12918 16058 Sm
12954 16057 Sl
12954 16057 Sm
12991 16057 Sl
12991 16057 Sm
13027 16057 Sl
13027 16057 Sm
13064 16057 Sl
13064 16057 Sm
13100 16056 Sl
13100 16056 Sm
13137 16056 Sl
13137 16056 Sm
13173 16056 Sl
13173 16056 Sm
13210 16057 Sl
13210 16057 Sm
13246 16057 Sl
13246 16057 Sm
13283 16057 Sl
13283 16057 Sm
13319 16057 Sl
13319 16057 Sm
13356 16057 Sl
13356 16057 Sm
13392 16056 Sl
13392 16056 Sm
13429 16056 Sl
13429 16056 Sm
13465 16057 Sl
13465 16057 Sm
13502 16058 Sl
13502 16058 Sm
13538 16059 Sl
13538 16059 Sm
13575 16060 Sl
13575 16060 Sm
13611 16061 Sl
13611 16061 Sm
13648 16061 Sl
13648 16061 Sm
13684 16061 Sl
13684 16061 Sm
13721 16062 Sl
13721 16062 Sm
13758 16061 Sl
13758 16061 Sm
13794 16061 Sl
13794 16061 Sm
13831 16061 Sl
13831 16061 Sm
13867 16060 Sl
13867 16060 Sm
13904 16060 Sl
13904 16060 Sm
13940 16059 Sl
13940 16059 Sm
13977 16058 Sl
13977 16058 Sm
14013 16056 Sl
14013 16056 Sm
14050 16056 Sl
14050 16056 Sm
14086 16056 Sl
14086 16056 Sm
14123 16057 Sl
14123 16057 Sm
14159 16057 Sl
14159 16057 Sm
14196 16057 Sl
14196 16057 Sm
14232 16057 Sl
14232 16057 Sm
14269 16057 Sl
14269 16057 Sm
14305 16056 Sl
14305 16056 Sm
14342 16056 Sl
14342 16056 Sm
14378 16057 Sl
14378 16057 Sm
14415 16057 Sl
14415 16057 Sm
14451 16057 Sl
14451 16057 Sm
14488 16057 Sl
/Slrgb {0.565 0.208 0.231} def
3573 16242 Sm
3607 16246 Sl
3607 16246 Sm
3641 16246 Sl
3641 16246 Sm
3675 16244 Sl
3675 16244 Sm
3709 16237 Sl
3709 16237 Sm
3743 16231 Sl
3743 16231 Sm
3777 16219 Sl
3777 16219 Sm
3811 16204 Sl
3811 16204 Sm
3845 16183 Sl
3845 16183 Sm
3879 16165 Sl
3879 16165 Sm
3912 16171 Sl
3912 16171 Sm
3946 16187 Sl
3946 16187 Sm
3980 16202 Sl
3980 16202 Sm
4014 16215 Sl
4014 16215 Sm
4048 16231 Sl
4048 16231 Sm
4082 16242 Sl
4082 16242 Sm
4116 16249 Sl
4116 16249 Sm
4150 16252 Sl
4150 16252 Sm
4184 16255 Sl
4184 16255 Sm
4218 16258 Sl
4218 16258 Sm
4252 16256 Sl
4252 16256 Sm
4286 16251 Sl
4286 16251 Sm
4320 16242 Sl
4320 16242 Sm
4354 16231 Sl
4354 16231 Sm
4388 16221 Sl
4388 16221 Sm
4422 16209 Sl
4422 16209 Sm
4456 16196 Sl
4456 16196 Sm
4490 16182 Sl
4490 16182 Sm
4524 16179 Sl
4524 16179 Sm
4558 16177 Sl
4558 16177 Sm
4592 16174 Sl
4592 16174 Sm
4626 16171 Sl
4626 16171 Sm
4660 16176 Sl
4660 16176 Sm
4694 16182 Sl
4694 16182 Sm
4728 16186 Sl
4728 16186 Sm
4762 16187 Sl
4762 16187 Sm
4796 16202 Sl
4796 16202 Sm
4830 16225 Sl
4830 16225 Sm
4864 16245 Sl
4864 16245 Sm
4898 16259 Sl
4898 16259 Sm
4932 16268 Sl
4932 16268 Sm
4966 16274 Sl
4966 16274 Sm
5000 16274 Sl
5000 16274 Sm
5033 16270 Sl
5033 16270 Sm
5067 16264 Sl
5067 16264 Sm
5101 16270 Sl
5101 16270 Sm
5135 16278 Sl
5135 16278 Sm
5169 16299 Sl
5169 16299 Sm
5203 16325 Sl
5203 16325 Sm
5237 16341 Sl
5237 16341 Sm
5271 16353 Sl
5271 16353 Sm
5305 16362 Sl
5305 16362 Sm
5339 16364 Sl
5339 16364 Sm
5373 16357 Sl
5373 16357 Sm
5407 16348 Sl
5407 16348 Sm
5441 16358 Sl
5441 16358 Sm
5475 16360 Sl
5475 16360 Sm
5509 16355 Sl
5509 16355 Sm
5543 16364 Sl
5543 16364 Sm
5577 16392 Sl
5577 16392 Sm
5611 16409 Sl
5611 16409 Sm
5645 16412 Sl
5645 16412 Sm
5679 16403 Sl
5679 16403 Sm
5713 16388 Sl
5713 16388 Sm
5747 16380 Sl
5747 16380 Sm
5781 16362 Sl
5781 16362 Sm
5815 16363 Sl
5815 16363 Sm
5849 16364 Sl
5849 16364 Sm
5883 16360 Sl
5883 16360 Sm
5917 16360 Sl
5917 16360 Sm
5951 16379 Sl
5951 16379 Sm
5985 16390 Sl
5985 16390 Sm
6019 16413 Sl
6019 16413 Sm
6053 16430 Sl
6053 16430 Sm
6087 16435 Sl
6087 16435 Sm
6121 16428 Sl
6121 16428 Sm
6154 16410 Sl
6154 16410 Sm
6188 16416 Sl
6188 16416 Sm
6222 16431 Sl
6222 16431 Sm
6256 16438 Sl
6256 16438 Sm
6290 16466 Sl
6290 16466 Sm
6324 16680 Sl
6324 16680 Sm
6358 16862 Sl
6358 16862 Sm
6392 17012 Sl
6392 17012 Sm
6426 17128 Sl
6426 17128 Sm
6460 17245 Sl
6460 17245 Sm
6494 17342 Sl
6494 17342 Sm
6528 17399 Sl
6528 17399 Sm
6562 17440 Sl
6562 17440 Sm
6596 17472 Sl
6596 17472 Sm
6630 17505 Sl
6630 17505 Sm
6664 17518 Sl
6664 17518 Sm
6698 17590 Sl
6698 17590 Sm
6732 17620 Sl
6732 17620 Sm
6766 17612 Sl
6766 17612 Sm
6800 17564 Sl
6800 17564 Sm
6834 17473 Sl
6834 17473 Sm
6868 17339 Sl
6868 17339 Sm
6902 17328 Sl
6902 17328 Sm
6936 17765 Sl
6936 17765 Sm
6970 18259 Sl
6970 18259 Sm
7004 18672 Sl
7004 18672 Sm
7038 18994 Sl
7038 18994 Sm
7072 19307 Sl
7072 19307 Sm
7106 19587 Sl
7106 19587 Sm
7140 19779 Sl
7140 19779 Sm
7174 19877 Sl
7174 19877 Sm
7208 19879 Sl
7208 19879 Sm
7241 19805 Sl
7241 19805 Sm
7275 19656 Sl
7275 19656 Sm
7309 19436 Sl
7309 19436 Sm
7343 19210 Sl
7343 19210 Sm
7377 18947 Sl
7377 18947 Sm
7411 18615 Sl
7411 18615 Sm
7445 18214 Sl
7445 18214 Sm
7479 17739 Sl
7479 17739 Sm
7513 17197 Sl
7513 17197 Sm
7547 16924 Sl
7547 16924 Sm
7581 16920 Sl
7581 16920 Sm
7615 16893 Sl
7615 16893 Sm
7649 16845 Sl
7649 16845 Sm
7683 16781 Sl
7683 16781 Sm
7717 16796 Sl
7717 16796 Sm
7751 16792 Sl
7751 16792 Sm
7785 16778 Sl
7785 16778 Sm
7819 16812 Sl
7819 16812 Sm
7853 16888 Sl
7853 16888 Sm
7887 16937 Sl
7887 16937 Sm
7921 16958 Sl
7921 16958 Sm
7955 16949 Sl
7955 16949 Sm
7989 16918 Sl
7989 16918 Sm
8023 16908 Sl
8023 16908 Sm
8057 16883 Sl
8057 16883 Sm
8091 16863 Sl
8091 16863 Sm
8125 16827 Sl
8125 16827 Sm
8159 16808 Sl
8159 16808 Sm
8193 16790 Sl
8193 16790 Sm
8227 16759 Sl
8227 16759 Sm
8261 16714 Sl
8261 16714 Sm
8295 16664 Sl
8295 16664 Sm
8329 16602 Sl
8329 16602 Sm
8362 16520 Sl
8362 16520 Sm
8396 16419 Sl
8396 16419 Sm
8430 16304 Sl
8430 16304 Sm
8464 16273 Sl
8464 16273 Sm
8498 16271 Sl
8498 16271 Sm
8532 16267 Sl
8532 16267 Sm
8566 16267 Sl
8566 16267 Sm
8600 16300 Sl
8600 16300 Sm
8634 16324 Sl
8634 16324 Sm
8668 16339 Sl
8668 16339 Sm
8702 16356 Sl
8702 16356 Sm
8736 16405 Sl
8736 16405 Sm
8770 16462 Sl
8770 16462 Sm
8804 16506 Sl
8804 16506 Sm
8838 16541 Sl
8838 16541 Sm
8872 16564 Sl
8872 16564 Sm
8906 16578 Sl
8906 16578 Sm
8940 16588 Sl
8940 16588 Sm
8974 16588 Sl
8974 16588 Sm
9008 16574 Sl
9008 16574 Sm
9042 16549 Sl
9042 16549 Sm
9076 16517 Sl
9076 16517 Sm
9110 16479 Sl
9110 16479 Sm
9144 16433 Sl
9144 16433 Sm
9178 16376 Sl
9178 16376 Sm
9212 16332 Sl
9212 16332 Sm
9246 16307 Sl
9246 16307 Sm
9280 16272 Sl
9280 16272 Sm
9314 16229 Sl
9314 16229 Sm
9348 16186 Sl
9348 16186 Sm
9382 16195 Sl
9382 16195 Sm
9416 16202 Sl
9416 16202 Sm
9449 16207 Sl
9449 16207 Sm
9483 16208 Sl
9483 16208 Sm
9517 16207 Sl
9517 16207 Sm
9551 16202 Sl
9551 16202 Sm
9585 16195 Sl
9585 16195 Sm
9619 16186 Sl
9619 16186 Sm
9653 16211 Sl
9653 16211 Sm
9687 16234 Sl
9687 16234 Sm
9721 16248 Sl
9721 16248 Sm
9755 16263 Sl
9755 16263 Sm
9789 16273 Sl
9789 16273 Sm
9823 16282 Sl
9823 16282 Sm
9857 16288 Sl
9857 16288 Sm
9891 16289 Sl
9891 16289 Sm
9925 16283 Sl
9925 16283 Sm
9959 16274 Sl
9959 16274 Sm
9993 16270 Sl
9993 16270 Sm
10027 16260 Sl
10027 16260 Sm
10061 16245 Sl
10061 16245 Sm
10095 16228 Sl
10095 16228 Sm
10129 16209 Sl
10129 16209 Sm
10163 16185 Sl
10163 16185 Sm
10197 16159 Sl
10197 16159 Sm
10231 16127 Sl
10231 16127 Sm
10265 16099 Sl
10265 16099 Sm
10299 16102 Sl
10299 16102 Sm
10333 16105 Sl
10333 16105 Sm
10367 16107 Sl
10367 16107 Sm
10401 16107 Sl
10401 16107 Sm
10435 16107 Sl
10435 16107 Sm
10469 16105 Sl
10469 16105 Sm
10503 16103 Sl
10503 16103 Sm
10537 16101 Sl
10537 16101 Sm
10570 16101 Sl
10570 16101 Sm
10604 16100 Sl
10604 16100 Sm
10638 16098 Sl
10638 16098 Sm
10672 16093 Sl
10672 16093 Sm
10706 16088 Sl
10706 16088 Sm
10740 16085 Sl
10740 16085 Sm
10774 16082 Sl
10774 16082 Sm
10808 16080 Sl
10808 16080 Sm
10842 16079 Sl
10842 16079 Sm
10876 16077 Sl
10876 16077 Sm
10910 16076 Sl
10910 16076 Sm
10944 16074 Sl
10944 16074 Sm
10978 16073 Sl
10978 16073 Sm
11012 16072 Sl
11012 16072 Sm
11046 16070 Sl
11046 16070 Sm
11080 16069 Sl
11080 16069 Sm
11114 16066 Sl
11114 16066 Sm
11148 16064 Sl
11148 16064 Sm
11182 16064 Sl
11182 16064 Sm
11216 16065 Sl
11216 16065 Sm
11250 16067 Sl
11250 16067 Sm
11284 16068 Sl
11284 16068 Sm
11318 16069 Sl
11318 16069 Sm
11352 16069 Sl
11352 16069 Sm
11386 16069 Sl
11386 16069 Sm
11420 16069 Sl
11420 16069 Sm
11454 16068 Sl
11454 16068 Sm
11488 16068 Sl
11488 16068 Sm
11522 16067 Sl
11522 16067 Sm
11556 16067 Sl
11556 16067 Sm
11590 16066 Sl
11590 16066 Sm
11624 16065 Sl
11624 16065 Sm
11657 16064 Sl
11657 16064 Sm
11691 16062 Sl
11691 16062 Sm
11725 16061 Sl
11725 16061 Sm
11759 16059 Sl
11759 16059 Sm
11793 16057 Sl
11793 16057 Sm
11827 16057 Sl
11827 16057 Sm
11861 16057 Sl
11861 16057 Sm
11895 16056 Sl
11895 16056 Sm
11929 16055 Sl
11929 16055 Sm
11963 16054 Sl
11963 16054 Sm
11997 16053 Sl
11997 16053 Sm
12031 16052 Sl
12031 16052 Sm
12065 16051 Sl
12065 16051 Sm
12099 16051 Sl
12099 16051 Sm
12133 16051 Sl
12133 16051 Sm
12167 16051 Sl
12167 16051 Sm
12201 16051 Sl
12201 16051 Sm
12235 16051 Sl
12235 16051 Sm
12269 16051 Sl
12269 16051 Sm
12303 16051 Sl
12303 16051 Sm
12337 16051 Sl
12337 16051 Sm
12371 16052 Sl
12371 16052 Sm
12405 16053 Sl
12405 16053 Sm
12439 16054 Sl
12439 16054 Sm
12473 16055 Sl
12473 16055 Sm
12507 16056 Sl
12507 16056 Sm
12541 16057 Sl
12541 16057 Sm
12575 16057 Sl
12575 16057 Sm
12609 16058 Sl
12609 16058 Sm
12643 16058 Sl
12643 16058 Sm
12677 16058 Sl
12677 16058 Sm
12711 16058 Sl
12711 16058 Sm
12745 16058 Sl
12745 16058 Sm
12778 16057 Sl
12778 16057 Sm
12812 16057 Sl
12812 16057 Sm
12846 16056 Sl
12846 16056 Sm
12880 16055 Sl
12880 16055 Sm
12914 16054 Sl
12914 16054 Sm
12948 16053 Sl
12948 16053 Sm
12982 16051 Sl
12982 16051 Sm
13016 16051 Sl
13016 16051 Sm
13050 16051 Sl
13050 16051 Sm
13084 16051 Sl
13084 16051 Sm
13118 16051 Sl
13118 16051 Sm
13152 16051 Sl
13152 16051 Sm
13186 16051 Sl
13186 16051 Sm
13220 16051 Sl
13220 16051 Sm
13254 16051 Sl
13254 16051 Sm
13288 16051 Sl
13288 16051 Sm
13322 16051 Sl
13322 16051 Sm
13356 16051 Sl
13356 16051 Sm
13390 16051 Sl
13390 16051 Sm
13424 16051 Sl
13424 16051 Sm
13458 16052 Sl
13458 16052 Sm
13492 16053 Sl
13492 16053 Sm
13526 16053 Sl
13526 16053 Sm
13560 16053 Sl
13560 16053 Sm
13594 16054 Sl
13594 16054 Sm
13628 16054 Sl
13628 16054 Sm
13662 16054 Sl
13662 16054 Sm
13696 16054 Sl
13696 16054 Sm
13730 16054 Sl
/Slrgb {0.333 0.459 0.184} def
3573 16286 Sm
3604 16295 Sl
3604 16295 Sm
3636 16306 Sl
3636 16306 Sm
3668 16315 Sl
3668 16315 Sm
3700 16325 Sl
3700 16325 Sm
3731 16333 Sl
3731 16333 Sm
3763 16343 Sl
3763 16343 Sm
3795 16353 Sl
3795 16353 Sm
3826 16360 Sl
3826 16360 Sm
3858 16366 Sl
3858 16366 Sm
3890 16369 Sl
3890 16369 Sm
3921 16375 Sl
3921 16375 Sm
3953 16380 Sl
3953 16380 Sm
3985 16382 Sl
3985 16382 Sm
4016 16381 Sl
4016 16381 Sm
4048 16377 Sl
4048 16377 Sm
4080 16373 Sl
4080 16373 Sm
4111 16366 Sl
4111 16366 Sm
4143 16359 Sl
4143 16359 Sm
4175 16361 Sl
4175 16361 Sm
4207 16369 Sl
4207 16369 Sm
4238 16376 Sl
4238 16376 Sm
4270 16380 Sl
4270 16380 Sm
4302 16383 Sl
4302 16383 Sm
4333 16383 Sl
4333 16383 Sm
4365 16381 Sl
4365 16381 Sm
4397 16378 Sl
4397 16378 Sm
4428 16373 Sl
4428 16373 Sm
4460 16366 Sl
4460 16366 Sm
4492 16359 Sl
4492 16359 Sm
4523 16357 Sl
4523 16357 Sm
4555 16360 Sl
4555 16360 Sm
4587 16363 Sl
4587 16363 Sm
4619 16365 Sl
4619 16365 Sm
4650 16365 Sl
4650 16365 Sm
4682 16364 Sl
4682 16364 Sm
4714 16361 Sl
4714 16361 Sm
4745 16355 Sl
4745 16355 Sm
4777 16349 Sl
4777 16349 Sm
4809 16345 Sl
4809 16345 Sm
4840 16348 Sl
4840 16348 Sm
4872 16351 Sl
4872 16351 Sm
4904 16356 Sl
4904 16356 Sm
4935 16365 Sl
4935 16365 Sm
4967 16374 Sl
4967 16374 Sm
4999 16381 Sl
4999 16381 Sm
5030 16385 Sl
5030 16385 Sm
5062 16387 Sl
5062 16387 Sm
5094 16392 Sl
5094 16392 Sm
5126 16398 Sl
5126 16398 Sm
5157 16404 Sl
5157 16404 Sm
5189 16406 Sl
5189 16406 Sm
5221 16406 Sl
5221 16406 Sm
5252 16406 Sl
5252 16406 Sm
5284 16424 Sl
5284 16424 Sm
5316 16451 Sl
5316 16451 Sm
5347 16476 Sl
5347 16476 Sm
5379 16498 Sl
5379 16498 Sm
5411 16517 Sl
5411 16517 Sm
5442 16533 Sl
5442 16533 Sm
5474 16547 Sl
5474 16547 Sm
5506 16556 Sl
5506 16556 Sm
5537 16562 Sl
5537 16562 Sm
5569 16564 Sl
5569 16564 Sm
5601 16562 Sl
5601 16562 Sm
5633 16556 Sl
5633 16556 Sm
5664 16556 Sl
5664 16556 Sm
5696 16565 Sl
5696 16565 Sm
5728 16579 Sl
5728 16579 Sm
5759 16600 Sl
5759 16600 Sm
5791 16617 Sl
5791 16617 Sm
5823 16630 Sl
5823 16630 Sm
5854 16639 Sl
5854 16639 Sm
5886 16644 Sl
5886 16644 Sm
5918 16644 Sl
5918 16644 Sm
5949 16639 Sl
5949 16639 Sm
5981 16631 Sl
5981 16631 Sm
6013 16627 Sl
6013 16627 Sm
6044 16663 Sl
6044 16663 Sm
6076 16711 Sl
6076 16711 Sm
6108 16755 Sl
6108 16755 Sm
6140 16792 Sl
6140 16792 Sm
6171 16822 Sl
6171 16822 Sm
6203 16863 Sl
6203 16863 Sm
6235 16896 Sl
6235 16896 Sm
6266 16921 Sl
6266 16921 Sm
6298 16940 Sl
6298 16940 Sm
6330 16955 Sl
6330 16955 Sm
6361 16965 Sl
6361 16965 Sm
6393 16966 Sl
6393 16966 Sm
6425 16971 Sl
6425 16971 Sm
6456 16996 Sl
6456 16996 Sm
6488 17021 Sl
6488 17021 Sm
6520 17041 Sl
6520 17041 Sm
6551 17054 Sl
6551 17054 Sm
6583 17059 Sl
6583 17059 Sm
6615 17060 Sl
6615 17060 Sm
6647 17126 Sl
6647 17126 Sm
6678 17220 Sl
6678 17220 Sm
6710 17302 Sl
6710 17302 Sm
6742 17373 Sl
6742 17373 Sm
6773 17431 Sl
6773 17431 Sm
6805 17503 Sl
6805 17503 Sm
6837 17577 Sl
6837 17577 Sm
6868 17640 Sl
6868 17640 Sm
6900 17696 Sl
6900 17696 Sm
6932 17748 Sl
6932 17748 Sm
6963 17790 Sl
6963 17790 Sm
6995 17818 Sl
6995 17818 Sm
7027 17832 Sl
7027 17832 Sm
7058 17833 Sl
7058 17833 Sm
7090 17825 Sl
7090 17825 Sm
7122 17811 Sl
7122 17811 Sm
7154 17783 Sl
7154 17783 Sm
7185 17746 Sl
7185 17746 Sm
7217 17747 Sl
7217 17747 Sm
7249 17752 Sl
7249 17752 Sm
7280 17754 Sl
7280 17754 Sm
7312 17744 Sl
7312 17744 Sm
7344 17723 Sl
7344 17723 Sm
7375 17706 Sl
7375 17706 Sm
7407 17680 Sl
7407 17680 Sm
7439 17642 Sl
7439 17642 Sm
7470 17593 Sl
7470 17593 Sm
7502 17534 Sl
7502 17534 Sm
7534 17465 Sl
7534 17465 Sm
7565 17422 Sl
7565 17422 Sm
7597 17381 Sl
7597 17381 Sm
7629 17328 Sl
7629 17328 Sm
7661 17264 Sl
7661 17264 Sm
7692 17190 Sl
7692 17190 Sm
7724 17105 Sl
7724 17105 Sm
7756 17006 Sl
7756 17006 Sm
7787 16897 Sl
7787 16897 Sm
7819 16862 Sl
7819 16862 Sm
7851 16852 Sl
7851 16852 Sm
7882 16838 Sl
7882 16838 Sm
7914 16820 Sl
7914 16820 Sm
7946 16798 Sl
7946 16798 Sm
7977 16802 Sl
7977 16802 Sm
8009 16805 Sl
8009 16805 Sm
8041 16805 Sl
8041 16805 Sm
8072 16800 Sl
8072 16800 Sm
8104 16790 Sl
8104 16790 Sm
8136 16778 Sl
8136 16778 Sm
8168 16761 Sl
8168 16761 Sm
8199 16740 Sl
8199 16740 Sm
8231 16714 Sl
8231 16714 Sm
8263 16687 Sl
8263 16687 Sm
8294 16663 Sl
8294 16663 Sm
8326 16663 Sl
8326 16663 Sm
8358 16664 Sl
8358 16664 Sm
8389 16658 Sl
8389 16658 Sm
8421 16656 Sl
8421 16656 Sm
8453 16659 Sl
8453 16659 Sm
8484 16664 Sl
8484 16664 Sm
8516 16664 Sl
8516 16664 Sm
8548 16658 Sl
8548 16658 Sm
8579 16648 Sl
8579 16648 Sm
8611 16634 Sl
8611 16634 Sm
8643 16615 Sl
8643 16615 Sm
8675 16590 Sl
8675 16590 Sm
8706 16561 Sl
8706 16561 Sm
8738 16566 Sl
8738 16566 Sm
8770 16568 Sl
8770 16568 Sm
8801 16566 Sl
8801 16566 Sm
8833 16563 Sl
8833 16563 Sm
8865 16558 Sl
8865 16558 Sm
8896 16551 Sl
8896 16551 Sm
8928 16546 Sl
8928 16546 Sm
8960 16541 Sl
8960 16541 Sm
8991 16533 Sl
8991 16533 Sm
9023 16523 Sl
9023 16523 Sm
9055 16513 Sl
9055 16513 Sm
9086 16504 Sl
9086 16504 Sm
9118 16495 Sl
9118 16495 Sm
9150 16483 Sl
9150 16483 Sm
9182 16471 Sl
9182 16471 Sm
9213 16458 Sl
9213 16458 Sm
9245 16442 Sl
9245 16442 Sm
9277 16424 Sl
9277 16424 Sm
9308 16402 Sl
9308 16402 Sm
9340 16378 Sl
9340 16378 Sm
9372 16357 Sl
9372 16357 Sm
9403 16337 Sl
9403 16337 Sm
9435 16313 Sl
9435 16313 Sm
9467 16289 Sl
9467 16289 Sm
9498 16290 Sl
9498 16290 Sm
9530 16288 Sl
9530 16288 Sm
9562 16284 Sl
9562 16284 Sm
9593 16278 Sl
9593 16278 Sm
9625 16274 Sl
9625 16274 Sm
9657 16275 Sl
9657 16275 Sm
9689 16275 Sl
9689 16275 Sm
9720 16275 Sl
9720 16275 Sm
9752 16272 Sl
9752 16272 Sm
9784 16269 Sl
9784 16269 Sm
9815 16265 Sl
9815 16265 Sm
9847 16263 Sl
9847 16263 Sm
9879 16259 Sl
9879 16259 Sm
9910 16255 Sl
9910 16255 Sm
9942 16250 Sl
9942 16250 Sm
9974 16244 Sl
9974 16244 Sm
10005 16238 Sl
10005 16238 Sm
10037 16232 Sl
10037 16232 Sm
10069 16224 Sl
10069 16224 Sm
10100 16220 Sl
10100 16220 Sm
10132 16215 Sl
10132 16215 Sm
10164 16209 Sl
10164 16209 Sm
10196 16202 Sl
10196 16202 Sm
10227 16195 Sl
10227 16195 Sm
10259 16191 Sl
10259 16191 Sm
10291 16186 Sl
10291 16186 Sm
10322 16180 Sl
10322 16180 Sm
10354 16173 Sl
10354 16173 Sm
10386 16166 Sl
10386 16166 Sm
10417 16158 Sl
10417 16158 Sm
10449 16149 Sl
10449 16149 Sm
10481 16139 Sl
10481 16139 Sm
10512 16129 Sl
10512 16129 Sm
10544 16123 Sl
10544 16123 Sm
10576 16121 Sl
10576 16121 Sm
10607 16119 Sl
10607 16119 Sm
10639 16116 Sl
10639 16116 Sm
10671 16113 Sl
10671 16113 Sm
10703 16110 Sl
10703 16110 Sm
10734 16106 Sl
10734 16106 Sm
10766 16102 Sl
10766 16102 Sm
10798 16098 Sl
10798 16098 Sm
10829 16093 Sl
10829 16093 Sm
10861 16089 Sl
10861 16089 Sm
10893 16085 Sl
10893 16085 Sm
10924 16080 Sl
10924 16080 Sm
10956 16074 Sl
10956 16074 Sm
10988 16070 Sl
10988 16070 Sm
11019 16067 Sl
11019 16067 Sm
11051 16065 Sl
11051 16065 Sm
11083 16064 Sl
11083 16064 Sm
11114 16064 Sl
11114 16064 Sm
11146 16064 Sl
11146 16064 Sm
11178 16064 Sl
11178 16064 Sm
11210 16065 Sl
11210 16065 Sm
11241 16065 Sl
11241 16065 Sm
11273 16065 Sl
11273 16065 Sm
11305 16066 Sl
11305 16066 Sm
11336 16066 Sl
11336 16066 Sm
11368 16067 Sl
11368 16067 Sm
11400 16068 Sl
11400 16068 Sm
11431 16069 Sl
11431 16069 Sm
11463 16070 Sl
11463 16070 Sm
11495 16071 Sl
11495 16071 Sm
11526 16072 Sl
11526 16072 Sm
11558 16073 Sl
11558 16073 Sm
11590 16074 Sl
11590 16074 Sm
11621 16075 Sl
11621 16075 Sm
11653 16075 Sl
11653 16075 Sm
11685 16076 Sl
11685 16076 Sm
11717 16076 Sl
11717 16076 Sm
11748 16076 Sl
11748 16076 Sm
11780 16075 Sl
11780 16075 Sm
11812 16075 Sl
11812 16075 Sm
11843 16075 Sl
11843 16075 Sm
11875 16074 Sl
11875 16074 Sm
11907 16074 Sl
11907 16074 Sm
11938 16074 Sl
11938 16074 Sm
11970 16074 Sl
11970 16074 Sm
12002 16073 Sl
12002 16073 Sm
12033 16073 Sl
12033 16073 Sm
12065 16072 Sl
12065 16072 Sm
12097 16071 Sl
12097 16071 Sm
12128 16071 Sl
12128 16071 Sm
12160 16071 Sl
12160 16071 Sm
12192 16071 Sl
12192 16071 Sm
12224 16070 Sl
12224 16070 Sm
12255 16070 Sl
12255 16070 Sm
12287 16069 Sl
12287 16069 Sm
12319 16068 Sl
12319 16068 Sm
12350 16067 Sl
12350 16067 Sm
12382 16066 Sl
12382 16066 Sm
12414 16064 Sl
12414 16064 Sm
12445 16063 Sl
12445 16063 Sm
12477 16062 Sl
12477 16062 Sm
12509 16062 Sl
12509 16062 Sm
12540 16062 Sl
12540 16062 Sm
12572 16062 Sl
12572 16062 Sm
12604 16062 Sl
12604 16062 Sm
12636 16062 Sl
12636 16062 Sm
12667 16062 Sl
12667 16062 Sm
12699 16063 Sl
12699 16063 Sm
12731 16063 Sl
12731 16063 Sm
12762 16064 Sl
12762 16064 Sm
12794 16064 Sl
12794 16064 Sm
12826 16065 Sl
12826 16065 Sm
12857 16065 Sl
12857 16065 Sm
12889 16065 Sl
12889 16065 Sm
12921 16065 Sl
12921 16065 Sm
12952 16065 Sl
12952 16065 Sm
12984 16065 Sl
12984 16065 Sm
13016 16065 Sl
13016 16065 Sm
13047 16064 Sl
/Slrgb {0.102 0.278 0.435} def
17736 16153 Sm
17778 16158 Sl
17778 16158 Sm
17821 16175 Sl
17821 16175 Sm
17863 16193 Sl
17863 16193 Sm
17906 16230 Sl
17906 16230 Sm
17949 16259 Sl
17949 16259 Sm
17991 16291 Sl
17991 16291 Sm
18034 16332 Sl
18034 16332 Sm
18076 16416 Sl
18076 16416 Sm
18119 16504 Sl
18119 16504 Sm
18162 16578 Sl
18162 16578 Sm
18204 16656 Sl
18204 16656 Sm
18247 16717 Sl
18247 16717 Sm
18289 16752 Sl
18289 16752 Sm
18332 16762 Sl
18332 16762 Sm
18374 16762 Sl
18374 16762 Sm
18417 16734 Sl
18417 16734 Sm
18460 16689 Sl
18460 16689 Sm
18502 16637 Sl
18502 16637 Sm
18545 16586 Sl
18545 16586 Sm
18587 16528 Sl
18587 16528 Sm
18630 16461 Sl
18630 16461 Sm
18673 16387 Sl
18673 16387 Sm
18715 16356 Sl
18715 16356 Sm
18758 16317 Sl
18758 16317 Sm
18800 16284 Sl
18800 16284 Sm
18843 16267 Sl
18843 16267 Sm
18886 16254 Sl
18886 16254 Sm
18928 16234 Sl
18928 16234 Sm
18971 16230 Sl
18971 16230 Sm
19013 16241 Sl
19013 16241 Sm
19056 16250 Sl
19056 16250 Sm
19098 16249 Sl
19098 16249 Sm
19141 16249 Sl
19141 16249 Sm
19184 16246 Sl
19184 16246 Sm
19226 16247 Sl
19226 16247 Sm
19269 16269 Sl
19269 16269 Sm
19311 16290 Sl
19311 16290 Sm
19354 16316 Sl
19354 16316 Sm
19397 16327 Sl
19397 16327 Sm
19439 16331 Sl
19439 16331 Sm
19482 16332 Sl
19482 16332 Sm
19524 16321 Sl
19524 16321 Sm
19567 16309 Sl
19567 16309 Sm
19610 16311 Sl
19610 16311 Sm
19652 16307 Sl
19652 16307 Sm
19695 16320 Sl
19695 16320 Sm
19737 16410 Sl
19737 16410 Sm
19780 16479 Sl
19780 16479 Sm
19822 16522 Sl
19822 16522 Sm
19865 16550 Sl
19865 16550 Sm
19908 16582 Sl
19908 16582 Sm
19950 16600 Sl
19950 16600 Sm
19993 16613 Sl
19993 16613 Sm
20035 16605 Sl
20035 16605 Sm
20078 16596 Sl
20078 16596 Sm
20121 16609 Sl
20121 16609 Sm
20163 16648 Sl
20163 16648 Sm
20206 16714 Sl
20206 16714 Sm
20248 16747 Sl
20248 16747 Sm
20291 16740 Sl
20291 16740 Sm
20334 16709 Sl
20334 16709 Sm
20376 16755 Sl
20376 16755 Sm
20419 16778 Sl
20419 16778 Sm
20461 16884 Sl
20461 16884 Sm
20504 17136 Sl
20504 17136 Sm
20546 17331 Sl
20546 17331 Sm
20589 17459 Sl
20589 17459 Sm
20632 17619 Sl
20632 17619 Sm
20674 17720 Sl
20674 17720 Sm
20717 17746 Sl
20717 17746 Sm
20759 17749 Sl
20759 17749 Sm
20802 17720 Sl
20802 17720 Sm
20845 17724 Sl
20845 17724 Sm
20887 17693 Sl
20887 17693 Sm
20930 17609 Sl
20930 17609 Sm
20972 17469 Sl
20972 17469 Sm
21015 17266 Sl
21015 17266 Sm
21058 17095 Sl
21058 17095 Sm
21100 17528 Sl
21100 17528 Sm
21143 18063 Sl
21143 18063 Sm
21185 18482 Sl
21185 18482 Sm
21228 18817 Sl
21228 18817 Sm
21270 19142 Sl
21270 19142 Sm
21313 19382 Sl
21313 19382 Sm
21356 19493 Sl
21356 19493 Sm
21398 19490 Sl
21398 19490 Sm
21441 19360 Sl
21441 19360 Sm
21483 19124 Sl
21483 19124 Sm
21526 18823 Sl
21526 18823 Sm
21569 18435 Sl
21569 18435 Sm
21611 17938 Sl
21611 17938 Sm
21654 17326 Sl
21654 17326 Sm
21696 16692 Sl
21696 16692 Sm
21739 16727 Sl
21739 16727 Sm
21782 16726 Sl
21782 16726 Sm
21824 16709 Sl
21824 16709 Sm
21867 16699 Sl
21867 16699 Sm
21909 16711 Sl
21909 16711 Sm
21952 16699 Sl
21952 16699 Sm
21994 16770 Sl
21994 16770 Sm
22037 16846 Sl
22037 16846 Sm
22080 16881 Sl
22080 16881 Sm
22122 16875 Sl
22122 16875 Sm
22165 16845 Sl
22165 16845 Sm
22207 16812 Sl
22207 16812 Sm
22250 16755 Sl
22250 16755 Sm
22293 16667 Sl
22293 16667 Sm
22335 16633 Sl
22335 16633 Sm
22378 16611 Sl
22378 16611 Sm
22420 16568 Sl
22420 16568 Sm
22463 16510 Sl
22463 16510 Sm
22506 16432 Sl
22506 16432 Sm
22548 16330 Sl
22548 16330 Sm
22591 16206 Sl
22591 16206 Sm
22633 16161 Sl
22633 16161 Sm
22676 16161 Sl
22676 16161 Sm
22718 16155 Sl
22718 16155 Sm
22761 16189 Sl
22761 16189 Sm
22804 16215 Sl
22804 16215 Sm
22846 16233 Sl
22846 16233 Sm
22889 16260 Sl
22889 16260 Sm
22931 16291 Sl
22931 16291 Sm
22974 16308 Sl
22974 16308 Sm
23017 16321 Sl
23017 16321 Sm
23059 16325 Sl
23059 16325 Sm
23102 16326 Sl
23102 16326 Sm
23144 16319 Sl
23144 16319 Sm
23187 16302 Sl
23187 16302 Sm
23230 16279 Sl
23230 16279 Sm
23272 16249 Sl
23272 16249 Sm
23315 16211 Sl
23315 16211 Sm
23357 16169 Sl
23357 16169 Sm
23400 16159 Sl
23400 16159 Sm
23442 16150 Sl
23442 16150 Sm
23485 16137 Sl
23485 16137 Sm
23528 16131 Sl
23528 16131 Sm
23570 16139 Sl
23570 16139 Sm
23613 16144 Sl
23613 16144 Sm
23655 16146 Sl
23655 16146 Sm
23698 16145 Sl
23698 16145 Sm
23741 16141 Sl
23741 16141 Sm
23783 16136 Sl
23783 16136 Sm
23826 16144 Sl
23826 16144 Sm
23868 16150 Sl
23868 16150 Sm
23911 16153 Sl
23911 16153 Sm
23954 16153 Sl
23954 16153 Sm
23996 16154 Sl
23996 16154 Sm
24039 16155 Sl
24039 16155 Sm
24081 16152 Sl
24081 16152 Sm
24124 16147 Sl
24124 16147 Sm
24166 16146 Sl
24166 16146 Sm
24209 16141 Sl
24209 16141 Sm
24252 16133 Sl
24252 16133 Sm
24294 16125 Sl
24294 16125 Sm
24337 16115 Sl
24337 16115 Sm
24379 16103 Sl
24379 16103 Sm
24422 16088 Sl
24422 16088 Sm
24465 16087 Sl
24465 16087 Sm
24507 16087 Sl
24507 16087 Sm
24550 16088 Sl
24550 16088 Sm
24592 16087 Sl
24592 16087 Sm
24635 16089 Sl
24635 16089 Sm
24678 16095 Sl
24678 16095 Sm
24720 16103 Sl
24720 16103 Sm
24763 16111 Sl
24763 16111 Sm
24805 16117 Sl
24805 16117 Sm
24848 16119 Sl
24848 16119 Sm
24890 16119 Sl
24890 16119 Sm
24933 16119 Sl
24933 16119 Sm
24976 16117 Sl
24976 16117 Sm
25018 16117 Sl
25018 16117 Sm
25061 16115 Sl
25061 16115 Sm
25103 16110 Sl
25103 16110 Sm
25146 16104 Sl
25146 16104 Sm
25189 16096 Sl
25189 16096 Sm
25231 16084 Sl
25231 16084 Sm
25274 16074 Sl
25274 16074 Sm
25316 16069 Sl
25316 16069 Sm
25359 16066 Sl
25359 16066 Sm
25402 16065 Sl
25402 16065 Sm
25444 16064 Sl
25444 16064 Sm
25487 16062 Sl
25487 16062 Sm
25529 16060 Sl
25529 16060 Sm
25572 16057 Sl
25572 16057 Sm
25614 16053 Sl
25614 16053 Sm
25657 16051 Sl
25657 16051 Sm
25700 16051 Sl
25700 16051 Sm
25742 16051 Sl
25742 16051 Sm
25785 16051 Sl
25785 16051 Sm
25827 16051 Sl
25827 16051 Sm
25870 16051 Sl
25870 16051 Sm
25913 16051 Sl
25913 16051 Sm
25955 16051 Sl
25955 16051 Sm
25998 16051 Sl
25998 16051 Sm
26040 16051 Sl
26040 16051 Sm
26083 16051 Sl
26083 16051 Sm
26126 16051 Sl
26126 16051 Sm
26168 16051 Sl
26168 16051 Sm
26211 16051 Sl
26211 16051 Sm
26253 16051 Sl
26253 16051 Sm
26296 16051 Sl
26296 16051 Sm
26338 16051 Sl
26338 16051 Sm
26381 16051 Sl
26381 16051 Sm
26424 16051 Sl
26424 16051 Sm
26466 16051 Sl
26466 16051 Sm
26509 16051 Sl
26509 16051 Sm
26551 16051 Sl
26551 16051 Sm
26594 16051 Sl
26594 16051 Sm
26637 16051 Sl
26637 16051 Sm
26679 16051 Sl
26679 16051 Sm
26722 16051 Sl
26722 16051 Sm
26764 16052 Sl
26764 16052 Sm
26807 16054 Sl
26807 16054 Sm
26850 16056 Sl
26850 16056 Sm
26892 16057 Sl
26892 16057 Sm
26935 16058 Sl
26935 16058 Sm
26977 16058 Sl
26977 16058 Sm
27020 16059 Sl
27020 16059 Sm
27062 16059 Sl
27062 16059 Sm
27105 16059 Sl
27105 16059 Sm
27148 16058 Sl
27148 16058 Sm
27190 16058 Sl
27190 16058 Sm
27233 16057 Sl
27233 16057 Sm
27275 16055 Sl
27275 16055 Sm
27318 16054 Sl
27318 16054 Sm
27361 16052 Sl
27361 16052 Sm
27403 16051 Sl
27403 16051 Sm
27446 16051 Sl
27446 16051 Sm
27488 16051 Sl
27488 16051 Sm
27531 16051 Sl
27531 16051 Sm
27574 16051 Sl
27574 16051 Sm
27616 16051 Sl
27616 16051 Sm
27659 16051 Sl
27659 16051 Sm
27701 16051 Sl
27701 16051 Sm
27744 16051 Sl
27744 16051 Sm
27786 16051 Sl
27786 16051 Sm
27829 16051 Sl
27829 16051 Sm
27872 16051 Sl
27872 16051 Sm
27914 16051 Sl
27914 16051 Sm
27957 16051 Sl
27957 16051 Sm
27999 16051 Sl
27999 16051 Sm
28042 16052 Sl
28042 16052 Sm
28085 16054 Sl
28085 16054 Sm
28127 16055 Sl
28127 16055 Sm
28170 16056 Sl
28170 16056 Sm
28212 16057 Sl
28212 16057 Sm
28255 16058 Sl
28255 16058 Sm
28298 16059 Sl
28298 16059 Sm
28340 16059 Sl
28340 16059 Sm
28383 16059 Sl
28383 16059 Sm
28425 16058 Sl
28425 16058 Sm
28468 16058 Sl
28468 16058 Sm
28510 16057 Sl
28510 16057 Sm
28553 16056 Sl
28553 16056 Sm
28596 16054 Sl
28596 16054 Sm
28638 16052 Sl
28638 16052 Sm
28681 16051 Sl
28681 16051 Sm
28723 16051 Sl
28723 16051 Sm
28766 16051 Sl
28766 16051 Sm
28809 16051 Sl
28809 16051 Sm
28851 16051 Sl
28851 16051 Sm
28894 16051 Sl
28894 16051 Sm
28936 16051 Sl
28936 16051 Sm
28979 16051 Sl
28979 16051 Sm
29022 16051 Sl
29022 16051 Sm
29064 16051 Sl
29064 16051 Sm
29107 16051 Sl
29107 16051 Sm
29149 16051 Sl
29149 16051 Sm
29192 16051 Sl
29192 16051 Sm
29234 16051 Sl
29234 16051 Sm
29277 16051 Sl
29277 16051 Sm
29320 16051 Sl
29320 16051 Sm
29362 16051 Sl
29362 16051 Sm
29405 16051 Sl
29405 16051 Sm
29447 16051 Sl
29447 16051 Sm
29490 16051 Sl
29490 16051 Sm
29533 16051 Sl
29533 16051 Sm
29575 16051 Sl
29575 16051 Sm
29618 16051 Sl
29618 16051 Sm
29660 16051 Sl
29660 16051 Sm
29703 16051 Sl
29703 16051 Sm
29746 16051 Sl
29746 16051 Sm
29788 16051 Sl
29788 16051 Sm
29831 16051 Sl
29831 16051 Sm
29873 16051 Sl
29873 16051 Sm
29916 16051 Sl
29916 16051 Sm
29958 16051 Sl
29958 16051 Sm
30001 16051 Sl
30001 16051 Sm
30044 16051 Sl
30044 16051 Sm
30086 16051 Sl
30086 16051 Sm
30129 16051 Sl
30129 16051 Sm
30171 16052 Sl
30171 16052 Sm
30214 16054 Sl
30214 16054 Sm
30257 16055 Sl
30257 16055 Sm
30299 16057 Sl
30299 16057 Sm
30342 16058 Sl
30342 16058 Sm
30384 16058 Sl
30384 16058 Sm
30427 16059 Sl
30427 16059 Sm
30470 16059 Sl
/Slrgb {0.565 0.208 0.231} def
17736 16149 Sm
17775 16154 Sl
17775 16154 Sm
17815 16156 Sl
17815 16156 Sm
17854 16156 Sl
17854 16156 Sm
17894 16156 Sl
17894 16156 Sm
17933 16159 Sl
17933 16159 Sm
17973 16158 Sl
17973 16158 Sm
18012 16153 Sl
18012 16153 Sm
18052 16172 Sl
18052 16172 Sm
18092 16226 Sl
18092 16226 Sm
18131 16281 Sl
18131 16281 Sm
18171 16334 Sl
18171 16334 Sm
18210 16389 Sl
18210 16389 Sm
18250 16438 Sl
18250 16438 Sm
18289 16472 Sl
18289 16472 Sm
18329 16491 Sl
18329 16491 Sm
18368 16506 Sl
18368 16506 Sm
18408 16508 Sl
18408 16508 Sm
18447 16495 Sl
18447 16495 Sm
18487 16466 Sl
18487 16466 Sm
18527 16434 Sl
18527 16434 Sm
18566 16389 Sl
18566 16389 Sm
18606 16343 Sl
18606 16343 Sm
18645 16281 Sl
18645 16281 Sm
18685 16254 Sl
18685 16254 Sm
18724 16224 Sl
18724 16224 Sm
18764 16206 Sl
18764 16206 Sm
18803 16183 Sl
18803 16183 Sm
18843 16182 Sl
18843 16182 Sm
18882 16175 Sl
18882 16175 Sm
18922 16166 Sl
18922 16166 Sm
18962 16164 Sl
18962 16164 Sm
19001 16178 Sl
19001 16178 Sm
19041 16188 Sl
19041 16188 Sm
19080 16194 Sl
19080 16194 Sm
19120 16197 Sl
19120 16197 Sm
19159 16196 Sl
19159 16196 Sm
19199 16195 Sl
19199 16195 Sm
19238 16195 Sl
19238 16195 Sm
19278 16208 Sl
19278 16208 Sm
19317 16221 Sl
19317 16221 Sm
19357 16244 Sl
19357 16244 Sm
19397 16260 Sl
19397 16260 Sm
19436 16271 Sl
19436 16271 Sm
19476 16273 Sl
19476 16273 Sm
19515 16269 Sl
19515 16269 Sm
19555 16255 Sl
19555 16255 Sm
19594 16258 Sl
19594 16258 Sm
19634 16256 Sl
19634 16256 Sm
19673 16252 Sl
19673 16252 Sm
19713 16264 Sl
19713 16264 Sm
19752 16316 Sl
19752 16316 Sm
19792 16352 Sl
19792 16352 Sm
19832 16372 Sl
19832 16372 Sm
19871 16383 Sl
19871 16383 Sm
19911 16400 Sl
19911 16400 Sm
19950 16409 Sl
19950 16409 Sm
19990 16422 Sl
19990 16422 Sm
20029 16423 Sl
20029 16423 Sm
20069 16412 Sl
20069 16412 Sm
20108 16430 Sl
20108 16430 Sm
20148 16446 Sl
20148 16446 Sm
20187 16474 Sl
20187 16474 Sm
20227 16488 Sl
20227 16488 Sm
20267 16479 Sl
20267 16479 Sm
20306 16446 Sl
20306 16446 Sm
20346 16454 Sl
20346 16454 Sm
20385 16470 Sl
20385 16470 Sm
20425 16473 Sl
20425 16473 Sm
20464 16497 Sl
20464 16497 Sm
20504 16712 Sl
20504 16712 Sm
20543 16883 Sl
20543 16883 Sm
20583 17013 Sl
20583 17013 Sm
20622 17115 Sl
20622 17115 Sm
20662 17209 Sl
20662 17209 Sm
20702 17258 Sl
20702 17258 Sm
20741 17313 Sl
20741 17313 Sm
20781 17340 Sl
20781 17340 Sm
20820 17364 Sl
20820 17364 Sm
20860 17396 Sl
20860 17396 Sm
20899 17414 Sl
20899 17414 Sm
20939 17389 Sl
20939 17389 Sm
20978 17315 Sl
20978 17315 Sm
21018 17182 Sl
21018 17182 Sm
21058 16987 Sl
21058 16987 Sm
21097 17517 Sl
21097 17517 Sm
21137 18191 Sl
21137 18191 Sm
21176 18742 Sl
21176 18742 Sm
21216 19157 Sl
21216 19157 Sm
21255 19593 Sl
21255 19593 Sm
21295 19903 Sl
21295 19903 Sm
21334 20082 Sl
21334 20082 Sm
21374 20118 Sl
21374 20118 Sm
21413 20061 Sl
21413 20061 Sm
21453 19861 Sl
21453 19861 Sm
21493 19621 Sl
21493 19621 Sm
21532 19268 Sl
21532 19268 Sm
21572 18837 Sl
21572 18837 Sm
21611 18274 Sl
21611 18274 Sm
21651 17588 Sl
21651 17588 Sm
21690 16968 Sl
21690 16968 Sm
21730 17000 Sl
21730 17000 Sm
21769 16987 Sl
21769 16987 Sm
21809 16939 Sl
21809 16939 Sm
21848 16896 Sl
21848 16896 Sm
21888 16902 Sl
21888 16902 Sm
21928 16881 Sl
21928 16881 Sm
21967 16833 Sl
21967 16833 Sm
22007 16897 Sl
22007 16897 Sm
22046 16962 Sl
22046 16962 Sm
22086 16986 Sl
22086 16986 Sm
22125 16966 Sl
22125 16966 Sm
22165 16947 Sl
22165 16947 Sm
22204 16908 Sl
22204 16908 Sm
22244 16869 Sl
22244 16869 Sm
22283 16799 Sl
22283 16799 Sm
22323 16787 Sl
22323 16787 Sm
22363 16765 Sl
22363 16765 Sm
22402 16730 Sl
22402 16730 Sm
22442 16674 Sl
22442 16674 Sm
22481 16619 Sl
22481 16619 Sm
22521 16535 Sl
22521 16535 Sm
22560 16424 Sl
22560 16424 Sm
22600 16318 Sl
22600 16318 Sm
22639 16330 Sl
22639 16330 Sm
22679 16331 Sl
22679 16331 Sm
22718 16322 Sl
22718 16322 Sm
22758 16339 Sl
22758 16339 Sm
22798 16362 Sl
22798 16362 Sm
22837 16375 Sl
22837 16375 Sm
22877 16383 Sl
22877 16383 Sm
22916 16441 Sl
22916 16441 Sm
22956 16493 Sl
22956 16493 Sm
22995 16531 Sl
22995 16531 Sm
23035 16552 Sl
23035 16552 Sm
23074 16572 Sl
23074 16572 Sm
23114 16580 Sl
23114 16580 Sm
23153 16574 Sl
23153 16574 Sm
23193 16550 Sl
23193 16550 Sm
23233 16519 Sl
23233 16519 Sm
23272 16471 Sl
23272 16471 Sm
23312 16407 Sl
23312 16407 Sm
23351 16327 Sl
23351 16327 Sm
23391 16290 Sl
23391 16290 Sm
23430 16241 Sl
23430 16241 Sm
23470 16179 Sl
23470 16179 Sm
23509 16127 Sl
23509 16127 Sm
23549 16140 Sl
23549 16140 Sm
23588 16149 Sl
23588 16149 Sm
23628 16154 Sl
23628 16154 Sm
23668 16157 Sl
23668 16157 Sm
23707 16159 Sl
23707 16159 Sm
23747 16158 Sl
23747 16158 Sm
23786 16153 Sl
23786 16153 Sm
23826 16171 Sl
23826 16171 Sm
23865 16189 Sl
23865 16189 Sm
23905 16205 Sl
23905 16205 Sm
23944 16214 Sl
23944 16214 Sm
23984 16222 Sl
23984 16222 Sm
24023 16225 Sl
24023 16225 Sm
24063 16220 Sl
24063 16220 Sm
24103 16208 Sl
24103 16208 Sm
24142 16204 Sl
24142 16204 Sm
24182 16197 Sl
24182 16197 Sm
24221 16184 Sl
24221 16184 Sm
24261 16169 Sl
24261 16169 Sm
24300 16160 Sl
24300 16160 Sm
24340 16145 Sl
24340 16145 Sm
24379 16126 Sl
24379 16126 Sm
24419 16106 Sl
24419 16106 Sm
24458 16108 Sl
24458 16108 Sm
24498 16109 Sl
24498 16109 Sm
24538 16110 Sl
24538 16110 Sm
24577 16112 Sl
24577 16112 Sm
24617 16115 Sl
24617 16115 Sm
24656 16127 Sl
24656 16127 Sm
24696 16139 Sl
24696 16139 Sm
24735 16149 Sl
24735 16149 Sm
24775 16155 Sl
24775 16155 Sm
24814 16155 Sl
24814 16155 Sm
24854 16151 Sl
24854 16151 Sm
24893 16149 Sl
24893 16149 Sm
24933 16147 Sl
24933 16147 Sm
24973 16144 Sl
24973 16144 Sm
25012 16139 Sl
25012 16139 Sm
25052 16130 Sl
25052 16130 Sm
25091 16118 Sl
25091 16118 Sm
25131 16104 Sl
25131 16104 Sm
25170 16086 Sl
25170 16086 Sm
25210 16071 Sl
25210 16071 Sm
25249 16055 Sl
25249 16055 Sm
25289 16053 Sl
25289 16053 Sm
25329 16051 Sl
25329 16051 Sm
25368 16052 Sl
25368 16052 Sm
25408 16053 Sl
25408 16053 Sm
25447 16053 Sl
25447 16053 Sm
25487 16054 Sl
25487 16054 Sm
25526 16054 Sl
25526 16054 Sm
25566 16054 Sl
25566 16054 Sm
25605 16054 Sl
25605 16054 Sm
25645 16054 Sl
25645 16054 Sm
25684 16054 Sl
25684 16054 Sm
25724 16054 Sl
25724 16054 Sm
25764 16053 Sl
25764 16053 Sm
25803 16053 Sl
25803 16053 Sm
25843 16052 Sl
25843 16052 Sm
25882 16052 Sl
25882 16052 Sm
25922 16051 Sl
25922 16051 Sm
25961 16052 Sl
25961 16052 Sm
26001 16053 Sl
26001 16053 Sm
26040 16054 Sl
26040 16054 Sm
26080 16055 Sl
26080 16055 Sm
26119 16056 Sl
26119 16056 Sm
26159 16056 Sl
26159 16056 Sm
26199 16057 Sl
26199 16057 Sm
26238 16057 Sl
26238 16057 Sm
26278 16057 Sl
26278 16057 Sm
26317 16057 Sl
26317 16057 Sm
26357 16056 Sl
26357 16056 Sm
26396 16056 Sl
26396 16056 Sm
26436 16055 Sl
26436 16055 Sm
26475 16054 Sl
26475 16054 Sm
26515 16053 Sl
26515 16053 Sm
26554 16052 Sl
26554 16052 Sm
26594 16051 Sl
26594 16051 Sm
26634 16051 Sl
26634 16051 Sm
26673 16051 Sl
26673 16051 Sm
26713 16051 Sl
26713 16051 Sm
26752 16051 Sl
26752 16051 Sm
26792 16051 Sl
26792 16051 Sm
26831 16051 Sl
26831 16051 Sm
26871 16051 Sl
26871 16051 Sm
26910 16051 Sl
26910 16051 Sm
26950 16051 Sl
26950 16051 Sm
26989 16051 Sl
26989 16051 Sm
27029 16052 Sl
27029 16052 Sm
27069 16053 Sl
27069 16053 Sm
27108 16053 Sl
27108 16053 Sm
27148 16053 Sl
27148 16053 Sm
27187 16054 Sl
27187 16054 Sm
27227 16054 Sl
27227 16054 Sm
27266 16054 Sl
27266 16054 Sm
27306 16054 Sl
27306 16054 Sm
27345 16054 Sl
27345 16054 Sm
27385 16054 Sl
27385 16054 Sm
27424 16053 Sl
27424 16053 Sm
27464 16053 Sl
27464 16053 Sm
27504 16053 Sl
27504 16053 Sm
27543 16052 Sl
27543 16052 Sm
27583 16051 Sl
27583 16051 Sm
27622 16051 Sl
27622 16051 Sm
27662 16051 Sl
27662 16051 Sm
27701 16051 Sl
27701 16051 Sm
27741 16051 Sl
27741 16051 Sm
27780 16051 Sl
27780 16051 Sm
27820 16051 Sl
27820 16051 Sm
27859 16051 Sl
27859 16051 Sm
27899 16051 Sl
27899 16051 Sm
27939 16051 Sl
27939 16051 Sm
27978 16051 Sl
27978 16051 Sm
28018 16051 Sl
28018 16051 Sm
28057 16051 Sl
28057 16051 Sm
28097 16051 Sl
28097 16051 Sm
28136 16051 Sl
28136 16051 Sm
28176 16051 Sl
28176 16051 Sm
28215 16051 Sl
28215 16051 Sm
28255 16051 Sl
28255 16051 Sm
28294 16051 Sl
28294 16051 Sm
28334 16051 Sl
28334 16051 Sm
28374 16051 Sl
28374 16051 Sm
28413 16051 Sl
28413 16051 Sm
28453 16051 Sl
28453 16051 Sm
28492 16051 Sl
28492 16051 Sm
28532 16051 Sl
28532 16051 Sm
28571 16051 Sl
28571 16051 Sm
28611 16051 Sl
28611 16051 Sm
28650 16051 Sl
28650 16051 Sm
28690 16051 Sl
28690 16051 Sm
28729 16051 Sl
28729 16051 Sm
28769 16051 Sl
28769 16051 Sm
28809 16051 Sl
28809 16051 Sm
28848 16051 Sl
28848 16051 Sm
28888 16051 Sl
28888 16051 Sm
28927 16051 Sl
28927 16051 Sm
28967 16051 Sl
28967 16051 Sm
29006 16051 Sl
29006 16051 Sm
29046 16051 Sl
29046 16051 Sm
29085 16051 Sl
29085 16051 Sm
29125 16051 Sl
29125 16051 Sm
29165 16051 Sl
29165 16051 Sm
29204 16051 Sl
29204 16051 Sm
29244 16051 Sl
29244 16051 Sm
29283 16052 Sl
29283 16052 Sm
29323 16052 Sl
29323 16052 Sm
29362 16053 Sl
29362 16053 Sm
29402 16053 Sl
29402 16053 Sm
29441 16054 Sl
29441 16054 Sm
29481 16054 Sl
29481 16054 Sm
29520 16054 Sl
29520 16054 Sm
29560 16054 Sl
/Slrgb {0.333 0.459 0.184} def
17736 16271 Sm
17767 16288 Sl
17767 16288 Sm
17799 16305 Sl
17799 16305 Sm
17831 16325 Sl
17831 16325 Sm
17862 16343 Sl
17862 16343 Sm
17894 16359 Sl
17894 16359 Sm
17926 16374 Sl
17926 16374 Sm
17957 16389 Sl
17957 16389 Sm
17989 16404 Sl
17989 16404 Sm
18021 16418 Sl
18021 16418 Sm
18052 16429 Sl
18052 16429 Sm
18084 16439 Sl
18084 16439 Sm
18116 16448 Sl
18116 16448 Sm
18148 16456 Sl
18148 16456 Sm
18179 16463 Sl
18179 16463 Sm
18211 16470 Sl
18211 16470 Sm
18243 16476 Sl
18243 16476 Sm
18274 16480 Sl
18274 16480 Sm
18306 16481 Sl
18306 16481 Sm
18338 16481 Sl
18338 16481 Sm
18369 16479 Sl
18369 16479 Sm
18401 16474 Sl
18401 16474 Sm
18433 16468 Sl
18433 16468 Sm
18464 16464 Sl
18464 16464 Sm
18496 16460 Sl
18496 16460 Sm
18528 16454 Sl
18528 16454 Sm
18559 16448 Sl
18559 16448 Sm
18591 16442 Sl
18591 16442 Sm
18623 16436 Sl
18623 16436 Sm
18655 16432 Sl
18655 16432 Sm
18686 16426 Sl
18686 16426 Sm
18718 16419 Sl
18718 16419 Sm
18750 16410 Sl
18750 16410 Sm
18781 16400 Sl
18781 16400 Sm
18813 16388 Sl
18813 16388 Sm
18845 16378 Sl
18845 16378 Sm
18876 16372 Sl
18876 16372 Sm
18908 16366 Sl
18908 16366 Sm
18940 16361 Sl
18940 16361 Sm
18971 16356 Sl
18971 16356 Sm
19003 16353 Sl
19003 16353 Sm
19035 16347 Sl
19035 16347 Sm
19067 16345 Sl
19067 16345 Sm
19098 16344 Sl
19098 16344 Sm
19130 16343 Sl
19130 16343 Sm
19162 16343 Sl
19162 16343 Sm
19193 16342 Sl
19193 16342 Sm
19225 16344 Sl
19225 16344 Sm
19257 16346 Sl
19257 16346 Sm
19288 16347 Sl
19288 16347 Sm
19320 16353 Sl
19320 16353 Sm
19352 16363 Sl
19352 16363 Sm
19383 16376 Sl
19383 16376 Sm
19415 16386 Sl
19415 16386 Sm
19447 16395 Sl
19447 16395 Sm
19478 16404 Sl
19478 16404 Sm
19510 16412 Sl
19510 16412 Sm
19542 16419 Sl
19542 16419 Sm
19574 16424 Sl
19574 16424 Sm
19605 16431 Sl
19605 16431 Sm
19637 16437 Sl
19637 16437 Sm
19669 16441 Sl
19669 16441 Sm
19700 16450 Sl
19700 16450 Sm
19732 16462 Sl
19732 16462 Sm
19764 16473 Sl
19764 16473 Sm
19795 16489 Sl
19795 16489 Sm
19827 16503 Sl
19827 16503 Sm
19859 16513 Sl
19859 16513 Sm
19890 16521 Sl
19890 16521 Sm
19922 16527 Sl
19922 16527 Sm
19954 16530 Sl
19954 16530 Sm
19985 16534 Sl
19985 16534 Sm
20017 16536 Sl
20017 16536 Sm
20049 16538 Sl
20049 16538 Sm
20081 16560 Sl
20081 16560 Sm
20112 16594 Sl
20112 16594 Sm
20144 16624 Sl
20144 16624 Sm
20176 16649 Sl
20176 16649 Sm
20207 16671 Sl
20207 16671 Sm
20239 16698 Sl
20239 16698 Sm
20271 16726 Sl
20271 16726 Sm
20302 16754 Sl
20302 16754 Sm
20334 16778 Sl
20334 16778 Sm
20366 16803 Sl
20366 16803 Sm
20397 16827 Sl
20397 16827 Sm
20429 16846 Sl
20429 16846 Sm
20461 16868 Sl
20461 16868 Sm
20492 16889 Sl
20492 16889 Sm
20524 16908 Sl
20524 16908 Sm
20556 16924 Sl
20556 16924 Sm
20588 16938 Sl
20588 16938 Sm
20619 16947 Sl
20619 16947 Sm
20651 16951 Sl
20651 16951 Sm
20683 16982 Sl
20683 16982 Sm
20714 17047 Sl
20714 17047 Sm
20746 17118 Sl
20746 17118 Sm
20778 17187 Sl
20778 17187 Sm
20809 17247 Sl
20809 17247 Sm
20841 17313 Sl
20841 17313 Sm
20873 17378 Sl
20873 17378 Sm
20904 17437 Sl
20904 17437 Sm
20936 17487 Sl
20936 17487 Sm
20968 17529 Sl
20968 17529 Sm
20999 17566 Sl
20999 17566 Sm
21031 17596 Sl
21031 17596 Sm
21063 17617 Sl
21063 17617 Sm
21095 17629 Sl
21095 17629 Sm
21126 17645 Sl
21126 17645 Sm
21158 17661 Sl
21158 17661 Sm
21190 17673 Sl
21190 17673 Sm
21221 17681 Sl
21221 17681 Sm
21253 17682 Sl
21253 17682 Sm
21285 17680 Sl
21285 17680 Sm
21316 17681 Sl
21316 17681 Sm
21348 17674 Sl
21348 17674 Sm
21380 17658 Sl
21380 17658 Sm
21411 17634 Sl
21411 17634 Sm
21443 17602 Sl
21443 17602 Sm
21475 17565 Sl
21475 17565 Sm
21506 17554 Sl
21506 17554 Sm
21538 17536 Sl
21538 17536 Sm
21570 17511 Sl
21570 17511 Sm
21602 17500 Sl
21602 17500 Sm
21633 17493 Sl
21633 17493 Sm
21665 17486 Sl
21665 17486 Sm
21697 17472 Sl
21697 17472 Sm
21728 17450 Sl
21728 17450 Sm
21760 17421 Sl
21760 17421 Sm
21792 17385 Sl
21792 17385 Sm
21823 17343 Sl
21823 17343 Sm
21855 17295 Sl
21855 17295 Sm
21887 17249 Sl
21887 17249 Sm
21918 17196 Sl
21918 17196 Sm
21950 17139 Sl
21950 17139 Sm
21982 17076 Sl
21982 17076 Sm
22013 17006 Sl
22013 17006 Sm
22045 16930 Sl
22045 16930 Sm
22077 16847 Sl
22077 16847 Sm
22109 16826 Sl
22109 16826 Sm
22140 16807 Sl
22140 16807 Sm
22172 16786 Sl
22172 16786 Sm
22204 16764 Sl
22204 16764 Sm
22235 16741 Sl
22235 16741 Sm
22267 16732 Sl
22267 16732 Sm
22299 16720 Sl
22299 16720 Sm
22330 16704 Sl
22330 16704 Sm
22362 16702 Sl
22362 16702 Sm
22394 16701 Sl
22394 16701 Sm
22425 16699 Sl
22425 16699 Sm
22457 16693 Sl
22457 16693 Sm
22489 16684 Sl
22489 16684 Sm
22520 16681 Sl
22520 16681 Sm
22552 16677 Sl
22552 16677 Sm
22584 16674 Sl
22584 16674 Sm
22616 16667 Sl
22616 16667 Sm
22647 16658 Sl
22647 16658 Sm
22679 16644 Sl
22679 16644 Sm
22711 16640 Sl
22711 16640 Sm
22742 16636 Sl
22742 16636 Sm
22774 16629 Sl
22774 16629 Sm
22806 16619 Sl
22806 16619 Sm
22837 16606 Sl
22837 16606 Sm
22869 16591 Sl
22869 16591 Sm
22901 16574 Sl
22901 16574 Sm
22932 16555 Sl
22932 16555 Sm
22964 16532 Sl
22964 16532 Sm
22996 16514 Sl
22996 16514 Sm
23027 16516 Sl
23027 16516 Sm
23059 16516 Sl
23059 16516 Sm
23091 16514 Sl
23091 16514 Sm
23123 16515 Sl
23123 16515 Sm
23154 16515 Sl
23154 16515 Sm
23186 16514 Sl
23186 16514 Sm
23218 16510 Sl
23218 16510 Sm
23249 16505 Sl
23249 16505 Sm
23281 16498 Sl
23281 16498 Sm
23313 16490 Sl
23313 16490 Sm
23344 16481 Sl
23344 16481 Sm
23376 16469 Sl
23376 16469 Sm
23408 16459 Sl
23408 16459 Sm
23439 16451 Sl
23439 16451 Sm
23471 16442 Sl
23471 16442 Sm
23503 16432 Sl
23503 16432 Sm
23534 16420 Sl
23534 16420 Sm
23566 16407 Sl
23566 16407 Sm
23598 16390 Sl
23598 16390 Sm
23630 16373 Sl
23630 16373 Sm
23661 16353 Sl
23661 16353 Sm
23693 16331 Sl
23693 16331 Sm
23725 16307 Sl
23725 16307 Sm
23756 16288 Sl
23756 16288 Sm
23788 16281 Sl
23788 16281 Sm
23820 16273 Sl
23820 16273 Sm
23851 16264 Sl
23851 16264 Sm
23883 16257 Sl
23883 16257 Sm
23915 16254 Sl
23915 16254 Sm
23946 16257 Sl
23946 16257 Sm
23978 16259 Sl
23978 16259 Sm
24010 16261 Sl
24010 16261 Sm
24041 16262 Sl
24041 16262 Sm
24073 16263 Sl
24073 16263 Sm
24105 16263 Sl
24105 16263 Sm
24137 16261 Sl
24137 16261 Sm
24168 16259 Sl
24168 16259 Sm
24200 16256 Sl
24200 16256 Sm
24232 16252 Sl
24232 16252 Sm
24263 16251 Sl
24263 16251 Sm
24295 16249 Sl
24295 16249 Sm
24327 16247 Sl
24327 16247 Sm
24358 16244 Sl
24358 16244 Sm
24390 16241 Sl
24390 16241 Sm
24422 16237 Sl
24422 16237 Sm
24453 16231 Sl
24453 16231 Sm
24485 16224 Sl
24485 16224 Sm
24517 16219 Sl
24517 16219 Sm
24548 16216 Sl
24548 16216 Sm
24580 16212 Sl
24580 16212 Sm
24612 16207 Sl
24612 16207 Sm
24644 16203 Sl
24644 16203 Sm
24675 16198 Sl
24675 16198 Sm
24707 16192 Sl
24707 16192 Sm
24739 16186 Sl
24739 16186 Sm
24770 16179 Sl
24770 16179 Sm
24802 16171 Sl
24802 16171 Sm
24834 16169 Sl
24834 16169 Sm
24865 16167 Sl
24865 16167 Sm
24897 16165 Sl
24897 16165 Sm
24929 16163 Sl
24929 16163 Sm
24960 16160 Sl
24960 16160 Sm
24992 16157 Sl
24992 16157 Sm
25024 16154 Sl
25024 16154 Sm
25055 16150 Sl
25055 16150 Sm
25087 16145 Sl
25087 16145 Sm
25119 16140 Sl
25119 16140 Sm
25151 16135 Sl
25151 16135 Sm
25182 16129 Sl
25182 16129 Sm
25214 16122 Sl
25214 16122 Sm
25246 16116 Sl
25246 16116 Sm
25277 16110 Sl
25277 16110 Sm
25309 16105 Sl
25309 16105 Sm
25341 16101 Sl
25341 16101 Sm
25372 16097 Sl
25372 16097 Sm
25404 16093 Sl
25404 16093 Sm
25436 16089 Sl
25436 16089 Sm
25467 16085 Sl
25467 16085 Sm
25499 16081 Sl
25499 16081 Sm
25531 16077 Sl
25531 16077 Sm
25562 16072 Sl
25562 16072 Sm
25594 16068 Sl
25594 16068 Sm
25626 16064 Sl
25626 16064 Sm
25658 16062 Sl
25658 16062 Sm
25689 16061 Sl
25689 16061 Sm
25721 16060 Sl
25721 16060 Sm
25753 16060 Sl
25753 16060 Sm
25784 16060 Sl
25784 16060 Sm
25816 16060 Sl
25816 16060 Sm
25848 16059 Sl
25848 16059 Sm
25879 16059 Sl
25879 16059 Sm
25911 16059 Sl
25911 16059 Sm
25943 16058 Sl
25943 16058 Sm
25974 16058 Sl
25974 16058 Sm
26006 16057 Sl
26006 16057 Sm
26038 16057 Sl
26038 16057 Sm
26069 16057 Sl
26069 16057 Sm
26101 16056 Sl
26101 16056 Sm
26133 16056 Sl
26133 16056 Sm
26165 16056 Sl
26165 16056 Sm
26196 16056 Sl
26196 16056 Sm
26228 16057 Sl
26228 16057 Sm
26260 16057 Sl
26260 16057 Sm
26291 16057 Sl
26291 16057 Sm
26323 16058 Sl
26323 16058 Sm
26355 16058 Sl
26355 16058 Sm
26386 16058 Sl
26386 16058 Sm
26418 16058 Sl
26418 16058 Sm
26450 16059 Sl
26450 16059 Sm
26481 16059 Sl
26481 16059 Sm
26513 16060 Sl
26513 16060 Sm
26545 16060 Sl
26545 16060 Sm
26576 16061 Sl
26576 16061 Sm
26608 16062 Sl
26608 16062 Sm
26640 16062 Sl
26640 16062 Sm
26672 16063 Sl
26672 16063 Sm
26703 16063 Sl
26703 16063 Sm
26735 16063 Sl
26735 16063 Sm
26767 16064 Sl
26767 16064 Sm
26798 16064 Sl
26798 16064 Sm
26830 16064 Sl
26830 16064 Sm
26862 16064 Sl
26862 16064 Sm
26893 16064 Sl
26893 16064 Sm
26925 16064 Sl
26925 16064 Sm
26957 16064 Sl
26957 16064 Sm
26988 16064 Sl
26988 16064 Sm
27020 16064 Sl
27020 16064 Sm
27052 16064 Sl
27052 16064 Sm
27084 16064 Sl
27084 16064 Sm
27115 16064 Sl
27115 16064 Sm
27147 16064 Sl
27147 16064 Sm
27179 16064 Sl
27179 16064 Sm
27210 16063 Sl
/Slrgb {0.102 0.278 0.435} def
3573 7766 Sm
3603 7774 Sl
3603 7774 Sm
3634 7781 Sl
3634 7781 Sm
3664 7789 Sl
3664 7789 Sm
3694 7801 Sl
3694 7801 Sm
3725 7811 Sl
3725 7811 Sm
3755 7829 Sl
3755 7829 Sm
3786 7848 Sl
3786 7848 Sm
3816 7864 Sl
3816 7864 Sm
3847 7880 Sl
3847 7880 Sm
3877 7893 Sl
3877 7893 Sm
3907 7911 Sl
3907 7911 Sm
3938 7927 Sl
3938 7927 Sm
3968 7940 Sl
3968 7940 Sm
3999 7949 Sl
3999 7949 Sm
4029 7957 Sl
4029 7957 Sm
4060 7971 Sl
4060 7971 Sm
4090 7983 Sl
4090 7983 Sm
4120 7993 Sl
4120 7993 Sm
4151 8001 Sl
4151 8001 Sm
4181 8005 Sl
4181 8005 Sm
4212 8009 Sl
4212 8009 Sm
4242 8010 Sl
4242 8010 Sm
4272 8010 Sl
4272 8010 Sm
4303 8011 Sl
4303 8011 Sm
4333 8009 Sl
4333 8009 Sm
4364 8008 Sl
4364 8008 Sm
4394 8004 Sl
4394 8004 Sm
4425 7998 Sl
4425 7998 Sm
4455 7989 Sl
4455 7989 Sm
4485 7977 Sl
4485 7977 Sm
4516 7972 Sl
4516 7972 Sm
4546 7963 Sl
4546 7963 Sm
4577 7956 Sl
4577 7956 Sm
4607 7946 Sl
4607 7946 Sm
4638 7936 Sl
4638 7936 Sm
4668 7956 Sl
4668 7956 Sm
4698 7974 Sl
4698 7974 Sm
4729 7991 Sl
4729 7991 Sm
4759 8007 Sl
4759 8007 Sm
4790 8020 Sl
4790 8020 Sm
4820 8036 Sl
4820 8036 Sm
4850 8048 Sl
4850 8048 Sm
4881 8055 Sl
4881 8055 Sm
4911 8059 Sl
4911 8059 Sm
4942 8061 Sl
4942 8061 Sm
4972 8090 Sl
4972 8090 Sm
5003 8115 Sl
5003 8115 Sm
5033 8141 Sl
5033 8141 Sm
5063 8169 Sl
5063 8169 Sm
5094 8191 Sl
5094 8191 Sm
5124 8209 Sl
5124 8209 Sm
5155 8220 Sl
5155 8220 Sm
5185 8233 Sl
5185 8233 Sm
5215 8243 Sl
5215 8243 Sm
5246 8248 Sl
5246 8248 Sm
5276 8262 Sl
5276 8262 Sm
5307 8269 Sl
5307 8269 Sm
5337 8271 Sl
5337 8271 Sm
5368 8267 Sl
5368 8267 Sm
5398 8258 Sl
5398 8258 Sm
5428 8310 Sl
5428 8310 Sm
5459 8351 Sl
5459 8351 Sm
5489 8380 Sl
5489 8380 Sm
5520 8399 Sl
5520 8399 Sm
5550 8418 Sl
5550 8418 Sm
5581 8452 Sl
5581 8452 Sm
5611 8476 Sl
5611 8476 Sm
5641 8495 Sl
5641 8495 Sm
5672 8505 Sl
5672 8505 Sm
5702 8506 Sl
5702 8506 Sm
5733 8499 Sl
5733 8499 Sm
5763 8482 Sl
5763 8482 Sm
5793 8466 Sl
5793 8466 Sm
5824 8449 Sl
5824 8449 Sm
5854 8436 Sl
5854 8436 Sm
5885 8462 Sl
5885 8462 Sm
5915 8477 Sl
5915 8477 Sm
5946 8497 Sl
5946 8497 Sm
5976 8508 Sl
5976 8508 Sm
6006 8508 Sl
6006 8508 Sm
6037 8501 Sl
6037 8501 Sm
6067 8483 Sl
6067 8483 Sm
6098 8458 Sl
6098 8458 Sm
6128 8424 Sl
6128 8424 Sm
6159 8395 Sl
6159 8395 Sm
6189 8452 Sl
6189 8452 Sm
6219 8493 Sl
6219 8493 Sm
6250 8521 Sl
6250 8521 Sm
6280 8534 Sl
6280 8534 Sm
6311 8569 Sl
6311 8569 Sm
6341 8664 Sl
6341 8664 Sm
6371 8745 Sl
6371 8745 Sm
6402 8812 Sl
6402 8812 Sm
6432 8866 Sl
6432 8866 Sm
6463 8910 Sl
6463 8910 Sm
6493 8951 Sl
6493 8951 Sm
6524 8977 Sl
6524 8977 Sm
6554 9003 Sl
6554 9003 Sm
6584 9021 Sl
6584 9021 Sm
6615 9024 Sl
6615 9024 Sm
6645 9013 Sl
6645 9013 Sm
6676 8987 Sl
6676 8987 Sm
6706 8964 Sl
6706 8964 Sm
6737 8926 Sl
6737 8926 Sm
6767 8932 Sl
6767 8932 Sm
6797 9153 Sl
6797 9153 Sm
6828 9344 Sl
6828 9344 Sm
6858 9514 Sl
6858 9514 Sm
6889 9656 Sl
6889 9656 Sm
6919 9774 Sl
6919 9774 Sm
6949 9887 Sl
6949 9887 Sm
6980 9966 Sl
6980 9966 Sm
7010 10015 Sl
7010 10015 Sm
7041 10030 Sl
7041 10030 Sm
7071 10073 Sl
7071 10073 Sm
7102 10136 Sl
7102 10136 Sm
7132 10172 Sl
7132 10172 Sm
7162 10182 Sl
7162 10182 Sm
7193 10165 Sl
7193 10165 Sm
7223 10155 Sl
7223 10155 Sm
7254 10157 Sl
7254 10157 Sm
7284 10135 Sl
7284 10135 Sm
7314 10090 Sl
7314 10090 Sm
7345 10021 Sl
7345 10021 Sm
7375 9940 Sl
7375 9940 Sm
7406 9867 Sl
7406 9867 Sm
7436 9768 Sl
7436 9768 Sm
7467 9663 Sl
7467 9663 Sm
7497 9531 Sl
7497 9531 Sm
7527 9374 Sl
7527 9374 Sm
7558 9193 Sl
7558 9193 Sm
7588 8985 Sl
7588 8985 Sm
7619 8752 Sl
7619 8752 Sm
7649 8492 Sl
7649 8492 Sm
7680 8390 Sl
7680 8390 Sm
7710 8400 Sl
7710 8400 Sm
7740 8400 Sl
7740 8400 Sm
7771 8402 Sl
7771 8402 Sm
7801 8393 Sl
7801 8393 Sm
7832 8396 Sl
7832 8396 Sm
7862 8401 Sl
7862 8401 Sm
7892 8399 Sl
7892 8399 Sm
7923 8394 Sl
7923 8394 Sm
7953 8382 Sl
7953 8382 Sm
7984 8367 Sl
7984 8367 Sm
8014 8347 Sl
8014 8347 Sm
8045 8318 Sl
8045 8318 Sm
8075 8283 Sl
8075 8283 Sm
8105 8239 Sl
8105 8239 Sm
8136 8207 Sl
8136 8207 Sm
8166 8178 Sl
8166 8178 Sm
8197 8143 Sl
8197 8143 Sm
8227 8104 Sl
8227 8104 Sm
8258 8058 Sl
8258 8058 Sm
8288 8036 Sl
8288 8036 Sm
8318 8023 Sl
8318 8023 Sm
8349 8005 Sl
8349 8005 Sm
8379 7985 Sl
8379 7985 Sm
8410 7961 Sl
8410 7961 Sm
8440 7941 Sl
8440 7941 Sm
8470 7931 Sl
8470 7931 Sm
8501 7915 Sl
8501 7915 Sm
8531 7894 Sl
8531 7894 Sm
8562 7867 Sl
8562 7867 Sm
8592 7871 Sl
8592 7871 Sm
8623 7890 Sl
8623 7890 Sm
8653 7906 Sl
8653 7906 Sm
8683 7921 Sl
8683 7921 Sm
8714 7932 Sl
8714 7932 Sm
8744 7941 Sl
8744 7941 Sm
8775 7949 Sl
8775 7949 Sm
8805 7954 Sl
8805 7954 Sm
8836 7961 Sl
8836 7961 Sm
8866 7966 Sl
8866 7966 Sm
8896 7968 Sl
8896 7968 Sm
8927 7968 Sl
8927 7968 Sm
8957 7965 Sl
8957 7965 Sm
8988 7962 Sl
8988 7962 Sm
9018 7956 Sl
9018 7956 Sm
9048 7953 Sl
9048 7953 Sm
9079 7950 Sl
9079 7950 Sm
9109 7943 Sl
9109 7943 Sm
9140 7934 Sl
9140 7934 Sm
9170 7922 Sl
9170 7922 Sm
9201 7909 Sl
9201 7909 Sm
9231 7896 Sl
9231 7896 Sm
9261 7880 Sl
9261 7880 Sm
9292 7862 Sl
9292 7862 Sm
9322 7841 Sl
9322 7841 Sm
9353 7835 Sl
9353 7835 Sm
9383 7832 Sl
9383 7832 Sm
9413 7826 Sl
9413 7826 Sm
9444 7819 Sl
9444 7819 Sm
9474 7809 Sl
9474 7809 Sm
9505 7811 Sl
9505 7811 Sm
9535 7817 Sl
9535 7817 Sm
9566 7822 Sl
9566 7822 Sm
9596 7826 Sl
9596 7826 Sm
9626 7827 Sl
9626 7827 Sm
9657 7829 Sl
9657 7829 Sm
9687 7829 Sl
9687 7829 Sm
9718 7828 Sl
9718 7828 Sm
9748 7827 Sl
9748 7827 Sm
9779 7824 Sl
9779 7824 Sm
9809 7820 Sl
9809 7820 Sm
9839 7814 Sl
9839 7814 Sm
9870 7808 Sl
9870 7808 Sm
9900 7802 Sl
9900 7802 Sm
9931 7794 Sl
9931 7794 Sm
9961 7790 Sl
9961 7790 Sm
9991 7786 Sl
9991 7786 Sm
10022 7781 Sl
10022 7781 Sm
10052 7775 Sl
10052 7775 Sm
10083 7767 Sl
10083 7767 Sm
10113 7763 Sl
10113 7763 Sm
10144 7759 Sl
10144 7759 Sm
10174 7754 Sl
10174 7754 Sm
10204 7749 Sl
10204 7749 Sm
10235 7744 Sl
10235 7744 Sm
10265 7740 Sl
10265 7740 Sm
10296 7735 Sl
10296 7735 Sm
10326 7730 Sl
10326 7730 Sm
10357 7725 Sl
10357 7725 Sm
10387 7719 Sl
10387 7719 Sm
10417 7722 Sl
10417 7722 Sm
10448 7725 Sl
10448 7725 Sm
10478 7729 Sl
10478 7729 Sm
10509 7731 Sl
10509 7731 Sm
10539 7733 Sl
10539 7733 Sm
10569 7735 Sl
10569 7735 Sm
10600 7736 Sl
10600 7736 Sm
10630 7737 Sl
10630 7737 Sm
10661 7737 Sl
10661 7737 Sm
10691 7737 Sl
10691 7737 Sm
10722 7737 Sl
10722 7737 Sm
10752 7738 Sl
10752 7738 Sm
10782 7738 Sl
10782 7738 Sm
10813 7738 Sl
10813 7738 Sm
10843 7736 Sl
10843 7736 Sm
10874 7737 Sl
10874 7737 Sm
10904 7738 Sl
10904 7738 Sm
10935 7738 Sl
10935 7738 Sm
10965 7738 Sl
10965 7738 Sm
10995 7737 Sl
10995 7737 Sm
11026 7735 Sl
11026 7735 Sm
11056 7733 Sl
11056 7733 Sm
11087 7731 Sl
11087 7731 Sm
11117 7730 Sl
11117 7730 Sm
11147 7727 Sl
11147 7727 Sm
11178 7726 Sl
11178 7726 Sm
11208 7723 Sl
11208 7723 Sm
11239 7721 Sl
11239 7721 Sm
11269 7720 Sl
11269 7720 Sm
11300 7718 Sl
11300 7718 Sm
11330 7719 Sl
11330 7719 Sm
11360 7720 Sl
11360 7720 Sm
11391 7720 Sl
11391 7720 Sm
11421 7720 Sl
11421 7720 Sm
11452 7719 Sl
11452 7719 Sm
11482 7718 Sl
11482 7718 Sm
11512 7717 Sl
11512 7717 Sm
11543 7716 Sl
11543 7716 Sm
11573 7714 Sl
11573 7714 Sm
11604 7712 Sl
11604 7712 Sm
11634 7711 Sl
11634 7711 Sm
11665 7711 Sl
11665 7711 Sm
11695 7710 Sl
11695 7710 Sm
11725 7709 Sl
11725 7709 Sm
11756 7708 Sl
11756 7708 Sm
11786 7708 Sl
11786 7708 Sm
11817 7707 Sl
11817 7707 Sm
11847 7706 Sl
11847 7706 Sm
11878 7705 Sl
11878 7705 Sm
11908 7704 Sl
11908 7704 Sm
11938 7703 Sl
11938 7703 Sm
11969 7702 Sl
11969 7702 Sm
11999 7701 Sl
11999 7701 Sm
12030 7700 Sl
12030 7700 Sm
12060 7699 Sl
12060 7699 Sm
12090 7698 Sl
12090 7698 Sm
12121 7696 Sl
12121 7696 Sm
12151 7696 Sl
12151 7696 Sm
12182 7695 Sl
12182 7695 Sm
12212 7694 Sl
12212 7694 Sm
12243 7695 Sl
12243 7695 Sm
12273 7695 Sl
12273 7695 Sm
12303 7696 Sl
12303 7696 Sm
12334 7697 Sl
12334 7697 Sm
12364 7697 Sl
12364 7697 Sm
12395 7698 Sl
12395 7698 Sm
12425 7698 Sl
12425 7698 Sm
12456 7698 Sl
12456 7698 Sm
12486 7699 Sl
12486 7699 Sm
12516 7699 Sl
12516 7699 Sm
12547 7699 Sl
12547 7699 Sm
12577 7699 Sl
12577 7699 Sm
12608 7699 Sl
12608 7699 Sm
12638 7699 Sl
12638 7699 Sm
12668 7699 Sl
/Slrgb {0.565 0.208 0.231} def
3573 7816 Sm
3611 7819 Sl
3611 7819 Sm
3650 7820 Sl
3650 7820 Sm
3688 7820 Sl
3688 7820 Sm
3727 7819 Sl
3727 7819 Sm
3765 7815 Sl
3765 7815 Sm
3804 7809 Sl
3804 7809 Sm
3843 7801 Sl
3843 7801 Sm
3881 7797 Sl
3881 7797 Sm
3920 7813 Sl
3920 7813 Sm
3958 7837 Sl
3958 7837 Sm
3997 7860 Sl
3997 7860 Sm
4035 7887 Sl
4035 7887 Sm
4074 7913 Sl
4074 7913 Sm
4112 7933 Sl
4112 7933 Sm
4151 7946 Sl
4151 7946 Sm
4189 7956 Sl
4189 7956 Sm
4228 7961 Sl
4228 7961 Sm
4266 7958 Sl
4266 7958 Sm
4305 7952 Sl
4305 7952 Sm
4343 7938 Sl
4343 7938 Sm
4382 7922 Sl
4382 7922 Sm
4421 7907 Sl
4421 7907 Sm
4459 7891 Sl
4459 7891 Sm
4498 7871 Sl
4498 7871 Sm
4536 7863 Sl
4536 7863 Sm
4575 7849 Sl
4575 7849 Sm
4613 7839 Sl
4613 7839 Sm
4652 7831 Sl
4652 7831 Sm
4690 7836 Sl
4690 7836 Sm
4729 7836 Sl
4729 7836 Sm
4767 7833 Sl
4767 7833 Sm
4806 7851 Sl
4806 7851 Sm
4844 7871 Sl
4844 7871 Sm
4883 7884 Sl
4883 7884 Sm
4921 7892 Sl
4921 7892 Sm
4960 7897 Sl
4960 7897 Sm
4999 7895 Sl
4999 7895 Sm
5037 7889 Sl
5037 7889 Sm
5076 7886 Sl
5076 7886 Sm
5114 7900 Sl
5114 7900 Sm
5153 7911 Sl
5153 7911 Sm
5191 7934 Sl
5191 7934 Sm
5230 7946 Sl
5230 7946 Sm
5268 7950 Sl
5268 7950 Sm
5307 7952 Sl
5307 7952 Sm
5345 7944 Sl
5345 7944 Sm
5384 7928 Sl
5384 7928 Sm
5422 7920 Sl
5422 7920 Sm
5461 7920 Sl
5461 7920 Sm
5499 7915 Sl
5499 7915 Sm
5538 7918 Sl
5538 7918 Sm
5576 7955 Sl
5576 7955 Sm
5615 7981 Sl
5615 7981 Sm
5654 7993 Sl
5654 7993 Sm
5692 7995 Sl
5692 7995 Sm
5731 8005 Sl
5731 8005 Sm
5769 8014 Sl
5769 8014 Sm
5808 8025 Sl
5808 8025 Sm
5846 8036 Sl
5846 8036 Sm
5885 8037 Sl
5885 8037 Sm
5923 8047 Sl
5923 8047 Sm
5962 8068 Sl
5962 8068 Sm
6000 8091 Sl
6000 8091 Sm
6039 8119 Sl
6039 8119 Sm
6077 8131 Sl
6077 8131 Sm
6116 8124 Sl
6116 8124 Sm
6154 8099 Sl
6154 8099 Sm
6193 8101 Sl
6193 8101 Sm
6232 8106 Sl
6232 8106 Sm
6270 8098 Sl
6270 8098 Sm
6309 8234 Sl
6309 8234 Sm
6347 8453 Sl
6347 8453 Sm
6386 8631 Sl
6386 8631 Sm
6424 8767 Sl
6424 8767 Sm
6463 8896 Sl
6463 8896 Sm
6501 8995 Sl
6501 8995 Sm
6540 9045 Sl
6540 9045 Sm
6578 9086 Sl
6578 9086 Sm
6617 9107 Sl
6617 9107 Sm
6655 9122 Sl
6655 9122 Sm
6694 9171 Sl
6694 9171 Sm
6732 9189 Sl
6732 9189 Sm
6771 9170 Sl
6771 9170 Sm
6810 9100 Sl
6810 9100 Sm
6848 8972 Sl
6848 8972 Sm
6887 8784 Sl
6887 8784 Sm
6925 9080 Sl
6925 9080 Sm
6964 9619 Sl
6964 9619 Sm
7002 10063 Sl
7002 10063 Sm
7041 10403 Sl
7041 10403 Sm
7079 10769 Sl
7079 10769 Sm
7118 11076 Sl
7118 11076 Sm
7156 11269 Sl
7156 11269 Sm
7195 11344 Sl
7195 11344 Sm
7233 11325 Sl
7233 11325 Sm
7272 11208 Sl
7272 11208 Sm
7310 10998 Sl
7310 10998 Sm
7349 10762 Sl
7349 10762 Sm
7388 10487 Sl
7388 10487 Sm
7426 10120 Sl
7426 10120 Sm
7465 9674 Sl
7465 9674 Sm
7503 9120 Sl
7503 9120 Sm
7542 8711 Sl
7542 8711 Sm
7580 8696 Sl
7580 8696 Sm
7619 8643 Sl
7619 8643 Sm
7657 8559 Sl
7657 8559 Sm
7696 8493 Sl
7696 8493 Sm
7734 8491 Sl
7734 8491 Sm
7773 8466 Sl
7773 8466 Sm
7811 8464 Sl
7811 8464 Sm
7850 8571 Sl
7850 8571 Sm
7888 8646 Sl
7888 8646 Sm
7927 8679 Sl
7927 8679 Sm
7965 8671 Sl
7965 8671 Sm
8004 8660 Sl
8004 8660 Sm
8043 8648 Sl
8043 8648 Sm
8081 8626 Sl
8081 8626 Sm
8120 8590 Sl
8120 8590 Sm
8158 8563 Sl
8158 8563 Sm
8197 8539 Sl
8197 8539 Sm
8235 8493 Sl
8235 8493 Sm
8274 8430 Sl
8274 8430 Sm
8312 8354 Sl
8312 8354 Sm
8351 8251 Sl
8351 8251 Sm
8389 8121 Sl
8389 8121 Sm
8428 7965 Sl
8428 7965 Sm
8466 7921 Sl
8466 7921 Sm
8505 7923 Sl
8505 7923 Sm
8543 7918 Sl
8543 7918 Sm
8582 7940 Sl
8582 7940 Sm
8621 7981 Sl
8621 7981 Sm
8659 8009 Sl
8659 8009 Sm
8698 8032 Sl
8698 8032 Sm
8736 8088 Sl
8736 8088 Sm
8775 8155 Sl
8775 8155 Sm
8813 8204 Sl
8813 8204 Sm
8852 8237 Sl
8852 8237 Sm
8890 8251 Sl
8890 8251 Sm
8929 8268 Sl
8929 8268 Sm
8967 8274 Sl
8967 8274 Sm
9006 8265 Sl
9006 8265 Sm
9044 8239 Sl
9044 8239 Sm
9083 8202 Sl
9083 8202 Sm
9121 8153 Sl
9121 8153 Sm
9160 8086 Sl
9160 8086 Sm
9199 8007 Sl
9199 8007 Sm
9237 7974 Sl
9237 7974 Sm
9276 7929 Sl
9276 7929 Sm
9314 7872 Sl
9314 7872 Sm
9353 7824 Sl
9353 7824 Sm
9391 7834 Sl
9391 7834 Sm
9430 7838 Sl
9430 7838 Sm
9468 7838 Sl
9468 7838 Sm
9507 7835 Sl
9507 7835 Sm
9545 7829 Sl
9545 7829 Sm
9584 7820 Sl
9584 7820 Sm
9622 7815 Sl
9622 7815 Sm
9661 7834 Sl
9661 7834 Sm
9699 7847 Sl
9699 7847 Sm
9738 7856 Sl
9738 7856 Sm
9777 7864 Sl
9777 7864 Sm
9815 7868 Sl
9815 7868 Sm
9854 7869 Sl
9854 7869 Sm
9892 7864 Sl
9892 7864 Sm
9931 7853 Sl
9931 7853 Sm
9969 7843 Sl
9969 7843 Sm
10008 7838 Sl
10008 7838 Sm
10046 7830 Sl
10046 7830 Sm
10085 7821 Sl
10085 7821 Sm
10123 7820 Sl
10123 7820 Sm
10162 7815 Sl
10162 7815 Sm
10200 7805 Sl
10200 7805 Sm
10239 7790 Sl
10239 7790 Sm
10277 7787 Sl
10277 7787 Sm
10316 7795 Sl
10316 7795 Sm
10354 7802 Sl
10354 7802 Sm
10393 7806 Sl
10393 7806 Sm
10432 7810 Sl
10432 7810 Sm
10470 7815 Sl
10470 7815 Sm
10509 7820 Sl
10509 7820 Sm
10547 7822 Sl
10547 7822 Sm
10586 7822 Sl
10586 7822 Sm
10624 7816 Sl
10624 7816 Sm
10663 7806 Sl
10663 7806 Sm
10701 7790 Sl
10701 7790 Sm
10740 7783 Sl
10740 7783 Sm
10778 7777 Sl
10778 7777 Sm
10817 7771 Sl
10817 7771 Sm
10855 7765 Sl
10855 7765 Sm
10894 7759 Sl
10894 7759 Sm
10932 7752 Sl
10932 7752 Sm
10971 7744 Sl
10971 7744 Sm
11010 7735 Sl
11010 7735 Sm
11048 7726 Sl
11048 7726 Sm
11087 7716 Sl
11087 7716 Sm
11125 7713 Sl
11125 7713 Sm
11164 7711 Sl
11164 7711 Sm
11202 7712 Sl
11202 7712 Sm
11241 7713 Sl
11241 7713 Sm
11279 7714 Sl
11279 7714 Sm
11318 7714 Sl
11318 7714 Sm
11356 7714 Sl
11356 7714 Sm
11395 7714 Sl
11395 7714 Sm
11433 7713 Sl
11433 7713 Sm
11472 7711 Sl
11472 7711 Sm
11510 7711 Sl
11510 7711 Sm
11549 7709 Sl
11549 7709 Sm
11588 7708 Sl
11588 7708 Sm
11626 7707 Sl
11626 7707 Sm
11665 7706 Sl
11665 7706 Sm
11703 7704 Sl
11703 7704 Sm
11742 7703 Sl
11742 7703 Sm
11780 7701 Sl
11780 7701 Sm
11819 7700 Sl
11819 7700 Sm
11857 7699 Sl
11857 7699 Sm
11896 7699 Sl
11896 7699 Sm
11934 7698 Sl
11934 7698 Sm
11973 7698 Sl
11973 7698 Sm
12011 7698 Sl
12011 7698 Sm
12050 7697 Sl
12050 7697 Sm
12088 7697 Sl
12088 7697 Sm
12127 7697 Sl
12127 7697 Sm
12166 7697 Sl
12166 7697 Sm
12204 7696 Sl
12204 7696 Sm
12243 7696 Sl
12243 7696 Sm
12281 7696 Sl
12281 7696 Sm
12320 7696 Sl
12320 7696 Sm
12358 7696 Sl
12358 7696 Sm
12397 7697 Sl
12397 7697 Sm
12435 7698 Sl
12435 7698 Sm
12474 7700 Sl
12474 7700 Sm
12512 7700 Sl
12512 7700 Sm
12551 7701 Sl
12551 7701 Sm
12589 7701 Sl
12589 7701 Sm
12628 7702 Sl
12628 7702 Sm
12666 7702 Sl
12666 7702 Sm
12705 7701 Sl
12705 7701 Sm
12743 7701 Sl
12743 7701 Sm
12782 7700 Sl
12782 7700 Sm
12821 7699 Sl
12821 7699 Sm
12859 7698 Sl
12859 7698 Sm
12898 7697 Sl
12898 7697 Sm
12936 7696 Sl
12936 7696 Sm
12975 7695 Sl
12975 7695 Sm
13013 7694 Sl
13013 7694 Sm
13052 7694 Sl
13052 7694 Sm
13090 7694 Sl
13090 7694 Sm
13129 7695 Sl
13129 7695 Sm
13167 7695 Sl
13167 7695 Sm
13206 7696 Sl
13206 7696 Sm
13244 7696 Sl
13244 7696 Sm
13283 7696 Sl
13283 7696 Sm
13321 7697 Sl
13321 7697 Sm
13360 7697 Sl
13360 7697 Sm
13399 7697 Sl
13399 7697 Sm
13437 7697 Sl
13437 7697 Sm
13476 7697 Sl
13476 7697 Sm
13514 7697 Sl
13514 7697 Sm
13553 7696 Sl
13553 7696 Sm
13591 7696 Sl
13591 7696 Sm
13630 7696 Sl
13630 7696 Sm
13668 7695 Sl
13668 7695 Sm
13707 7695 Sl
13707 7695 Sm
13745 7695 Sl
13745 7695 Sm
13784 7695 Sl
13784 7695 Sm
13822 7696 Sl
13822 7696 Sm
13861 7696 Sl
13861 7696 Sm
13899 7697 Sl
13899 7697 Sm
13938 7698 Sl
13938 7698 Sm
13977 7698 Sl
13977 7698 Sm
14015 7699 Sl
14015 7699 Sm
14054 7699 Sl
14054 7699 Sm
14092 7699 Sl
14092 7699 Sm
14131 7699 Sl
14131 7699 Sm
14169 7699 Sl
14169 7699 Sm
14208 7698 Sl
14208 7698 Sm
14246 7698 Sl
14246 7698 Sm
14285 7697 Sl
14285 7697 Sm
14323 7697 Sl
14323 7697 Sm
14362 7696 Sl
14362 7696 Sm
14400 7696 Sl
14400 7696 Sm
14439 7695 Sl
14439 7695 Sm
14477 7695 Sl
14477 7695 Sm
14516 7694 Sl
14516 7694 Sm
14555 7694 Sl
14555 7694 Sm
14593 7694 Sl
14593 7694 Sm
14632 7694 Sl
14632 7694 Sm
14670 7694 Sl
14670 7694 Sm
14709 7694 Sl
14709 7694 Sm
14747 7694 Sl
14747 7694 Sm
14786 7694 Sl
14786 7694 Sm
14824 7695 Sl
14824 7695 Sm
14863 7695 Sl
14863 7695 Sm
14901 7696 Sl
14901 7696 Sm
14940 7696 Sl
14940 7696 Sm
14978 7696 Sl
14978 7696 Sm
15017 7697 Sl
15017 7697 Sm
15055 7697 Sl
15055 7697 Sm
15094 7697 Sl
/Slrgb {0.333 0.459 0.184} def
3573 7910 Sm
3613 7930 Sl
3613 7930 Sm
3654 7948 Sl
3654 7948 Sm
3694 7968 Sl
3694 7968 Sm
3735 7985 Sl
3735 7985 Sm
3776 8001 Sl
3776 8001 Sm
3816 8013 Sl
3816 8013 Sm
3857 8027 Sl
3857 8027 Sm
3897 8038 Sl
3897 8038 Sm
3938 8045 Sl
3938 8045 Sm
3978 8051 Sl
3978 8051 Sm
4019 8054 Sl
4019 8054 Sm
4060 8056 Sl
4060 8056 Sm
4100 8057 Sl
4100 8057 Sm
4141 8056 Sl
4141 8056 Sm
4181 8052 Sl
4181 8052 Sm
4222 8045 Sl
4222 8045 Sm
4262 8041 Sl
4262 8041 Sm
4303 8043 Sl
4303 8043 Sm
4343 8042 Sl
4343 8042 Sm
4384 8038 Sl
4384 8038 Sm
4425 8033 Sl
4425 8033 Sm
4465 8038 Sl
4465 8038 Sm
4506 8041 Sl
4506 8041 Sm
4546 8041 Sl
4546 8041 Sm
4587 8041 Sl
4587 8041 Sm
4627 8038 Sl
4627 8038 Sm
4668 8035 Sl
4668 8035 Sm
4708 8030 Sl
4708 8030 Sm
4749 8025 Sl
4749 8025 Sm
4790 8021 Sl
4790 8021 Sm
4830 8020 Sl
4830 8020 Sm
4871 8022 Sl
4871 8022 Sm
4911 8026 Sl
4911 8026 Sm
4952 8028 Sl
4952 8028 Sm
4992 8027 Sl
4992 8027 Sm
5033 8029 Sl
5033 8029 Sm
5074 8031 Sl
5074 8031 Sm
5114 8031 Sl
5114 8031 Sm
5155 8029 Sl
5155 8029 Sm
5195 8038 Sl
5195 8038 Sm
5236 8056 Sl
5236 8056 Sm
5276 8071 Sl
5276 8071 Sm
5317 8081 Sl
5317 8081 Sm
5357 8093 Sl
5357 8093 Sm
5398 8104 Sl
5398 8104 Sm
5439 8112 Sl
5439 8112 Sm
5479 8118 Sl
5479 8118 Sm
5520 8121 Sl
5520 8121 Sm
5560 8122 Sl
5560 8122 Sm
5601 8134 Sl
5601 8134 Sm
5641 8149 Sl
5641 8149 Sm
5682 8169 Sl
5682 8169 Sm
5723 8183 Sl
5723 8183 Sm
5763 8193 Sl
5763 8193 Sm
5804 8213 Sl
5804 8213 Sm
5844 8228 Sl
5844 8228 Sm
5885 8240 Sl
5885 8240 Sm
5925 8247 Sl
5925 8247 Sm
5966 8288 Sl
5966 8288 Sm
6006 8335 Sl
6006 8335 Sm
6047 8373 Sl
6047 8373 Sm
6088 8407 Sl
6088 8407 Sm
6128 8453 Sl
6128 8453 Sm
6169 8495 Sl
6169 8495 Sm
6209 8530 Sl
6209 8530 Sm
6250 8558 Sl
6250 8558 Sm
6290 8580 Sl
6290 8580 Sm
6331 8601 Sl
6331 8601 Sm
6371 8623 Sl
6371 8623 Sm
6412 8641 Sl
6412 8641 Sm
6453 8650 Sl
6453 8650 Sm
6493 8651 Sl
6493 8651 Sm
6534 8654 Sl
6534 8654 Sm
6574 8739 Sl
6574 8739 Sm
6615 8831 Sl
6615 8831 Sm
6655 8913 Sl
6655 8913 Sm
6696 8986 Sl
6696 8986 Sm
6737 9081 Sl
6737 9081 Sm
6777 9159 Sl
6777 9159 Sm
6818 9222 Sl
6818 9222 Sm
6858 9268 Sl
6858 9268 Sm
6899 9301 Sl
6899 9301 Sm
6939 9334 Sl
6939 9334 Sm
6980 9356 Sl
6980 9356 Sm
7020 9382 Sl
7020 9382 Sm
7061 9397 Sl
7061 9397 Sm
7102 9399 Sl
7102 9399 Sm
7142 9386 Sl
7142 9386 Sm
7183 9370 Sl
7183 9370 Sm
7223 9339 Sl
7223 9339 Sm
7264 9291 Sl
7264 9291 Sm
7304 9268 Sl
7304 9268 Sm
7345 9245 Sl
7345 9245 Sm
7385 9208 Sl
7385 9208 Sm
7426 9158 Sl
7426 9158 Sm
7467 9132 Sl
7467 9132 Sm
7507 9123 Sl
7507 9123 Sm
7548 9099 Sl
7548 9099 Sm
7588 9061 Sl
7588 9061 Sm
7629 9011 Sl
7629 9011 Sm
7669 8954 Sl
7669 8954 Sm
7710 8896 Sl
7710 8896 Sm
7751 8826 Sl
7751 8826 Sm
7791 8746 Sl
7791 8746 Sm
7832 8653 Sl
7832 8653 Sm
7872 8547 Sl
7872 8547 Sm
7913 8511 Sl
7913 8511 Sm
7953 8489 Sl
7953 8489 Sm
7994 8464 Sl
7994 8464 Sm
8034 8433 Sl
8034 8433 Sm
8075 8429 Sl
8075 8429 Sm
8116 8420 Sl
8116 8420 Sm
8156 8407 Sl
8156 8407 Sm
8197 8388 Sl
8197 8388 Sm
8237 8384 Sl
8237 8384 Sm
8278 8383 Sl
8278 8383 Sm
8318 8375 Sl
8318 8375 Sm
8359 8368 Sl
8359 8368 Sm
8399 8368 Sl
8399 8368 Sm
8440 8364 Sl
8440 8364 Sm
8481 8353 Sl
8481 8353 Sm
8521 8347 Sl
8521 8347 Sm
8562 8336 Sl
8562 8336 Sm
8602 8318 Sl
8602 8318 Sm
8643 8294 Sl
8643 8294 Sm
8683 8264 Sl
8683 8264 Sm
8724 8227 Sl
8724 8227 Sm
8765 8184 Sl
8765 8184 Sm
8805 8154 Sl
8805 8154 Sm
8846 8151 Sl
8846 8151 Sm
8886 8145 Sl
8886 8145 Sm
8927 8135 Sl
8927 8135 Sm
8967 8122 Sl
8967 8122 Sm
9008 8112 Sl
9008 8112 Sm
9048 8102 Sl
9048 8102 Sm
9089 8089 Sl
9089 8089 Sm
9130 8076 Sl
9130 8076 Sm
9170 8059 Sl
9170 8059 Sm
9211 8041 Sl
9211 8041 Sm
9251 8021 Sl
9251 8021 Sm
9292 8009 Sl
9292 8009 Sm
9332 7999 Sl
9332 7999 Sm
9373 7986 Sl
9373 7986 Sm
9413 7970 Sl
9413 7970 Sm
9454 7951 Sl
9454 7951 Sm
9495 7929 Sl
9495 7929 Sm
9535 7903 Sl
9535 7903 Sm
9576 7895 Sl
9576 7895 Sm
9616 7893 Sl
9616 7893 Sm
9657 7890 Sl
9657 7890 Sm
9697 7885 Sl
9697 7885 Sm
9738 7889 Sl
9738 7889 Sm
9779 7893 Sl
9779 7893 Sm
9819 7896 Sl
9819 7896 Sm
9860 7899 Sl
9860 7899 Sm
9900 7901 Sl
9900 7901 Sm
9941 7901 Sl
9941 7901 Sm
9981 7900 Sl
9981 7900 Sm
10022 7897 Sl
10022 7897 Sm
10062 7892 Sl
10062 7892 Sm
10103 7887 Sl
10103 7887 Sm
10144 7881 Sl
10144 7881 Sm
10184 7874 Sl
10184 7874 Sm
10225 7867 Sl
10225 7867 Sm
10265 7858 Sl
10265 7858 Sm
10306 7847 Sl
10306 7847 Sm
10346 7840 Sl
10346 7840 Sm
10387 7833 Sl
10387 7833 Sm
10427 7824 Sl
10427 7824 Sm
10468 7814 Sl
10468 7814 Sm
10509 7803 Sl
10509 7803 Sm
10549 7790 Sl
10549 7790 Sm
10590 7776 Sl
10590 7776 Sm
10630 7769 Sl
10630 7769 Sm
10671 7768 Sl
10671 7768 Sm
10711 7766 Sl
10711 7766 Sm
10752 7764 Sl
10752 7764 Sm
10793 7762 Sl
10793 7762 Sm
10833 7759 Sl
10833 7759 Sm
10874 7755 Sl
10874 7755 Sm
10914 7752 Sl
10914 7752 Sm
10955 7748 Sl
10955 7748 Sm
10995 7743 Sl
10995 7743 Sm
11036 7738 Sl
11036 7738 Sm
11076 7734 Sl
11076 7734 Sm
11117 7731 Sl
11117 7731 Sm
11158 7728 Sl
11158 7728 Sm
11198 7725 Sl
11198 7725 Sm
11239 7723 Sl
11239 7723 Sm
11279 7720 Sl
11279 7720 Sm
11320 7717 Sl
11320 7717 Sm
11360 7714 Sl
11360 7714 Sm
11401 7711 Sl
11401 7711 Sm
11442 7708 Sl
11442 7708 Sm
11482 7706 Sl
11482 7706 Sm
11523 7704 Sl
11523 7704 Sm
11563 7703 Sl
11563 7703 Sm
11604 7702 Sl
11604 7702 Sm
11644 7701 Sl
11644 7701 Sm
11685 7700 Sl
11685 7700 Sm
11725 7699 Sl
11725 7699 Sm
11766 7698 Sl
11766 7698 Sm
11807 7698 Sl
11807 7698 Sm
11847 7697 Sl
11847 7697 Sm
11888 7697 Sl
11888 7697 Sm
11928 7697 Sl
11928 7697 Sm
11969 7696 Sl
11969 7696 Sm
12009 7696 Sl
12009 7696 Sm
12050 7696 Sl
12050 7696 Sm
12090 7696 Sl
12090 7696 Sm
12131 7696 Sl
12131 7696 Sm
12172 7697 Sl
12172 7697 Sm
12212 7697 Sl
12212 7697 Sm
12253 7698 Sl
12253 7698 Sm
12293 7698 Sl
12293 7698 Sm
12334 7699 Sl
12334 7699 Sm
12374 7699 Sl
12374 7699 Sm
12415 7700 Sl
12415 7700 Sm
12456 7700 Sl
12456 7700 Sm
12496 7701 Sl
12496 7701 Sm
12537 7701 Sl
12537 7701 Sm
12577 7701 Sl
12577 7701 Sm
12618 7701 Sl
12618 7701 Sm
12658 7702 Sl
12658 7702 Sm
12699 7702 Sl
12699 7702 Sm
12739 7702 Sl
12739 7702 Sm
12780 7703 Sl
12780 7703 Sm
12821 7703 Sl
12821 7703 Sm
12861 7703 Sl
12861 7703 Sm
12902 7703 Sl
12902 7703 Sm
12942 7703 Sl
12942 7703 Sm
12983 7703 Sl
12983 7703 Sm
13023 7703 Sl
13023 7703 Sm
13064 7703 Sl
13064 7703 Sm
13104 7703 Sl
13104 7703 Sm
13145 7702 Sl
13145 7702 Sm
13186 7702 Sl
13186 7702 Sm
13226 7701 Sl
13226 7701 Sm
13267 7701 Sl
13267 7701 Sm
13307 7700 Sl
13307 7700 Sm
13348 7699 Sl
13348 7699 Sm
13388 7699 Sl
13388 7699 Sm
13429 7699 Sl
13429 7699 Sm
13470 7698 Sl
13470 7698 Sm
13510 7698 Sl
13510 7698 Sm
13551 7698 Sl
13551 7698 Sm
13591 7698 Sl
13591 7698 Sm
13632 7697 Sl
13632 7697 Sm
13672 7697 Sl
13672 7697 Sm
13713 7697 Sl
13713 7697 Sm
13753 7697 Sl
13753 7697 Sm
13794 7696 Sl
13794 7696 Sm
13835 7696 Sl
13835 7696 Sm
13875 7696 Sl
13875 7696 Sm
13916 7695 Sl
13916 7695 Sm
13956 7695 Sl
13956 7695 Sm
13997 7695 Sl
13997 7695 Sm
14037 7694 Sl
14037 7694 Sm
14078 7694 Sl
14078 7694 Sm
14118 7694 Sl
14118 7694 Sm
14159 7694 Sl
14159 7694 Sm
14200 7694 Sl
14200 7694 Sm
14240 7694 Sl
14240 7694 Sm
14281 7694 Sl
14281 7694 Sm
14321 7694 Sl
14321 7694 Sm
14362 7694 Sl
14362 7694 Sm
14402 7694 Sl
14402 7694 Sm
14443 7694 Sl
14443 7694 Sm
14484 7694 Sl
14484 7694 Sm
14524 7694 Sl
14524 7694 Sm
14565 7694 Sl
14565 7694 Sm
14605 7694 Sl
14605 7694 Sm
14646 7694 Sl
14646 7694 Sm
14686 7694 Sl
14686 7694 Sm
14727 7694 Sl
14727 7694 Sm
14767 7694 Sl
14767 7694 Sm
14808 7694 Sl
14808 7694 Sm
14849 7694 Sl
14849 7694 Sm
14889 7694 Sl
14889 7694 Sm
14930 7694 Sl
14930 7694 Sm
14970 7694 Sl
14970 7694 Sm
15011 7694 Sl
15011 7694 Sm
15051 7695 Sl
15051 7695 Sm
15092 7695 Sl
15092 7695 Sm
15132 7695 Sl
15132 7695 Sm
15173 7696 Sl
15173 7696 Sm
15214 7696 Sl
15214 7696 Sm
15254 7696 Sl
15254 7696 Sm
15295 7697 Sl
15295 7697 Sm
15335 7697 Sl
15335 7697 Sm
15376 7697 Sl
15376 7697 Sm
15416 7697 Sl
15416 7697 Sm
15457 7698 Sl
15457 7698 Sm
15498 7698 Sl
15498 7698 Sm
15538 7698 Sl
15538 7698 Sm
15579 7698 Sl
15579 7698 Sm
15619 7698 Sl
15619 7698 Sm
15660 7698 Sl
15660 7698 Sm
15700 7698 Sl
/Slw 0.490 def
/Slrgb {0.000 0.000 0.000} def
3138 15616 3138 21185 Sln
3138 16052 2863 16052 Sln
2520 16052 0
/Helvetica-0 findfont 687 yratio mul scalefont setfont
(0) stringwidth pop add
2 div xratio div
dup 4 3 roll exch 90.000 cos mul sub 3 1 roll 90.000 sin mul sub 2 copy
/fntsize {/Helvetica-0 findfont exch scalefont setfont } def
90.000 687
(0) Stxtl
(0) stringwidth pop xratio div
dup 4 3 roll exch 90.000 cos mul add 3 1 roll 90.000 sin mul add 2 copy
pop pop pop pop
3138 17226 2863 17226 Sln
2520 17226 0
/Helvetica-0 findfont 687 yratio mul scalefont setfont
(.02) stringwidth pop add
2 div xratio div
dup 4 3 roll exch 90.000 cos mul sub 3 1 roll 90.000 sin mul sub 2 copy
/fntsize {/Helvetica-0 findfont exch scalefont setfont } def
90.000 687
(.02) Stxtl
(.02) stringwidth pop xratio div
dup 4 3 roll exch 90.000 cos mul add 3 1 roll 90.000 sin mul add 2 copy
pop pop pop pop
3138 18401 2863 18401 Sln
2520 18401 0
/Helvetica-0 findfont 687 yratio mul scalefont setfont
(.04) stringwidth pop add
2 div xratio div
dup 4 3 roll exch 90.000 cos mul sub 3 1 roll 90.000 sin mul sub 2 copy
/fntsize {/Helvetica-0 findfont exch scalefont setfont } def
90.000 687
(.04) Stxtl
(.04) stringwidth pop xratio div
dup 4 3 roll exch 90.000 cos mul add 3 1 roll 90.000 sin mul add 2 copy
pop pop pop pop
3138 19575 2863 19575 Sln
2520 19575 0
/Helvetica-0 findfont 687 yratio mul scalefont setfont
(.06) stringwidth pop add
2 div xratio div
dup 4 3 roll exch 90.000 cos mul sub 3 1 roll 90.000 sin mul sub 2 copy
/fntsize {/Helvetica-0 findfont exch scalefont setfont } def
90.000 687
(.06) Stxtl
(.06) stringwidth pop xratio div
dup 4 3 roll exch 90.000 cos mul add 3 1 roll 90.000 sin mul add 2 copy
pop pop pop pop
3138 20750 2863 20750 Sln
2520 20750 0
/Helvetica-0 findfont 687 yratio mul scalefont setfont
(.08) stringwidth pop add
2 div xratio div
dup 4 3 roll exch 90.000 cos mul sub 3 1 roll 90.000 sin mul sub 2 copy
/fntsize {/Helvetica-0 findfont exch scalefont setfont } def
90.000 687
(.08) Stxtl
(.08) stringwidth pop xratio div
dup 4 3 roll exch 90.000 cos mul add 3 1 roll 90.000 sin mul add 2 copy
pop pop pop pop
3138 7260 3138 12829 Sln
3138 7695 2863 7695 Sln
2520 7695 0
/Helvetica-0 findfont 687 yratio mul scalefont setfont
(0) stringwidth pop add
2 div xratio div
dup 4 3 roll exch 90.000 cos mul sub 3 1 roll 90.000 sin mul sub 2 copy
/fntsize {/Helvetica-0 findfont exch scalefont setfont } def
90.000 687
(0) Stxtl
(0) stringwidth pop xratio div
dup 4 3 roll exch 90.000 cos mul add 3 1 roll 90.000 sin mul add 2 copy
pop pop pop pop
3138 8869 2863 8869 Sln
2520 8869 0
/Helvetica-0 findfont 687 yratio mul scalefont setfont
(.02) stringwidth pop add
2 div xratio div
dup 4 3 roll exch 90.000 cos mul sub 3 1 roll 90.000 sin mul sub 2 copy
/fntsize {/Helvetica-0 findfont exch scalefont setfont } def
90.000 687
(.02) Stxtl
(.02) stringwidth pop xratio div
dup 4 3 roll exch 90.000 cos mul add 3 1 roll 90.000 sin mul add 2 copy
pop pop pop pop
3138 10044 2863 10044 Sln
2520 10044 0
/Helvetica-0 findfont 687 yratio mul scalefont setfont
(.04) stringwidth pop add
2 div xratio div
dup 4 3 roll exch 90.000 cos mul sub 3 1 roll 90.000 sin mul sub 2 copy
/fntsize {/Helvetica-0 findfont exch scalefont setfont } def
90.000 687
(.04) Stxtl
(.04) stringwidth pop xratio div
dup 4 3 roll exch 90.000 cos mul add 3 1 roll 90.000 sin mul add 2 copy
pop pop pop pop
3138 11219 2863 11219 Sln
2520 11219 0
/Helvetica-0 findfont 687 yratio mul scalefont setfont
(.06) stringwidth pop add
2 div xratio div
dup 4 3 roll exch 90.000 cos mul sub 3 1 roll 90.000 sin mul sub 2 copy
/fntsize {/Helvetica-0 findfont exch scalefont setfont } def
90.000 687
(.06) Stxtl
(.06) stringwidth pop xratio div
dup 4 3 roll exch 90.000 cos mul add 3 1 roll 90.000 sin mul add 2 copy
pop pop pop pop
3138 12393 2863 12393 Sln
2520 12393 0
/Helvetica-0 findfont 687 yratio mul scalefont setfont
(.08) stringwidth pop add
2 div xratio div
dup 4 3 roll exch 90.000 cos mul sub 3 1 roll 90.000 sin mul sub 2 copy
/fntsize {/Helvetica-0 findfont exch scalefont setfont } def
90.000 687
(.08) Stxtl
(.08) stringwidth pop xratio div
dup 4 3 roll exch 90.000 cos mul add 3 1 roll 90.000 sin mul add 2 copy
pop pop pop pop
17301 15616 30905 15616 Sln
17736 15616 17736 15342 Sln
17736 14723 0
/Helvetica-0 findfont 687 yratio mul scalefont setfont
(0) stringwidth pop add
2 div xratio div
dup 4 3 roll exch 0.000 cos mul sub 3 1 roll 0.000 sin mul sub 2 copy
/fntsize {/Helvetica-0 findfont exch scalefont setfont } def
0.000 687
(0) Stxtl
(0) stringwidth pop xratio div
dup 4 3 roll exch 0.000 cos mul add 3 1 roll 0.000 sin mul add 2 copy
pop pop pop pop
21526 15616 21526 15342 Sln
21526 14723 0
/Helvetica-0 findfont 687 yratio mul scalefont setfont
(50) stringwidth pop add
2 div xratio div
dup 4 3 roll exch 0.000 cos mul sub 3 1 roll 0.000 sin mul sub 2 copy
/fntsize {/Helvetica-0 findfont exch scalefont setfont } def
0.000 687
(50) Stxtl
(50) stringwidth pop xratio div
dup 4 3 roll exch 0.000 cos mul add 3 1 roll 0.000 sin mul add 2 copy
pop pop pop pop
25316 15616 25316 15342 Sln
25316 14723 0
/Helvetica-0 findfont 687 yratio mul scalefont setfont
(100) stringwidth pop add
2 div xratio div
dup 4 3 roll exch 0.000 cos mul sub 3 1 roll 0.000 sin mul sub 2 copy
/fntsize {/Helvetica-0 findfont exch scalefont setfont } def
0.000 687
(100) Stxtl
(100) stringwidth pop xratio div
dup 4 3 roll exch 0.000 cos mul add 3 1 roll 0.000 sin mul add 2 copy
pop pop pop pop
29106 15616 29106 15342 Sln
29106 14723 0
/Helvetica-0 findfont 687 yratio mul scalefont setfont
(150) stringwidth pop add
2 div xratio div
dup 4 3 roll exch 0.000 cos mul sub 3 1 roll 0.000 sin mul sub 2 copy
/fntsize {/Helvetica-0 findfont exch scalefont setfont } def
0.000 687
(150) Stxtl
(150) stringwidth pop xratio div
dup 4 3 roll exch 0.000 cos mul add 3 1 roll 0.000 sin mul add 2 copy
pop pop pop pop
3138 7260 16742 7260 Sln
3573 7260 3573 6985 Sln
3573 6367 0
/Helvetica-0 findfont 687 yratio mul scalefont setfont
(0) stringwidth pop add
2 div xratio div
dup 4 3 roll exch 0.000 cos mul sub 3 1 roll 0.000 sin mul sub 2 copy
/fntsize {/Helvetica-0 findfont exch scalefont setfont } def
0.000 687
(0) Stxtl
(0) stringwidth pop xratio div
dup 4 3 roll exch 0.000 cos mul add 3 1 roll 0.000 sin mul add 2 copy
pop pop pop pop
7363 7260 7363 6985 Sln
7363 6367 0
/Helvetica-0 findfont 687 yratio mul scalefont setfont
(50) stringwidth pop add
2 div xratio div
dup 4 3 roll exch 0.000 cos mul sub 3 1 roll 0.000 sin mul sub 2 copy
/fntsize {/Helvetica-0 findfont exch scalefont setfont } def
0.000 687
(50) Stxtl
(50) stringwidth pop xratio div
dup 4 3 roll exch 0.000 cos mul add 3 1 roll 0.000 sin mul add 2 copy
pop pop pop pop
11153 7260 11153 6985 Sln
11153 6367 0
/Helvetica-0 findfont 687 yratio mul scalefont setfont
(100) stringwidth pop add
2 div xratio div
dup 4 3 roll exch 0.000 cos mul sub 3 1 roll 0.000 sin mul sub 2 copy
/fntsize {/Helvetica-0 findfont exch scalefont setfont } def
0.000 687
(100) Stxtl
(100) stringwidth pop xratio div
dup 4 3 roll exch 0.000 cos mul add 3 1 roll 0.000 sin mul add 2 copy
pop pop pop pop
14943 7260 14943 6985 Sln
14943 6367 0
/Helvetica-0 findfont 687 yratio mul scalefont setfont
(150) stringwidth pop add
2 div xratio div
dup 4 3 roll exch 0.000 cos mul sub 3 1 roll 0.000 sin mul sub 2 copy
/fntsize {/Helvetica-0 findfont exch scalefont setfont } def
0.000 687
(150) Stxtl
(150) stringwidth pop xratio div
dup 4 3 roll exch 0.000 cos mul add 3 1 roll 0.000 sin mul add 2 copy
pop pop pop pop
/Ssrgb {0.851 0.902 0.922} def
/Slrgb {0.851 0.902 0.922} def
3138 21185 16742 22178 1 Srect
9940 21531 0
/Helvetica-0 findfont 756 yratio mul scalefont setfont
(0) stringwidth pop add
2 div xratio div
dup 4 3 roll exch 0.000 cos mul sub 3 1 roll 0.000 sin mul sub 2 copy
/fntsize {/Helvetica-0 findfont exch scalefont setfont } def
0.000 756
(0) Stxtl
(0) stringwidth pop xratio div
dup 4 3 roll exch 0.000 cos mul add 3 1 roll 0.000 sin mul add 2 copy
pop pop pop pop
17301 21185 30905 22178 1 Srect
24103 21531 0
/Helvetica-0 findfont 756 yratio mul scalefont setfont
(1) stringwidth pop add
2 div xratio div
dup 4 3 roll exch 0.000 cos mul sub 3 1 roll 0.000 sin mul sub 2 copy
/fntsize {/Helvetica-0 findfont exch scalefont setfont } def
0.000 756
(1) Stxtl
(1) stringwidth pop xratio div
dup 4 3 roll exch 0.000 cos mul add 3 1 roll 0.000 sin mul add 2 copy
pop pop pop pop
3138 12829 16742 13822 1 Srect
9940 13174 0
/Helvetica-0 findfont 756 yratio mul scalefont setfont
(2) stringwidth pop add
2 div xratio div
dup 4 3 roll exch 0.000 cos mul sub 3 1 roll 0.000 sin mul sub 2 copy
/fntsize {/Helvetica-0 findfont exch scalefont setfont } def
0.000 756
(2) Stxtl
(2) stringwidth pop xratio div
dup 4 3 roll exch 0.000 cos mul add 3 1 roll 0.000 sin mul add 2 copy
pop pop pop pop
/Ssrgb {1.000 1.000 1.000} def
/Slw 0.576 def
/Slrgb {0.000 0.000 0.000} def
5144 2019 27663 4657 1 Srect
/Slw 0.864 def
/Slrgb {0.102 0.278 0.435} def
5493 3904 8518 3904 Sln
/Slrgb {0.565 0.208 0.231} def
15508 3904 18533 3904 Sln
/Slrgb {0.333 0.459 0.184} def
5493 2772 8518 2772 Sln
9003 3621 2 copy
/fntsize {/Helvetica-0 findfont exch scalefont setfont } def
0.000 808
(Agricult.) Stxtl
(Agricult.) stringwidth pop xratio div
dup 4 3 roll exch 0.000 cos mul add 3 1 roll 0.000 sin mul add 2 copy
pop pop pop pop
19018 3621 2 copy
/fntsize {/Helvetica-0 findfont exch scalefont setfont } def
0.000 808
(Employee \(non-agric.\)) Stxtl
(Employee \(non-agric.\)) stringwidth pop xratio div
dup 4 3 roll exch 0.000 cos mul add 3 1 roll 0.000 sin mul add 2 copy
pop pop pop pop
9003 2489 2 copy
/fntsize {/Helvetica-0 findfont exch scalefont setfont } def
0.000 808
(Self-employed) Stxtl
(Self-employed) stringwidth pop xratio div
dup 4 3 roll exch 0.000 cos mul add 3 1 roll 0.000 sin mul add 2 copy
pop pop pop pop
1381 14101 0
/Helvetica-0 findfont 808 yratio mul scalefont setfont
(kdensity workhrs_normal) stringwidth pop add
2 div xratio div
dup 4 3 roll exch 90.000 cos mul sub 3 1 roll 90.000 sin mul sub 2 copy
/fntsize {/Helvetica-0 findfont exch scalefont setfont } def
90.000 808
(kdensity workhrs_normal) Stxtl
(kdensity workhrs_normal) stringwidth pop xratio div
dup 4 3 roll exch 90.000 cos mul add 3 1 roll 90.000 sin mul add 2 copy
pop pop pop pop
16404 5178 0
/Helvetica-0 findfont 808 yratio mul scalefont setfont
(x) stringwidth pop add
2 div xratio div
dup 4 3 roll exch 0.000 cos mul sub 3 1 roll 0.000 sin mul sub 2 copy
/fntsize {/Helvetica-0 findfont exch scalefont setfont } def
0.000 808
(x) Stxtl
(x) stringwidth pop xratio div
dup 4 3 roll exch 0.000 cos mul add 3 1 roll 0.000 sin mul add 2 copy
pop pop pop pop
1762 1148 2 copy
/fntsize {/Helvetica-0 findfont exch scalefont setfont } def
0.000 646
(Graphs by t) Stxtl
(Graphs by t) stringwidth pop xratio div
dup 4 3 roll exch 0.000 cos mul add 3 1 roll 0.000 sin mul add 2 copy
pop pop pop pop
S showpage
%%EOF
