%!PS-Adobe-2.0 EPSF-2.0
%% This is a Stata generated postscript file
%%BoundingBox: 0 0 396 288
%%HiResBoundingBox: 0.000 0.000 396.000 288.000
%%DocumentNeededResources: font Helvetica
/xratio 0.012375 def
/yratio 0.012375 def
/Sbgfill {
	/y1 exch def
	/x1 exch def
	/y0 exch def
	/x0 exch def
	x0 y0 moveto
	x0 y1 lineto x1 y1 lineto x1 y0 lineto x0 y0 lineto
	fill
} def
/Spt {
	yratio mul
	/yp exch def
	xratio mul
	/xp exch def
	Slrgb setrgbcolor
	xp yp .5 0 360 arc fill
} def
/Sln {
	yratio mul
	/y1p exch def
	xratio mul
	/x1p exch def
	yratio mul
	/y0p exch def
	xratio mul
	/x0p exch def
	Slw setlinewidth
	Slrgb setrgbcolor
	x0p y0p M x1p y1p lineto S
} def
/Scrv {
	yratio mul
	/y3p exch def
	xratio mul
	/x3p exch def
	yratio mul
	/y2p exch def
	xratio mul
	/x2p exch def
	yratio mul
	/y1p exch def
	xratio mul
	/x1p exch def
	Slw setlinewidth
	Slrgb setrgbcolor
	x1p y1p x2p y2p x3p y3p curveto
	stroke
} def
/Stxtl {
	/sp exch def
	yratio mul
	/sizep exch def
	dup
	/anglep exch def
	0 exch sub
	/angle2p exch def
	yratio mul
	/y0p exch def
	xratio mul
	/x0p exch def
	Strgb setrgbcolor
	x0p y0p M anglep rotate sizep fntsize sp show stroke angle2p rotate
} def
/Stxtc {
	/sp exch def
	yratio mul
	/sizep exch def
	dup
	/anglep exch def
	0 exch sub
	/angle2p exch def
	yratio mul
	/y0p exch def
	xratio mul
	/x0p exch def
	Strgb setrgbcolor
	x0p y0p M anglep rotate sizep fntsize sp stringwidth exch -2 div exch rm sp show stroke angle2p rotate
} def
/Stxtr {
	/sp exch def
	yratio mul
	/sizep exch def
	dup
	/anglep exch def
	0 exch sub
	/angle2p exch def
	yratio mul
	/y0p exch def
	xratio mul
	/x0p exch def
	Strgb setrgbcolor
	x0p y0p M anglep rotate sizep fntsize sp stringwidth 1 index -1 mul exch rm pop sp show stroke angle2p rotate
} def
/Srect {
	/sfill exch def
	yratio mul
	/y1 exch def
	xratio mul
	/x1 exch def
	yratio mul
	/y0 exch def
	xratio mul
	/x0 exch def
	newpath x0 y0 moveto x0 y1 lineto x1 y1 lineto x1 y0 lineto x0 y0 lineto closepath
	sfill 1 eq {
		Ssrgb setrgbcolor
		gsave
		fill
		grestore
	} if
	Slw setlinewidth
	Slrgb setrgbcolor
	stroke
} def
/Sellipse {
	/sfill exch def
	yratio mul
	/yrad exch def
	xratio mul
	/xrad exch def
	yratio mul
	/y exch def
	xratio mul
	/x exch def
	/savematrix matrix currentmatrix def
	x y translate
	xrad yrad scale
	0 0 1 0 360 arc
	savematrix setmatrix
	sfill 1 eq {
		Ssrgb setrgbcolor
		gsave
		fill
		grestore
	} if
	Slw setlinewidth
	Slrgb setrgbcolor
	stroke
} def
/Stri {
	/sfill exch def
	xratio mul
	/r exch def
	yratio mul
	/y0 exch def
	xratio mul
	/x0 exch def
	/xcen x0 def
	y0 r add
	/ytop exch def
	r 2 div
	y0 exch sub
	/ybot exch def
	r 3 sqrt 2 div mul dup
	xcen exch sub
	/xleft exch def
	xcen add
	/xright exch def
	newpath xcen ytop moveto xright ybot lineto xleft ybot lineto xcen ytop lineto closepath
	sfill 1 eq {
		Ssrgb setrgbcolor
		gsave
		fill
		grestore
	} if
	Slw setlinewidth
	Slrgb setrgbcolor
	stroke
} def
/Soldtri {
	/sfill exch def
	xratio mul
	/r exch def
	yratio mul
	/y0 exch def
	xratio mul
	/x0 exch def
	x0 r sub
	/x1 exch def
	y0 r sub
	/y1 exch def
	x0 r add
	/x2 exch def
	y0 r sub
	/y2 exch def
	/x3 x0 def
	y0 r add
	/y3 exch def
	newpath x1 y1 moveto x2 y2 lineto x3 y3 lineto x1 y1 lineto closepath
	sfill 1 eq {
		Ssrgb setrgbcolor
		gsave
		fill
		grestore
	} if
	Slw setlinewidth
	Slrgb setrgbcolor
	stroke
} def
/Sdia {
	/sfill exch def
	xratio mul
	/r exch def
	yratio mul
	/y exch def
	xratio mul
	/x exch def
	x r sub
	/x0 exch def
	/y0 y def
	/x1 x def
	y r sub
	/y1 exch def
	x r add
	/x2 exch def
	/y2 y def
	/x3 x def
	y r add
	/y3 exch def
	newpath x0 y0 moveto x1 y1 lineto x2 y2 lineto x3 y3 lineto x0 y0 lineto closepath
	sfill 1 eq {
		Ssrgb setrgbcolor
		gsave
		fill
		grestore
	} if
	Slw setlinewidth
	Slrgb setrgbcolor
	stroke
} def
/Scc {
	/sfill exch def
	xratio mul
	/r0 exch def
	yratio mul
	/y0 exch def
	xratio mul
	/x0 exch def
	x0 y0 r0 0 360 arc closepath
	sfill 1 eq {
		Ssrgb setrgbcolor
		gsave
		fill
		grestore
	} if
	Slw setlinewidth
	Slrgb setrgbcolor
	stroke
} def
/Spie {
	/sfill exch def
	/a1 exch def
	/a0 exch def
	xratio mul
	/r exch def
	yratio mul
	/y exch def
	xratio mul
	/x exch def
	newpath x y moveto x y r a0 a1 arc closepath
	sfill 1 eq {
		Ssrgb setrgbcolor
		gsave
		fill
		grestore
	} if
	Slw setlinewidth
	Slrgb setrgbcolor
	stroke
} def
/Splu {
	xratio mul
	/r exch def
	yratio mul
	/y exch def
	xratio mul
	/x exch def
	x r sub
	/x0 exch def
	x r add
	/x1 exch def
	x0 y M x1 y L
	y r sub
	/y0 exch def
	y r add
	/y1 exch def
	x y0 M x y1 L
} def
/Scro {
	xratio mul
	/r exch def
	yratio mul
	/y exch def
	xratio mul
	/x exch def
	x r sub
	/x0 exch def
	y r sub
	/y0 exch def
	x r add
	/x1 exch def
	y r add
	/y1 exch def
	x0 y0 M x1 y1 L
	x r add
	/x0 exch def
	y r sub
	/y0 exch def
	x r sub
	/x1 exch def
	y r add
	/y1 exch def
	x0 y0 M x1 y1 L
} def
/Sm {
	yratio mul
	/y exch def
	xratio mul
	/x exch def
	x y M
} def
/Sl {
	yratio mul
	/y exch def
	xratio mul
	/x exch def
	x y L
} def
/SPl {
	yratio mul
	/y exch def
	xratio mul
	/x exch def
	x y PL
} def
/Lcs {
	currentlinecap
	1 setlinecap
} def
/Lcr {
	setlinecap
} def
/Sbp {
	newpath
} def
/Sep {
	/sfill exch def
	closepath
	sfill 1 eq  {
		Ssrgb setrgbcolor
		gsave
		fill
		grestore
	} if
	Slw setlinewidth
	Slrgb setrgbcolor
	Lcs
	stroke
	Lcr
} def
/cp {currentpoint} def 
/M {moveto} def 
/rm {rmoveto} def 
/S {stroke} def 
/L {Slw setlinewidth Slrgb setrgbcolor lineto Lcs S Lcr} def 
/PL {Slw setlinewidth Slrgb setrgbcolor lineto} def 
/MF-Helvetica {
  /newfontname exch def
  /fontname exch def
  /fontdict fontname findfont def
  /newfont fontdict maxlength dict def
  fontdict {
  exch dup /FID eq {pop pop} {exch newfont 3 1 roll put} ifelse
  } forall
  newfont /FontName newfontname put
  newfont /Encoding ISOLatin1Encoding put
  newfontname newfont definefont pop
} def
/Helvetica /Helvetica-0 MF-Helvetica
/Slw 0.120 def
0.918 0.949 0.953 setrgbcolor
0 0 396.000 288.000 Sbgfill
/Slrgb {1.000 1.000 1.000} def
/Strgb {1.000 1.000 1.000} def
/Ssrgb {1.000 1.000 1.000} def
/Ssrgb {0.918 0.949 0.953} def
/Slw 0.576 def
/Slrgb {0.918 0.949 0.953} def
0 0 31999 23272 1 Srect
/Ssrgb {1.000 1.000 1.000} def
/Slrgb {1.000 1.000 1.000} def
3158 6354 31184 22457 1 Srect
/Slrgb {0.000 0.000 0.000} def
/Strgb {0.000 0.000 0.000} def
/Slw 0.864 def
/Slrgb {0.757 0.020 0.204} def
10150 6354 10150 22457 Sln
/Slrgb {0.102 0.278 0.435} def
5019 8394 Sm
5103 8578 Sl
5103 8578 Sm
5187 8774 Sl
5187 8774 Sm
5271 8960 Sl
5271 8960 Sm
5355 9153 Sl
5355 9153 Sm
5439 9354 Sl
5439 9354 Sm
5523 9544 Sl
5523 9544 Sm
5607 9751 Sl
5607 9751 Sm
5691 10023 Sl
5691 10023 Sm
5775 10280 Sl
5775 10280 Sm
5859 10526 Sl
5859 10526 Sm
5943 10824 Sl
5943 10824 Sm
6027 11104 Sl
6027 11104 Sm
6111 11367 Sl
6111 11367 Sm
6195 11790 Sl
6195 11790 Sm
6279 12225 Sl
6279 12225 Sm
6363 12634 Sl
6363 12634 Sm
6447 13062 Sl
6447 13062 Sm
6531 13490 Sl
6531 13490 Sm
6615 13890 Sl
6615 13890 Sm
6699 14306 Sl
6699 14306 Sm
6783 14756 Sl
6783 14756 Sm
6867 15174 Sl
6867 15174 Sm
6951 15567 Sl
6951 15567 Sm
7035 15957 Sl
7035 15957 Sm
7119 16315 Sl
7119 16315 Sm
7203 16639 Sl
7203 16639 Sm
7287 16966 Sl
7287 16966 Sm
7371 17259 Sl
7371 17259 Sm
7455 17531 Sl
7455 17531 Sm
7539 17929 Sl
7539 17929 Sm
7623 18331 Sl
7623 18331 Sm
7707 18694 Sl
7707 18694 Sm
7791 19037 Sl
7791 19037 Sm
7875 19357 Sl
7875 19357 Sm
7959 19636 Sl
7959 19636 Sm
8043 19874 Sl
8043 19874 Sm
8127 20072 Sl
8127 20072 Sm
8211 20230 Sl
8211 20230 Sm
8295 20347 Sl
8295 20347 Sm
8379 20424 Sl
8379 20424 Sm
8463 20460 Sl
8463 20460 Sm
8547 20474 Sl
8547 20474 Sm
8631 20467 Sl
8631 20467 Sm
8715 20421 Sl
8715 20421 Sm
8799 20335 Sl
8799 20335 Sm
8883 20259 Sl
8883 20259 Sm
8967 20164 Sl
8967 20164 Sm
9051 20028 Sl
9051 20028 Sm
9135 19866 Sl
9135 19866 Sm
9219 19681 Sl
9219 19681 Sm
9303 19453 Sl
9303 19453 Sm
9387 19255 Sl
9387 19255 Sm
9471 19052 Sl
9471 19052 Sm
9555 18808 Sl
9555 18808 Sm
9639 18569 Sl
9639 18569 Sm
9723 18316 Sl
9723 18316 Sm
9807 18025 Sl
9807 18025 Sm
9891 17725 Sl
9891 17725 Sm
9975 17430 Sl
9975 17430 Sm
10059 17097 Sl
10059 17097 Sm
10143 16736 Sl
10143 16736 Sm
10227 16390 Sl
10227 16390 Sm
10311 16021 Sl
10311 16021 Sm
10395 15615 Sl
10395 15615 Sm
10479 15283 Sl
10479 15283 Sm
10563 14919 Sl
10563 14919 Sm
10647 14521 Sl
10647 14521 Sm
10731 14148 Sl
10731 14148 Sm
10815 13761 Sl
10815 13761 Sm
10899 13343 Sl
10899 13343 Sm
10983 13020 Sl
10983 13020 Sm
11067 12767 Sl
11067 12767 Sm
11151 12491 Sl
11151 12491 Sm
11235 12218 Sl
11235 12218 Sm
11319 11971 Sl
11319 11971 Sm
11403 11704 Sl
11403 11704 Sm
11487 11432 Sl
11487 11432 Sm
11571 11235 Sl
11571 11235 Sm
11655 11022 Sl
11655 11022 Sm
11739 10792 Sl
11739 10792 Sm
11822 10581 Sl
11822 10581 Sm
11906 10356 Sl
11906 10356 Sm
11990 10117 Sl
11990 10117 Sm
12074 9888 Sl
12074 9888 Sm
12158 9656 Sl
12158 9656 Sm
12242 9409 Sl
12242 9409 Sm
12326 9241 Sl
12326 9241 Sm
12410 9186 Sl
12410 9186 Sm
12494 9126 Sl
12494 9126 Sm
12578 9068 Sl
12578 9068 Sm
12662 9028 Sl
12662 9028 Sm
12746 8980 Sl
12746 8980 Sm
12830 8924 Sl
12830 8924 Sm
12914 8878 Sl
12914 8878 Sm
12998 8842 Sl
12998 8842 Sm
13082 8798 Sl
13082 8798 Sm
13166 8744 Sl
13166 8744 Sm
13250 8682 Sl
13250 8682 Sm
13334 8611 Sl
13334 8611 Sm
13418 8531 Sl
13418 8531 Sm
13502 8443 Sl
13502 8443 Sm
13586 8345 Sl
13586 8345 Sm
13670 8270 Sl
13670 8270 Sm
13754 8229 Sl
13754 8229 Sm
13838 8182 Sl
13838 8182 Sm
13922 8137 Sl
13922 8137 Sm
14006 8114 Sl
14006 8114 Sm
14090 8087 Sl
14090 8087 Sm
14174 8054 Sl
14174 8054 Sm
14258 8053 Sl
14258 8053 Sm
14342 8049 Sl
14342 8049 Sm
14426 8041 Sl
14426 8041 Sm
14510 8029 Sl
14510 8029 Sm
14594 8013 Sl
14594 8013 Sm
14678 7993 Sl
14678 7993 Sm
14762 7970 Sl
14762 7970 Sm
14846 7976 Sl
14846 7976 Sm
14930 7979 Sl
14930 7979 Sm
15014 7990 Sl
15014 7990 Sm
15098 8021 Sl
15098 8021 Sm
15182 8048 Sl
15182 8048 Sm
15266 8070 Sl
15266 8070 Sm
15350 8090 Sl
15350 8090 Sm
15434 8105 Sl
15434 8105 Sm
15518 8116 Sl
15518 8116 Sm
15602 8124 Sl
15602 8124 Sm
15686 8128 Sl
15686 8128 Sm
15770 8128 Sl
15770 8128 Sm
15854 8124 Sl
15854 8124 Sm
15938 8117 Sl
15938 8117 Sm
16022 8106 Sl
16022 8106 Sm
16106 8091 Sl
16106 8091 Sm
16190 8072 Sl
16190 8072 Sm
16274 8049 Sl
16274 8049 Sm
16358 8023 Sl
16358 8023 Sm
16442 7992 Sl
16442 7992 Sm
16526 7958 Sl
16526 7958 Sm
16610 7921 Sl
16610 7921 Sm
16694 7879 Sl
16694 7879 Sm
16778 7833 Sl
16778 7833 Sm
16862 7784 Sl
16862 7784 Sm
16946 7731 Sl
16946 7731 Sm
17030 7674 Sl
17030 7674 Sm
17114 7614 Sl
17114 7614 Sm
17198 7572 Sl
17198 7572 Sm
17282 7542 Sl
17282 7542 Sm
17366 7509 Sl
17366 7509 Sm
17450 7473 Sl
17450 7473 Sm
17534 7464 Sl
17534 7464 Sm
17618 7458 Sl
17618 7458 Sm
17702 7455 Sl
17702 7455 Sm
17786 7499 Sl
17786 7499 Sm
17870 7555 Sl
17870 7555 Sm
17954 7607 Sl
17954 7607 Sm
18038 7655 Sl
18038 7655 Sm
18122 7699 Sl
18122 7699 Sm
18206 7740 Sl
18206 7740 Sm
18290 7777 Sl
18290 7777 Sm
18374 7810 Sl
18374 7810 Sm
18458 7839 Sl
18458 7839 Sm
18542 7864 Sl
18542 7864 Sm
18626 7886 Sl
18626 7886 Sm
18710 7904 Sl
18710 7904 Sm
18794 7917 Sl
18794 7917 Sm
18878 7928 Sl
18878 7928 Sm
18961 7934 Sl
18961 7934 Sm
19045 7937 Sl
19045 7937 Sm
19129 7935 Sl
19129 7935 Sm
19213 7930 Sl
19213 7930 Sm
19297 7922 Sl
19297 7922 Sm
19381 7909 Sl
19381 7909 Sm
19465 7893 Sl
19465 7893 Sm
19549 7873 Sl
19549 7873 Sm
19633 7874 Sl
19633 7874 Sm
19717 7884 Sl
19717 7884 Sm
19801 7891 Sl
19801 7891 Sm
19885 7896 Sl
19885 7896 Sm
19969 7899 Sl
19969 7899 Sm
20053 7898 Sl
20053 7898 Sm
20137 7896 Sl
20137 7896 Sm
20221 7891 Sl
20221 7891 Sm
20305 7883 Sl
20305 7883 Sm
20389 7872 Sl
20389 7872 Sm
20473 7860 Sl
20473 7860 Sm
20557 7844 Sl
20557 7844 Sm
20641 7826 Sl
20641 7826 Sm
20725 7806 Sl
20725 7806 Sm
20809 7783 Sl
20809 7783 Sm
20893 7758 Sl
20893 7758 Sm
20977 7730 Sl
20977 7730 Sm
21061 7699 Sl
21061 7699 Sm
21145 7666 Sl
21145 7666 Sm
21229 7631 Sl
21229 7631 Sm
21313 7621 Sl
21313 7621 Sm
21397 7615 Sl
21397 7615 Sm
21481 7605 Sl
21481 7605 Sm
21565 7591 Sl
21565 7591 Sm
21649 7574 Sl
21649 7574 Sm
21733 7552 Sl
21733 7552 Sm
21817 7540 Sl
21817 7540 Sm
21901 7547 Sl
21901 7547 Sm
21985 7548 Sl
21985 7548 Sm
22069 7544 Sl
22069 7544 Sm
22153 7535 Sl
22153 7535 Sm
22237 7521 Sl
22237 7521 Sm
22321 7522 Sl
22321 7522 Sm
22405 7536 Sl
22405 7536 Sm
22489 7545 Sl
22489 7545 Sm
22573 7563 Sl
22573 7563 Sm
22657 7628 Sl
22657 7628 Sm
22741 7699 Sl
22741 7699 Sm
22825 7767 Sl
22825 7767 Sm
22909 7849 Sl
22909 7849 Sm
22993 7944 Sl
22993 7944 Sm
23077 8034 Sl
23077 8034 Sm
23161 8119 Sl
23161 8119 Sm
23245 8199 Sl
23245 8199 Sm
23329 8274 Sl
23329 8274 Sm
23413 8343 Sl
23413 8343 Sm
23497 8408 Sl
23497 8408 Sm
23581 8468 Sl
23581 8468 Sm
23665 8522 Sl
23665 8522 Sm
23749 8572 Sl
23749 8572 Sm
23833 8616 Sl
23833 8616 Sm
23917 8656 Sl
23917 8656 Sm
24001 8690 Sl
24001 8690 Sm
24085 8719 Sl
24085 8719 Sm
24169 8744 Sl
24169 8744 Sm
24253 8763 Sl
24253 8763 Sm
24337 8777 Sl
24337 8777 Sm
24421 8786 Sl
24421 8786 Sm
24505 8790 Sl
24505 8790 Sm
24589 8789 Sl
24589 8789 Sm
24673 8783 Sl
24673 8783 Sm
24757 8772 Sl
24757 8772 Sm
24841 8755 Sl
24841 8755 Sm
24925 8734 Sl
24925 8734 Sm
25009 8708 Sl
25009 8708 Sm
25093 8676 Sl
25093 8676 Sm
25177 8640 Sl
25177 8640 Sm
25261 8598 Sl
25261 8598 Sm
25345 8552 Sl
25345 8552 Sm
25429 8500 Sl
25429 8500 Sm
25513 8443 Sl
25513 8443 Sm
25597 8381 Sl
25597 8381 Sm
25681 8314 Sl
25681 8314 Sm
25765 8243 Sl
25765 8243 Sm
25849 8170 Sl
25849 8170 Sm
25933 8124 Sl
25933 8124 Sm
26017 8071 Sl
26017 8071 Sm
26101 8031 Sl
26101 8031 Sm
26184 8003 Sl
26184 8003 Sm
26268 7970 Sl
26268 7970 Sm
26352 7932 Sl
26352 7932 Sm
26436 7888 Sl
26436 7888 Sm
26520 7840 Sl
26520 7840 Sm
26604 7790 Sl
26604 7790 Sm
26688 7769 Sl
26688 7769 Sm
26772 7744 Sl
26772 7744 Sm
26856 7715 Sl
26856 7715 Sm
26940 7682 Sl
26940 7682 Sm
27024 7645 Sl
27024 7645 Sm
27108 7605 Sl
27108 7605 Sm
27192 7561 Sl
27192 7561 Sm
27276 7513 Sl
27276 7513 Sm
27360 7461 Sl
27360 7461 Sm
27444 7422 Sl
27444 7422 Sm
27528 7400 Sl
27528 7400 Sm
27612 7375 Sl
27612 7375 Sm
27696 7357 Sl
27696 7357 Sm
27780 7387 Sl
27780 7387 Sm
27864 7428 Sl
27864 7428 Sm
27948 7467 Sl
27948 7467 Sm
28032 7503 Sl
28032 7503 Sm
28116 7536 Sl
28116 7536 Sm
28200 7567 Sl
28200 7567 Sm
28284 7596 Sl
28284 7596 Sm
28368 7622 Sl
28368 7622 Sm
28452 7645 Sl
28452 7645 Sm
28536 7666 Sl
28536 7666 Sm
28620 7684 Sl
28620 7684 Sm
28704 7700 Sl
28704 7700 Sm
28788 7713 Sl
28788 7713 Sm
28872 7724 Sl
28872 7724 Sm
28956 7732 Sl
28956 7732 Sm
29040 7738 Sl
29040 7738 Sm
29124 7741 Sl
29124 7741 Sm
29208 7742 Sl
29208 7742 Sm
29292 7740 Sl
29292 7740 Sm
29376 7736 Sl
29376 7736 Sm
29460 7729 Sl
29460 7729 Sm
29544 7719 Sl
29544 7719 Sm
29628 7707 Sl
29628 7707 Sm
29712 7692 Sl
29712 7692 Sm
29796 7675 Sl
29796 7675 Sm
29880 7656 Sl
29880 7656 Sm
29964 7634 Sl
29964 7634 Sm
30048 7609 Sl
30048 7609 Sm
30132 7582 Sl
/Slrgb {0.565 0.208 0.231} def
6640 8390 Sm
6720 8426 Sl
6720 8426 Sm
6800 8462 Sl
6800 8462 Sm
6881 8499 Sl
6881 8499 Sm
6961 8537 Sl
6961 8537 Sm
7041 8575 Sl
7041 8575 Sm
7122 8612 Sl
7122 8612 Sm
7202 8648 Sl
7202 8648 Sm
7283 8683 Sl
7283 8683 Sm
7363 8717 Sl
7363 8717 Sm
7443 8751 Sl
7443 8751 Sm
7524 8783 Sl
7524 8783 Sm
7604 8815 Sl
7604 8815 Sm
7684 8849 Sl
7684 8849 Sm
7765 8883 Sl
7765 8883 Sm
7845 8917 Sl
7845 8917 Sm
7926 8951 Sl
7926 8951 Sm
8006 8983 Sl
8006 8983 Sm
8086 9014 Sl
8086 9014 Sm
8167 9044 Sl
8167 9044 Sm
8247 9074 Sl
8247 9074 Sm
8327 9102 Sl
8327 9102 Sm
8408 9130 Sl
8408 9130 Sm
8488 9157 Sl
8488 9157 Sm
8569 9183 Sl
8569 9183 Sm
8649 9208 Sl
8649 9208 Sm
8729 9232 Sl
8729 9232 Sm
8810 9260 Sl
8810 9260 Sm
8890 9287 Sl
8890 9287 Sm
8971 9313 Sl
8971 9313 Sm
9051 9341 Sl
9051 9341 Sm
9131 9370 Sl
9131 9370 Sm
9212 9398 Sl
9212 9398 Sm
9292 9425 Sl
9292 9425 Sm
9372 9451 Sl
9372 9451 Sm
9453 9476 Sl
9453 9476 Sm
9533 9500 Sl
9533 9500 Sm
9614 9527 Sl
9614 9527 Sm
9694 9554 Sl
9694 9554 Sm
9774 9579 Sl
9774 9579 Sm
9855 9604 Sl
9855 9604 Sm
9935 9627 Sl
9935 9627 Sm
10015 9649 Sl
10015 9649 Sm
10096 9671 Sl
10096 9671 Sm
10176 9691 Sl
10176 9691 Sm
10257 9710 Sl
10257 9710 Sm
10337 9727 Sl
10337 9727 Sm
10417 9744 Sl
10417 9744 Sm
10498 9760 Sl
10498 9760 Sm
10578 9774 Sl
10578 9774 Sm
10658 9788 Sl
10658 9788 Sm
10739 9800 Sl
10739 9800 Sm
10819 9811 Sl
10819 9811 Sm
10900 9822 Sl
10900 9822 Sm
10980 9831 Sl
10980 9831 Sm
11060 9839 Sl
11060 9839 Sm
11141 9846 Sl
11141 9846 Sm
11221 9851 Sl
11221 9851 Sm
11301 9856 Sl
11301 9856 Sm
11382 9860 Sl
11382 9860 Sm
11462 9867 Sl
11462 9867 Sm
11543 9878 Sl
11543 9878 Sm
11623 9888 Sl
11623 9888 Sm
11703 9897 Sl
11703 9897 Sm
11784 9904 Sl
11784 9904 Sm
11864 9911 Sl
11864 9911 Sm
11944 9916 Sl
11944 9916 Sm
12025 9920 Sl
12025 9920 Sm
12105 9922 Sl
12105 9922 Sm
12186 9924 Sl
12186 9924 Sm
12266 9924 Sl
12266 9924 Sm
12346 9923 Sl
12346 9923 Sm
12427 9921 Sl
12427 9921 Sm
12507 9917 Sl
12507 9917 Sm
12587 9913 Sl
12587 9913 Sm
12668 9907 Sl
12668 9907 Sm
12748 9900 Sl
12748 9900 Sm
12829 9895 Sl
12829 9895 Sm
12909 9890 Sl
12909 9890 Sm
12989 9884 Sl
12989 9884 Sm
13070 9879 Sl
13070 9879 Sm
13150 9875 Sl
13150 9875 Sm
13230 9873 Sl
13230 9873 Sm
13311 9871 Sl
13311 9871 Sm
13391 9878 Sl
13391 9878 Sm
13472 9884 Sl
13472 9884 Sm
13552 9889 Sl
13552 9889 Sm
13632 9892 Sl
13632 9892 Sm
13713 9894 Sl
13713 9894 Sm
13793 9894 Sl
13793 9894 Sm
13873 9893 Sl
13873 9893 Sm
13954 9891 Sl
13954 9891 Sm
14034 9887 Sl
14034 9887 Sm
14115 9882 Sl
14115 9882 Sm
14195 9875 Sl
14195 9875 Sm
14275 9867 Sl
14275 9867 Sm
14356 9858 Sl
14356 9858 Sm
14436 9847 Sl
14436 9847 Sm
14516 9835 Sl
14516 9835 Sm
14597 9828 Sl
14597 9828 Sm
14677 9824 Sl
14677 9824 Sm
14758 9823 Sl
14758 9823 Sm
14838 9821 Sl
14838 9821 Sm
14918 9823 Sl
14918 9823 Sm
14999 9822 Sl
14999 9822 Sm
15079 9821 Sl
15079 9821 Sm
15159 9818 Sl
15159 9818 Sm
15240 9816 Sl
15240 9816 Sm
15320 9816 Sl
15320 9816 Sm
15401 9817 Sl
15401 9817 Sm
15481 9820 Sl
15481 9820 Sm
15561 9835 Sl
15561 9835 Sm
15642 9849 Sl
15642 9849 Sm
15722 9862 Sl
15722 9862 Sm
15802 9873 Sl
15802 9873 Sm
15883 9882 Sl
15883 9882 Sm
15963 9891 Sl
15963 9891 Sm
16044 9899 Sl
16044 9899 Sm
16124 9909 Sl
16124 9909 Sm
16204 9918 Sl
16204 9918 Sm
16285 9925 Sl
16285 9925 Sm
16365 9930 Sl
16365 9930 Sm
16445 9934 Sl
16445 9934 Sm
16526 9937 Sl
16526 9937 Sm
16606 9938 Sl
16606 9938 Sm
16687 9938 Sl
16687 9938 Sm
16767 9935 Sl
16767 9935 Sm
16847 9933 Sl
16847 9933 Sm
16928 9933 Sl
16928 9933 Sm
17008 9935 Sl
17008 9935 Sm
17088 9942 Sl
17088 9942 Sm
17169 9952 Sl
17169 9952 Sm
17249 9961 Sl
17249 9961 Sm
17330 9968 Sl
17330 9968 Sm
17410 9976 Sl
17410 9976 Sm
17490 9985 Sl
17490 9985 Sm
17571 9996 Sl
17571 9996 Sm
17651 10007 Sl
17651 10007 Sm
17731 10016 Sl
17731 10016 Sm
17812 10024 Sl
17812 10024 Sm
17892 10030 Sl
17892 10030 Sm
17973 10035 Sl
17973 10035 Sm
18053 10039 Sl
18053 10039 Sm
18133 10040 Sl
18133 10040 Sm
18214 10041 Sl
18214 10041 Sm
18294 10039 Sl
18294 10039 Sm
18374 10036 Sl
18374 10036 Sm
18455 10034 Sl
18455 10034 Sm
18535 10043 Sl
18535 10043 Sm
18616 10050 Sl
18616 10050 Sm
18696 10055 Sl
18696 10055 Sm
18776 10059 Sl
18776 10059 Sm
18857 10061 Sl
18857 10061 Sm
18937 10071 Sl
18937 10071 Sm
19017 10081 Sl
19017 10081 Sm
19098 10093 Sl
19098 10093 Sm
19178 10109 Sl
19178 10109 Sm
19259 10128 Sl
19259 10128 Sm
19339 10146 Sl
19339 10146 Sm
19419 10162 Sl
19419 10162 Sm
19500 10176 Sl
19500 10176 Sm
19580 10189 Sl
19580 10189 Sm
19660 10200 Sl
19660 10200 Sm
19741 10214 Sl
19741 10214 Sm
19821 10227 Sl
19821 10227 Sm
19902 10239 Sl
19902 10239 Sm
19982 10252 Sl
19982 10252 Sm
20062 10266 Sl
20062 10266 Sm
20143 10287 Sl
20143 10287 Sm
20223 10308 Sl
20223 10308 Sm
20304 10328 Sl
20304 10328 Sm
20384 10348 Sl
20384 10348 Sm
20464 10370 Sl
20464 10370 Sm
20545 10389 Sl
20545 10389 Sm
20625 10407 Sl
20625 10407 Sm
20705 10424 Sl
20705 10424 Sm
20786 10441 Sl
20786 10441 Sm
20866 10459 Sl
20866 10459 Sm
20947 10476 Sl
20947 10476 Sm
21027 10491 Sl
21027 10491 Sm
21107 10505 Sl
21107 10505 Sm
21188 10517 Sl
21188 10517 Sm
21268 10528 Sl
21268 10528 Sm
21348 10537 Sl
21348 10537 Sm
21429 10546 Sl
21429 10546 Sm
21509 10562 Sl
21509 10562 Sm
21590 10577 Sl
21590 10577 Sm
21670 10589 Sl
21670 10589 Sm
21750 10600 Sl
21750 10600 Sm
21831 10610 Sl
21831 10610 Sm
21911 10622 Sl
21911 10622 Sm
21991 10636 Sl
21991 10636 Sm
22072 10650 Sl
22072 10650 Sm
22152 10666 Sl
22152 10666 Sm
22233 10682 Sl
22233 10682 Sm
22313 10697 Sl
22313 10697 Sm
22393 10710 Sl
22393 10710 Sm
22474 10722 Sl
22474 10722 Sm
22554 10731 Sl
22554 10731 Sm
22634 10740 Sl
22634 10740 Sm
22715 10751 Sl
22715 10751 Sm
22795 10761 Sl
22795 10761 Sm
22876 10770 Sl
22876 10770 Sm
22956 10777 Sl
22956 10777 Sm
23036 10783 Sl
23036 10783 Sm
23117 10792 Sl
23117 10792 Sm
23197 10799 Sl
23197 10799 Sm
23277 10805 Sl
23277 10805 Sm
23358 10809 Sl
23358 10809 Sm
23438 10812 Sl
23438 10812 Sm
23519 10813 Sl
23519 10813 Sm
23599 10813 Sl
23599 10813 Sm
23679 10811 Sl
23679 10811 Sm
23760 10807 Sl
23760 10807 Sm
23840 10802 Sl
23840 10802 Sm
23920 10795 Sl
23920 10795 Sm
24001 10787 Sl
24001 10787 Sm
24081 10777 Sl
24081 10777 Sm
24162 10771 Sl
24162 10771 Sm
24242 10768 Sl
24242 10768 Sm
24322 10763 Sl
24322 10763 Sm
24403 10756 Sl
24403 10756 Sm
24483 10748 Sl
24483 10748 Sm
24563 10741 Sl
24563 10741 Sm
24644 10739 Sl
24644 10739 Sm
24724 10736 Sl
24724 10736 Sm
24805 10731 Sl
24805 10731 Sm
24885 10724 Sl
24885 10724 Sm
24965 10716 Sl
24965 10716 Sm
25046 10707 Sl
25046 10707 Sm
25126 10695 Sl
25126 10695 Sm
25206 10682 Sl
25206 10682 Sm
25287 10668 Sl
25287 10668 Sm
25367 10652 Sl
25367 10652 Sm
25448 10634 Sl
25448 10634 Sm
25528 10615 Sl
25528 10615 Sm
25608 10594 Sl
25608 10594 Sm
25689 10572 Sl
25689 10572 Sm
25769 10548 Sl
25769 10548 Sm
25849 10522 Sl
25849 10522 Sm
25930 10498 Sl
25930 10498 Sm
26010 10474 Sl
26010 10474 Sm
26091 10449 Sl
26091 10449 Sm
26171 10423 Sl
26171 10423 Sm
26251 10400 Sl
26251 10400 Sm
26332 10375 Sl
26332 10375 Sm
26412 10349 Sl
26412 10349 Sm
26492 10330 Sl
26492 10330 Sm
26573 10311 Sl
26573 10311 Sm
26653 10291 Sl
26653 10291 Sm
26734 10269 Sl
26734 10269 Sm
26814 10246 Sl
26814 10246 Sm
26894 10222 Sl
26894 10222 Sm
26975 10196 Sl
26975 10196 Sm
27055 10169 Sl
27055 10169 Sm
27135 10141 Sl
27135 10141 Sm
27216 10111 Sl
27216 10111 Sm
27296 10080 Sl
27296 10080 Sm
27377 10047 Sl
27377 10047 Sm
27457 10014 Sl
27457 10014 Sm
27537 9979 Sl
27537 9979 Sm
27618 9942 Sl
27618 9942 Sm
27698 9904 Sl
27698 9904 Sm
27778 9866 Sl
27778 9866 Sm
27859 9830 Sl
27859 9830 Sm
27939 9793 Sl
27939 9793 Sm
28020 9755 Sl
28020 9755 Sm
28100 9716 Sl
28100 9716 Sm
28180 9676 Sl
28180 9676 Sm
28261 9634 Sl
28261 9634 Sm
28341 9592 Sl
28341 9592 Sm
28421 9553 Sl
28421 9553 Sm
28502 9512 Sl
28502 9512 Sm
28582 9471 Sl
28582 9471 Sm
28663 9442 Sl
28663 9442 Sm
28743 9413 Sl
28743 9413 Sm
28823 9383 Sl
28823 9383 Sm
28904 9352 Sl
28904 9352 Sm
28984 9319 Sl
28984 9319 Sm
29064 9286 Sl
29064 9286 Sm
29145 9253 Sl
29145 9253 Sm
29225 9223 Sl
29225 9223 Sm
29306 9192 Sl
29306 9192 Sm
29386 9159 Sl
29386 9159 Sm
29466 9126 Sl
29466 9126 Sm
29547 9092 Sl
29547 9092 Sm
29627 9057 Sl
29627 9057 Sm
29707 9021 Sl
29707 9021 Sm
29788 8984 Sl
29788 8984 Sm
29868 8946 Sl
29868 8946 Sm
29949 8907 Sl
29949 8907 Sm
30029 8872 Sl
30029 8872 Sm
30109 8836 Sl
30109 8836 Sm
30190 8800 Sl
30190 8800 Sm
30270 8766 Sl
30270 8766 Sm
30350 8732 Sl
30350 8732 Sm
30431 8698 Sl
30431 8698 Sm
30511 8665 Sl
30511 8665 Sm
30592 8633 Sl
30592 8633 Sm
30672 8601 Sl
10150 21662 0
/Helvetica-0 findfont 808 yratio mul scalefont setfont
(Diabetes threshold) stringwidth pop add
2 div xratio div
dup 4 3 roll exch 0.000 cos mul sub 3 1 roll 0.000 sin mul sub 2 copy
/fntsize {/Helvetica-0 findfont exch scalefont setfont } def
0.000 808
(Diabetes threshold) Stxtl
(Diabetes threshold) stringwidth pop xratio div
dup 4 3 roll exch 0.000 cos mul add 3 1 roll 0.000 sin mul add 2 copy
pop pop pop pop
/Slw 0.576 def
/Slrgb {0.000 0.000 0.000} def
3158 6354 3158 22457 Sln
3158 6866 2835 6866 Sln
2431 6866 0
/Helvetica-0 findfont 808 yratio mul scalefont setfont
(0) stringwidth pop add
2 div xratio div
dup 4 3 roll exch 90.000 cos mul sub 3 1 roll 90.000 sin mul sub 2 copy
/fntsize {/Helvetica-0 findfont exch scalefont setfont } def
90.000 808
(0) Stxtl
(0) stringwidth pop xratio div
dup 4 3 roll exch 90.000 cos mul add 3 1 roll 90.000 sin mul add 2 copy
pop pop pop pop
3158 9882 2835 9882 Sln
2431 9882 0
/Helvetica-0 findfont 808 yratio mul scalefont setfont
(.1) stringwidth pop add
2 div xratio div
dup 4 3 roll exch 90.000 cos mul sub 3 1 roll 90.000 sin mul sub 2 copy
/fntsize {/Helvetica-0 findfont exch scalefont setfont } def
90.000 808
(.1) Stxtl
(.1) stringwidth pop xratio div
dup 4 3 roll exch 90.000 cos mul add 3 1 roll 90.000 sin mul add 2 copy
pop pop pop pop
3158 12898 2835 12898 Sln
2431 12898 0
/Helvetica-0 findfont 808 yratio mul scalefont setfont
(.2) stringwidth pop add
2 div xratio div
dup 4 3 roll exch 90.000 cos mul sub 3 1 roll 90.000 sin mul sub 2 copy
/fntsize {/Helvetica-0 findfont exch scalefont setfont } def
90.000 808
(.2) Stxtl
(.2) stringwidth pop xratio div
dup 4 3 roll exch 90.000 cos mul add 3 1 roll 90.000 sin mul add 2 copy
pop pop pop pop
3158 15914 2835 15914 Sln
2431 15914 0
/Helvetica-0 findfont 808 yratio mul scalefont setfont
(.3) stringwidth pop add
2 div xratio div
dup 4 3 roll exch 90.000 cos mul sub 3 1 roll 90.000 sin mul sub 2 copy
/fntsize {/Helvetica-0 findfont exch scalefont setfont } def
90.000 808
(.3) Stxtl
(.3) stringwidth pop xratio div
dup 4 3 roll exch 90.000 cos mul add 3 1 roll 90.000 sin mul add 2 copy
pop pop pop pop
3158 18930 2835 18930 Sln
2431 18930 0
/Helvetica-0 findfont 808 yratio mul scalefont setfont
(.4) stringwidth pop add
2 div xratio div
dup 4 3 roll exch 90.000 cos mul sub 3 1 roll 90.000 sin mul sub 2 copy
/fntsize {/Helvetica-0 findfont exch scalefont setfont } def
90.000 808
(.4) Stxtl
(.4) stringwidth pop xratio div
dup 4 3 roll exch 90.000 cos mul add 3 1 roll 90.000 sin mul add 2 copy
pop pop pop pop
3158 21945 2835 21945 Sln
2431 21945 0
/Helvetica-0 findfont 808 yratio mul scalefont setfont
(.5) stringwidth pop add
2 div xratio div
dup 4 3 roll exch 90.000 cos mul sub 3 1 roll 90.000 sin mul sub 2 copy
/fntsize {/Helvetica-0 findfont exch scalefont setfont } def
90.000 808
(.5) Stxtl
(.5) stringwidth pop xratio div
dup 4 3 roll exch 90.000 cos mul add 3 1 roll 90.000 sin mul add 2 copy
pop pop pop pop
1542 14406 0
/Helvetica-0 findfont 808 yratio mul scalefont setfont
(Density) stringwidth pop add
2 div xratio div
dup 4 3 roll exch 90.000 cos mul sub 3 1 roll 90.000 sin mul sub 2 copy
/fntsize {/Helvetica-0 findfont exch scalefont setfont } def
90.000 808
(Density) Stxtl
(Density) stringwidth pop xratio div
dup 4 3 roll exch 90.000 cos mul add 3 1 roll 90.000 sin mul add 2 copy
pop pop pop pop
3158 6354 31184 6354 Sln
3670 6354 3670 6031 Sln
3670 5303 0
/Helvetica-0 findfont 808 yratio mul scalefont setfont
(4) stringwidth pop add
2 div xratio div
dup 4 3 roll exch 0.000 cos mul sub 3 1 roll 0.000 sin mul sub 2 copy
/fntsize {/Helvetica-0 findfont exch scalefont setfont } def
0.000 808
(4) Stxtl
(4) stringwidth pop xratio div
dup 4 3 roll exch 0.000 cos mul add 3 1 roll 0.000 sin mul add 2 copy
pop pop pop pop
9070 6354 9070 6031 Sln
9070 5303 0
/Helvetica-0 findfont 808 yratio mul scalefont setfont
(6) stringwidth pop add
2 div xratio div
dup 4 3 roll exch 0.000 cos mul sub 3 1 roll 0.000 sin mul sub 2 copy
/fntsize {/Helvetica-0 findfont exch scalefont setfont } def
0.000 808
(6) Stxtl
(6) stringwidth pop xratio div
dup 4 3 roll exch 0.000 cos mul add 3 1 roll 0.000 sin mul add 2 copy
pop pop pop pop
14471 6354 14471 6031 Sln
14471 5303 0
/Helvetica-0 findfont 808 yratio mul scalefont setfont
(8) stringwidth pop add
2 div xratio div
dup 4 3 roll exch 0.000 cos mul sub 3 1 roll 0.000 sin mul sub 2 copy
/fntsize {/Helvetica-0 findfont exch scalefont setfont } def
0.000 808
(8) Stxtl
(8) stringwidth pop xratio div
dup 4 3 roll exch 0.000 cos mul add 3 1 roll 0.000 sin mul add 2 copy
pop pop pop pop
19871 6354 19871 6031 Sln
19871 5303 0
/Helvetica-0 findfont 808 yratio mul scalefont setfont
(10) stringwidth pop add
2 div xratio div
dup 4 3 roll exch 0.000 cos mul sub 3 1 roll 0.000 sin mul sub 2 copy
/fntsize {/Helvetica-0 findfont exch scalefont setfont } def
0.000 808
(10) Stxtl
(10) stringwidth pop xratio div
dup 4 3 roll exch 0.000 cos mul add 3 1 roll 0.000 sin mul add 2 copy
pop pop pop pop
25272 6354 25272 6031 Sln
25272 5303 0
/Helvetica-0 findfont 808 yratio mul scalefont setfont
(12) stringwidth pop add
2 div xratio div
dup 4 3 roll exch 0.000 cos mul sub 3 1 roll 0.000 sin mul sub 2 copy
/fntsize {/Helvetica-0 findfont exch scalefont setfont } def
0.000 808
(12) Stxtl
(12) stringwidth pop xratio div
dup 4 3 roll exch 0.000 cos mul add 3 1 roll 0.000 sin mul add 2 copy
pop pop pop pop
30672 6354 30672 6031 Sln
30672 5303 0
/Helvetica-0 findfont 808 yratio mul scalefont setfont
(14) stringwidth pop add
2 div xratio div
dup 4 3 roll exch 0.000 cos mul sub 3 1 roll 0.000 sin mul sub 2 copy
/fntsize {/Helvetica-0 findfont exch scalefont setfont } def
0.000 808
(14) Stxtl
(14) stringwidth pop xratio div
dup 4 3 roll exch 0.000 cos mul add 3 1 roll 0.000 sin mul add 2 copy
pop pop pop pop
17171 4414 0
/Helvetica-0 findfont 808 yratio mul scalefont setfont
(HbA1c) stringwidth pop add
2 div xratio div
dup 4 3 roll exch 0.000 cos mul sub 3 1 roll 0.000 sin mul sub 2 copy
/fntsize {/Helvetica-0 findfont exch scalefont setfont } def
0.000 808
(HbA1c) Stxtl
(HbA1c) stringwidth pop xratio div
dup 4 3 roll exch 0.000 cos mul add 3 1 roll 0.000 sin mul add 2 copy
pop pop pop pop
7490 1094 26852 3731 1 Srect
/Slw 0.864 def
/Slrgb {0.102 0.278 0.435} def
7839 2978 10864 2978 Sln
/Slrgb {0.565 0.208 0.231} def
7839 1847 10864 1847 Sln
11349 2695 2 copy
/fntsize {/Helvetica-0 findfont exch scalefont setfont } def
0.000 808
(Assumed to not have diabetes diagnosis) Stxtl
(Assumed to not have diabetes diagnosis) stringwidth pop xratio div
dup 4 3 roll exch 0.000 cos mul add 3 1 roll 0.000 sin mul add 2 copy
pop pop pop pop
11349 1564 2 copy
/fntsize {/Helvetica-0 findfont exch scalefont setfont } def
0.000 808
(Assumed to have diabetes diagnosis) Stxtl
(Assumed to have diabetes diagnosis) stringwidth pop xratio div
dup 4 3 roll exch 0.000 cos mul add 3 1 roll 0.000 sin mul add 2 copy
pop pop pop pop
S showpage
%%EOF
